Class_2_Relax_eyes_open/Class_2_Relax_eyes_open_Suko_4.csv

#Digilent WaveForms Oscilloscope Acquisition
#Device Name: EExplorer
#Serial Number: SN:210151A2B84A
#Date Time: 2020-12-15 14:11:21.059
#Sample rate: 2000Hz
#Samples: 16384
#Trigger: Source: Channel 1 Type: Edge Condition: Rising Level: 0 V Hyst.: Auto HoldOff: 0 s
#Channel 1: Range: 1 V/div Offset: 0 V Attenuation: 1 X
#Channel 2: Range: 1 V/div Offset: 0 V Attenuation: 1 X
#Power Supplies: ON
#Fixed Supply: ON
#Voltage: 3.3 V Readback: 3.327 V
#Positive Supply: ON
#Voltage: 3.7 V Readback: 3.718 V
#Current: 40 mA Readback: 18 mA
#Negative Supply: ON
#Voltage: -3.7 V Readback: -3.348 V
#Current: -40 mA Readback: -6 mA
#Reference 1: ON
#Voltage: 0 V
#Reference 2: ON
#Voltage: 0 V

Time (s),Channel 1 (V),Channel 2 (V)
-4.096,-1.447729919872945,1.178316820663898
-4.0955,-1.842526389606843,1.326669758336108
-4.095,-1.052933450137872,1.061753798206565
-4.0945,-0.156638762093345,0.5213252395435176
-4.094,0.4195506802209936,-0.09327978795563452
-4.0935,0.6542945270905552,-0.5065486857578679
-4.093,0.6756348768059011,-0.6654982618352349
-4.0925,0.5902734779445175,-0.6654982618352349
-4.092,0.4729015545099406,-0.5489352393783449
-4.0915,0.4835717293676135,-0.4959520473525559
-4.091,0.6222840025174878,-0.570128516188728
-4.0905,0.5689331282289678,-0.4111789401109948
-4.09,0.4515612047945656,-0.1674562567923655
-4.0895,0.3341892813600565,0.06566978812131802
-4.089,0.2701682322140189,0.2352160026038427
-4.0885,0.5475927785137094,0.5213252395435176
-4.088,0.7609962756673623,0.92399749893988
-4.0875,0.01408403563025662,1.284283204715245
-4.087,-0.9248913518471162,1.485619334413792
-4.0865,-1.607782542738184,1.528005888034424
-4.086,-1.479740444446109,1.051157159802323
-4.0855,-0.9355615267036924,0.3093924714396196
-4.085,-0.4020527838200457,-0.2946159176543747
-4.0845,-0.03926683865916586,-0.6443049850245819
-4.084,0.1741366584948945,-0.7714646458868899
-4.0835,0.2594980573562781,-0.7502713690765743
-4.083,0.2701682322139607,-0.6549016234300674
-4.0825,0.2594980573562393,-0.5171453241627463
-4.082,0.2168173579255475,-0.3581957480853793
-4.0815,0.1741366584948169,-0.1780528951975329
-4.081,0.152796308779471,0.01268659609530737
-4.0805,0.02475421048725994,0.2670059178194992
-4.08,-0.5514352318276028,0.7226613692416989
-4.0795,-1.287677297007035,1.157123543853168
-4.079,-1.757164990745304,1.400846227172261
-4.0785,-1.277007122150022,1.231300012689736
-4.078,-0.4233931335361873,0.7226613692421615
-4.0775,0.2274875327835212,-0.008506680715403354
-4.077,0.5475927785137094,-0.6125150698093976
-4.0765,0.632954177375093,-0.8456411147228692
-4.076,0.57960330308667,-0.845641114723033
-4.0755,0.4835717293676135,-0.792657922697244
-4.075,0.4195506802215176,-0.718481453861072
-4.0745,0.6116138276598245,-0.8350444763177981
-4.074,0.6329541773751706,-0.7078848154559045
-4.0735,0.5155822539406614,-0.4323722169215513
-4.073,0.3875401556485862,-0.135666341577133
-4.0725,0.291508581929326,0.1080563417419877
-4.072,0.3661998059331045,0.2776025562246667
-4.0715,0.8250173248130408,0.3517790250607712
-4.071,0.472901554509106,0.6908714540264856
-4.0705,-0.4340633083930936,1.00877060618122
-4.07,-1.25566677243391,1.146526905448271
-4.0695,-1.565101843307095,1.072350436611723
-4.069,-1.170305373573196,0.5213252395435176
-4.0685,-0.6367966306890638,-0.06148987274069118
-4.068,-0.1886492866661406,-0.4641621321372271
-4.0675,0.08877525963335578,-0.6549016234300674
-4.067,0.2274875327832301,-0.6866915386455698
-4.0665,0.2701682322139607,-0.6337083466196265
-4.066,0.2701682322139607,-0.5171453241628908
-4.0655,0.2381577076409128,-0.3793890248957141
-4.065,0.195477008210221,-0.2204394488183472
-4.0645,0.1741366584948169,-0.05089323433552374
-4.064,0.1101156093487211,0.1822328105781598
-4.0635,-0.3487019095312152,0.5955017083793137
-4.063,-1.10628432442776,1.051157159802188
-4.0625,-1.83185621474952,1.37965295036208
-4.062,-1.885207089037884,1.369056311956922
-4.0615,-1.020922925564911,0.8604176685082008
-4.061,-0.2206598112394408,0.1186529801471552
-4.0605,0.3021787567870086,-0.5277419625680583
-4.06,0.5582629533714212,-0.8986243067490436
-4.0595,0.5902734779444399,-1.036380606016095
-4.059,0.5369226036560266,-0.9939940523954253
-4.0585,0.4408910299369703,-0.8456411147232161
-4.058,0.5049120790829789,-0.5595318777835605
-4.0575,0.5369226036560266,-0.3052125560595421
-4.057,0.4622313796523161,-0.1462629799821752
-4.0565,0.3661998059331045,-0.008506680714854012
-4.056,0.291508581929326,0.1080563417419877
-4.0555,0.280838407071653,0.2458126410090391
-4.055,0.6969752265212857,0.3305857482507352
-4.0545,0.7183155762366316,0.5849050699745222
-4.054,-0.1352984123772033,0.9451907757498872
-4.0535,-1.031593100423817,1.061753798207086
-4.053,-1.575772018165136,1.093543713422559
-4.0525,-1.330357996438436,0.6484849004055269
-4.052,-0.7861790786961743,0.08686306493125774
-4.0515,-0.2953510352432193,-0.3475991096802118
-4.051,0.03542438534494258,-0.570128516188728
-4.0505,0.2061471830677096,-0.6231117082145169
-4.05,0.2701682322139607,-0.5807251545938954
-4.0495,0.2808384070716433,-0.474758770542221
-4.049,0.2488278824986245,-0.3370024712751697
-4.0485,0.2061471830678454,-0.1886495336025558
-4.048,0.1848068333524996,-0.02969995752518888
-4.0475,0.1527963087794807,0.1610395337676515
-4.047,-0.1352984123786105,0.5213252395439224
-4.0465,-0.8288597781273515,0.9663840525605498
-4.046,-1.575772018164457,1.326669758335915
-4.0455,-1.949228138183291,1.432636142387734
-4.045,-1.138294849000148,1.231300012689736
-4.0445,-0.2633405106701714,0.5955017083796896
-4.044,0.3341892813602992,-0.1674562567928281
-4.0435,0.6009436528021226,-0.6760949002404023
-4.043,0.6329541773751706,-0.8880276683437509
-4.0425,0.5796033030868059,-0.9198175835592244
-4.042,0.4835717293676135,-0.8668343915334161
-4.0415,0.4729015545099309,-0.8562377531282487
-4.041,0.5689331282289872,-0.8986243067488798
-4.0405,0.5155822539405643,-0.707884815455654
-4.04,0.408880505363835,-0.4323722169215513
-4.0395,0.3235191065024515,-0.1674562567926064
-4.039,0.2701682322142033,0.05507314971610239
-4.0385,0.5369226036560266,0.002089957690313421
-4.038,0.9637295979629443,-0.3475991096798938
-4.0375,0.3768699807899331,-0.06148987274023821
-4.037,-0.5621054066852853,0.4365521323021782
-4.0365,-1.341028171296118,0.8816109453192104
-4.036,-1.362368521011076,0.7756445612670734
-4.0355,-0.9142211769888124,0.2670059178194992
-4.035,-0.423393133535411,-0.1992461720078678
-4.0345,-0.04993701351685825,-0.5065486857574439
-4.034,0.1634664836371343,-0.6337083466197325
-4.0335,0.2488278824985954,-0.6443049850249
-4.033,0.2701682322139413,-0.5807251545939532
-4.0325,0.259498057356249,-0.4747587705420958
-4.032,0.2274875327832301,-0.3370024712750445
-4.0315,0.1954770082102113,-0.1886495336028353
-4.031,0.174136658494681,-0.0296999575249383
-4.0305,0.02475421048725994,0.2458126410091644
-4.03,-0.5834457564000974,0.7120647308361074
-4.0295,-1.341028171296691,1.157123543853795
-4.029,-1.970568487899394,1.411442865577582
-4.0285,-1.458400094730627,1.263089927905238
-4.028,-0.5621054066846642,0.5955017083790246
-4.0275,0.1207857842064037,-0.1356663415768632
-4.027,0.5049120790829789,-0.6654982618352349
-4.0265,0.622284002517381,-0.9198175835590219
-4.026,0.5689331282290746,-0.9833974139902578
-4.0255,0.4622313796522482,-0.9304142219644207
-4.025,0.4088805053638835,-0.8350444763180005
-4.0245,0.5796033030867768,-0.9198175835591087
-4.024,0.6009436528021226,-0.7608680074817418
-4.0235,0.4942419042253932,-0.4641621321373234
-4.023,0.3768699807907094,-0.1674562567921342
-4.0225,0.291508581929326,0.08686306493165288
-4.022,0.3875401556483824,0.1610395337677575
-4.0215,0.8463576745284837,-0.1780528951974269
-4.021,0.4729015545099309,-0.06148987274069118
-4.0205,-0.4660738329661415,0.457745409112513
-4.02,-1.309017646723255,0.9557874141554112
-4.0195,-1.51175096901904,0.9875773293708847
-4.019,-1.074273799854052,0.4789386859228479
-4.0185,-0.5407650569704053,-0.0826831495505152
-4.018,-0.124628237520297,-0.474758770542221
-4.0175,0.1207857842064037,-0.6760949002404023
-4.017,0.238157707640806,-0.7290780922661912
-4.0165,0.2808384070716336,-0.686691538645483
-4.016,0.2701682322139607,-0.5913217929990628
-4.0155,0.2381577076409419,-0.4641621321371693
-4.015,0.2061471830678357,-0.3158091944645554
-4.0145,0.1741366584948169,-0.1462629799820306
-4.014,0.09944543449110636,0.07626642652628307
-4.0135,-0.4127229586784076,0.5213252395439706
-4.013,-1.159635198715513,1.019367244586387
-4.0125,-1.885207089037933,1.358459673551745
-4.012,-1.831856214748646,1.369056311956459
-4.0115,-0.8715404775580819,0.8710143069140429
-4.011,-0.06060718837420119,0.1080563417419877
-4.0105,0.4302208550787539,-0.5383386009726377
-4.01,0.6222840025174878,-0.8986243067489184
-4.0095,0.6222840025174878,-1.004590690800593
-4.009,0.5369226036561042,-0.9198175835593303
-4.0085,0.4302208550793459,-0.7396747306714551
-4.008,0.5902734779444399,-0.792657922697244
-4.0075,0.6863050516634964,-0.7396747306714551
-4.007,0.5902734779443137,-0.4747587705419319
-4.0065,0.4515612047945656,-0.1568596183871981
-4.006,0.3448594562177392,0.1186529801471552
-4.0055,0.3235191065028203,0.2987958330347799
-4.005,0.8143471499557753,0.05507314971615059
-4.0045,0.8676980242441885,-0.09327978795619347
-4.004,-0.007256314086680799,0.3093924714405448
-4.0035,-0.9889124009925911,0.7226613692416989
-4.003,-1.490410619303675,0.92399749893988
-4.0025,-1.202315898146506,0.5425185163541995
-4.002,-0.690147504977477,-0.008506680714854012
-4.0015,-0.2313299860971235,-0.4535654937318862
-4.001,0.06743490991771878,-0.7078848154556732
-4.0005,0.216817357925596,-0.8032545611024018
-4,0.2701682322139607,-0.792657922697244
-3.9995,0.2808384070716433,-0.7290780922662394
-3.999,0.2488278824985954,-0.6125150698093976
-3.9985,0.2168173579255475,-0.474758770542221
-3.998,0.1741366584948169,-0.3158091944647096
-3.9975,0.1527963087794516,-0.1144730647665284
-3.997,-0.1993194615240755,0.2881991946298341
-3.9965,-0.9248913518464952,0.8286277532933731
-3.996,-1.661133417026597,1.25249328950007
-3.9955,-2.055929886760855,1.358459673551745
-3.995,-1.234326422719292,1.00877060618122
-3.9945,-0.3380317346739499,0.457745409112513
-3.994,0.291508581929326,-0.1462629799820306
-3.9935,0.6116138276598051,-0.5383386009732256
-3.993,0.6649647019482183,-0.7290780922662394
-3.9925,0.6009436528021226,-0.7078848154559045
-3.992,0.4942419042252961,-0.5807251545938954
-3.9915,0.5049120790829789,-0.3793890248957141
-3.991,0.6222840025174878,-0.1356663415768632
-3.9905,0.5689331282290746,-0.01910331912002144
-3.99,0.4515612047945656,0.04447651131098315
-3.9895,0.3448594562177392,0.1080563417419877
-3.989,0.2808384070716433,0.1610395337678249
-3.9885,0.5262524287983441,-0.008506680714854012
-3.988,0.79300680024041,-0.1144730647665284
-3.9875,0.08877525963335578,0.3199891098453364
-3.987,-0.7861790786966207,0.7650479228623686
-3.9865,-1.46907026958831,1.114736990232894
-3.986,-1.437059745015262,0.92399749893988
-3.9855,-0.9355615267041777,0.3305857482505039
-3.985,-0.4127229586777283,-0.2204394488182027
-3.9845,-0.03926683865883591,-0.570128516188728
-3.984,0.1741366584948169,-0.718481453861072
-3.9835,0.2594980573562781,-0.7290780922662394
-3.983,0.2808384070716433,-0.6654982618352349
-3.9825,0.2701682322139607,-0.5383386009732256
-3.982,0.2274875327832301,-0.3793890248957141
-3.9815,0.1954770082101822,-0.2204394488182027
-3.981,0.1634664836371343,-0.02969995752518888
-3.9805,0.02475421048725994,0.2458126410091644
-3.98,-0.5941159312583333,0.7332580076468663
-3.9795,-1.362368521011484,1.167720182258731
-3.979,-2.002579012472442,1.411442865577582
-3.9785,-1.522421143876723,1.157123543853563
-3.978,-0.6047861061160158,0.4789386859228479
-3.9775,0.1101156093487211,-0.1886495336027004
-3.977,0.4729015545099309,-0.6337083466197325
-3.9765,0.5796033030867573,-0.8774310299385835
-3.976,0.5582629533713921,-0.9198175835592532
-3.9755,0.4835717293676135,-0.8562377531282487
-3.975,0.4302208550792003,-0.7714646458869092
-3.9745,0.5902734779444399,-0.8668343915334161
-3.974,0.6009436528021226,-0.7396747306714069
-3.9735,0.4942419042252961,-0.4641621321370536
-3.973,0.3768699807907871,-0.1780528951975329
-3.9725,0.291508581929326,0.06566978812131802
-3.972,0.3875401556484697,0.2987958330350016
-3.9715,0.7823366253827275,0.5319218779486851
-3.971,0.3021787567870086,0.9134008605347127
-3.9705,-0.6261264558313813,1.146526905448396
-3.97,-1.415719395299897,0.4683420475176805
-3.9695,-1.575772018165136,-0.2098428104130352
-3.969,-1.1062843244271,-0.474758770542221
-3.9685,-0.5621054066852853,-0.5277419625680583
-3.968,-0.124628237520297,-0.474758770542221
-3.9675,0.1314559590640864,-0.3793890248957141
-3.967,0.2594980573562781,-0.3052125560595421
-3.9665,0.291508581929326,-0.2416327256285375
-3.966,0.2808384070716433,-0.1992461720078678
-3.9655,0.2488278824985954,-0.1674562567923655
-3.965,0.2061471830678648,-0.1250697031716958
-3.9645,0.1848068333524996,-0.08268314955102604
-3.964,0.1314559590640864,0.01268659609548085
-3.9635,-0.3166913849585846,0.3941655786815084
-3.963,-1.06360362499637,0.8922075837243778
-3.9625,-1.799845690176472,1.25249328950007
-3.962,-1.767835165603424,1.263089927905238
-3.9615,-0.8608703027003992,0.7968378380778709
-3.961,-0.08194753808956648,0.07626642652648545
-3.9605,0.3982103305061524,-0.5807251545938954
-3.96,0.6009436528021226,-1.004590690800593
-3.9595,0.6116138276598051,-1.195330182093607
-3.959,0.5262524287983441,-1.195330182093607
-3.9585,0.4195506802215176,-1.078767159636765
-3.958,0.5155822539406614,-1.068170521231597
-3.9575,0.5796033030867573,-0.9833974139902578
-3.957,0.5049120790829789,-0.718481453861072
-3.9565,0.3982103305061524,-0.4111789401112165
-3.956,0.3128489316446912,-0.1250697031716958
-3.9555,0.3128489316446912,0.1080563417419877
-3.955,0.7396559259519968,0.1186529801471552
-3.9545,0.6863050516635838,0.3517790250608387
-3.954,-0.1886492866663929,0.8180311148882058
-3.9535,-1.116954499284783,1.210106735879401
-3.953,-1.501080794161358,1.273686566310405
-3.9525,-1.159635198715513,0.7544512844572011
-3.952,-0.6261264558313813,0.1504428953626575
-3.9515,-0.1886492866663929,-0.2734226408440398
-3.951,0.08877525963335578,-0.4853554089473885
-3.9505,0.2381577076409128,-0.5277419625680583
-3.95,0.2808384070716433,-0.4641621321370536
-3.9495,0.2808384070716433,-0.3475991096802118
-3.949,0.2594980573562781,-0.1992461720078678
-3.9485,0.2274875327832301,-0.04029659593035631
-3.948,0.1848068333524996,0.1292496185523226
-3.9475,0.1634664836371343,0.309392471440169
-3.947,-0.124628237520297,0.6378882620003594
-3.9465,-0.8288597781273515,1.051157159801889
-3.946,-1.575772018165136,1.369056311956912
-3.9455,-1.991908837614759,1.464426057603419
-3.945,-1.212986073003927,1.051157159801889
-3.9445,-0.3487019095316325,0.2458126410091644
-3.944,0.2701682322139607,-0.4853554089473885
-3.9435,0.5582629533713921,-0.9833974139902578
-3.943,0.6116138276598051,-1.195330182093607
-3.9425,0.5475927785137094,-1.195330182093607
-3.942,0.4408910299368829,-1.05757388282643
-3.9415,0.4729015545099309,-0.9622041371799229
-3.941,0.6436243522328531,-0.9622041371799229
-3.9405,0.6009436528021226,-0.7502713690765743
-3.94,0.4835717293676135,-0.4641621321370536
-3.9395,0.3661998059331045,-0.1780528951975329
-3.939,0.3021787567870086,0.04447651131098315
-3.9385,0.6116138276598051,0.01268659609548085
-3.938,0.8356874996711408,-0.2204394488182027
-3.9375,0.08877525963335578,0.13984625695749
-3.937,-0.8715404775580819,0.6060983467848571
-3.9365,-1.543761493592088,0.9663840525605498
-3.936,-1.394379045584531,0.7544512844572011
-3.9355,-0.8608703027003992,0.2352160026039969
-3.935,-0.3487019095316325,-0.2310360872233701
-3.9345,0.00341386077189465,-0.5065486857577234
-3.934,0.1954770082101822,-0.6231117082145651
-3.9335,0.2808384070716433,-0.6125150698093976
-3.933,0.291508581929326,-0.5383386009732256
-3.9325,0.2808384070716433,-0.4323722169215513
-3.932,0.2381577076409128,-0.2946159176543747
-3.9315,0.1954770082101822,-0.1462629799820306
-3.931,0.1634664836371343,0.04447651131098315
-3.9305,0.01408403562957729,0.309392471440169
-3.93,-0.6047861061160158,0.7650479228623686
-3.9295,-1.362368521011484,1.188913459069066
-3.929,-2.023919362187807,1.432636142387917
-3.9285,-1.597112367880501,1.33726639674141
-3.928,-0.6474668055467465,0.8286277532933731
-3.9275,0.09944543449103843,0.08686306493165288
-3.927,0.5262524287983441,-0.5489352393783931
-3.9265,0.6436243522328531,-0.8880276683437509
-3.926,0.6009436528021226,-1.004590690800593
-3.9255,0.4942419042252961,-0.9728007755850904
-3.925,0.4302208550792003,-0.8668343915334161
-3.9245,0.6116138276598051,-0.9198175835592532
-3.924,0.6222840025174878,-0.7608680074817418
-3.9235,0.5155822539406614,-0.4641621321370536
-3.923,0.3982103305061524,-0.1674562567923655
-3.9225,0.3128489316446912,0.07626642652648545
-3.922,0.408880505363835,0.2458126410091644
-3.9215,0.8143471499557753,0.3199891098453364
-3.921,0.3448594562177392,0.6802748156210291
-3.9205,-0.6047861061160158,0.9451907757502149
-3.92,-1.405049220442214,0.9028042221295453
-3.9195,-1.554431668449771,0.7332580076468663
-3.919,-1.074273799854052,0.2458126410091644
-3.9185,-0.5300948821122373,-0.2098428104130352
-3.918,-0.1032878878049318,-0.4959520473525559
-3.9175,0.142126133921769,-0.6231117082145651
-3.917,0.2701682322139607,-0.6231117082145651
-3.9165,0.3021787567870086,-0.5489352393783931
-3.916,0.291508581929326,-0.4535654937318862
-3.9155,0.2594980573562781,-0.326405832869877
-3.915,0.2168173579255475,-0.1780528951975329
-3.9145,0.1848068333524996,0.002089957690313421
-3.914,0.1207857842064037,0.2246193641988295
-3.9135,-0.3700422592469978,0.6166949851900245
-3.913,-1.127624674142465,1.061753798207057
-3.9125,-1.853196564464885,1.37965295036208
-3.912,-1.970568487899394,1.33726639674141
-3.9115,-1.138294849000148,0.7332580076468663
-3.911,-0.3273615598162672,-0.08268314955102604
-3.9105,0.2488278824985954,-0.6972881770507372
-3.91,0.5262524287983441,-1.046977244421262
-3.9095,0.5902734779444399,-1.110557074852267
-3.909,0.5475927785137094,-1.025783967610927
-3.9085,0.4622313796522482,-0.8774310299385835
-3.908,0.5475927785137094,-0.5807251545938954
-3.9075,0.5902734779444399,-0.3687923864905467
-3.907,0.5049120790829789,-0.2840192792492073
-3.9065,0.3982103305061524,-0.2098428104130352
-3.906,0.3128489316446912,-0.1144730647665284
-3.9055,0.3128489316446912,0.01268659609548085
-3.905,0.7396559259519968,-0.1780528951975329
-3.9045,0.6436243522328531,-0.2946159176543747
-3.904,-0.2313299860971235,0.1610395337678249
-3.9035,-1.074273799854052,0.6696781772158616
-3.903,-1.650463242168915,1.051157159801889
-3.9025,-1.437059745015262,0.8392243916985406
-3.902,-0.8608703027003992,0.309392471440169
-3.9015,-0.3380317346739499,-0.1356663415768632
-3.901,0.02475421048725994,-0.400582301706049
-3.9005,0.2168173579255475,-0.4959520473525559
-3.9,0.291508581929326,-0.4641621321370536
-3.8995,0.3021787567870086,-0.3793890248957141
-3.899,0.2808384070716433,-0.252229364033705
-3.8985,0.2381577076409128,-0.09327978795619347
-3.898,0.2061471830678648,0.06566978812131802
-3.8975,0.1741366584948169,0.2458126410091644
-3.897,-0.124628237520297,0.5743084315693548
-3.8965,-0.839529952985034,0.9981739677760521
-3.896,-1.586442193022819,1.347863035146577
-3.8955,-2.013249187330125,1.443232780793084
-3.895,-1.277007122150022,1.125333628638062
-3.8945,-0.391382608962363,0.3411823866556712
-3.894,0.2488278824985954,-0.3793890248957141
-3.8935,0.5582629533713921,-0.8244478379127463
-3.893,0.6329541773751706,-1.01518732920576
-3.8925,0.5902734779444399,-1.05757388282643
-3.892,0.5049120790829789,-0.9728007755850904
-3.8915,0.5049120790829789,-0.9304142219644207
-3.891,0.6329541773751706,-0.9516074987747555
-3.8905,0.5796033030867573,-0.7290780922662394
-3.89,0.4622313796522482,-0.4323722169215513
-3.8895,0.3661998059331045,-0.1568596183871981
-3.889,0.3021787567870086,0.05507314971615059
-3.8885,0.5582629533713921,-0.07208651114585861
-3.888,0.8676980242441885,-0.4217755785163839
-3.8875,0.1954770082101822,-0.09327978795619347
-3.887,-0.722158029550525,0.4047622170866759
