Class_2_Relax_eyes_open/Class_2_Relax_eyes_open_Suko_9.csv

#Digilent WaveForms Oscilloscope Acquisition
#Device Name: EExplorer
#Serial Number: SN:210151A2B84A
#Date Time: 2021-01-28 10:03:40.123
#Sample rate: 2000Hz
#Samples: 16384
#Trigger: Source: Channel 1 Type: Edge Condition: Rising Level: 0 V Hyst.: Auto HoldOff: 0 s
#Channel 1: Range: 1 V/div Offset: 0 V Attenuation: 1 X
#Channel 2: Range: 1 V/div Offset: 0 V Attenuation: 1 X
#Power Supplies: ON
#Fixed Supply: ON
#Voltage: 3.3 V Readback: 3.325 V
#Positive Supply: ON
#Voltage: 3.7 V Readback: 3.718 V
#Current: 40 mA Readback: 21 mA
#Negative Supply: ON
#Voltage: -3.7 V Readback: -3.356 V
#Current: -40 mA Readback: -9 mA
#Reference 1: ON
#Voltage: 0 V
#Reference 2: ON
#Voltage: 0 V

Time (s),Channel 1 (V),Channel 2 (V)
-4.096,-1.1062843244271,-0.9410108603695881
-4.0955,-0.946231701562006,-1.004590690800535
-4.095,-0.5834457564003303,-0.9728007755850615
-4.0945,-0.2313299860971235,-0.9410108603695881
-4.094,0.03542438534469994,-0.9304142219644304
-4.0935,0.1527963087794322,-0.9728007755850711
-4.093,0.1314559590640864,-0.9516074987747555
-4.0925,0.05676473506037578,-0.8456411147231776
-4.092,-0.01792648894350944,-0.7078848154557503
-4.0915,-0.06060718837420119,-0.5383386009732256
-4.091,0.2488278824985954,-0.07208651114585861
-4.0905,1.049090996825512,0.7650479228630624
-4.09,1.838683936293309,1.528005888034424
-4.0895,2.318841804889028,2.026047893077293
-4.089,1.625280439140287,2.068434446697924
-4.0885,0.1848068333524996,1.178316820663898
-4.088,-0.690147504977477,-0.01910331912002144
-4.0875,-0.8502001278425712,-0.8986243067481186
-4.087,-0.7008176798349462,-1.301296566145319
-4.0865,-0.4660738329661415,-1.34368311976595
-4.086,-0.2846808603857016,-1.163540266878268
-4.0855,-0.1673089369509791,-0.9304142219642568
-4.085,-0.1139580626626144,-0.7502713690765743
-4.0845,-0.1566387620933061,-0.612515069809523
-4.084,-0.3273615598165099,-0.5171453241628715
-4.0835,-0.5941159312583333,-0.4959520473525559
-4.083,-1.052933450138687,-0.4323722169215513
-4.0825,-1.223656247860745,0.1504428953634381
-4.082,-0.274010685527854,1.00877060618122
-4.0815,0.9530594231056497,1.739938656137773
-4.081,1.689301488285083,1.983661339456402
-4.0805,1.006410297394063,1.146526905448396
-4.08,-0.09261771294724913,0.09745970333682032
-4.0795,-0.6047861061155499,-0.4853554089468585
-4.079,-0.6047861061158412,-0.8244478379128909
-4.0785,-0.4127229586777283,-0.9833974139902578
-4.078,-0.1886492866665967,-0.9939940523954156
-4.0775,-0.007256314085642421,-1.004590690800621
-4.077,0.1527963087794516,-1.036380606016095
-4.0765,0.2168173579254893,-1.004590690800621
-4.076,0.1527963087793643,-0.8456411147228982
-4.0755,0.05676473506030786,-0.6443049850249
-4.075,-0.02859666380115328,-0.4217755785163839
-4.0745,0.09944543449165952,-0.07208651114518398
-4.074,0.7823366253827275,0.6696781772158616
-4.0735,1.614610264281974,1.443232780793084
-4.073,2.233480406027004,2.004854616266448
-4.0725,1.966726034585501,2.047241169887628
-4.072,0.5902734779444399,1.231300012689736
-4.0715,-0.5407650569688913,0.065669788122378
-4.071,-0.8608703027003118,-0.803254561102768
-4.0705,-0.7648387289812555,-1.195330182093607
-4.07,-0.5407650569701239,-1.174136905283291
-4.0695,-0.3380317346738237,-0.8880276683434233
-4.069,-0.1993194615240755,-0.5277419625680583
-4.0685,-0.124628237520297,-0.2946159176543747
-4.068,-0.1352984123780961,-0.2416327256285665
-4.0675,-0.2633405106701714,-0.2734226408440398
-4.067,-0.4660738329661415,-0.3370024712750445
-4.0665,-0.7861790786969118,-0.4323722169213393
-4.066,-1.1062843244271,-0.1992461720078678
-4.0655,-0.4447334832507763,0.5425185163538525
-4.065,0.7289857510932467,1.358459673551003
-4.0645,1.657290963712704,1.856501678594614
-4.064,1.305175193409177,1.316073119931075
-4.0635,0.1101156093498079,0.2140227257946643
-4.063,-0.5834457564007379,-0.4535654937321079
-4.0625,-0.6794773301197943,-0.6972881770507372
-4.062,-0.4980843575393545,-0.8032545611023151
-4.0615,-0.2740106855276502,-0.8880276683437894
-4.061,-0.04993701351651855,-0.9304142219644207
-4.0605,0.1101156093487211,-0.9092209451540858
-4.06,0.259498057356249,-0.7184814538610141
-4.0595,0.2274875327832301,-0.6549016234300674
-4.059,0.1101156093487211,-0.6549016234300674
-4.0585,0.01408403562966463,-0.6125150698094362
-4.058,-0.01792648894347063,-0.4535654937318862
-4.0575,0.4408910299368829,0.1504428953626575
-4.057,1.273164668835372,0.9875773293701233
-4.0565,2.009406734016231,1.697552102517103
-4.056,2.137448832308423,2.100224361913465
-4.0555,0.9743997728220728,2.004854616267045
-4.055,-0.5300948821132854,0.9557874141543126
-4.0545,-1.682473766741963,-0.2204394488182027
-4.054,-1.959898313041459,-0.9728007755844061
-4.0535,-1.490410619303171,-1.216523458903855
-4.053,-0.9355615267041777,-1.121153713257435
-4.0525,-0.4980843575391895,-0.8456411147230812
-4.052,-0.2313299860970167,-0.591321792998899
-4.0515,-0.1139580626626144,-0.4111789401112165
-4.051,-0.1673089369510276,-0.2840192792492073
-4.0505,-0.3593720843891405,-0.2416327256285761
-4.05,-0.7008176798351597,-0.2628260024388724
-4.0495,-1.234326422719292,-0.1886495336027004
-4.049,-0.9995825758504872,0.309392471439716
-4.0485,0.1421261339228268,1.104140351828324
-4.048,1.305175193409177,1.761131932948107
-4.0475,1.539919040277982,1.633972272086214
-4.047,0.6649647019475488,0.6484849004047558
-4.0465,-0.07127736323188383,-0.1992461720078678
-4.046,-0.3487019095313802,-0.7184814538605997
-4.0455,-0.338031734673814,-0.9728007755851192
-4.045,-0.1886492866663929,-1.004590690800593
-4.0445,-0.06060718837420119,-1.01518732920576
-4.044,0.03542438534510756,-1.025783967610754
-4.0435,0.2168173579255475,-0.8350444763179138
-4.043,0.2701682322139607,-0.6866915386455698
-4.0425,0.1741366584949043,-0.6443049850249385
-4.042,0.05676473506030786,-0.5807251545938954
-4.0415,-0.02859666380115328,-0.4429688553267188
-4.041,0.270168232213689,0.04447651131053981
-4.0405,1.059761171683194,0.8604176685095501
-4.04,1.849354111150991,1.602182356870596
-4.0395,2.286831280315582,2.089627723507855
-4.039,1.721312012857626,2.23798066118015
-4.0385,0.4302208550792003,1.697552102517103
-4.038,-0.4127229586769618,0.5213252395445873
-4.0375,-0.6367966306890056,-0.4535654937323488
-4.037,-0.572775581542968,-0.9622041371799229
-4.0365,-0.423393133535411,-1.025783967610927
-4.036,-0.2846808603854493,-0.8244478379125054
-4.0355,-0.1886492866663929,-0.5595318777835605
-4.035,-0.1352984123779797,-0.3581957480853793
-4.0345,-0.1779791118086714,-0.2204394488183279
-4.034,-0.3593720843893152,-0.1462629799820306
-4.0335,-0.6154562809736985,-0.1462629799820306
-4.033,-1.042263275280616,-0.1462629799820306
-4.0325,-1.127624674141573,0.1186529801478105
-4.032,-0.1459685872356623,0.8392243916985406
-4.0315,1.049090996823707,1.570392441654428
-4.031,1.657290963711947,1.739938656136953
-4.0305,0.825017324813458,0.8392243916985406
-4.03,-0.4127229586766026,-0.2840192792481856
-4.0295,-0.9569018764194946,-0.86683439153358
-4.029,-0.9035510021311299,-1.046977244421262
-4.0285,-0.6367966306890638,-1.089363798041932
-4.028,-0.3593720843891114,-1.078767159636745
-4.0275,-0.1352984123779797,-1.05757388282643
-4.027,0.1314559590640864,-0.9622041371799229
-4.0265,0.3235191065021992,-0.8350444763180295
-4.026,0.2701682322139607,-0.8032545611024114
-4.0255,0.142126133921769,-0.7714646458869092
-4.025,0.01408403562969376,-0.676094900240489
-4.0245,0.06743490991853396,-0.4111789401105997
-4.024,0.6649647019482183,0.2670059178194992
-4.0235,1.486568165989035,1.114736990232123
-4.023,2.137448832308161,1.782325209758731
-4.0225,1.849354111150991,2.100224361913465
-4.022,0.4729015545111828,1.602182356871049
-4.0215,-0.9569018764205136,0.4153588554909181
-4.021,-2.023919362187807,-0.6019184314042303
-4.0205,-2.19464215991073,-1.142346990067769
-4.02,-1.565101843306891,-1.24831337411928
-4.0195,-0.9462317015618604,-1.068170521231597
-4.019,-0.4874141826815069,-0.8032545611024114
-4.0185,-0.2099896363820105,-0.57012851618894
-4.018,-0.1352984123779797,-0.3899856633008816
-4.0175,-0.2846808603855366,-0.2840192792492073
-4.017,-0.4980843575389954,-0.2522293640337339
-4.0165,-0.8608703027007292,-0.2522293640333773
-4.016,-1.223656247861609,0.1080563417419877
-4.0155,-0.4980843575398495,0.8816109453185068
-4.015,0.707645401379803,1.623375633681268
-4.0145,1.646620788855021,1.994257977861791
-4.014,1.251824319121123,1.305476481526534
-4.0135,-0.03926683865992282,0.07626642652553133
-4.013,-1.234326422719292,-0.9728007755850904
-4.0125,-1.629122892453549,-1.38606967338662
-4.012,-1.24499659757646,-1.301296566145069
-4.0115,-0.6794773301197943,-1.068170521231597
-4.011,-0.1779791118087102,-0.8986243067489184
-4.0105,0.120785784206132,-0.7502713690767092
-4.01,0.2168173579255475,-0.5277419625680583
-4.0095,0.1527963087794516,-0.5489352393783931
-4.009,0.0567647350603952,-0.6443049850248133
-4.0085,-0.02859666380112416,-0.6972881770506312
-4.008,0.00341386077189465,-0.5807251545938954
-4.0075,0.5796033030862333,0.07626642652588789
-4.007,1.433217291701999,0.9345941373456835
-4.0065,2.12677865745074,1.633972272086098
-4.006,2.222810231169884,2.036644531482461
-4.0055,1.038420821965723,1.623375633679871
-4.005,-0.4874141826815069,0.457745409112513
-4.0045,-1.618452717595867,-0.6125150698093976
-4.004,-1.799845690176074,-1.195330182093722
-4.0035,-1.362368521011484,-1.322489842955616
-4.003,-0.839529952985034,-1.152943628472937
-4.0025,-0.4447334832511353,-0.8986243067491497
-4.002,-0.2099896363817582,-0.6760949002404023
-4.0015,-0.1139580626626144,-0.5065486857577234
-4.001,-0.1993194615239979,-0.3899856633009876
-4.0005,-0.4233931335357409,-0.3475991096802215
-4,-0.7861790786966207,-0.3581957480853793
-3.9995,-1.30901764672307,-0.1144730647665284
-3.999,-1.031593100423322,0.6590815388106942
-3.9985,0.142126133921769,1.464426057603419
-3.998,1.305175193409177,2.004854616266958
-3.9975,1.497238340847464,1.686955464111935
-3.997,0.4408910299368829,0.5213252395435176
-3.9965,-0.5087545323968721,-0.4323722169215513
-3.996,-0.839529952985034,-0.8986243067489184
-3.9955,-0.7328282044082075,-1.089363798041932
-3.995,-0.4660738329661415,-1.131750351662602
-3.9945,-0.2099896363817582,-1.142346990067769
-3.994,-0.01792648894347063,-1.131750351662602
-3.9935,0.1634664836371343,-1.0999604364471
-3.993,0.1954770082101822,-1.01518732920576
-3.9925,0.1207857842064037,-0.8880276683437509
-3.992,0.02475421048725994,-0.718481453861072
-3.9915,-0.02859666380115328,-0.5065486857577234
-3.991,0.3341892813600565,0.04447651131098315
-3.9905,1.145122570543937,0.8922075837243778
-3.99,1.902704985439405,1.644568910491266
-3.9895,2.329511979746711,2.132014277128968
-3.989,1.56125938999356,2.110821000318633
-3.9885,0.07810508477567314,1.082947075017392
-3.988,-0.7968492535543035,-0.07208651114585861
-3.9875,-0.9248913518464952,-0.8244478379127463
-3.987,-0.7434983792658902,-1.089363798041932
-3.9865,-0.4980843575391895,-1.004590690800593
-3.986,-0.2953510352432193,-0.7714646458869092
-3.9855,-0.1779791118087102,-0.5383386009732256
-3.985,-0.124628237520297,-0.400582301706049
-3.9845,-0.1886492866663929,-0.3052125560595421
-3.984,-0.391382608962363,-0.2734226408440398
-3.9835,-0.6367966306890638,-0.3052125560595421
-3.983,-1.042263275281004,-0.2840192792492073
-3.9825,-1.052933450138687,0.1822328105781598
-3.982,-0.03926683865883591,0.9981739677760521
-3.9815,1.145122570543937,1.70814874092227
-3.981,1.699971663143435,1.803518486568777
-3.9805,0.8463576745288233,0.8286277532933731
-3.98,-0.3807124341046804,-0.2840192792492073
-3.9795,-0.8928808272734472,-0.8562377531282487
-3.979,-0.839529952985034,-1.025783967610927
-3.9785,-0.5514352318276028,-1.025783967610927
-3.978,-0.2526703358124887,-1.01518732920576
-3.9775,0.00341386077189465,-1.01518732920576
-3.977,0.2594980573562781,-0.9833974139902578
-3.9765,0.3982103305061524,-0.9622041371799229
-3.976,0.3021787567870086,-0.9092209451540858
-3.9755,0.1527963087794516,-0.8244478379127463
-3.975,0.01408403562957729,-0.6866915386455698
-3.9745,0.1634664836371343,-0.2946159176543747
-3.974,0.8783681991018712,0.5319218779486851
-3.9735,1.689301488285752,1.369056311956912
-3.973,2.254820755742932,1.973064701051456
-3.9725,1.828013761435626,1.941274785835954
-3.972,0.3875401556484697,1.019367244586387
-3.9715,-0.7755089038389382,-0.1144730647665284
-3.971,-1.06360362499637,-0.8668343915334161
-3.9705,-0.8928808272734472,-1.152943628472937
-3.97,-0.6154562809736985,-1.046977244421262
-3.9695,-0.3700422592469978,-0.7290780922662394
-3.969,-0.2099896363817582,-0.3687923864905467
-3.9685,-0.1352984123779797,-0.1568596183871981
-3.968,-0.1459685872356623,-0.09327978795619347
-3.9675,-0.2633405106701714,-0.1144730647665284
-3.967,-0.4340633083930936,-0.1992461720078678
-3.9665,-0.8181896032696687,-0.2734226408440398
-3.966,-1.202315898146244,0.1504428953626575
-3.9655,-0.4660738329661415,0.9557874141553824
-3.965,0.7289857510943143,1.676358825706768
-3.9645,1.603940089424291,1.962468062646288
-3.964,1.134452395686255,1.199510097474233
-3.9635,0.05676473506030786,0.1080563417419877
-3.963,-0.4980843575391895,-0.5171453241628908
-3.9625,-0.5407650569699201,-0.8244478379127463
-3.962,-0.3593720843893152,-0.9516074987747555
-3.9615,-0.156638762093345,-1.01518732920576
-3.961,0.01408403562957729,-1.05757388282643
-3.9605,0.142126133921769,-0.9833974139902578
-3.96,0.2808384070716433,-0.6972881770507372
-3.9595,0.2274875327832301,-0.5913217929990628
-3.959,0.1101156093487211,-0.5595318777835605
-3.9585,0.00341386077189465,-0.4959520473525559
-3.958,0.00341386077189465,-0.3052125560595421
-3.9575,0.5049120790829789,0.309392471440169
-3.957,1.337185717982225,1.125333628638062
-3.9565,2.041417258589279,1.803518486568777
-3.956,2.137448832308423,2.015451254672126
-3.9555,0.9530594231056497,1.210106735879401
-3.955,-0.5621054066852853,0.04447651131098315
-3.9545,-1.725154466172693,-0.8138511995075789
-3.954,-1.991908837614759,-1.184733543688439
-3.9535,-1.51175096901904,-1.142346990067769
-3.953,-0.9462317015618604,-0.8880276683437509
-3.9525,-0.4980843575391895,-0.5913217929990628
-3.952,-0.2313299860971235,-0.3793890248957141
-3.9515,-0.1139580626626144,-0.2628260024388724
-3.951,-0.156638762093345,-0.2098428104130352
-3.9505,-0.3166913849585846,-0.2310360872233701
-3.95,-0.6474668055467465,-0.3052125560595421
-3.9495,-1.170305373573196,-0.1250697031716958
-3.949,-0.839529952985034,0.5637117931641874
-3.9485,0.3021787567870086,1.358459673551745
-3.948,1.411876941986003,1.909484870620451
-3.9475,1.497238340847464,1.528005888034424
-3.947,0.3661998059331045,0.3729723018711736
-3.9465,-0.6367966306890638,-0.5489352393783931
-3.946,-0.8928808272734472,-0.9622041371799229
-3.9455,-0.7328282044082075,-1.089363798041932
-3.945,-0.4340633083930936,-1.152943628472937
-3.9445,-0.156638762093345,-1.174136905283272
-3.944,0.01408403562957729,-1.068170521231597
-3.9435,0.1954770082101822,-0.7502713690765743
-3.943,0.2061471830678648,-0.5807251545938954
-3.9425,0.1207857842064037,-0.5595318777835605
-3.942,0.02475421048725994,-0.5595318777835605
-3.9415,-0.02859666380115328,-0.474758770542221
-3.941,0.3235191065023739,0.002089957690313421
-3.9405,1.134452395686255,0.8286277532933731
-3.94,1.902704985439405,1.591585718465428
-3.9395,2.254820755742932,2.089627723508298
-3.939,1.369196242555273,2.301560491611646
-3.9385,-0.08194753808956648,1.739938656137773
-3.938,-0.8608703027003992,0.5319218779486851
-3.9375,-0.9355615267041777,-0.4853554089473885
-3.937,-0.722158029550525,-1.004590690800593
-3.9365,-0.4767440078238243,-1.05757388282643
-3.936,-0.2846808603855366,-0.8244478379127463
-3.9355,-0.1673089369510276,-0.5277419625680583
-3.935,-0.124628237520297,-0.3370024712750445
-3.9345,-0.1779791118087102,-0.2416327256285375
-3.934,-0.3593720843893152,-0.1992461720078678
-3.9335,-0.6367966306890638,-0.2204394488182027
-3.933,-1.138294849000148,-0.1992461720078678
-3.9325,-1.180975548430879,0.1928294489833272
-3.932,-0.156638762093345,0.9663840525605498
-3.9315,1.059761171682476,1.676358825706768
-3.931,1.56125938999356,1.75053529454294
-3.9305,0.6756348768059011,0.7968378380778709
-3.93,-0.3487019095316325,-0.1568596183871981
-3.9295,-0.722158029550525,-0.5913217929990628
-3.929,-0.658136980404429,-0.7608680074817418
-3.9285,-0.4127229586777283,-0.8562377531282487
-3.928,-0.1886492866663929,-0.9410108603695881
-3.9275,-0.007256314085787988,-0.9516074987747555
-3.927,0.142126133921769,-0.8138511995075789
-3.9265,0.1848068333524996,-0.6760949002404023
-3.926,0.1101156093487211,-0.6654982618352349
-3.9255,0.02475421048725994,-0.6443049850249
-3.925,-0.04993701351651855,-0.5489352393783931
-3.9245,0.1207857842064037,-0.2098428104130352
-3.924,0.8463576745288233,0.5743084315693548
-3.9235,1.657290963712704,1.390249588767247
-3.923,2.233480406027567,1.973064701051456
-3.9225,1.774662887147213,2.20619074596514
-3.922,0.3235191065023739,1.580989080060261
-3.9215,-1.06360362499637,0.3517790250608387
-3.921,-1.906547438753298,-0.6443049850249
-3.9205,-1.789175515318789,-1.152943628472937
-3.92,-1.244996597576974,-1.227120097309109
-3.9195,-0.7328282044082075,-1.046977244421262
-3.919,-0.3700422592469978,-0.7820612842920766
-3.9185,-0.1673089369510276,-0.5489352393783931
-3.918,-0.1352984123779797,-0.3793890248957141
-3.9175,-0.2526703358124887,-0.2628260024388724
-3.917,-0.4980843575391895,-0.2204394488182027
-3.9165,-0.839529952985034,-0.2204394488182027
-3.916,-1.095614149569417,0.2352160026039969
-3.9155,-0.2953510352432193,1.019367244586387
-3.915,0.8783681991018712,1.718745379327438
-3.9145,1.7213120128588,2.036644531482461
-3.914,1.273164668836129,1.369056311956912
-3.9135,0.02475421048725994,0.1610395337678249
-3.913,-0.7968492535543035,-0.6337083466197325
-3.9125,-0.9035510021311299,-0.8668343915334161
-3.912,-0.658136980404429,-0.9939940523954253
-3.9115,-0.3487019095316325,-1.036380606016095
-3.911,-0.07127736323188383,-1.025783967610927
-3.9105,0.08877525963335578,-0.9516074987747555
-3.91,0.09944543449103843,-0.7396747306714069
-3.9095,0.04609456020262521,-0.6972881770507372
-3.909,-0.01792648894347063,-0.6866915386455698
-3.9085,-0.07127736323188383,-0.6231117082145651
-3.908,0.01408403562957729,-0.3899856633008816
-3.9075,0.6436243522328531,0.3411823866556712
-3.907,1.486568165989782,1.188913459069066
-3.9065,2.158789182023788,1.856501678594614
-3.906,2.030747083731597,2.195594107559972
-3.9055,0.7183155762366316,2.386333598852986
-3.905,-0.7755089038389382,2.439316790878823
-3.9045,-1.949228138184029,1.729342017732605
-3.904,-2.322684258202921,0.4683420475176805
-3.9035,-1.714484291315011,-0.4641621321370536
-3.903,-1.052933450138687,-0.8986243067489184
-3.9025,-0.5514352318276028,-0.9516074987747555
-3.902,-0.2420001609548061,-0.8456411147230812
-3.9015,-0.1139580626626144,-0.6760949002404023
-3.901,-0.1779791118087102,-0.474758770542221
-3.9005,-0.3700422592469978,-0.3158091944647096
-3.9,-0.6794773301197943,-0.2098428104130352
-3.8995,-1.116954499284783,0.13984625695749
-3.899,-0.6474668055467465,0.849821030103708
-3.8985,0.5049120790829789,1.580989080060261
-3.898,1.529248865420512,2.047241169887628
-3.8975,1.401206767128321,1.528005888034424
-3.897,0.2061471830678648,0.3199891098453364
-3.8965,-0.690147504977477,-0.5277419625680583
-3.896,-0.8288597781273515,-0.8562377531282487
-3.8955,-0.6154562809736985,-0.9198175835592532
-3.895,-0.3487019095316325,-0.8986243067489184
-3.8945,-0.124628237520297,-0.8986243067489184
-3.894,0.04609456020262521,-0.9198175835592532
-3.8935,0.2168173579255475,-0.6972881770507372
-3.893,0.2168173579255475,-0.5807251545938954
-3.8925,0.1207857842064037,-0.5383386009732256
-3.892,0.02475421048725994,-0.474758770542221
-3.8915,-0.02859666380115328,-0.326405832869877
-3.891,0.3768699807907871,0.2246193641988295
-3.8905,1.19847344483235,1.029963882991555
-3.89,1.956055859727818,1.739938656137773
-3.8895,2.265490930600615,2.153207553939303
-3.889,1.337185717982225,2.259173937990977
-3.8885,-0.08194753808956648,1.475022696008586
-3.888,-0.7968492535543035,0.2458126410091644
-3.8875,-0.8715404775580819,-0.7078848154559045
-3.887,-0.6794773301197943,-1.163540266878104
