Class_2_Relax_eyes_open/Class_2_Relax_eyes_open_UZ_7.csv

#Digilent WaveForms Oscilloscope Acquisition
#Device Name: EExplorer
#Serial Number: SN:210151A2B84A
#Date Time: 2020-12-14 13:25:35.044
#Sample rate: 2000Hz
#Samples: 16384
#Trigger: Source: Channel 1 Type: Edge Condition: Rising Level: 0 V Hyst.: Auto HoldOff: 0 s
#Channel 1: Range: 1 V/div Offset: 0 V Attenuation: 1 X
#Channel 2: Range: 1 V/div Offset: 0 V Attenuation: 1 X
#Power Supplies: ON
#Fixed Supply: ON
#Voltage: 3.3 V Readback: 3.331 V
#Positive Supply: ON
#Voltage: 3.7 V Readback: 3.716 V
#Current: 40 mA Readback: 19 mA
#Negative Supply: ON
#Voltage: -3.7 V Readback: -3.348 V
#Current: -40 mA Readback: -9 mA
#Reference 1: ON
#Voltage: 0 V
#Reference 2: ON
#Voltage: 0 V

Time (s),Channel 1 (V),Channel 2 (V)
-4.096,0.1207857842064037,0.2140227257936621
-4.0955,0.1848068333524413,0.372972301871029
-4.095,0.334189281360241,0.4047622170866373
-4.0945,0.5369226036560266,0.3623756634660061
-4.094,0.8997085488169065,0.4895353243278997
-4.0935,0.7503261008092914,0.9239974989401691
-4.093,0.3235191065023739,1.241896651094903
-4.0925,0.4515612047944491,0.627291623595751
-4.092,0.8570278493867486,-0.3370024712755553
-4.0915,1.123782220828572,-0.8986243067489184
-4.091,1.091771696255524,-0.9092209451540858
-4.0905,0.8676980242439362,-0.6443049850246205
-4.09,0.5902734779444399,-0.3370024712750445
-4.0895,0.3448594562177392,-0.07208651114585861
-4.089,0.1101156093489346,0.1186529801469817
-4.0885,-0.2099896363817582,0.2034260873884947
-4.088,-0.2953510352432193,0.1504428953626575
-4.0875,-0.2526703358125275,0.09745970333686851
-4.087,-0.1673089369509597,0.04447651131095424
-4.0865,-0.09261771294724913,0.01268659609548085
-4.086,-0.1352984123779409,0.2246193641986368
-4.0855,-0.188649286666849,0.7544512844576541
-4.085,-0.690147504977477,1.25249328950007
-4.0845,-1.31968782158018,1.623375633680593
-4.084,-1.810515865033931,1.782325209758038
-4.0835,-1.565101843307454,1.33726639674141
-4.083,-0.9995825758502737,0.6484849004055269
-4.0825,-0.4980843575388693,0.1186529801469046
-4.082,-0.1459685872356623,-0.1568596183871981
-4.0815,0.03542438534494258,-0.2416327256285375
-4.081,0.1101156093486531,-0.1780528951975908
-4.0805,0.1207857842064037,-0.05089323433552374
-4.08,0.09944543449103843,0.1080563417419877
-4.0795,0.08877525963336548,0.2458126410090391
-4.079,0.1634664836372022,0.3199891098453846
-4.0785,0.2381577076409128,0.3729723018711736
-4.078,0.3235191065022962,0.3411823866557002
-4.0775,0.7930068002404197,-0.1038764263617175
-4.077,0.8036769750980928,-0.4959520473525559
-4.0765,0.2168173579260813,-0.08268314955140194
-4.076,-0.2206598112391982,0.1928294489828742
-4.0755,0.04609456020262521,-0.3052125560595421
-4.075,0.5155822539406614,-0.7714646458869092
-4.0745,0.8356874996711989,-0.8244478379126307
-4.074,0.8997085488172365,-0.6972881770507372
-4.0735,0.7503261008096795,-0.5383386009732256
-4.073,0.504912079083202,-0.4323722169216477
-4.0725,0.2701682322139607,-0.3052125560595421
-4.072,-0.07127736323188383,-0.07208651114585861
-4.0715,-0.2313299860969779,-0.04029659593038522
-4.071,-0.2526703358124499,-0.1356663415769403
-4.0705,-0.2099896363817582,-0.2204394488182027
-4.07,-0.1459685872357206,-0.2946159176543072
-4.0695,-0.2099896363821949,-0.18864953360218
-4.069,-0.690147504977477,0.383568940276341
-4.0685,-1.351698346153801,1.061753798207057
-4.068,-1.874536914180599,1.538602526439774
-4.0675,-2.258663209056825,1.739938656137773
-4.067,-1.991908837614759,1.549199164844759
-4.0665,-1.255666772434094,0.966384052560068
-4.066,-0.6367966306890638,0.4365521323021782
-4.0655,-0.2099896363817582,0.13984625695749
-4.065,0.02475421048704643,0.05507314971622769
-4.0645,0.1207857842064037,0.1186529801471552
-4.064,0.142126133921769,0.2564092794143318
-4.0635,0.1207857842064231,0.4153588554916988
-4.063,0.1207857842064619,0.553115154759097
-4.0625,0.1848068333524996,0.6378882620003594
-4.062,0.2488278824985372,0.6378882620003594
-4.0615,0.3555296310758488,0.531921877948261
-4.061,0.825017324813458,0.06566978812131802
-4.0605,1.305175193409177,-0.4111789401112165
-4.06,0.9210488985319322,-0.05089323433501295
-4.0595,0.1848068333524996,0.5107286011383502
-4.059,0.142126133921769,0.13984625695749
-4.0585,0.5155822539403216,-0.7184814538602915
-4.058,0.825017324813458,-1.258910012524611
-4.0575,0.9103787236749192,-1.38606967338662
-4.057,0.782336625382844,-1.2906999277402
-4.0565,0.5475927785137094,-1.0999604364471
-4.056,0.3235191065023739,-0.9198175835592532
-4.0555,-0.007256314085487159,-0.7290780922664128
-4.055,-0.2420001609548158,-0.5277419625679716
-4.0545,-0.2526703358124887,-0.4323722169215513
-4.054,-0.1886492866664511,-0.3687923864906046
-4.0535,-0.1139580626626144,-0.2946159176542397
-4.053,-0.1139580626626144,-0.1462629799820306
-4.0525,-0.6154562809736985,0.3623756634660061
-4.052,-1.287677297008025,0.9769806909661317
-4.0515,-1.639793067311232,1.432636142387917
-4.051,-1.799845690176472,1.644568910491266
-4.0505,-1.565101843307667,1.43263614238811
-4.05,-0.9995825758502737,0.8922075837243778
-4.0495,-0.4980843575391895,0.4365521323021782
-4.049,-0.1459685872359826,0.2140227257938645
-4.0485,0.03542438534501051,0.1822328105782561
-4.048,0.1101156093487211,0.2881991946298341
-4.0475,0.120785784206394,0.4577454091123588
-4.047,0.1101156093487017,0.637888262000504
-4.0465,0.08877525963335578,0.7968378380778709
-4.046,0.1421261339217205,0.8710143069139754
-4.0455,0.2381577076410098,0.8498210301036117
-4.045,0.3448594562177392,0.7438546460520338
-4.0445,0.5582629533713921,0.4789386859228479
-4.044,1.10244187111374,-0.1462629799826378
-4.0435,1.689301488285752,-0.8138511995075789
-4.043,1.56125938999356,-1.025783967610927
-4.0425,1.177133095117334,-1.089363798041874
-4.042,1.166462920259302,-1.258910012524611
-4.0415,1.19847344483235,-1.205926820498774
-4.041,1.081101521397948,-0.9092209451543556
-4.0405,0.8250173248132154,-0.5913217929989086
-4.04,0.5582629533713921,-0.4217755785163839
-4.0395,0.3448594562179332,-0.3581957480854371
-4.039,0.1314559590638826,-0.4111789401113321
-4.0385,-0.09261771294724913,-0.5383386009732256
-4.038,-0.1352984123779409,-0.676094900240277
-4.0375,-0.124628237520297,-0.7820612842921441
-4.037,-0.124628237520297,-0.8562377531282487
-4.0365,-0.1139580626626144,-0.8880276683437509
-4.036,-0.209989636381729,-0.5277419625673933
-4.0355,-0.1779791118087102,0.2034260873884947
-4.035,-0.6794773301197943,0.8922075837243778
-4.0345,-1.24499659757646,1.294879843120374
-4.034,-1.618452717595867,1.432636142387917
-4.0335,-1.351698346153801,0.9981739677760521
-4.033,-0.8502001278431728,0.4153588554923734
-4.0325,-0.4020527838197837,0.00208995769015922
-4.032,-0.1139580626626144,-0.1674562567923655
-4.0315,0.04609456020247965,-0.1356663415768921
-4.031,0.09944543449104813,0.01268659609566397
-4.0305,0.1101156093487211,0.2140227257936621
-4.03,0.09944543449104813,0.425955493896818
-4.0295,0.1421261339218369,0.5849050699746089
-4.029,0.2168173579255475,0.6802748156210291
-4.0285,0.291508581929326,0.701468092431364
-4.028,0.4302208550796661,0.5849050699740981
-4.0275,0.942389248247967,0.1186529801471552
-4.027,1.091771696255524,-0.3475991096802118
-4.0265,0.739655925952317,-0.135666341577056
-4.026,0.8997085488172365,-0.2204394488182027
-4.0255,1.219813794547716,-0.6443049850249
-4.025,1.411876941985829,-0.9198175835590027
-4.0245,1.369196242555069,-0.8350444763176343
-4.024,1.145122570543937,-0.5277419625680583
-4.0235,0.8036769750984033,-0.2628260024391133
-4.023,0.4835717293673903,-0.1038764263613513
-4.0225,0.2381577076409128,-0.09327978795619347
-4.022,0.02475421048745402,-0.1462629799819825
-4.0215,-0.07127736323191294,-0.2734226408441748
-4.021,-0.1032878878049318,-0.4217755785163839
-4.0205,-0.09261771294724913,-0.570128516188728
-4.02,-0.07127736323199058,-0.6972881770506408
-4.0195,-0.1886492866663929,-0.5913217929990628
-4.019,-0.5407650569699201,0.01268659609548085
-4.0185,-1.074273799853567,0.6166949851894752
-4.018,-1.565101843307454,1.00877060618122
-4.0175,-1.927887788468663,1.231300012689736
-4.017,-1.639793067311494,0.9345941373453173
-4.0165,-1.042263275280529,0.3411823866552375
-4.016,-0.5194247072545548,-0.1356663415768632
-4.0155,-0.1566387620936749,-0.3687923864903347
-4.015,0.02475421048732787,-0.400582301705943
-4.0145,0.09944543449103843,-0.2840192792492073
-4.014,0.1101156093487114,-0.08268314955120915
-4.0135,0.09944543449104813,0.1398462569576731
-4.013,0.1101156093487211,0.3411823866556712
-4.0125,0.1741366584948169,0.4789386859228479
-4.012,0.2594980573563557,0.5531151547590296
-4.0115,0.3448594562177392,0.5637117931641874
-4.011,0.7609962756673623,0.2352160026039969
-4.0105,1.177133095116607,-0.1568596183868415
-4.01,0.5796033030867573,0.1716361721729923
-4.0095,-0.07127736323188383,0.4047622170866759
-4.009,0.0887752596332102,-0.2310360872227918
-4.0085,0.5796033030870484,-0.9622041371801542
-4.008,0.8997085488172365,-1.216523458903942
-4.0075,0.9530594231056012,-1.068170521231732
-4.007,0.7823366253825044,-0.72907809226596
-4.0065,0.5369226036560266,-0.4217755785163839
-4.006,0.291508581929326,-0.2098428104130352
-4.0055,0.003413860771739378,0.0550731497162566
-4.005,-0.1673089369510276,0.1716361721729923
-4.0045,-0.1779791118087102,0.1080563417419877
-4.004,-0.1352984123779506,0.01268659609540375
-4.0035,-0.1032878878049318,-0.07208651114585861
-4.003,-0.1886492866663929,-0.04029659593035631
-4.0025,-0.7008176798346939,0.4259554938965866
-4.002,-1.26633694729234,0.9769806909657173
-4.0015,-1.767835165603424,1.411442865577582
-4.001,-2.280003558771725,1.697552102516843
-4.0005,-2.055929886760186,1.538602526439013
-4,-1.319687821580753,0.9028042221295453
-3.9995,-0.6794773301197943,0.309392471440169
-3.999,-0.2313299860971235,-0.05089323433552374
-3.9985,0.01408403562957729,-0.1886495336027004
-3.998,0.1101156093487211,-0.1568596183871981
-3.9975,0.1314559590640864,-0.01910331912002144
-3.997,0.1101156093487211,0.13984625695749
-3.9965,0.09944543449103843,0.309392471440169
-3.996,0.1527963087794516,0.4153588554918433
-3.9955,0.2488278824985954,0.457745409112513
-3.995,0.3448594562177392,0.4259554938970107
-3.9945,0.5369226036560266,0.2670059178194992
-3.994,1.113112045970889,-0.2310360872233701
-3.9935,1.507908515705147,-0.792657922697244
-3.993,1.145122570543937,-0.8456411147230812
-3.9925,0.9210488985326017,-0.9728007755850904
-3.992,1.102441871113207,-1.184733543688439
-3.9915,1.241154144263081,-1.142346990067769
-3.991,1.177133095116985,-0.7820612842920766
-3.9905,0.9103787236749192,-0.3581957480853793
-3.99,0.6116138276598051,-0.06148987274069118
-3.9895,0.3555296310754218,0.05507314971615059
-3.989,0.1101156093487211,0.08686306493165288
-3.9885,-0.1352984123779797,0.06566978812131802
-3.988,-0.1886492866663929,-0.1144730647665284
-3.9875,-0.1673089369510276,-0.3370024712750445
-3.987,-0.1139580626626144,-0.5383386009732256
-3.9865,-0.124628237520297,-0.6549016234300674
-3.986,-0.3273615598162672,-0.3370024712750445
-3.9855,-0.5087545323968721,0.309392471440169
-3.985,-0.8608703027003992,0.8604176685088755
-3.9845,-1.287677297007705,1.231300012689736
-3.984,-1.415719395299897,1.146526905448396
-3.9835,-1.052933450138687,0.5637117931641874
-3.983,-0.6047861061160158,-0.008506680714854012
-3.9825,-0.2526703358124887,-0.3581957480853793
-3.982,-0.03926683865883591,-0.4853554089473885
-3.9815,0.05676473506030786,-0.4323722169215513
-3.981,0.08877525963335578,-0.2734226408440398
-3.9805,0.08877525963335578,-0.06148987274069118
-3.98,0.0674349099179905,0.1504428953626575
-3.9795,0.07810508477567314,0.3411823866556712
-3.979,0.142126133921769,0.457745409112513
-3.9785,0.2274875327832301,0.5107286011383502
-3.978,0.3875401556484697,0.4365521323021782
-3.9775,0.9530594231056497,-0.008506680714854012
-3.977,1.102441871113207,-0.3581957480853793
-3.9765,0.5689331282290746,0.02328323450064829
-3.976,0.3982103305061524,0.002089957690313421
-3.9755,0.7609962756673623,-0.6549016234300674
-3.975,1.091771696255524,-1.131750351662602
-3.9745,1.166462920259302,-1.078767159636765
-3.974,0.9850699476786977,-0.7714646458869092
-3.9735,0.6863050516635838,-0.4641621321370536
-3.973,0.3982103305061524,-0.252229364033705
-3.9725,0.1527963087794516,-0.1356663415768632
-3.972,-0.1993194615240755,-0.1038764263613609
-3.9715,-0.3060212101009019,-0.08268314955102604
-3.971,-0.274010685527854,-0.08268314955102604
-3.9705,-0.2099896363817582,-0.1144730647665284
-3.97,-0.1459685872356623,-0.1568596183871981
-3.9695,-0.1993194615240755,-0.05089323433552374
-3.969,-0.3166913849585846,0.4259554938970107
-3.9685,-0.7114878546928423,0.9663840525605498
-3.968,-1.255666772434657,1.358459673551745
-3.9675,-1.693143941599645,1.538602526439591
-3.967,-1.51175096901904,1.146526905448396
-3.9665,-0.9889124009925911,0.5001319627331828
-3.966,-0.5087545323968721,-0.01910331912002144
-3.9655,-0.1673089369510276,-0.3052125560595421
-3.965,0.01408403562957729,-0.3687923864905467
-3.9645,0.08877525963335578,-0.2946159176543747
-3.964,0.09944543449103843,-0.1356663415768632
-3.9635,0.08877525963335578,0.04447651131098315
-3.963,0.1101156093487211,0.2034260873884947
-3.9625,0.2168173579255475,0.2987958330350016
-3.962,0.3021787567870086,0.3623756634660061
-3.9615,0.4729015545099309,0.2458126410091644
-3.961,1.102441871113207,-0.2840192792492073
-3.9605,1.539919040278195,-0.8138511995075789
-3.96,1.113112045970889,-0.7396747306714069
-3.9595,0.5796033030867573,-0.2628260024388724
-3.959,0.6116138276598051,-0.3899856633008816
-3.9585,0.8890383739595538,-0.6654982618352349
-3.958,1.038420821967111,-0.6231117082145651
-3.9575,0.9957401225363802,-0.4111789401112165
-3.957,0.7716664505250448,-0.1780528951975329
-3.9565,0.5049120790829789,-0.02969995752518888
-3.956,0.2808384070716433,0.02328323450064829
-3.9555,-0.03926683865883591,-0.09327978795619347
-3.955,-0.2420001609548061,-0.2098428104130352
-3.9545,-0.2526703358124887,-0.3158091944647096
-3.954,-0.1779791118087102,-0.4111789401112165
-3.9535,-0.1139580626626144,-0.5065486857577234
-3.953,-0.1459685872356623,-0.4959520473525559
-3.9525,-0.2206598112394408,-0.02969995752518888
-3.952,-0.5194247072545548,0.6378882620003594
-3.9515,-1.084943974711735,1.135930267043229
-3.951,-1.639793067311232,1.475022696008586
-3.9505,-1.67180359188428,1.305476481525908
-3.95,-1.180975548430879,0.6802748156210291
-3.9495,-0.658136980404429,0.08686306493165288
-3.949,-0.2633405106701714,-0.2734226408440398
-3.9485,-0.02859666380115328,-0.400582301706049
-3.948,0.0674349099179905,-0.3581957480853793
-3.9475,0.09944543449103843,-0.2098428104130352
-3.947,0.08877525963335578,-0.02969995752518888
-3.9465,0.08877525963335578,0.1610395337678249
-3.946,0.1527963087794516,0.2987958330350016
-3.9455,0.2488278824985954,0.3729723018711736
-3.945,0.3128489316446912,0.4047622170866759
-3.9445,0.6009436528021226,0.2034260873884947
-3.944,1.145122570543937,-0.2946159176543747
-3.9435,0.825017324813458,-0.3581957480853793
-3.943,0.5475927785137094,0.2140227257936621
-3.9425,0.8356874996711408,0.1292496185523226
-3.942,1.145122570543937,-0.6231117082145651
-3.9415,1.251824319120764,-1.174136905283272
-3.941,1.145122570543937,-1.290699927740113
-3.9405,0.8997085488172365,-1.121153713257435
-3.94,0.5902734779444399,-0.8562377531282487
-3.9395,0.3235191065023739,-0.6019184314042303
-3.939,0.0674349099179905,-0.4323722169215513
-3.9385,-0.156638762093345,-0.3475991096802118
-3.938,-0.1886492866663929,-0.2734226408440398
-3.9375,-0.156638762093345,-0.2204394488182027
-3.937,-0.1032878878049318,-0.1462629799820306
-3.9365,-0.1032878878049318,-0.01910331912002144
-3.936,-0.5407650569699201,0.3941655786815084
-3.9355,-1.26633694729234,0.9663840525605498
-3.935,-1.970568487899394,1.464426057603419
-3.9345,-2.493407055925843,1.782325209758442
-3.934,-2.312014083345239,1.697552102517103
-3.9335,-1.46907026958831,1.114736990232894
-3.933,-0.7648387289812555,0.5213252395435176
-3.9325,-0.274010685527854,0.1610395337678249
-3.932,-0.007256314085787988,0.02328323450064829
-3.9315,0.09944543449103843,0.06566978812131802
-3.931,0.1207857842064037,0.1928294489833272
-3.9305,0.09944543449103843,0.3517790250608387
-3.93,0.08877525963335578,0.5107286011383502
-3.9295,0.1207857842064037,0.6060983467848571
-3.929,0.1954770082101822,0.6484849004055269
-3.9285,0.2701682322139607,0.6166949851900245
-3.928,0.4195506802215176,0.4471487707073456
-3.9275,0.9850699476786977,-0.1356663415768632
-3.927,0.9637295979633325,-0.5595318777835605
-3.9265,0.1207857842064037,-0.1144730647665284
-3.926,-0.2420001609548061,0.1292496185523226
-3.9255,0.1207857842064037,-0.474758770542221
-3.925,0.5689331282290746,-1.05757388282643
-3.9245,0.8036769750980928,-1.227120097309109
-3.924,0.79300680024041,-1.174136905283272
-3.9235,0.6116138276598051,-1.025783967610927
-3.923,0.3875401556484697,-0.8986243067489184
-3.9225,0.1527963087794516,-0.7608680074817418
-3.922,-0.2099896363817582,-0.4323722169215513
-3.9215,-0.3380317346739499,-0.3370024712750445
-3.921,-0.2846808603855366,-0.3687923864905467
-3.9205,-0.1779791118087102,-0.4111789401112165
-3.92,-0.09261771294724913,-0.3899856633008816
-3.9195,-0.3380317346739499,-0.07208651114585861
-3.919,-1.031593100423322,0.5743084315693548
-3.9185,-1.778505340461106,1.167720182258731
-3.918,-2.312014083345239,1.506812611224089
-3.9175,-2.3973754822067,1.602182356870596
-3.917,-1.661133417026597,1.199510097474233
-3.9165,-0.9355615267041777,0.6696781772158616
-3.916,-0.391382608962363,0.3199891098453364
-3.9155,-0.07127736323188383,0.2034260873884947
-3.915,0.07810508477567314,0.2564092794143318
-3.9145,0.1207857842064037,0.4047622170866759
-3.914,0.1101156093487211,0.5955017083796896
-3.9135,0.08877525963335578,0.7862411996727035
-3.913,0.07810508477567314,0.92399749893988
-3.9125,0.1314559590640864,0.9981739677760521
-3.912,0.1741366584948169,0.9981739677760521
-3.9115,0.291508581929326,0.8392243916985406
-3.911,0.7503261008096795,0.3411823866556712
-3.9105,1.081101521397841,-0.2840192792492073
-3.91,0.942389248247967,-0.4429688553267188
-3.9095,0.6329541773751706,-0.1674562567923655
-3.909,0.6436243522328531,-0.3052125560595421
-3.9085,0.857027849386506,-0.5807251545938954
-3.908,0.974399772821015,-0.6337083466197325
-3.9075,0.8997085488172365,-0.5595318777835605
-3.907,0.707645401378949,-0.4641621321370536
-3.9065,0.4515612047945656,-0.4429688553267188
-3.906,0.2381577076409128,-0.4853554089473885
-3.9055,-0.1673089369510276,-0.3158091944647096
-3.905,-0.4340633083930936,-0.2840192792492073
-3.9045,-0.4020527838200457,-0.5171453241628908
-3.904,-0.274010685527854,-0.7820612842920766
-3.9035,-0.1459685872356623,-0.9622041371799229
-3.903,-0.1886492866663929,-0.9304142219644207
-3.9025,-0.7755089038389382,-0.2946159176543747
-3.902,-1.405049220442214,0.4789386859228479
-3.9015,-1.778505340461106,1.040560521396722
-3.901,-2.205312334768412,1.443232780793084
-3.9005,-1.938557963326346,1.316073119931075
-3.9,-1.234326422719292,0.7650479228623686
-3.8995,-0.6261264558313813,0.2881991946298341
-3.899,-0.2099896363817582,0.04447651131098315
-3.8985,0.01408403562957729,0.002089957690313421
-3.898,0.1101156093487211,0.1292496185523226
-3.8975,0.1207857842064037,0.3199891098453364
-3.897,0.09944543449103843,0.5319218779486851
-3.8965,0.07810508477567314,0.7226613692416989
-3.896,0.1207857842064037,0.849821030103708
-3.8955,0.2168173579255475,0.8710143069140429
-3.895,0.3768699807907871,0.7438546460520338
-3.8945,0.7609962756673623,0.3623756634660061
-3.894,1.294505018551494,-0.2628260024388724
-3.8935,0.8676980242441885,-0.400582301706049
-3.893,0.01408403562957729,0.05507314971615059
-3.8925,-0.124628237520297,-0.1780528951975329
-3.892,0.291508581929326,-0.8456411147230812
-3.8915,0.6863050516635838,-1.205926820498774
-3.891,0.8356874996711408,-1.237716735714276
-3.8905,0.7503261008096795,-1.142346990067769
-3.89,0.5475927785137094,-1.025783967610927
-3.8895,0.3448594562177392,-0.9198175835592532
-3.889,0.1101156093487211,-0.8138511995075789
-3.8885,-0.08194753808956648,-0.718481453861072
-3.888,-0.124628237520297,-0.6760949002404023
-3.8875,-0.1139580626626144,-0.6549016234300674
