Class_2_Relax_eyes_open/Class_2_Relax_Eyes_open_Zakour_8.csv

#Digilent WaveForms Oscilloscope Acquisition
#Device Name: EExplorer
#Serial Number: SN:210151A2B84A
#Date Time: 2021-01-24 16:30:08.044
#Sample rate: 2000Hz
#Samples: 16384
#Trigger: Source: Channel 1 Type: Edge Condition: Rising Level: 0 V Hyst.: Auto HoldOff: 0 s
#Channel 1: Range: 1 V/div Offset: 0 V Attenuation: 1 X
#Channel 2: Range: 1 V/div Offset: 0 V Attenuation: 1 X
#Power Supplies: ON
#Fixed Supply: ON
#Voltage: 3.3 V Readback: 3.375 V
#Positive Supply: ON
#Voltage: 3.7 V Readback: 3.717 V
#Current: 40 mA Readback: 16 mA
#Negative Supply: ON
#Voltage: -3.7 V Readback: -3.334 V
#Current: -40 mA Readback: 0 A
#Reference 1: ON
#Voltage: 0 V
#Reference 2: ON
#Voltage: 0 V

Time (s),Channel 1 (V),Channel 2 (V)
-4.096,-0.4447334832507763,0.5425185163538525
-4.0955,-1.191645723287882,0.7544512844570084
-4.095,-1.607782542737767,0.9028042221294585
-4.0945,-1.148965023857831,0.8074344764830383
-4.094,-0.2846808603863227,0.669678177215987
-4.0935,0.4835717293680308,0.5743084315692296
-4.093,0.942389248247967,0.4365521323021782
-4.0925,1.102441871113061,0.05507314971649752
-4.092,1.00641029739384,-0.5489352393788846
-4.0915,0.7609962756673623,-1.089363798041932
-4.091,0.5369226036560266,-1.354279758171118
-4.0905,0.462231379652122,-1.290699927740075
-4.09,0.3235191065023739,-1.248313374119443
-4.0895,0.1741366584948169,-1.195330182093607
-4.089,0.06743490991808755,-1.089363798042029
-4.0885,-0.007256314085787988,-0.9304142219644207
-4.088,-0.156638762093345,-0.7820612842920766
-4.0875,-0.4554036581081872,-0.5489352393786051
-4.087,-0.9569018764200575,-0.04029659592990335
-4.0865,-1.522421143876723,0.457745409112513
-4.086,-1.906547438752949,0.7332580076466158
-4.0855,-1.56510184330693,0.4577454091120793
-4.085,-0.9889124009925911,-0.01910331912002144
-4.0845,-0.4980843575396359,-0.3899856633005442
-4.084,-0.1673089369508723,-0.5595318777835605
-4.0835,0.00341386077189465,-0.5595318777835605
-4.083,0.05676473506030786,-0.4641621321370536
-4.0825,0.06743490991797109,-0.3158091944645746
-4.082,0.04609456020262521,-0.1674562567923655
-4.0815,0.02475421048725994,-0.01910331912002144
-4.081,0.02475421048725994,0.1292496185521877
-4.0805,0.03542438534494258,0.2352160026039969
-4.08,0.0674349099179905,0.3199891098453364
-4.0795,0.4088805053635245,0.4471487707072299
-4.079,0.7609962756671682,0.6590815388107906
-4.0785,0.5475927785137094,0.7650479228623686
-4.078,-0.0285966638006292,0.8286277532933153
-4.0775,0.07810508477608073,0.8816109453192297
-4.077,0.5262524287983441,0.9028042221295453
-4.0765,0.9103787236745698,0.8710143069140718
-4.076,1.113112045970889,0.743854646051735
-4.0755,1.113112045970889,0.4153588554918433
-4.075,0.942389248247967,-0.1886495336027004
-4.0745,0.6863050516635353,-0.8032545611025945
-4.074,0.6329541773751706,-1.004590690800593
-4.0735,0.5155822539406614,-1.089363798041932
-4.073,0.3235191065025486,-1.131750351662563
-4.0725,0.1527963087794516,-1.0999604364471
-4.072,0.03542438534494258,-0.9939940523954253
-4.0715,-0.09261771294713267,-0.8668343915335318
-4.071,-0.4554036581089732,-0.6019184314037388
-4.0705,-1.020922925565639,-0.06148987274069118
-4.07,-1.60778254273765,0.4577454091120408
-4.0695,-2.098610586191324,0.7968378380777167
-4.069,-1.810515865034154,0.627291623595192
-4.0685,-1.159635198715513,0.1186529801471552
-4.068,-0.6047861061156664,-0.3158091944649216
-4.0675,-0.2206598112394408,-0.5489352393783931
-4.067,-0.01792648894347063,-0.5807251545938954
-4.0665,0.05676473506031757,-0.495952047352421
-4.066,0.0674349099179905,-0.3475991096802118
-4.0655,0.05676473506030786,-0.1780528951975329
-4.065,0.03542438534496199,-0.02969995752532381
-4.0645,0.01408403562957729,0.1292496185523226
-4.064,0.02475421048725994,0.2670059178194992
-4.0635,0.03542438534493288,0.3623756634659194
-4.063,0.2488278824990612,0.4471487707074902
-4.0625,0.7609962756673623,0.6060983467848571
-4.062,0.6009436528022681,0.7968378380776975
-4.0615,0.01408403562962582,0.9134008605347224
-4.061,0.0674349099179905,0.92399749893988
-4.0605,0.5155822539406614,0.92399749893988
-4.06,0.9637295979635556,0.9028042221294778
-4.0595,1.209143619690033,0.8286277532933731
-4.059,1.209143619690033,0.4683420475176805
-4.0585,1.038420821967266,-0.2416327256278918
-4.058,0.7609962756673623,-0.8774310299385835
-4.0575,0.5796033030867573,-1.184733543688439
-4.057,0.4835717293677009,-1.22712009730907
-4.0565,0.3128489316446912,-1.237716735714276
-4.056,0.1527963087794516,-1.184733543688439
-4.0555,0.03542438534504933,-1.068170521231703
-4.055,-0.07127736323223319,-0.941010860369299
-4.0545,-0.4554036581084589,-0.6231117082145651
-4.054,-1.106284324426508,-0.0402965959308863
-4.0535,-1.36236852101159,0.4895353243283334
-4.053,-1.479740444445993,0.8392243916985406
-4.0525,-1.383708870726849,0.7544512844572011
-4.052,-0.9675720512768278,0.2458126410087307
-4.0515,-0.5300948821122373,-0.2310360872233701
-4.051,-0.2206598112394408,-0.5065486857577234
-4.0505,-0.03926683865900088,-0.5701285161886701
-4.05,0.03542438534494258,-0.4959520473525559
-4.0495,0.04609456020262521,-0.3475991096802118
-4.049,0.03542438534495228,-0.1886495336028449
-4.0485,0.02475421048724053,-0.01910331911989616
-4.048,0.00341386077189465,0.1186529801471552
-4.0475,0.00341386077189465,0.2564092794142065
-4.047,0.01408403562967434,0.4047622170868012
-4.0465,0.1207857842064037,0.5425185163538525
-4.046,0.3235191065021895,0.7332580076466928
-4.0455,0.3555296310751695,0.8816109453192585
-4.045,0.07810508477567314,0.9345941373450475
-4.0445,0.1314559590640864,0.9557874141553824
-4.044,0.6116138276601932,0.9557874141553631
-4.0435,1.038420821967111,0.9345941373450475
-4.043,1.273164668836129,0.8604176685088755
-4.0425,1.283834843693802,0.6590815388108773
-4.042,1.123782220828572,0.09745970333682032
-4.0415,0.8463576745288233,-0.5913217929990628
-4.041,0.579603303087,-1.13175035166211
-4.0405,0.4942419042251506,-1.502632695843472
-4.04,0.3341892813600565,-1.51322933424863
-4.0395,0.1741366584949625,-1.333086481360947
-4.039,0.05676473506022052,-1.08936379804172
-4.0385,-0.03926683865883591,-0.8562377531282487
-4.038,-0.2740106855276405,-0.6125150698096193
-4.0375,-0.5194247072547877,-0.2840192792488025
-4.037,-0.7755089038389382,0.1610395337678249
-4.0365,-1.223656247861609,0.5637117931641874
-4.036,-1.629122892453365,0.7544512844569217
-4.0355,-1.426389570157579,0.4471487707073456
-4.035,-0.9355615267041777,-0.08268314955102604
-4.0345,-0.4874141826819144,-0.4853554089470222
-4.034,-0.1886492866663929,-0.6760949002404023
-4.0335,-0.02859666380115328,-0.6972881770507372
-4.033,0.03542438534488435,-0.6125150698094748
-4.0325,0.04609456020261551,-0.4853554089472439
-4.032,0.03542438534494258,-0.326405832869877
-4.0315,0.0140840356295967,-0.1462629799821945
-4.031,0.014084035629587,0.02328323450074466
-4.0305,0.02475421048725994,0.1292496185523226
-4.03,0.04609456020260581,0.2352160026039006
-4.0295,0.003413860771865537,0.4365521323024191
-4.029,-0.02859666380115328,0.701468092431364
-4.0285,-0.3700422592469978,0.8816109453192104
-4.028,-0.8608703027001178,0.9557874141553631
-4.0275,-0.5514352318276028,0.9345941373450475
-4.027,0.1314559590640864,0.92399749893988
-4.0265,0.707645401378425,0.8922075837244067
-4.026,1.049090996824793,0.7968378380778709
-4.0255,1.113112045970889,0.4895353243280153
-4.025,0.9530594231057953,-0.114473064765979
-4.0245,0.6863050516634868,-0.7290780922665189
-4.024,0.5796033030867573,-1.036380606016095
-4.0235,0.4302208550793362,-1.163540266877989
-4.023,0.2488278824984595,-1.174136905283185
-4.0225,0.09944543449103843,-1.078767159636765
-4.022,0.003413860771981997,-0.9198175835593978
-4.0215,-0.09261771294747233,-0.7396747306711948
-4.021,-0.3380317346739499,-0.5065486857577234
-4.0205,-0.6261264558313813,-0.3581957480853793
-4.02,-1.138294849000565,0.07626642652686132
-4.0195,-1.597112367880501,0.4895353243280153
-4.019,-1.490410619303675,0.3941655786815084
-4.0185,-1.010252750708393,-0.01910331911964558
-4.018,-0.5514352318276028,-0.3899856633008816
-4.0175,-0.2206598112394408,-0.5807251545938954
-4.017,-0.03926683865900088,-0.6125150698093688
-4.0165,0.03542438534496199,-0.527741962567933
-4.016,0.05676473506030786,-0.3899856633008816
-4.0155,0.03542438534496199,-0.2416327256286725
-4.015,0.02475421048725023,-0.09327978795606819
-4.0145,0.01408403562957729,0.04447651131098315
-4.014,0.02475421048725023,0.1610395337677189
-4.0135,0.03542438534492317,0.2670059178196149
-4.013,0.01408403562957729,0.3941655786815084
-4.0125,0.07810508477567314,0.6166949851900245
-4.012,0.02475421048690087,0.8074344764831347
-4.0115,-0.3700422592469978,0.9134008605347127
-4.011,-0.06060718837420119,0.9345941373450475
-4.0105,0.5049120790824645,0.9345941373450475
-4.01,0.9530594231056497,0.9028042221295453
-4.0095,1.19847344483235,0.8286277532933731
-4.009,1.209143619690023,0.5001319627334816
-4.0085,1.038420821966849,-0.1462629799826185
-4.008,0.7503261008096795,-0.792657922697244
-4.0075,0.6009436528022585,-1.333086481360291
-4.007,0.5369226036558616,-1.672178910326064
-4.0065,0.3555296310754218,-1.587405803084801
-4.006,0.1848068333524996,-1.333086481360783
-4.0055,0.05676473506023023,-1.068170521231376
-4.005,-0.02859666380115328,-0.8244478379127463
-4.0045,-0.156638762093345,-0.5913217929990628
-4.004,-0.3700422592475412,-0.6549016234297205
-4.0035,-0.9675720512772257,-0.2734226408440398
-4.003,-1.586442193022819,0.2140227257936621
-4.0025,-1.789175515318605,0.4365521323019758
-4.002,-1.351698346153801,0.13984625695749
-4.0015,-0.807519428411986,-0.2734226408440398
-4.001,-0.3807124341050686,-0.5595318777833003
-4.0005,-0.113958062662498,-0.6866915386455601
-4,0.01408403562957729,-0.6760949002404023
-3.9995,0.05676473506030786,-0.5807251545938954
-3.999,0.04609456020262521,-0.4641621321370536
-3.9985,0.03542438534494258,-0.326405832869877
-3.998,0.01408403562957729,-0.1992461720078678
-3.9975,0.01408403562957729,-0.09327978795619347
-3.997,0.02475421048725994,0.03387987290581572
-3.9965,0.1314559590640864,0.2352160026039969
-3.996,0.5902734779444399,0.5213252395435176
-3.9955,0.6009436528021226,0.7650479228623686
-3.995,0.2168173579255475,0.8074344764830383
-3.9945,0.291508581929326,0.8074344764830383
-3.994,0.6969752265212663,0.8604176685088755
-3.9935,1.059761171682476,0.8922075837243778
-3.993,1.262494493978446,0.9028042221295453
-3.9925,1.294505018551494,0.7862411996727035
-3.992,1.145122570543937,0.3305857482505039
-3.9915,0.8783681991018712,-0.3581957480853793
-3.991,0.6436243522328531,-0.9728007755850904
-3.9905,0.6222840025174878,-1.47084278062796
-3.99,0.4622313796522482,-1.555615887869299
-3.9895,0.2808384070716433,-1.38606967338662
-3.989,0.1207857842064037,-1.121153713257435
-3.9885,-0.007256314085787988,-0.8668343915334161
-3.988,-0.2313299860971235,-0.5489352393783931
-3.9875,-0.7648387289812555,-0.008506680714854012
-3.987,-1.405049220442214,0.5001319627331828
-3.9865,-1.949228138184029,0.849821030103708
-3.986,-2.03458953704549,0.8604176685088755
-3.9855,-1.437059745015262,0.3623756634660061
-3.985,-0.8288597781273515,-0.1674562567923655
-3.9845,-0.3700422592469978,-0.5065486857577234
-3.984,-0.1032878878049318,-0.6231117082145651
-3.9835,0.02475421048725994,-0.5807251545938954
-3.983,0.05676473506030786,-0.4535654937318862
-3.9825,0.05676473506030786,-0.2946159176543747
-3.982,0.03542438534494258,-0.1356663415768632
-3.9815,0.01408403562957729,0.01268659609548085
-3.981,0.00341386077189465,0.13984625695749
-3.9805,0.01408403562957729,0.2776025562246667
-3.98,0.04609456020262521,0.4047622170866759
-3.9795,0.4195506802215176,0.5637117931641874
-3.979,0.5689331282290746,0.7650479228623686
-3.9785,-0.08194753808956648,0.9134008605347127
-3.978,-0.3487019095316325,0.9557874141553824
-3.9775,0.1527963087794516,0.9451907757502149
-3.977,0.707645401378949,0.9134008605347127
-3.9765,1.070431346540159,0.8604176685088755
-3.976,1.219813794547716,0.701468092431364
-3.9755,1.123782220828572,0.2034260873884947
-3.975,0.8890383739595538,-0.474758770542221
-3.9745,0.6116138276598051,-1.025783967610927
-3.974,0.5475927785137094,-1.184733543688439
-3.9735,0.4302208550792003,-1.195330182093607
-3.973,0.2488278824985954,-1.163540266878104
-3.9725,0.1101156093487211,-1.05757388282643
-3.972,0.01408403562957729,-0.9092209451540858
-3.9715,-0.02859666380115328,-0.7608680074817418
-3.971,0.2381577076409128,-0.9198175835592532
-3.9705,0.03542438534494258,-0.8880276683437509
-3.97,-0.658136980404429,-0.326405832869877
-3.9695,-1.30901764672307,0.2670059178194992
-3.969,-1.405049220442214,0.3623756634660061
-3.9685,-1.042263275281004,0.01268659609548085
-3.968,-0.6154562809736985,-0.3475991096802118
-3.9675,-0.2846808603855366,-0.5807251545938954
-3.967,-0.08194753808956648,-0.6443049850249
-3.9665,0.01408403562957729,-0.5913217929990628
-3.966,0.03542438534494258,-0.4853554089473885
-3.9655,0.02475421048725994,-0.3581957480853793
-3.965,0.01408403562957729,-0.2204394488182027
-3.9645,0.00341386077189465,-0.06148987274069118
-3.964,0.00341386077189465,0.05507314971615059
-3.9635,0.01408403562957729,0.1610395337678249
-3.963,0.1954770082101822,0.3729723018711736
-3.9625,0.6329541773751706,0.6484849004055269
-3.962,0.5262524287983441,0.849821030103708
-3.9615,0.1634664836371343,0.8816109453192104
-3.961,0.3341892813600565,0.8286277532933731
-3.9605,0.7289857510943143,0.8392243916985406
-3.96,1.038420821967111,0.8286277532933731
-3.9595,1.187803269974668,0.7544512844572011
-3.959,1.15579274540162,0.4895353243280153
-3.9585,0.9637295979633325,-0.1144730647665284
-3.958,0.6863050516635838,-0.7396747306714069
-3.9575,0.5475927785137094,-1.004590690800593
-3.957,0.4942419042252961,-1.046977244421262
-3.9565,0.3235191065023739,-1.110557074852267
-3.956,0.1634664836371343,-1.089363798041932
-3.9555,0.03542438534494258,-0.9939940523954253
-3.955,-0.06060718837420119,-0.8350444763179138
-3.9545,-0.124628237520297,-0.7820612842920766
-3.954,-0.4447334832507763,-0.9410108603695881
-3.9535,-1.074273799854052,-0.5277419625680583
-3.953,-1.639793067311232,0.09745970333682032
-3.9525,-1.842526389607202,0.4259554938970107
-3.952,-1.394379045584531,0.1822328105781598
-3.9515,-0.839529952985034,-0.1992461720078678
-3.951,-0.4020527838200457,-0.474758770542221
-3.9505,-0.124628237520297,-0.5807251545938954
-3.95,0.00341386077189465,-0.570128516188728
-3.9495,0.04609456020262521,-0.474758770542221
-3.949,0.03542438534494258,-0.3370024712750445
-3.9485,0.02475421048725994,-0.2098428104130352
-3.948,0.00341386077189465,-0.09327978795619347
-3.9475,0.00341386077189465,0.002089957690313421
-3.947,0.02475421048725994,0.1186529801471552
-3.9465,0.02475421048725994,0.2352160026039969
-3.946,-0.3807124341046804,0.4683420475176805
-3.9455,-0.839529952985034,0.7226613692416989
-3.945,-1.255666772434657,0.8922075837243778
-3.9445,-1.06360362499637,0.9557874141553824
-3.944,-0.274010685527854,0.9663840525605498
-3.9435,0.4835717293676135,0.92399749893988
-3.943,0.9530594231056497,0.8074344764830383
-3.9425,1.134452395686255,0.5743084315693548
-3.942,1.059761171682476,-0.008506680714854012
-3.9415,0.8463576745288233,-0.6866915386455698
-3.941,0.6116138276598051,-1.205926820498774
-3.9405,0.5049120790829789,-1.555615887869299
-3.94,0.3341892813600565,-1.523825972653797
-3.9395,0.1741366584948169,-1.311893204550448
-3.939,0.05676473506030786,-1.046977244421262
-3.9385,-0.02859666380115328,-0.8032545611024114
-3.938,-0.2633405106701714,-0.5065486857577234
-3.9375,-0.6261264558313813,-0.008506680714854012
-3.937,-0.9995825758502737,0.4789386859228479
-3.9365,-1.479740444445993,0.8286277532933731
-3.936,-1.607782542738184,0.8180311148882058
-3.9355,-1.202315898146244,0.3199891098453364
-3.935,-0.7114878546928423,-0.2098428104130352
-3.9345,-0.3380317346739499,-0.5489352393783931
-3.934,-0.1032878878049318,-0.6760949002404023
-3.9335,0.01408403562957729,-0.6443049850249
-3.933,0.04609456020262521,-0.5277419625680583
-3.9325,0.03542438534494258,-0.3793890248957141
-3.932,0.02475421048725994,-0.2310360872233701
-3.9315,0.00341386077189465,-0.08268314955102604
-3.931,-0.007256314085787988,0.05507314971615059
-3.9305,0.00341386077189465,0.1610395337678249
-3.93,0.01408403562957729,0.2140227257936621
-3.9295,0.03542438534494258,0.3411823866556712
-3.929,0.3661998059331045,0.6060983467848571
-3.9285,0.1527963087794516,0.7862411996727035
-3.928,0.09944543449103843,0.8392243916985406
-3.9275,0.5475927785137094,0.8922075837243778
-3.927,0.974399772821015,0.92399749893988
-3.9265,1.230483969405398,0.9134008605347127
-3.926,1.294505018551494,0.8180311148882058
-3.9255,1.177133095116985,0.457745409112513
-3.925,0.942389248247967,-0.2098428104130352
-3.9245,0.6436243522328531,-0.8032545611024114
-3.924,0.5369226036560266,-0.9728007755850904
-3.9235,0.3875401556484697,-1.036380606016095
-3.923,0.2168173579255475,-1.046977244421262
-3.9225,0.08877525963335578,-0.9833974139902578
-3.922,0.00341386077189465,-0.8562377531282487
-3.9215,-0.09261771294724913,-0.6972881770507372
-3.921,-0.2420001609548061,-0.7820612842920766
-3.9205,-0.722158029550525,-0.6654982618352349
-3.92,-1.341028171296118,-0.1250697031716958
-3.9195,-1.693143941599645,0.3305857482505039
-3.919,-1.394379045584531,0.2140227257936621
-3.9185,-0.8928808272734472,-0.1462629799820306
-3.918,-0.4554036581084589,-0.4429688553267188
-3.9175,-0.1673089369510276,-0.6019184314042303
-3.917,-0.01792648894347063,-0.6125150698093976
-3.9165,0.03542438534494258,-0.5383386009732256
-3.916,0.03542438534494258,-0.4217755785163839
-3.9155,0.02475421048725994,-0.2946159176543747
-3.915,0.00341386077189465,-0.1780528951975329
-3.9145,-0.007256314085787988,-0.07208651114585861
-3.914,-0.01792648894347063,0.02328323450064829
-3.9135,0.00341386077189465,0.1292496185523226
-3.913,0.142126133921769,0.2987958330350016
-3.9125,0.5796033030867573,0.5743084315693548
-3.912,0.3555296310754218,0.8180311148882058
-3.9115,-0.1352984123779797,0.9345941373450475
-3.911,-0.007256314085787988,0.9134008605347127
-3.9105,0.4408910299368829,0.8922075837243778
-3.91,0.8463576745288233,0.8392243916985406
-3.9095,1.059761171682476,0.7226613692416989
-3.909,1.081101521397841,0.2987958330350016
-3.9085,0.9210488985326017,-0.3899856633008816
-3.908,0.6756348768059011,-0.9728007755850904
-3.9075,0.5475927785137094,-1.439052865412457
-3.907,0.4622313796522482,-1.661582271920973
-3.9065,0.3021787567870086,-1.545019249464132
-3.906,0.142126133921769,-1.290699927740113
-3.9055,0.03542438534494258,-1.025783967610927
-3.905,-0.07127736323188383,-0.792657922697244
-3.9045,-0.3593720843893152,-0.3793890248957141
-3.904,-0.722158029550525,0.1822328105781598
-3.9035,-1.223656247861609,0.6590815388106942
-3.903,-1.714484291315011,0.9451907757502149
-3.9025,-1.714484291315011,0.7862411996727035
-3.902,-1.223656247861609,0.2246193641988295
-3.9015,-0.7008176798351597,-0.2946159176543747
-3.901,-0.3060212101009019,-0.6019184314042303
-3.9005,-0.08194753808956648,-0.6866915386455698
-3.9,0.01408403562957729,-0.6337083466197325
-3.8995,0.04609456020262521,-0.5065486857577234
-3.899,0.03542438534494258,-0.3475991096802118
-3.8985,0.01408403562957729,-0.1886495336027004
-3.898,-0.007256314085787988,-0.05089323433552374
-3.8975,-0.007256314085787988,0.09745970333682032
-3.897,0.00341386077189465,0.2246193641988295
-3.8965,0.00341386077189465,0.3729723018711736
-3.896,-0.08194753808956648,0.5849050699745222
-3.8955,0.2274875327832301,0.8074344764830383
-3.895,-0.07127736323188383,0.9663840525605498
-3.8945,-0.1673089369510276,1.051157159801889
-3.894,0.2808384070716433,1.061753798207057
-3.8935,0.7716664505250448,1.040560521396722
-3.893,1.102441871113207,0.9875773293708847
-3.8925,1.209143619690033,0.8604176685088755
-3.892,1.113112045970889,0.4471487707073456
-3.8915,0.8676980242441885,-0.2310360872233701
-3.891,0.6009436528021226,-0.8774310299385835
-3.8905,0.5049120790829789,-1.42845622700729
-3.89,0.3448594562177392,-1.523825972653797
-3.8895,0.1741366584948169,-1.354279758171118
-3.889,0.05676473506030786,-1.089363798041932
-3.8885,-0.03926683865883591,-0.8138511995075789
-3.888,-0.1139580626626144,-0.6125150698093976
