Class_2_Relax_eyes_open/Class_2_Relax_eyes_open_Basim_13.csv

#Digilent WaveForms Oscilloscope Acquisition
#Device Name: EExplorer
#Serial Number: SN:210151A2B84A
#Date Time: 2021-02-07 15:54:27.051
#Sample rate: 2000Hz
#Samples: 16384
#Trigger: Source: Channel 1 Type: Edge Condition: Rising Level: 0 V Hyst.: Auto HoldOff: 0 s
#Channel 1: Range: 1 V/div Offset: 0 V Attenuation: 1 X
#Channel 2: Range: 1 V/div Offset: 0 V Attenuation: 1 X
#Power Supplies: ON
#Fixed Supply: ON
#Voltage: 3.3 V Readback: 3.317 V
#Positive Supply: ON
#Voltage: 3.7 V Readback: 3.732 V
#Current: 40 mA Readback: 23 mA
#Negative Supply: ON
#Voltage: -3.7 V Readback: -3.712 V
#Current: -40 mA Readback: -13 mA
#Reference 1: ON
#Voltage: 0 V
#Reference 2: ON
#Voltage: 0 V

Time (s),Channel 1 (V),Channel 2 (V)
-4.096,0.05676473506030786,0.309392471440169
-4.0955,0.01408403562961611,0.4789386859226937
-4.095,-0.02859666380131825,0.5955017083797089
-4.0945,-0.2099896363817582,0.6166949851900245
-4.094,-0.8288597781267886,0.7756445612673915
-4.0935,-1.298347471865553,1.167720182259001
-4.093,-1.479740444445993,1.464426057603419
-4.0925,-1.266336947292534,1.157123543853843
-4.092,-0.8288597781269924,0.4895353243274563
-4.0915,-0.4340633083930936,-0.1250697031716958
-4.091,-0.1779791118087102,-0.5383386009732256
-4.0905,-0.03926683865878739,-0.7502713690766322
-4.09,0.01408403562957729,-0.8138511995075789
-4.0895,0.02475421048725994,-0.7820612842920766
-4.089,0.014084035629587,-0.707884815455972
-4.0885,-0.007256314085787988,-0.6125150698093976
-4.088,-0.01792648894347063,-0.4959520473525559
-4.0875,-0.01792648894347063,-0.3793890248958202
-4.087,-0.007256314085778284,-0.2522293640335797
-4.0865,0.00341386077189465,-0.1144730647665284
-4.086,0.1954770082100075,0.1928294489830477
-4.0855,0.2808384070713522,0.7756445612679793
-4.085,-0.03926683865883591,1.263089927905238
-4.0845,-0.5194247072541182,1.538602526439341
-4.084,-0.4660738329658504,1.104140351827013
-4.0835,-0.1459685872356623,0.3199891098453364
-4.083,0.1101156093487211,-0.1780528951975329
-4.0825,0.2168173579255378,-0.3370024712749963
-4.082,0.2061471830678648,-0.2840192792492073
-4.0815,0.142126133921769,-0.1144730647665284
-4.081,0.06743490991805844,0.06566978812115418
-4.0805,-0.007256314085787988,0.05507314971615059
-4.08,-0.04993701351651855,0.06566978812131802
-4.0795,-0.06060718837419149,0.1928294489832116
-4.079,-0.06060718837419148,0.341182386655758
-4.0785,-0.04993701351651855,0.4365521323021782
-4.078,-0.09261771294721031,0.4577454091124938
-4.0775,-0.57277558154356,0.5849050699748691
-4.077,-1.223656247861609,0.9663840525605498
-4.0765,-1.767835165602929,1.347863035146231
-4.076,-1.927887788468246,1.358459673551205
-4.0755,-1.46907026958831,0.7650479228623686
-4.075,-0.8715404775580819,0.07626642652648545
-4.0745,-0.412722958677476,-0.453565493732156
-4.074,-0.1352984123779797,-0.7502713690765743
-4.0735,0.00341386077189465,-0.8668343915334161
-4.073,0.0460945602025864,-0.8562377531282583
-4.0725,0.03542438534494258,-0.7714646458869092
-4.072,0.02475421048725994,-0.6549016234300674
-4.0715,0.003413860771914058,-0.527741962568174
-4.071,-0.007256314085787988,-0.3793890248955792
-4.0705,-0.007256314085787988,-0.2310360872233701
-4.07,0.003413860771884946,-0.08268314955116096
-4.0695,0.09944543449131016,0.1716361721734839
-4.069,0.3982103305061524,0.7120647308365314
-4.0685,0.03542438534494258,1.263089927905238
-4.068,-0.5194247072544383,1.475022696007998
-4.0675,-0.391382608962363,0.8286277532933731
-4.067,-0.02859666380115328,0.2352160026039969
-4.0665,0.2168173579256251,-0.1356663415769885
-4.066,0.3021787567870086,-0.2734226408440398
-4.0655,0.2594980573562781,-0.252229364033705
-4.065,0.1741366584948945,-0.1356663415769692
-4.0645,0.08877525963335578,0.02328323450064829
-4.064,0.04609456020262521,0.1504428953626575
-4.0635,0.03542438534495228,0.2458126410090777
-4.063,0.01408403562955789,0.3517790250609061
-4.0625,-0.007256314085787988,0.4259554938970107
-4.062,-0.01792648894346092,0.468342047517642
-4.0615,-0.03926683865911734,0.4789386859229346
-4.061,-0.3487019095316325,0.5743084315693548
-4.0605,-0.9462317015618604,0.9134008605347127
-4.06,-1.586442193023062,1.273686566310559
-4.0595,-1.853196564464885,1.443232780793084
-4.059,-1.533091318734406,0.9875773293708847
-4.0585,-0.96757205127774,0.2670059178201546
-4.058,-0.4874141826815069,-0.3370024712750445
-4.0575,-0.1779791118087102,-0.7078848154559045
-4.057,-0.0179264889436162,-0.8668343915332716
-4.0565,0.04609456020262521,-0.8880276683437509
-4.056,0.04609456020262521,-0.8138511995075789
-4.0555,0.03542438534495228,-0.6866915386456854
-4.055,0.01408403562956759,-0.5489352393782485
-4.0545,0.00341386077189465,-0.3899856633008816
-4.054,-0.007256314085778284,-0.2416327256286725
-4.0535,-0.007256314085720057,-0.1038764263611778
-4.053,0.0674349099179905,0.09745970333682032
-4.0525,0.4408910299368829,0.5743084315693548
-4.052,0.2061471830672826,1.008770606181547
-4.0515,-0.4340633083930936,1.369056311956912
-4.051,-0.5834457564006506,1.125333628638062
-4.0505,-0.1246282375207143,0.07626642652743953
-4.05,0.2488278824985954,-0.5595318777835605
-4.0495,0.3768699807907871,-0.6654982618352349
-4.049,0.3448594562177683,-0.5171453241630257
-4.0485,0.2381577076408157,-0.2840192792489856
-4.048,0.1314559590640864,-0.04029659593035631
-4.0475,0.05676473506037578,0.1398462569573262
-4.047,0.03542438534493287,0.2140227257937392
-4.0465,0.02475421048725994,0.2987958330350016
-4.046,0.003413860771914058,0.3835689402762639
-4.0455,-0.007256314085807397,0.4365521323021878
-4.045,-0.02859666380115328,0.4471487707073456
-4.0445,-0.1032878878049318,0.4471487707073456
-4.044,-0.6474668055471638,0.722661369242017
-4.0435,-1.1062843244271,1.072350436612224
-4.043,-1.447729919872945,1.358459673551745
-4.0425,-1.543761493592001,1.241896651095009
-4.042,-1.148965023857831,0.5955017083796896
-4.0415,-0.6688071552621118,-0.07208651114585861
-4.041,-0.3060212101012319,-0.5595318777831172
-4.0405,-0.08194753808947913,-0.8244478379128234
-4.04,0.01408403562957729,-0.9092209451540858
-4.0395,0.0460945602025961,-0.8880276683437702
-4.039,0.04609456020260581,-0.8032545611023054
-4.0385,0.02475421048725994,-0.6866915386455698
-4.038,0.014084035629587,-0.5489352393785183
-4.0375,0.00341386077189465,-0.4005823017059141
-4.037,0.00341386077189465,-0.252229364033705
-4.0365,0.01408403562957729,-0.1038764263613609
-4.036,0.1954770082105121,0.2034260873890247
-4.0355,0.5582629533713921,0.7862411996727035
-4.035,0.02475421048725994,1.326669758336243
-4.0345,-0.4767440078233682,1.358459673551716
-4.034,-0.3380317346739499,0.6908714540261965
-4.0335,-0.02859666380115328,0.05507314971615059
-4.033,0.1741366584946325,-0.2734226408437411
-4.0325,0.2274875327832107,-0.3475991096801347
-4.032,0.2061471830678648,-0.2628260024388724
-4.0315,0.1314559590641543,-0.1038764263615055
-4.031,0.06743490991793227,0.06566978812138548
-4.0305,0.00341386077189465,0.13984625695749
-4.03,-0.0392668386587971,0.2246193641987524
-4.0295,-0.03926683865883591,0.3517790250609351
-4.029,-0.03926683865883591,0.457745409112513
-4.0285,-0.03926683865883591,0.5213252395435176
-4.028,-0.09261771294771494,0.5531151547591452
-4.0275,-0.6047861061160158,0.6908714540261965
-4.027,-1.447729919872945,1.061753798207057
-4.0265,-2.013249187329611,1.422039503982422
-4.026,-2.215982509626095,1.549199164844759
-4.0255,-1.767835165603424,1.040560521396722
-4.025,-1.084943974712356,0.2776025562253606
-4.0245,-0.5300948821119074,-0.3370024712753914
-4.024,-0.1673089369510276,-0.718481453861072
-4.0235,0.01408403562941232,-0.8880276683435967
-4.023,0.07810508477567314,-0.8986243067488509
-4.0225,0.07810508477567314,-0.8244478379127463
-4.022,0.05676473506032727,-0.7078848154560106
-4.0215,0.03542438534493287,-0.5701285161885834
-4.021,0.02475421048725994,-0.4111789401112165
-4.0205,0.01408403562957729,-0.252229364033705
-4.02,0.02475421048729875,-0.1038764263611489
-4.0195,0.0674349099179905,0.1292496185523226
-4.019,0.1101156093487211,0.6484849004055269
-4.0185,0.02475421048733757,1.008770606180892
-4.018,-0.274010685527854,1.241896651094903
-4.0175,-0.2846808603855366,0.9345941373450475
-4.017,-0.0285966638013862,0.3305857482510532
-4.0165,0.1848068333525675,-0.1462629799821945
-4.016,0.2594980573562781,-0.326405832869877
-4.0155,0.2381577076409322,-0.3052125560595614
-4.015,0.174136658494749,-0.1886495336025751
-4.0145,0.09944543449103843,-0.05089323433552374
-4.014,0.1421261339217302,-0.02969995752520815
-4.0135,0.2915085819293163,-0.1568596183871017
-4.013,0.2808384070716433,-0.05089323433552374
-4.0125,0.1848068333524996,0.1186529801471552
-4.012,0.0994454344909802,0.2776025562247534
-4.0115,0.03542438534494258,0.3729723018711736
-4.011,-0.156638762093345,0.4895353243280153
-4.0105,-0.7648387289807024,0.871014306913696
-4.01,-1.234326422719292,1.284283204715573
-4.0095,-1.437059745015262,1.517409249629256
-4.009,-1.223656247861803,1.093543713422945
-4.0085,-0.7861790786962713,0.372972301870605
-4.008,-0.4020527838200457,-0.252229364033705
-4.0075,-0.1352984123782223,-0.6443049850245434
-4.007,-0.007256314085739466,-0.8244478379127752
-4.0065,0.04609456020262521,-0.8562377531282487
-4.006,0.05676473506030786,-0.792657922697244
-4.0055,0.04609456020260581,-0.6866915386454541
-4.005,0.02475421048725994,-0.5595318777835605
-4.0045,0.02475421048725994,-0.4217755785163839
-4.004,0.02475421048726964,-0.2734226408439049
-4.0035,0.03542438534494258,-0.1250697031716958
-4.003,0.0674349099179905,0.03387987290581572
-4.0025,0.4942419042249079,0.4471487707069697
-4.002,0.7183155762366316,1.00877060618122
-4.0015,0.3235191065023739,1.390249588767247
-4.001,0.1634664836372799,1.061753798207356
-4.0005,0.2488278824986633,0.330585748250022
-4,0.3235191065023739,-0.1992461720078678
-3.9995,0.3235191065023739,-0.4111789401112165
-3.999,0.2594980573562781,-0.3899856633008816
-3.9985,0.1741366584948169,-0.2416327256285375
-3.998,0.1101156093487211,-0.08268314955102604
-3.9975,0.05676473506030786,0.06566978812131802
-3.997,0.02475421048725994,0.1822328105781598
-3.9965,-0.007256314085787988,0.2881991946298341
-3.996,-0.007256314085787988,0.3517790250608387
-3.9955,-0.007256314085787988,0.3941655786815084
-3.995,-0.01792648894347063,0.4047622170866759
-3.9945,-0.1673089369510276,0.4259554938970107
-3.994,-0.8288597781273515,0.7226613692416989
-3.9935,-1.30901764672307,1.104140351827727
-3.993,-1.703814116457328,1.42203950398275
-3.9925,-1.746494815888059,1.305476481525908
-3.992,-1.277007122150022,0.6378882620003594
-3.9915,-0.722158029550525,-0.05089323433552374
-3.991,-0.3166913849585846,-0.5383386009732256
-3.9905,-0.07127736323188383,-0.792657922697244
-3.99,0.04609456020262521,-0.8668343915334161
-3.9895,0.07810508477567314,-0.8244478379127463
-3.989,0.0674349099179905,-0.718481453861072
-3.9885,0.04609456020262521,-0.5913217929990628
-3.988,0.03542438534494258,-0.4323722169215513
-3.9875,0.03542438534494258,-0.2734226408440398
-3.987,0.04609456020262521,-0.1144730647665284
-3.9865,0.0674349099179905,0.03387987290581572
-3.986,0.3341892813600565,0.3517790250608387
-3.9855,0.7289857510943143,0.8604176685088755
-3.985,0.5049120790829789,1.241896651094903
-3.9845,0.00341386077189465,1.326669758336243
-3.984,-0.04993701351651855,0.7862411996727035
-3.9835,0.1314559590640864,0.2034260873884947
-3.983,0.2594980573562781,-0.2098428104130352
-3.9825,0.2808384070716433,-0.3899856633008816
-3.982,0.2274875327832301,-0.3793890248957141
-3.9815,0.1634664836371343,-0.2734226408440398
-3.981,0.08877525963335578,-0.1568596183871981
-3.9805,0.1207857842064037,-0.1462629799820306
-3.98,0.142126133921769,-0.07208651114585861
-3.9795,0.1101156093487211,0.08686306493165288
-3.979,0.0674349099179905,0.2458126410091644
-3.9785,0.03542438534494258,0.3623756634660061
-3.978,-0.007256314085787988,0.4259554938970107
-3.9775,-0.3593720843893152,0.6908714540261965
-3.977,-0.9675720512772257,1.125333628638062
-3.9765,-1.373038695869166,1.453829419198252
-3.976,-1.501080794161358,1.411442865577582
-3.9755,-1.148965023857831,0.7968378380778709
-3.975,-0.690147504977477,0.09745970333682032
-3.9745,-0.3166913849585846,-0.4217755785163839
-3.974,-0.08194753808956648,-0.7078848154559045
-3.9735,0.02475421048725994,-0.8032545611024114
-3.973,0.0674349099179905,-0.7714646458869092
-3.9725,0.05676473506030786,-0.6866915386455698
-3.972,0.04609456020262521,-0.5595318777835605
-3.9715,0.02475421048725994,-0.4217755785163839
-3.971,0.02475421048725994,-0.2840192792492073
-3.9705,0.01408403562957729,-0.1462629799820306
-3.97,0.03542438534494258,-0.008506680714854012
-3.9695,0.2594980573562781,0.2458126410091644
-3.969,0.9103787236749192,0.7650479228623686
-3.9685,0.9210488985326017,1.178316820663898
-3.968,0.1954770082101822,1.506812611224089
-3.9675,-0.124628237520297,1.400846227172415
-3.967,0.01408403562957729,0.627291623595192
-3.9665,0.1848068333524996,-0.04029659593035631
-3.966,0.2488278824985954,-0.400582301706049
-3.9655,0.2274875327832301,-0.4959520473525559
-3.965,0.1634664836371343,-0.4111789401112165
-3.9645,0.09944543449103843,-0.2628260024388724
-3.964,0.1207857842064037,-0.1356663415768632
-3.9635,0.2274875327832301,-0.07208651114585861
-3.963,0.2061471830678648,0.07626642652648545
-3.9625,0.142126133921769,0.2352160026039969
-3.962,0.07810508477567314,0.3729723018711736
-3.9615,0.02475421048725994,0.4471487707073456
-3.961,-0.1352984123779797,0.55311515475902
-3.9605,-0.807519428411986,0.9134008605347127
-3.96,-1.373038695869166,1.29487984312074
-3.9595,-1.629122892453549,1.485619334413754
-3.959,-1.383708870726849,1.082947075017392
-3.9585,-0.8928808272734472,0.3729723018711736
-3.958,-0.4447334832507763,-0.2204394488182027
-3.9575,-0.156638762093345,-0.6019184314042303
-3.957,0.00341386077189465,-0.7714646458869092
-3.9565,0.0674349099179905,-0.792657922697244
-3.956,0.0674349099179905,-0.7290780922662394
-3.9555,0.05676473506030786,-0.6337083466197325
-3.955,0.03542438534494258,-0.5065486857577234
-3.9545,0.02475421048725994,-0.3687923864905467
-3.954,0.03542438534494258,-0.2310360872233701
-3.9535,0.04609456020262521,-0.1144730647665284
-3.953,0.05676473506030786,0.02328323450064829
-3.9525,0.2274875327832301,0.4047622170866759
-3.952,0.1527963087794516,0.8180311148882058
-3.9515,-0.3273615598162672,1.178316820663898
-3.951,-0.3060212101009019,0.849821030103708
-3.9505,0.3128489316446912,-0.2416327256285375
-3.95,0.6649647019482183,-0.9304142219644207
-3.9495,0.6863050516635838,-0.9516074987747555
-3.949,0.5369226036560266,-0.6443049850249
-3.9485,0.3341892813600565,-0.2946159176543747
-3.948,0.1741366584948169,-0.02969995752518888
-3.9475,0.09944543449103843,0.09745970333682032
-3.947,0.3875401556484697,-0.2416327256285375
-3.9465,0.5049120790829789,-0.400582301706049
-3.946,0.3982103305061524,-0.2734226408440398
-3.9455,0.2488278824985954,-0.09327978795619347
-3.945,0.1207857842064037,0.04447651131098315
-3.9445,-0.09261771294724913,0.13984625695749
-3.944,-0.7648387289812555,0.5107286011383502
-3.9435,-1.319687821580753,1.00877060618122
-3.943,-1.586442193022819,1.326669758336243
-3.9425,-1.351698346153801,0.9981739677760521
-3.942,-0.8715404775580819,0.3199891098453364
-3.9415,-0.4340633083930936,-0.3052125560595421
-3.941,-0.1459685872356623,-0.7078848154559045
-3.9405,0.00341386077189465,-0.9092209451540858
-3.94,0.0674349099179905,-0.9516074987747555
-3.9395,0.0674349099179905,-0.8986243067489184
-3.939,0.05676473506030786,-0.792657922697244
-3.9385,0.03542438534494258,-0.6549016234300674
-3.938,0.02475421048725994,-0.5171453241628908
-3.9375,0.02475421048725994,-0.3581957480853793
-3.937,0.03542438534494258,-0.1992461720078678
-3.9365,0.04609456020262521,-0.05089323433552374
-3.936,-0.06060718837420119,0.2246193641988295
-3.9355,-0.5941159312583333,0.7650479228623686
-3.935,-0.9995825758502737,1.231300012689736
-3.9345,-1.202315898146244,1.538602526439591
-3.934,-0.7861790786966207,1.231300012689736
-3.9335,-0.2206598112394408,0.5743084315693548
-3.933,0.142126133921769,0.03387987290581572
-3.9325,0.3021787567870086,-0.2734226408440398
-3.932,0.3021787567870086,-0.3581957480853793
-3.9315,0.2274875327832301,-0.2840192792492073
-3.931,0.142126133921769,-0.1356663415768632
-3.9305,0.09944543449103843,-0.01910331912002144
-3.93,0.07810508477567314,0.1186529801471552
-3.9295,0.04609456020262521,0.2670059178194992
-3.929,0.03542438534494258,0.3941655786815084
-3.9285,0.01408403562957729,0.4789386859228479
-3.928,-0.04993701351651855,0.4895353243280153
-3.9275,-0.5194247072545548,0.5955017083796896
-3.927,-1.031593100423322,0.9028042221295453
-3.9265,-1.490410619303675,1.263089927905238
-3.926,-1.83185621474952,1.464426057603419
-3.9255,-1.703814116457328,1.157123543853563
-3.925,-1.159635198715513,0.457745409112513
-3.9245,-0.6154562809736985,-0.1886495336027004
-3.924,-0.2313299860971235,-0.6019184314042303
-3.9235,-0.01792648894347063,-0.8032545611024114
-3.923,0.07810508477567314,-0.8456411147230812
-3.9225,0.09944543449103843,-0.7820612842920766
-3.922,0.08877525963335578,-0.6760949002404023
-3.9215,0.0674349099179905,-0.5383386009732256
-3.921,0.05676473506030786,-0.3899856633008816
-3.9205,0.05676473506030786,-0.2416327256285375
-3.92,0.05676473506030786,-0.1038764263613609
-3.9195,0.07810508477567314,0.1080563417419877
-3.919,0.04609456020262521,0.6060983467848571
-3.9185,-0.274010685527854,1.072350436612224
-3.918,-0.8288597781273515,1.369056311956912
-3.9175,-0.8608703027003992,1.00877060618122
-3.917,-0.423393133535411,0.3305857482505039
-3.9165,-0.01792648894347063,-0.1568596183871981
-3.916,0.1954770082101822,-0.3899856633008816
-3.9155,0.2488278824985954,-0.4429688553267188
-3.915,0.2168173579255475,-0.3687923864905467
-3.9145,0.1527963087794516,-0.2310360872233701
-3.914,0.1527963087794516,-0.1462629799820306
-3.9135,0.2168173579255475,-0.1038764263613609
-3.913,0.1848068333524996,0.05507314971615059
-3.9125,0.1314559590640864,0.2246193641988295
-3.912,0.07810508477567314,0.3517790250608387
-3.9115,0.03542438534494258,0.4365521323021782
-3.911,-0.3060212101009019,0.5637117931641874
-3.9105,-1.116954499284783,0.9345941373450475
-3.91,-1.67180359188428,1.326669758336243
-3.9095,-1.789175515318789,1.443232780793084
-3.909,-1.373038695869166,0.9345941373450475
-3.9085,-0.8181896032696687,0.2352160026039969
-3.908,-0.3593720843893152,-0.326405832869877
-3.9075,-0.08194753808956648,-0.6654982618352349
-3.907,0.05676473506030786,-0.8138511995075789
-3.9065,0.09944543449103843,-0.8244478379127463
-3.906,0.09944543449103843,-0.7608680074817418
-3.9055,0.07810508477567314,-0.6549016234300674
-3.905,0.05676473506030786,-0.5383386009732256
-3.9045,0.04609456020262521,-0.4217755785163839
-3.904,0.04609456020262521,-0.2734226408440398
-3.9035,0.04609456020262521,-0.1462629799820306
-3.903,0.1527963087794516,0.03387987290581572
-3.9025,0.408880505363835,0.5319218779486851
-3.902,0.07810508477567314,1.072350436612224
-3.9015,-0.3807124341046804,1.369056311956912
-3.901,-0.5194247072545548,1.146526905448396
-3.9005,-0.1993194615240755,0.5001319627331828
-3.9,0.1101156093487211,-0.05089323433552374
-3.8995,0.2701682322139607,-0.3687923864905467
-3.899,0.291508581929326,-0.4641621321370536
-3.8985,0.2381577076409128,-0.4111789401112165
-3.898,0.1741366584948169,-0.2628260024388724
-3.8975,0.09944543449103843,-0.1356663415768632
-3.897,0.02475421048725994,-0.1992461720078678
-3.8965,-0.007256314085787988,-0.1144730647665284
-3.896,-0.007256314085787988,0.06566978812131802
-3.8955,0.00341386077189465,0.2458126410091644
-3.895,0.01408403562957729,0.3729723018711736
-3.8945,-0.124628237520297,0.457745409112513
-3.894,-0.839529952985034,0.7862411996727035
-3.8935,-1.543761493592088,1.220703374284568
-3.893,-2.023919362187807,1.528005888034424
-3.8925,-1.938557963326346,1.33726639674141
-3.892,-1.341028171296118,0.627291623595192
-3.8915,-0.722158029550525,-0.06148987274069118
-3.891,-0.274010685527854,-0.5277419625680583
-3.8905,-0.01792648894347063,-0.7608680074817418
-3.89,0.09944543449103843,-0.8138511995075789
-3.8895,0.1207857842064037,-0.7714646458869092
-3.889,0.1101156093487211,-0.6549016234300674
