Class_2_Relax_eyes_open/Class_2_Relax_Eyes_open_Zakour_4.csv

#Digilent WaveForms Oscilloscope Acquisition
#Device Name: EExplorer
#Serial Number: SN:210151A2B84A
#Date Time: 2020-11-18 11:37:45.953
#Sample rate: 2000Hz
#Samples: 16384
#Trigger: Source: Channel 1 Type: Edge Condition: Rising Level: 0 V Hyst.: Auto HoldOff: 0 s
#Channel 1: Range: 1 V/div Offset: 0 V Attenuation: 1 X
#Channel 2: Range: 1 V/div Offset: 0 V Attenuation: 1 X
#Power Supplies: ON
#Fixed Supply: ON
#Voltage: 3.3 V Readback: 3.317 V
#Positive Supply: ON
#Voltage: 3.7 V Readback: 3.72 V
#Current: 500 mA Readback: 20 mA
#Negative Supply: ON
#Voltage: -3.7 V Readback: -3.707 V
#Current: -500 mA Readback: -7 mA
#Reference 1: ON
#Voltage: 0 V
#Reference 2: ON
#Voltage: 0 V

Time (s),Channel 1 (V),Channel 2 (V)
-4.096,0.6863050516635838,-0.1568596183871981
-4.0955,0.6756348768059107,-0.1356663415768825
-4.095,0.6863050516636323,-0.1038764263612549
-4.0945,0.7396559259519968,0.01268659609548085
-4.094,0.6756348768059592,0.08686306493158542
-4.0935,0.600943652802045,0.1716361721730309
-4.093,0.5155822539406614,0.2140227257936621
-4.0925,0.4088805053639321,0.267005917819451
-4.092,0.2061471830678163,0.3729723018711351
-4.0915,0.1527963087794516,0.3305857482505039
-4.091,-0.4340633083930936,-0.3793890248957141
-4.0905,-1.031593100423428,-1.025783967611024
-4.09,-1.148965023857831,-1.131750351662602
-4.0895,-0.7755089038389382,-0.5807251545938954
-4.089,-0.3060212101013289,0.08686306493104567
-4.0885,0.04609456020262521,0.627291623595192
-4.088,0.2701682322139607,0.9769806909657173
-4.0875,0.3661998059330172,1.167720182258557
-4.087,0.3982103305061427,1.241896651094913
-4.0865,0.3875401556484697,1.25249328950007
-4.086,0.3661998059331239,1.199510097474281
-4.0855,0.3341892813600371,1.093543713422415
-4.085,0.3128489316446912,0.9345941373450475
-4.0845,0.3021787567870183,0.807434476483154
-4.084,0.206147183067302,0.5213252395428623
-4.0835,-0.4127229586777283,-0.1992461720078678
-4.083,-0.9995825758502737,-1.05757388282643
-4.0825,-1.191645723288493,-1.703968825541875
-4.082,-1.116954499284783,-1.958288147265661
-4.0815,-0.6367966306890638,-1.608599079895136
-4.081,-0.06060718837472523,-0.9833974139908265
-4.0805,0.3661998059331045,-0.5595318777835605
-4.08,0.6009436528021226,-0.2946159176543747
-4.0795,0.6863050516635062,-0.1462629799821656
-4.079,0.696975226521276,-0.02969995752503467
-4.0785,0.707645401378949,0.13984625695749
-4.078,0.8997085488170617,0.4577454091122239
-4.0775,1.03842082196713,0.6908714540263508
-4.077,1.059761171682476,0.8604176685088755
-4.0765,0.9103787236750551,0.786241199672771
-4.076,0.6969752265212178,0.6166949851901306
-4.0755,0.6436243522328531,0.7332580076468663
-4.075,0.857027849386506,0.9981739677760521
-4.0745,0.20614718306704,0.3305857482497329
-4.074,-0.7008176798351597,-0.5171453241628908
-4.0735,-1.255666772434657,-0.9939940523954253
-4.073,-1.052933450138871,-0.7396747306716382
-4.0725,-0.5834457564006506,-0.1038764263613609
-4.072,-0.1352984123779797,0.5213252395435176
-4.0715,0.1634664836368626,0.9769806909653029
-4.071,0.3235191065024321,1.252493289500205
-4.0705,0.3875401556484697,1.400846227172415
-4.07,0.3875401556484697,1.443232780793046
-4.0695,0.366199805933085,1.422039503982653
-4.069,0.3448594562177392,1.316073119931075
-4.0685,0.3235191065023739,1.157123543853563
-4.068,0.2915085819292192,0.9239974989395331
-4.0675,0.1741366584948169,0.5425185163538525
-4.067,-0.1673089369510276,-0.1886495336027004
-4.0665,-0.007256314086156758,-1.015187329206377
-4.066,-0.4127229586777283,-1.693372187136476
-4.0655,-0.8822106524157645,-2.011271339291499
-4.065,-0.7648387289813623,-1.629792356705818
-4.0645,-0.2953510352432193,-1.004590690800593
-4.064,0.1634664836371343,-0.5383386009732256
-4.0635,0.4515612047943036,-0.2310360872236496
-4.063,0.6009436528021517,-0.09327978795610674
-4.0625,0.6329541773751706,0.002089957690313421
-4.062,0.6009436528021517,0.0444765113109446
-4.0615,0.7716664505251322,0.1398462569575671
-4.061,0.8676980242441885,0.2246193641988295
-4.0605,0.79300680024041,0.2246193641988295
-4.06,0.6863050516634868,0.2458126410092029
-4.0595,0.5796033030867573,0.2881991946298341
-4.059,0.3235191065023739,0.3411823866556712
-4.0585,-0.2953510352426564,0.2564092794144089
-4.058,-0.9675720512772257,-0.2628260024388724
-4.0575,-1.437059745015262,-0.9516074987747555
-4.057,-1.479740444445954,-1.237716735714016
-4.0565,-1.031593100423322,-0.7714646458869092
-4.056,-0.4660738329661415,-0.02969995752518888
-4.0555,-0.02859666380155118,0.6166949851894367
-4.055,0.2381577076410292,1.051157159802111
-4.0545,0.3661998059331045,1.29487984312074
-4.054,0.3982103305061233,1.411442865577476
-4.0535,0.3875401556484503,1.422039503982701
-4.053,0.3661998059331045,1.369056311956912
-4.0525,0.3341892813600565,1.263089927905238
-4.052,0.3235191065023544,1.114736990232701
-4.0515,0.3021787567870086,0.9028042221295453
-4.051,0.291508581929326,0.7120647308365314
-4.0505,0.06743490991819429,0.3093924714405352
-4.05,-0.2953510352432193,-0.5171453241628908
-4.0495,-0.6474668055467465,-1.322489842955616
-4.049,-1.084943974711337,-1.915901593644453
-4.0485,-1.159635198715077,-1.958288147265064
-4.048,-0.6794773301197943,-1.301296566145281
-4.0475,-0.1352984123784746,-0.6443049850254975
-4.047,0.2594980573564916,-0.2098428104128136
-4.0465,0.4942419042252961,0.03387987290581572
-4.046,0.6009436528020256,0.0868630649316047
-4.0455,0.6222840025175752,0.08686306493158542
-4.045,0.7183155762366316,0.01268659609548085
-4.0445,0.8143471499557753,0.04447651131098315
-4.044,0.7289857510942075,0.1398462569575671
-4.0435,0.6116138276598051,0.2246193641988295
-4.043,0.5049120790829789,0.3199891098453364
-4.0425,0.4302208550792683,0.4471487707072299
-4.042,0.6436243522328531,0.9451907757502149
-4.0415,0.6863050516635838,1.019367244586387
-4.041,-0.03926683865817604,0.1716361721737634
-4.0405,-0.7434983792660941,-0.5701285161889785
-4.04,-0.9675720512772257,-0.8456411147230812
-4.0395,-0.6901475049777293,-0.4747587705425584
-4.039,-0.2846808603852455,0.0762664265269095
-4.0385,0.03542438534494258,0.5425185163538525
-4.038,0.2381577076407284,0.8498210301034286
-4.0375,0.3341892813600856,1.040560521396799
-4.037,0.3661998059331045,1.125333628638062
-4.0365,0.3661998059331045,1.146526905448396
-4.036,0.3448594562177197,1.114736990232798
-4.0355,0.3235191065023739,1.00877060618122
-4.035,0.3021787567870086,0.8816109453192104
-4.0345,0.2915085819293357,0.6908714540263701
-4.034,0.08877525963335578,0.309392471440169
-4.0335,-0.6047861061160158,-0.474758770542221
-4.033,-1.30901764672243,-1.269506650929055
-4.0325,-1.789175515318867,-1.894708316834889
-4.032,-1.87453691418025,-2.149027638558676
-4.0315,-1.234326422719874,-1.576809164680155
-4.031,-0.4767440078232808,-0.9092209451537292
-4.0305,0.1207857842064037,-0.5171453241628908
-4.03,0.4729015545096106,-0.2840192792494193
-4.0295,0.611613827659844,-0.1356663415768343
-4.029,0.6542945270905358,-0.1038764263613609
-4.0285,0.6863050516635838,-0.1356663415768632
-4.028,0.7930068002403421,-0.146262979981915
-4.0275,0.7183155762366316,-0.01910331912002144
-4.027,0.6009436528021226,0.1716361721729923
-4.0265,0.515582253940739,0.3305857482503593
-4.026,0.4408910299368829,0.4259554938970107
-4.0255,0.6436243522328531,0.7544512844572011
-4.025,0.9743997728207141,1.072350436611935
-4.0245,0.3235191065014617,0.3835689402754447
-4.024,-0.6794773301197943,-0.6019184314042303
-4.0235,-1.212986073003441,-1.152943628472436
-4.023,-0.9995825758498467,-0.8562377531276993
-4.0225,-0.5300948821122373,-0.252229364033705
-4.022,-0.1139580626629929,0.2987958330345004
-4.0215,0.1741366584949431,0.6908714540263989
-4.021,0.3128489316446912,0.9134008605347127
-4.0205,0.3661998059331045,1.019367244586387
-4.02,0.3768699807907677,1.05115715980187
-4.0195,0.3555296310754218,1.029963882991555
-4.019,0.3341892813600565,0.9769806909657173
-4.0185,0.3128489316447107,0.8604176685089815
-4.018,0.3021787567870086,0.6590815388106942
-4.0175,0.1741366584948169,0.3411823866556712
-4.017,-0.4767440078232323,-0.3899856633002166
-4.0165,-1.223656247861997,-1.184733543688998
-4.016,-1.650463242168915,-1.79933857118815
-4.0155,-1.437059745015456,-1.735758740757203
-4.015,-0.7755089038383559,-1.121153713256885
-4.0145,-0.1352984123779797,-0.5171453241628908
-4.014,0.3128489316442837,-0.06148987274110557
-4.0135,0.5582629533714697,0.1080563417419877
-4.013,0.6436243522328531,0.1080563417419877
-4.0125,0.6329541773751706,0.09745970333682032
-4.012,0.590273477944566,0.07626642652634089
-4.0115,0.7289857510943143,-0.08268314955102604
-4.011,0.7183155762366316,-0.06148987274069118
-4.0105,0.6116138276599021,0.08686306493151796
-4.01,0.5049120790829789,0.2352160026039969
-4.0095,0.4195506802215176,0.3517790250608387
-4.009,0.5049120790829013,0.5743084315691525
-4.0085,0.9850699476783289,1.061753798206671
-4.008,0.5796033030867573,0.6378882620003594
-4.0075,-0.3487019095307882,-0.2840192792483689
-4.007,-1.02092292556559,-0.9410108603695111
-4.0065,-0.9675720512772257,-0.8562377531282487
-4.006,-0.572775581542968,-0.3158091944647096
-4.0055,-0.1673089369507656,0.2458126410095403
-4.005,0.1207857842064037,0.6590815388106942
-4.0045,0.291508581929326,0.9134008605347127
-4.004,0.3555296310754315,1.04056052139677
-4.0035,0.3661998059331045,1.093543713422559
-4.003,0.3555296310754218,1.082947075017392
-4.0025,0.3448594562177489,1.040560521396761
-4.002,0.3235191065023739,0.9769806909657173
-4.0015,0.3021787567870086,0.7544512844572011
-4.001,0.2168173579256251,0.3941655786818361
-4.0005,-0.2633405106707634,-0.3475991096809539
-4,-0.9142211769888124,-1.163540266878104
-3.9995,-1.405049220442214,-1.831128486403653
-3.999,-1.757164990745741,-2.318573853041354
-3.9985,-1.554431668449771,-2.106641084938006
-3.998,-0.839529952985034,-1.333086481360783
-3.9975,-0.1459685872356623,-0.6549016234300674
-3.997,0.3235191065023739,-0.1780528951975329
-3.9965,0.5475927785137094,0.13984625695749
-3.996,0.6329541773751706,0.2564092794143318
-3.9955,0.6222840025174878,0.2564092794143318
-3.995,0.7503261008096795,0.2458126410091644
-3.9945,0.8143471499557753,0.2352160026039969
-3.994,0.707645401378949,0.2564092794143318
-3.9935,0.5689331282290746,0.2776025562246667
-3.993,0.4515612047945656,0.3199891098453364
-3.9925,0.4302208550792003,0.4153588554918433
-3.992,0.857027849386506,0.9028042221295453
-3.9915,0.8676980242441885,0.7650479228623686
-3.991,0.00341386077189465,-0.1250697031716958
-3.9905,-0.9142211769888124,-0.8880276683437509
-3.99,-1.180975548430879,-1.110557074852267
-3.9895,-0.839529952985034,-0.6760949002404023
-3.989,-0.3807124341046804,-0.07208651114585861
-3.9885,-0.007256314085787988,0.4153588554918433
-3.988,0.2274875327832301,0.7332580076468663
-3.9875,0.3341892813600565,0.9028042221295453
-3.987,0.3768699807907871,0.9663840525605498
-3.9865,0.3661998059331045,0.9769806909657173
-3.986,0.3448594562177392,0.9345941373450475
-3.9855,0.3235191065023739,0.8286277532933731
-3.985,0.291508581929326,0.6378882620003594
-3.9845,0.2808384070716433,0.4683420475176805
-3.984,0.0674349099179905,0.13984625695749
-3.9835,-0.6154562809736985,-0.6125150698093976
-3.983,-1.255666772434657,-1.375473034981453
-3.9825,-1.394379045584531,-1.88411167842949
-3.982,-0.9248913518464952,-1.693372187136476
-3.9815,-0.274010685527854,-1.163540266878104
-3.981,0.2061471830678648,-0.6972881770507372
-3.9805,0.5155822539406614,-0.5065486857577234
-3.98,0.6649647019482183,-0.4217755785163839
-3.9795,0.6969752265212663,-0.2840192792492073
-3.979,0.6542945270905358,-0.07208651114585861
-3.9785,0.6436243522328531,0.2246193641988295
-3.978,0.6863050516635838,0.701468092431364
-3.9775,0.6116138276598051,0.8180311148882058
-3.977,0.5155822539406614,0.7332580076468663
-3.9765,0.4729015545099309,0.6378882620003594
-3.976,0.4302208550792003,0.5637117931641874
-3.9755,0.6222840025174878,0.8392243916985406
-3.975,0.8356874996711408,0.9134008605347127
-3.9745,0.2061471830678648,0.09745970333682032
-3.974,-0.5300948821122373,-0.7714646458869092
-3.9735,-0.6794773301197943,-0.8562377531282487
-3.973,-0.4340633083930936,-0.3687923864905467
-3.9725,-0.1352984123779797,0.2034260873884947
-3.972,0.1101156093487211,0.6696781772158616
-3.9715,0.2594980573562781,0.9769806909657173
-3.971,0.3235191065023739,1.146526905448396
-3.9705,0.3448594562177392,1.220703374284568
-3.97,0.3448594562177392,1.241896651094903
-3.9695,0.3235191065023739,1.199510097474233
-3.969,0.3021787567870086,1.125333628638062
-3.9685,0.291508581929326,0.9557874141553824
-3.968,0.2701682322139607,0.7226613692416989
-3.9675,0.1527963087794516,0.3729723018711736
-3.967,-0.5194247072545548,-0.3793890248957141
-3.9665,-1.234326422719292,-1.195330182093607
-3.966,-1.650463242168915,-1.831128486403653
-3.9655,-1.383708870726849,-1.79933857118815
-3.965,-0.6688071552621118,-1.311893204550448
-3.9645,-0.03926683865883591,-0.8032545611024114
-3.964,0.3768699807907871,-0.4323722169215513
-3.9635,0.5902734779444399,-0.2734226408440398
-3.963,0.6542945270905358,-0.2098428104130352
-3.9625,0.6436243522328531,-0.1568596183871981
-3.962,0.6222840025174878,-0.1568596183871981
-3.9615,0.7289857510943143,-0.1674562567923655
-3.961,0.7289857510943143,-0.008506680714854012
-3.9605,0.6436243522328531,0.1610395337678249
-3.96,0.5369226036560266,0.2776025562246667
-3.9595,0.4408910299368829,0.3729723018711736
-3.959,0.5262524287983441,0.5743084315693548
-3.9585,0.974399772821015,1.019367244586387
-3.958,0.4942419042252961,0.55311515475902
-3.9575,-0.4767440078238243,-0.326405832869877
-3.957,-1.234326422719292,-0.9410108603695881
-3.9565,-1.234326422719292,-0.9198175835592532
-3.956,-0.7861790786966207,-0.3687923864905467
-3.9555,-0.2953510352432193,0.2352160026039969
-3.955,0.05676473506030786,0.7120647308365314
-3.9545,0.2594980573562781,0.9981739677760521
-3.954,0.3448594562177392,1.146526905448396
-3.9535,0.3661998059331045,1.199510097474233
-3.953,0.3555296310754218,1.188913459069066
-3.9525,0.3235191065023739,1.114736990232894
-3.952,0.3021787567870086,1.00877060618122
-3.9515,0.2808384070716433,0.849821030103708
-3.951,0.1634664836371343,0.4259554938970107
-3.9505,-0.4020527838200457,-0.3475991096802118
-3.95,-1.244996597576974,-1.174136905283272
-3.9495,-1.83185621474952,-1.84172512480882
-3.949,-2.23732285934146,-2.329170491446522
-3.9485,-1.853196564464885,-2.074851169722503
-3.948,-0.9782422261349084,-1.407262950196955
-3.9475,-0.1886492866663929,-0.8986243067489184
-3.947,0.3448594562177392,-0.5383386009732256
-3.9465,0.6009436528021226,-0.2416327256285375
-3.946,0.6756348768059011,-0.04029659593035631
-3.9455,0.6436243522328531,0.04447651131098315
-3.945,0.7289857510943143,0.02328323450064829
-3.9445,0.7609962756673623,0.03387987290581572
-3.944,0.6649647019482183,0.09745970333682032
-3.9435,0.5369226036560266,0.1610395337678249
-3.943,0.4302208550792003,0.2246193641988295
-3.9425,0.3875401556484697,0.3623756634660061
-3.942,0.6009436528021226,0.8710143069140429
-3.9415,0.4515612047945656,0.7438546460520338
-3.941,-0.3487019095316325,-0.1356663415768632
-3.9405,-1.095614149569417,-0.8986243067489184
-3.94,-1.148965023857831,-1.025783967610927
-3.9395,-0.7434983792658902,-0.5277419625680583
-3.939,-0.2846808603855366,0.06566978812131802
-3.9385,0.05676473506030786,0.5425185163538525
-3.938,0.2594980573562781,0.849821030103708
-3.9375,0.3448594562177392,1.00877060618122
-3.937,0.3661998059331045,1.082947075017392
-3.9365,0.3555296310754218,1.093543713422559
-3.936,0.3341892813600565,1.040560521396722
-3.9355,0.3021787567870086,0.9345941373450475
-3.935,0.291508581929326,0.7862411996727035
-3.9345,0.2594980573562781,0.5107286011383502
-3.934,0.08877525963335578,0.1822328105781598
-3.9335,-0.5621054066852853,-0.5277419625680583
-3.933,-1.234326422719292,-1.280103289334946
-3.9325,-1.67180359188428,-1.873515040024322
-3.932,-1.46907026958831,-1.79933857118815
-3.9315,-0.7861790786966207,-1.258910012524611
-3.931,-0.1459685872356623,-0.7502713690765743
-3.9305,0.3128489316446912,-0.4217755785163839
-3.93,0.5475927785137094,-0.2416327256285375
-3.9295,0.6436243522328531,-0.1886495336027004
-3.929,0.6436243522328531,-0.1250697031716958
-3.9285,0.6542945270905358,-0.09327978795619347
-3.928,0.7503261008096795,-0.1992461720078678
-3.9275,0.6969752265212663,-0.1038764263613609
-3.927,0.5796033030867573,0.06566978812131802
-3.9265,0.4942419042252961,0.2564092794143318
-3.926,0.4195506802215176,0.4789386859228479
-3.9255,-0.08194753808956648,0.2140227257936621
-3.925,-0.5834457564006506,-0.5171453241628908
-3.9245,-1.020922925565639,-1.258910012524611
-3.924,-1.191645723288561,-1.703968825541643
-3.9235,-0.9675720512772257,-1.354279758171118
-3.923,-0.5087545323968721,-0.570128516188728
-3.9225,-0.1032878878049318,0.1610395337678249
-3.922,0.1634664836371343,0.6590815388106942
-3.9215,0.3128489316446912,0.9345941373450475
-3.921,0.3661998059331045,1.040560521396722
-3.9205,0.3661998059331045,1.051157159801889
-3.92,0.3555296310754218,1.00877060618122
-3.9195,0.3235191065023739,0.92399749893988
-3.919,0.3021787567870086,0.8074344764830383
-3.9185,0.3021787567870086,0.6802748156210291
-3.918,0.291508581929326,0.5425185163538525
-3.9175,0.2701682322139607,0.4471487707073456
-3.917,0.3661998059331045,-0.04029659593035631
-3.9165,0.4408910299368829,-0.8456411147230812
-3.916,-0.01792648894347063,-1.545019249464132
-3.9155,-0.754168554123573,-2.011271339291499
-3.915,-0.807519428411986,-1.862918401619155
-3.9145,-0.4127229586777283,-1.290699927740113
-3.914,0.04609456020262521,-0.8562377531282487
-3.9135,0.3875401556484697,-0.5383386009732256
-3.913,0.5582629533713921,-0.2310360872233701
-3.9125,0.6116138276598051,0.07626642652648545
-3.912,0.6009436528021226,0.2458126410091644
-3.9115,0.6863050516635838,0.4895353243280153
-3.911,0.6756348768059011,0.5743084315693548
-3.9105,0.5796033030867573,0.5001319627331828
-3.91,0.4835717293676135,0.4153588554918433
-3.9095,0.3982103305061524,0.3623756634660061
-3.909,0.1101156093487211,0.309392471440169
-3.9085,0.1314559590640864,0.309392471440169
-3.908,-0.09261771294724913,-0.1992461720078678
-3.9075,-0.5834457564006506,-0.9198175835592532
-3.907,-0.6794773301197943,-0.9728007755850904
-3.9065,-0.423393133535411,-0.474758770542221
-3.906,-0.124628237520297,0.08686306493165288
-3.9055,0.1207857842064037,0.5319218779486851
-3.905,0.2594980573562781,0.8180311148882058
-3.9045,0.3235191065023739,0.9769806909657173
-3.904,0.3448594562177392,1.040560521396722
-3.9035,0.3341892813600565,1.051157159801889
-3.903,0.3235191065023739,1.029963882991555
-3.9025,0.3021787567870086,0.9875773293708847
-3.902,0.291508581929326,0.9028042221295453
-3.9015,0.291508581929326,0.7650479228623686
-3.901,0.1741366584948169,0.4153588554918433
-3.9005,-0.4554036581084589,-0.3793890248957141
-3.9,-1.138294849000148,-1.184733543688439
-3.8995,-1.458400094730627,-1.75695201756748
-3.899,-1.543761493592088,-2.149027638558676
-3.8985,-1.191645723288561,-1.862918401619155
-3.898,-0.5621054066852853,-1.216523458903942
-3.8975,-0.01792648894347063,-0.5807251545938954
-3.897,0.3555296310754218,-0.1568596183871981
-3.8965,0.5582629533713921,0.1292496185523226
-3.896,0.6222840025174878,0.1716361721729923
-3.8955,0.6329541773751706,0.13984625695749
-3.895,0.7503261008096795,0.07626642652648545
-3.8945,0.7716664505250448,0.1186529801471552
-3.894,0.6649647019482183,0.1822328105781598
-3.8935,0.5369226036560266,0.2352160026039969
-3.893,0.5049120790829789,0.4365521323021782
-3.8925,0.3768699807907871,0.5955017083796896
-3.892,0.3341892813600565,0.6590815388106942
-3.8915,0.2061471830678648,0.3729723018711736
-3.891,-0.4554036581084589,-0.4853554089473885
-3.8905,-0.9675720512772257,-1.046977244421262
-3.89,-0.8181896032696687,-0.7820612842920766
-3.8895,-0.4447334832507763,-0.1992461720078678
-3.889,-0.08194753808956648,0.3411823866556712
-3.8885,0.1634664836371343,0.7332580076468663
-3.888,0.291508581929326,0.9557874141553824
-3.8875,0.3448594562177392,1.061753798207057
-3.887,0.3448594562177392,1.093543713422559
-3.8865,0.3341892813600565,1.082947075017392
-3.886,0.3128489316446912,1.019367244586387
