Class_2_Relax_eyes_open/Class_2_Relax_eyes_open_SH_13.csv

#Digilent WaveForms Oscilloscope Acquisition
#Device Name: EExplorer
#Serial Number: SN:210151A2B84A
#Date Time: 2021-02-03 13:55:59.181
#Sample rate: 2000Hz
#Samples: 16384
#Trigger: Source: Channel 1 Type: Edge Condition: Rising Level: 0 V Hyst.: Auto HoldOff: 0 s
#Channel 1: Range: 1 V/div Offset: 0 V Attenuation: 1 X
#Channel 2: Range: 1 V/div Offset: 0 V Attenuation: 1 X
#Power Supplies: ON
#Fixed Supply: ON
#Voltage: 3.3 V Readback: 3.335 V
#Positive Supply: ON
#Voltage: 3.7 V Readback: 3.707 V
#Current: 40 mA Readback: 20 mA
#Negative Supply: ON
#Voltage: -3.7 V Readback: -3.342 V
#Current: -40 mA Readback: -7 mA
#Reference 1: ON
#Voltage: 0 V
#Reference 2: ON
#Voltage: 0 V

Time (s),Channel 1 (V),Channel 2 (V)
-4.096,1.049090996824793,-0.4429688553267188
-4.0955,0.9957401225364287,-0.3052125560596674
-4.095,0.419550680220683,-0.6019184314047314
-4.0945,-0.4980843575391895,-1.152943628472937
-4.094,-1.319687821580005,-1.629792356705037
-4.0935,-1.949228138184136,-1.884111678429499
-4.093,-2.066600061618538,-1.894708316834657
-4.0925,-1.799845690176714,-1.417859588602556
-4.092,-0.9142211769881623,-0.5383386009724932
-4.0915,-0.1993194615240755,0.2670059178194992
-4.091,0.2808384070716433,0.8392243916985406
-4.0905,0.536922603656114,1.146526905448512
-4.09,0.6329541773751706,1.273686566310405
-4.0895,0.6436243522328531,1.284283204715573
-4.089,0.6222840025175073,1.294879843120731
-4.0885,0.6009436528021226,1.316073119931075
-4.088,0.5796033030867573,1.347863035146577
-4.0875,0.5475927785137384,1.443232780792998
-4.087,0.2701682322133299,1.602182356870683
-4.0865,-0.423393133535411,1.697552102517103
-4.086,-1.063603624995787,0.8816109453199524
-4.0855,-1.629122892453773,-0.273422640844541
-4.085,-1.87453691418025,-0.8244478379127463
-4.0845,-1.319687821581257,-0.7820612842921151
-4.084,-0.5834457564000974,-0.6866915386455504
-4.0835,0.02475421048725994,-0.6654982618352349
-4.083,0.4622313796522482,-0.718481453861072
-4.0825,0.7289857510944211,-0.8456411147231101
-4.082,0.8463576745288233,-0.8774310299385835
-4.0815,0.8036769750980928,-0.9728007755850904
-4.081,0.7609962756674011,-0.9304142219644592
-4.0805,0.79300680024041,-0.7290780922662394
-4.08,0.8997085488172365,-0.4959520473525559
-4.0795,0.9957401225362928,-0.2946159176545577
-4.079,1.006410297393714,-0.2522293640339748
-4.0785,0.6222840025174878,-0.5489352393783931
-4.078,-0.2526703358116928,-1.089363798041441
-4.0775,-1.095614149570087,-1.534422611059157
-4.077,-1.83185621474952,-1.746355379162313
-4.0765,-2.055929886760651,-1.672178910326208
-4.076,-1.73582464102959,-1.121153713256596
-4.0755,-0.8715404775580819,-0.1992461720078678
-4.075,-0.1673089369510276,0.627291623595192
-4.0745,0.3021787567872221,1.199510097474513
-4.074,0.5369226036560266,1.506812611224089
-4.0735,0.6329541773751706,1.623375633680931
-4.073,0.6436243522328434,1.612778995275773
-4.0725,0.6329541773751706,1.602182356870596
-4.072,0.6116138276598051,1.538602526439591
-4.0715,0.5582629533714406,1.443232780793171
-4.071,0.5155822539406225,1.337266396741227
-4.0705,0.4729015545099309,1.135930267043229
-4.07,0.03542438534534048,0.4683420475182877
-4.0695,-0.7221580295511849,-0.5171453241636522
-4.069,-1.447729919872945,-1.354279758171118
-4.0685,-1.970568487899394,-1.703968825541643
-4.068,-1.682473766741216,-1.184733543688034
-4.0675,-0.8608703027003992,-0.7396747306714069
-4.067,-0.124628237520297,-0.570128516188728
-4.0665,0.4088805053641262,-0.6972881770509299
-4.066,0.7289857510943143,-0.9092209451540858
-4.0655,0.8783681991018712,-1.025783967610927
-4.065,0.931719073390236,-1.01518732920577
-4.0645,0.9317190733902845,-0.9728007755850904
-4.064,0.942389248247967,-0.792657922697244
-4.0635,0.942389248247967,-0.6337083466198771
-4.063,0.9103787236749096,-0.464162132136938
-4.0625,0.8997085488172365,-0.3370024712750445
-4.062,0.7609962756674884,-0.2628260024389398
-4.0615,0.04609456020182945,-0.2416327256289905
-4.061,-0.8288597781273515,-0.7396747306714069
-4.0605,-1.565101843307454,-1.258910012524611
-4.06,-2.0345895370455,-1.576809164679692
-4.0595,-2.045259711903173,-1.640388995110639
-4.059,-1.490410619303675,-1.046977244421262
-4.0585,-0.6367966306898402,-0.1568596183880077
-4.058,0.00341386077189465,0.6166949851900245
-4.0575,0.3982103305061524,1.135930267043229
-4.057,0.5796033030865924,1.432636142387647
-4.0565,0.6436243522328531,1.549199164844759
-4.056,0.6329541773751706,1.591585718465428
-4.0555,0.6116138276598245,1.623375633680902
-4.055,0.5902734779444108,1.633972272086098
-4.0545,0.5582629533713921,1.633972272086098
-4.054,0.4835717293676814,1.633972272086098
-4.0535,0.03542438534425356,1.506812611223665
-4.053,-0.722158029550525,1.040560521396722
-4.0525,-1.447729919872945,0.002089957690313421
-4.052,-1.927887788468333,-0.8562377531284414
-4.0515,-1.565101843307454,-1.068170521231597
-4.051,-0.7648387289812555,-0.9304142219644207
-4.0505,-0.09261771294786059,-0.8244478379128427
-4.05,0.3982103305061524,-0.7714646458869092
-4.0495,0.6863050516635838,-0.8350444763179138
-4.049,0.803676975097986,-0.9198175835591762
-4.0485,0.8036769750978211,-0.9833974139904506
-4.048,0.5049120790829789,-1.195330182093607
-4.0475,0.462231379652287,-1.110557074852344
-4.047,0.7716664505251807,-0.559531877783069
-4.0465,0.9210488985326017,-0.01910331912002144
-4.046,0.9103787236749289,0.2564092794140812
-4.0455,0.8783681991017257,0.1610395337676996
-4.045,0.7183155762366316,0.02328323450064829
-4.0445,0.07810508477567314,-0.3581957480853793
-4.044,-0.6581369804050695,-0.8456411147235149
-4.0435,-1.362368521011484,-1.322489842955616
-4.043,-1.906547438753298,-1.619195718300304
-4.0425,-1.533091318734745,-1.248313374119781
-4.042,-0.754168554123573,-0.4323722169215513
-4.0415,-0.1139580626626144,0.3411823866556712
-4.041,0.3128489316443031,0.8922075837238767
-4.0405,0.5369226036561042,1.220703374284703
-4.04,0.6222840025174878,1.369056311956912
-4.0395,0.6329541773751609,1.411442865577544
-4.039,0.611613827659776,1.464426057603391
-4.0385,0.5796033030867573,1.432636142387917
-4.038,0.5369226036560655,1.390249588767286
-4.0375,0.4835717293674485,1.400846227172453
-4.037,0.3021787567870086,1.443232780793084
-4.0365,-0.3487019095316325,1.37965295036208
-4.036,-1.074273799854644,0.4789386859218841
-4.0355,-1.725154466172693,-0.5807251545938954
-4.035,-1.959898313041711,-1.004590690800593
-4.0345,-1.351698346154354,-0.9198175835593303
-4.034,-0.5514352318276028,-0.8032545611024114
-4.0335,0.1207857842064037,-0.718481453861072
-4.033,0.57960330308634,-0.7608680074817032
-4.0325,0.8036769750981413,-0.8668343915334643
-4.032,0.857027849386506,-0.9198175835592532
-4.0315,0.7076454013790849,-0.8986243067489377
-4.031,0.6329541773753161,-0.813851199507415
-4.0305,0.79300680024041,-0.6337083466197325
-4.03,0.97439977282085,-0.45356549373205
-4.0295,1.11311204597087,-0.2840192792491688
-4.029,1.091771696255524,-0.2416327256285375
-4.0285,0.6329541773751706,-0.5595318777835605
-4.028,-0.2846808603863227,-1.089363798042308
-4.0275,-1.148965023857831,-1.502632695843462
-4.027,-1.821186039891837,-1.555615887869299
-4.0265,-2.066600061618314,-1.449649503817721
-4.026,-1.981238662757077,-1.184733543688439
-4.0255,-1.234326422719292,-0.4535654937318862
-4.025,-0.4340633083938215,0.3835689402755796
-4.0245,0.1314559590643872,1.008770606181567
-4.024,0.4622313796522482,1.390249588767247
-4.0235,0.6116138276596692,1.538602526439456
-4.023,0.6436243522328531,1.549199164844739
-4.0225,0.6436243522328531,1.528005888034424
-4.022,0.6222840025175073,1.49621597281895
-4.0215,0.6009436528020837,1.464426057603304
-4.021,0.5582629533713921,1.33726639674141
-4.0205,0.4622313796522482,1.146526905448396
-4.02,-0.04993701351721727,1.082947075017006
-4.0195,-0.8181896032696687,0.6590815388106942
-4.019,-1.490410619303675,-0.2628260024388724
-4.0185,-1.714484291314807,-0.9198175835586557
-4.018,-1.191645723288561,-1.046977244421262
-4.0175,-0.5300948821122373,-0.9622041371799229
-4.017,0.05676473505977409,-0.8986243067489762
-4.0165,0.4729015545101444,-0.8456411147230427
-4.016,0.707645401378949,-0.8032545611024114
-4.0155,0.7823366253826596,-0.8668343915333583
-4.015,0.7289857510941299,-0.9833974139903157
-4.0145,0.5262524287983441,-1.046977244421262
-4.014,0.558262953371363,-0.8774310299387377
-4.0135,0.7396559259521714,-0.707884815455837
-4.013,0.9317190733902845,-0.6337083466197325
-4.0125,1.027750647109428,-0.4429688553267188
-4.012,0.9210488985319807,-0.3793890248958394
-4.0115,0.2381577076409128,-0.5171453241628908
-4.011,-0.6261264558313813,-0.8668343915334161
-4.0105,-1.319687821580122,-1.227120097308781
-4.01,-1.917217613610981,-1.534422611058964
-4.0095,-1.991908837614759,-1.555615887869299
-4.009,-1.309017646723691,-0.9304142219649894
-4.0085,-0.5194247072540114,-0.08268314955038032
-4.008,0.07810508477567314,0.627291623595192
-4.0075,0.4302208550788801,1.082947075016977
-4.007,0.5902734779444884,1.32666975833632
-4.0065,0.6436243522328531,1.411442865577582
-4.006,0.6329541773751706,1.42203950398275
-4.0055,0.6116138276597662,1.443232780793056
-4.005,0.5689331282290746,1.411442865577582
-4.0045,0.5262524287983441,1.400846227172415
-4.004,0.4515612047942744,1.422039503982807
-4.0035,0.1314559590640864,1.485619334413754
-4.003,-0.5514352318276028,1.157123543853563
-4.0025,-1.191645723287979,0.1292496185532575
-4.002,-1.639793067311232,-0.7396747306714069
-4.0015,-1.426389570157579,-0.9728007755850904
-4.001,-0.7541685541241844,-0.8668343915335125
-4.0005,-0.09261771294680272,-0.7820612842920862
-4,0.3982103305061524,-0.792657922697244
-3.9995,0.707645401378949,-0.8986243067489184
-3.999,0.8783681991018712,-1.004590690800593
-3.9985,0.8463576745288233,-1.01518732920576
-3.998,0.6329541773751706,-1.004590690800593
-3.9975,0.6649647019482183,-0.8138511995075789
-3.997,0.7503261008096795,-0.6019184314042303
-3.9965,0.7503261008096795,-0.400582301706049
-3.996,0.7823366253827275,-0.2204394488182027
-3.9955,0.8143471499557753,-0.1568596183871981
-3.995,0.4622313796522482,-0.1144730647665284
-3.9945,-0.3593720843893152,-0.400582301706049
-3.994,-1.159635198715513,-0.9516074987747555
-3.9935,-1.789175515318789,-1.280103289334946
-3.993,-2.045259711903173,-1.481439419033127
-3.9925,-1.799845690176472,-1.237716735714276
-3.992,-0.9462317015618604,-0.4535654937318862
-3.9915,-0.2206598112394408,0.3623756634660061
-3.991,0.2594980573562781,0.9663840525605498
-3.9905,0.5262524287983441,1.347863035146577
-3.99,0.6329541773751706,1.517409249629256
-3.9895,0.6436243522328531,1.580989080060261
-3.989,0.6329541773751706,1.612778995275763
-3.9885,0.6222840025174878,1.644568910491266
-3.988,0.5902734779444399,1.655165548896433
-3.9875,0.5369226036560266,1.6657621873016
-3.987,0.2701682322139607,1.70814874092227
-3.9865,-0.4554036581084589,1.655165548896433
-3.986,-1.202315898146244,0.7120647308365314
-3.9855,-1.853196564464885,-0.3581957480853793
-3.985,-2.002579012472442,-0.7820612842920766
-3.9845,-1.426389570157579,-0.7714646458869092
-3.984,-0.5514352318276028,-0.718481453861072
-3.9835,0.09944543449103843,-0.6760949002404023
-3.983,0.5262524287983441,-0.7396747306714069
-3.9825,0.7609962756673623,-0.8562377531282487
-3.982,0.857027849386506,-0.9304142219644207
-3.9815,0.7289857510943143,-0.9728007755850904
-3.981,0.6649647019482183,-0.8774310299385835
-3.9805,0.8356874996711408,-0.8350444763179138
-3.98,0.9957401225363802,-0.7502713690765743
-3.9795,1.241154144263081,-0.718481453861072
-3.979,1.283834843693812,-0.4959520473525559
-3.9785,1.315845368266859,-0.01910331912002144
-3.978,0.8783681991018712,0.2564092794143318
-3.9775,-0.08194753808956648,-0.2734226408440398
-3.977,-1.010252750707956,-0.9622041371799229
-3.9765,-1.618452717595867,-1.417859588602123
-3.976,-1.341028171296118,-1.152943628472937
-3.9755,-0.6794773301197943,-0.400582301706049
-3.975,-0.08194753808956648,0.3517790250608387
-3.9745,0.3128489316446912,0.9028042221295453
-3.974,0.5262524287983441,1.241896651094903
-3.9735,0.6116138276598051,1.411442865577582
-3.973,0.6222840025174878,1.464426057603419
-3.9725,0.6116138276598051,1.528005888034424
-3.972,0.6009436528021226,1.559795803249926
-3.9715,0.6009436528021226,1.559795803249926
-3.971,0.5262524287983441,1.602182356870596
-3.9705,0.3448594562177392,1.602182356870596
-3.97,-0.1459685872356623,1.273686566310405
-3.9695,-0.8715404775580819,1.199510097474233
-3.969,-1.522421143876723,0.4789386859228479
-3.9685,-1.693143941599645,-0.2628260024388724
-3.968,-1.095614149569417,-0.6019184314042303
-3.9675,-0.3487019095316325,-0.7290780922662394
-3.967,0.2808384070716433,-0.7290780922662394
-3.9665,0.6756348768059011,-0.7396747306714069
-3.966,0.825017324813458,-0.7714646458869092
-3.9655,0.857027849386506,-0.8562377531282487
-3.965,0.7823366253827275,-0.9939940523954253
-3.9645,0.6649647019482183,-1.01518732920576
-3.964,0.7183155762366316,-0.7820612842920766
-3.9635,0.8036769750980928,-0.4959520473525559
-3.963,0.8783681991018712,-0.2628260024388724
-3.9625,0.9210488985326017,-0.08268314955102604
-3.962,0.7289857510943143,-0.1780528951975329
-3.9615,-0.03926683865883591,-0.6972881770507372
-3.961,-0.9035510021311299,-1.227120097309109
-3.9605,-1.661133417026597,-1.566212526274467
-3.96,-2.055929886760855,-1.682775548731308
-3.9595,-1.981238662757077,-1.460246142222792
-3.959,-1.212986073003927,-0.6866915386455698
-3.9585,-0.423393133535411,0.1610395337678249
-3.958,0.142126133921769,0.7968378380778709
-3.9575,0.4622313796522482,1.178316820663898
-3.957,0.6116138276598051,1.33726639674141
-3.9565,0.6436243522328531,1.347863035146577
-3.956,0.6222840025174878,1.316073119931075
-3.9555,0.6116138276598051,1.29487984312074
-3.955,0.6009436528021226,1.284283204715573
-3.9545,0.5689331282290746,1.305476481525908
-3.954,0.5369226036560266,1.284283204715573
-3.9535,0.1314559590640864,1.42203950398275
-3.953,-0.6474668055467465,1.580989080060261
-3.9525,-1.383708870726849,0.8180311148882058
-3.952,-1.938557963326346,-0.1674562567923655
-3.9515,-1.735824641030376,-0.570128516188728
-3.951,-0.9569018764195432,-0.6125150698093976
-3.9505,-0.2526703358124887,-0.6019184314042303
-3.95,0.291508581929326,-0.5807251545938954
-3.9495,0.6116138276598051,-0.5913217929990628
-3.949,0.7716664505250448,-0.6760949002404023
-3.9485,0.8143471499557753,-0.8032545611024114
-3.948,0.7396559259519968,-0.7396747306714069
-3.9475,0.8783681991018712,-0.6231117082145651
-3.947,1.102441871113207,-0.5065486857577234
-3.9465,1.369196242555273,-0.4535654937318862
-3.946,1.571929564851243,-0.6337083466197325
-3.9455,1.422547116843686,-0.6549016234300674
-3.945,0.6542945270905358,-0.8986243067489184
-3.9445,-0.4020527838200457,-1.280103289334946
-3.944,-1.287677297007705,-1.492036057438295
-3.9435,-1.885207089037933,-1.417859588602123
-3.943,-2.066600061618538,-1.248313374119443
-3.9425,-2.002579012472442,-0.9516074987747555
-3.942,-1.287677297007705,-0.2098428104130352
-3.9415,-0.4767440078238243,0.6484849004055269
-3.941,0.09944543449103843,1.284283204715573
-3.9405,0.4515612047945656,1.655165548896433
-3.94,0.6009436528021226,1.79292184816361
-3.9395,0.6436243522328531,1.79292184816361
-3.939,0.6329541773751706,1.739938656137773
-3.9385,0.6116138276598051,1.697552102517103
-3.938,0.5582629533713921,1.676358825706768
-3.9375,0.4942419042252961,1.591585718465428
-3.937,0.3341892813600565,1.496215972818921
-3.9365,-0.2313299860971235,1.623375633680931
-3.936,-0.9248913518464952,1.167720182258731
-3.9355,-1.543761493592088,0.1716361721729923
-3.935,-1.917217613610981,-0.326405832869877
-3.9345,-1.51175096901904,-0.5065486857577234
-3.934,-0.690147504977477,-0.7078848154559045
-3.9335,-0.007256314085787988,-0.8986243067489184
-3.933,0.4515612047945656,-1.0999604364471
-3.9325,0.707645401378949,-1.237716735714276
-3.932,0.825017324813458,-1.333086481360783
-3.9315,0.6542945270905358,-1.396666311791788
-3.931,0.4942419042252961,-1.269506650929778
-3.9305,0.4942419042252961,-0.9304142219644207
-3.93,0.5369226036560266,-0.5913217929990628
-3.9295,0.6863050516635838,-0.2628260024388724
-3.929,0.8143471499557753,0.05507314971615059
-3.9285,0.7289857510943143,0.4895353243280153
-3.928,0.0674349099179905,0.5213252395435176
-3.9275,-0.7968492535543035,-0.1992461720078678
-3.927,-1.554431668449771,-0.9410108603695881
-3.9265,-2.03458953704549,-1.42845622700729
-3.926,-1.949228138184029,-1.449649503817625
-3.9255,-1.159635198715513,-0.7502713690765743
-3.925,-0.3807124341046804,0.08686306493165288
-3.9245,0.1634664836371343,0.7650479228623686
-3.924,0.4835717293676135,1.199510097474233
-3.9235,0.6116138276598051,1.42203950398275
-3.923,0.6436243522328531,1.496215972818921
-3.9225,0.6329541773751706,1.538602526439591
-3.922,0.6009436528021226,1.559795803249926
-3.9215,0.5475927785137094,1.559795803249926
-3.921,0.5155822539406614,1.485619334413754
-3.9205,0.3768699807907871,1.485619334413754
-3.92,-0.2420001609548061,1.623375633680931
-3.9195,-0.9889124009925911,1.029963882991555
-3.919,-1.639793067311232,-0.07208651114585861
-3.9185,-1.853196564464885,-0.8456411147230812
-3.918,-1.319687821580753,-1.004590690800593
-3.9175,-0.5621054066852853,-0.8880276683437509
-3.917,0.1207857842064037,-0.7396747306714069
-3.9165,0.5902734779444399,-0.6337083466197325
-3.916,0.8036769750980928,-0.7290780922662394
-3.9155,0.8997085488172365,-0.792657922697244
-3.915,0.7823366253827275,-0.8986243067489184
-3.9145,0.5582629533713921,-1.046977244421262
-3.914,0.6542945270905358,-0.8562377531282487
-3.9135,0.8676980242441885,-0.5065486857577234
-3.913,0.9957401225363802,-0.1462629799820306
-3.9125,1.006410297394063,0.04447651131098315
-3.912,0.8356874996711408,0.002089957690313421
-3.9115,0.05676473506030786,-0.3899856633008816
-3.911,-0.839529952985034,-0.9304142219644207
-3.9105,-1.607782542738184,-1.333086481360783
-3.91,-2.045259711903173,-1.51322933424863
-3.9095,-2.03458953704549,-1.42845622700729
-3.909,-1.405049220442214,-0.7820612842920766
-3.9085,-0.5621054066852853,0.06566978812131802
-3.908,0.05676473506030786,0.7332580076468663
-3.9075,0.4195506802215176,1.146526905448396
-3.907,0.6009436528021226,1.326669758336243
-3.9065,0.6436243522328531,1.347863035146577
-3.906,0.6436243522328531,1.29487984312074
-3.9055,0.6222840025174878,1.273686566310405
-3.905,0.6116138276598051,1.273686566310405
-3.9045,0.5796033030867573,1.273686566310405
-3.904,0.5049120790829789,1.305476481525908
-3.9035,0.05676473506030786,1.506812611224089
-3.903,-0.7114878546928423,1.411442865577582
-3.9025,-1.373038695869166,0.4471487707073456
-3.902,-1.842526389607202,-0.5595318777835605
-3.9015,-1.682473766741963,-0.8244478379127463
-3.901,-0.8608703027003992,-0.7396747306714069
-3.9005,-0.1032878878049318,-0.6443049850249
-3.9,0.4408910299368829,-0.6654982618352349
-3.8995,0.7183155762366316,-0.7290780922662394
-3.899,0.8036769750980928,-0.8138511995075789
-3.8985,0.8036769750980928,-0.8350444763179138
-3.898,0.707645401378949,-0.8138511995075789
-3.8975,0.7289857510943143,-0.7078848154559045
-3.897,0.8463576745288233,-0.5489352393783931
-3.8965,0.8997085488172365,-0.3793890248957141
-3.896,0.9103787236749192,-0.2946159176543747
-3.8955,0.8783681991018712,-0.07208651114585861
-3.895,0.7183155762366316,0.4153588554918433
-3.8945,-0.007256314085787988,0.1610395337678249
-3.894,-0.8181896032696687,-0.5065486857577234
-3.8935,-1.51175096901904,-1.046977244421262
-3.893,-1.981238662757077,-1.38606967338662
-3.8925,-1.543761493592088,-1.0999604364471
-3.892,-0.7434983792658902,-0.3370024712750445
-3.8915,-0.09261771294724913,0.4259554938970107
-3.891,0.3341892813600565,0.9875773293708847
-3.8905,0.5475927785137094,1.326669758336243
-3.89,0.6329541773751706,1.485619334413754
-3.8895,0.6329541773751706,1.538602526439591
-3.889,0.6116138276598051,1.549199164844759
-3.8885,0.5689331282290746,1.549199164844759
-3.888,0.4942419042252961,1.475022696008586
-3.8875,0.4302208550792003,1.390249588767247
-3.887,0.2701682322139607,1.316073119931075
-3.8865,-0.3166913849585846,1.273686566310405
-3.886,-0.9889124009925911,0.4683420475176805
-3.8855,-1.543761493592088,-0.5595318777835605
