Class_2_Relax_eyes_open/Class_2_Relax_Eyes_open_Turki_12.csv

#Digilent WaveForms Oscilloscope Acquisition
#Device Name: EExplorer
#Serial Number: SN:210151A2B84A
#Date Time: 2021-01-28 09:56:15.544
#Sample rate: 2000Hz
#Samples: 16384
#Trigger: Source: Channel 1 Type: Edge Condition: Rising Level: 0 V Hyst.: Auto HoldOff: 0 s
#Channel 1: Range: 1 V/div Offset: 0 V Attenuation: 1 X
#Channel 2: Range: 1 V/div Offset: 0 V Attenuation: 1 X
#Power Supplies: ON
#Fixed Supply: ON
#Voltage: 3.3 V Readback: 3.326 V
#Positive Supply: ON
#Voltage: 3.7 V Readback: 3.712 V
#Current: 40 mA Readback: 20 mA
#Negative Supply: ON
#Voltage: -3.7 V Readback: -3.355 V
#Current: -40 mA Readback: -8 mA
#Reference 1: ON
#Voltage: 0 V
#Reference 2: ON
#Voltage: 0 V

Time (s),Channel 1 (V),Channel 2 (V)
-4.096,-0.4127229586777283,-1.195330182093607
-4.0955,-0.3273615598163448,-1.269506650929711
-4.095,-0.2206598112394797,-1.248313374119434
-4.0945,-0.2633405106701714,-1.237716735714276
-4.094,-0.4874141826813031,-1.163540266878172
-4.0935,-0.5087545323967945,-0.8350444763175668
-4.093,-0.423393133535411,-0.4535654937318862
-4.0925,-0.3273615598163546,-0.08268314955136336
-4.092,-0.145968587235051,0.3305857482511014
-4.0915,0.5262524287983441,0.9875773293708847
-4.091,1.401206767128321,1.686955464111935
-4.0905,2.084097958019835,2.195594107559741
-4.09,1.892034810581722,1.941274785835954
-4.0895,0.5582629533713921,0.8180311148882058
-4.089,-0.8822106524144544,-0.284019279248205
-4.0885,-1.725154466172693,-0.9516074987747555
-4.088,-1.639793067311232,-1.068170521231597
-4.0875,-1.180975548431296,-0.7820612842923368
-4.087,-0.7328282044079164,-0.3687923864902672
-4.0865,-0.4127229586777283,-0.06148987274069118
-4.086,-0.2420001609549614,0.01268659609541339
-4.0855,-0.1673089369510276,-0.05089323433562976
-4.085,-0.1673089369510276,-0.1674562567923655
-4.0845,-0.274010685527757,-0.2840192792491013
-4.084,-0.7541685541236021,-0.2946159176538832
-4.0835,-0.7861790786966207,0.2458126410091644
-4.083,0.142126133921769,1.114736990232894
-4.0825,1.219813794548405,1.814115124974233
-4.082,1.977396209443183,2.132014277128968
-4.0815,1.507908515705147,1.443232780793084
-4.081,0.1314559590653381,0.2246193641999377
-4.0805,-1.1062843244271,-0.7078848154559045
-4.08,-1.522421143876723,-1.025783967610927
-4.0795,-1.287677297007919,-1.099960436447032
-4.079,-0.8608703027000789,-1.121153713257454
-4.0785,-0.5087545323968721,-1.142346990067769
-4.078,-0.2846808603857404,-1.152943628472927
-4.0775,-0.3913826089624018,-1.195330182093453
-4.077,-0.4340633083930936,-1.025783967610927
-4.0765,-0.3807124341047289,-0.7608680074819827
-4.076,-0.3060212101008243,-0.4853554089471186
-4.0755,-0.2206598112394408,-0.1886495336027004
-4.075,0.2488278824985954,0.3305857482505039
-4.0745,1.102441871113915,1.093543713423176
-4.074,1.881364635724039,1.771728571353275
-4.0735,2.12677865745074,2.015451254672126
-4.073,1.198473444833195,1.17831682066466
-4.0725,0.2808384070716433,0.02328323450064829
-4.072,-0.1993194615240755,-0.8244478379127463
-4.0715,-0.3807124341045154,-1.248313374119058
-4.071,-0.3913826089623242,-1.301296566145117
-4.0705,-0.3487019095316325,-1.121153713257435
-4.07,-0.2846808603855949,-0.8774310299388051
-4.0695,-0.242000160954777,-0.6443049850247361
-4.069,-0.2099896363817582,-0.4641621321370536
-4.0685,-0.2206598112394408,-0.3687923864905467
-4.068,-0.2633405106703946,-0.3264058328698867
-4.0675,-0.5087545323968721,-0.3370024712750445
-4.067,-0.807519428411986,0.04447651131098315
-4.0665,-0.1032878878039613,0.8816109453199332
-4.066,0.9637295979633325,1.676358825706768
-4.0655,1.849354111150991,2.174400830749637
-4.065,1.828013761435646,1.867098317000061
-4.0645,0.5796033030867573,0.7120647308365314
-4.064,-0.8288597781273515,-0.4641621321370536
-4.0635,-1.853196564463953,-1.216523458903257
-4.063,-1.949228138183544,-1.375473034981385
-4.0625,-1.415719395299897,-1.301296566145281
-4.062,-0.8608703027009038,-1.227120097309176
-4.0615,-0.4447334832507568,-1.174136905283301
-4.061,-0.423393133535411,-1.205926820498774
-4.0605,-0.5194247072545548,-1.0999604364471
-4.06,-0.4554036581083716,-0.8032545611021416
-4.0595,-0.3593720843893152,-0.5065486857577234
-4.059,-0.274010685527854,-0.2310360872233701
-4.0585,0.09944543449069876,0.2352160026035729
-4.058,0.9317190733902845,1.00877060618122
-4.0575,1.753322537431848,1.739938656137773
-4.057,2.244150580884803,2.153207553938927
-4.0565,1.539919040278195,1.549199164844759
-4.056,0.0674349099179905,0.3729723018711736
-4.0555,-1.234326422718108,-0.6231117082136591
-4.055,-1.703814116457085,-1.184733543688564
-4.0545,-1.437059745015262,-1.322489842955616
-4.054,-0.9889124009929987,-1.195330182093722
-4.0535,-0.5941159312581004,-0.9622041371797494
-4.053,-0.3380317346739499,-0.7714646458869092
-4.0525,-0.1993194615240755,-0.6231117082145651
-4.052,-0.1673089369510761,-0.5383386009731967
-4.0515,-0.2206598112394408,-0.5065486857577234
-4.051,-0.4874141826815069,-0.5065486857577234
-4.0505,-1.063603624995846,-0.2310360872236207
-4.05,-0.7434983792658902,0.5743084315693548
-4.0495,0.3555296310754218,1.443232780793084
-4.049,1.443887466558061,2.068434446697395
-4.0485,1.956055859727187,2.174400830748924
-4.048,1.262494493978446,1.390249588767247
-4.0475,0.3982103305069384,0.4153588554927299
-4.047,-0.1566387620935487,-0.3687923864909997
-4.0465,-0.3807124341046804,-0.8668343915334161
-4.046,-0.4020527838200263,-1.110557074852045
-4.0455,-0.3487019095315452,-1.163540266878095
-4.045,-0.2526703358124887,-1.152943628472937
-4.0445,-0.2206598112394408,-1.163540266878104
-4.044,-0.3593720843893249,-1.121153713257174
-4.0435,-0.3700422592469978,-0.8350444763179138
-4.043,-0.3273615598162672,-0.474758770542221
-4.0425,-0.2633405106702296,-0.114473064766856
-4.042,-0.1032878878049318,0.309392471440169
-4.0415,0.5582629533713921,0.9875773293708847
-4.041,1.4225471168429,1.697552102516457
-4.0405,2.094768132877479,2.206190745964928
-4.04,1.860024286008674,1.973064701051456
-4.0395,0.5689331282302488,0.8710143069150451
-4.039,-0.4020527838203174,-0.2204394488188195
-4.0385,-0.7008176798351597,-0.8986243067489184
-4.038,-0.6688071552621409,-1.152943628472705
-4.0375,-0.5194247072544287,-1.089363798041749
-4.037,-0.3807124341046804,-0.8880276683437509
-4.0365,-0.274010685527854,-0.6549016234300674
-4.036,-0.2099896363817388,-0.464162132136938
-4.0355,-0.1886492866663929,-0.3370024712750445
-4.035,-0.2099896363817582,-0.2840192792492073
-4.0345,-0.3273615598161605,-0.3052125560595229
-4.034,-0.807519428411986,-0.252229364033705
-4.0335,-0.8822106524157645,0.3305857482505039
-4.033,0.04609456020178093,1.188913459068285
-4.0325,1.155792745402309,1.877694955405219
-4.032,1.913375160297087,2.174400830749637
-4.0315,1.411876941986459,1.528005888035012
-4.031,0.0460945602015092,0.2987958330341149
-4.0305,-1.180975548430879,-0.6760949002404023
-4.03,-1.607782542737796,-1.089363798041556
-4.0295,-1.394379045584133,-1.216523458903951
-4.029,-0.9569018764195432,-1.227120097309109
-4.0285,-0.5621054066852853,-1.205926820498774
-4.028,-0.3060212101009407,-1.184733543688449
-4.0275,-0.3487019095316325,-1.195330182093607
-4.027,-0.3593720843893152,-1.004590690800593
-4.0265,-0.3166913849586234,-0.7502713690768057
-4.026,-0.2633405106701714,-0.5065486857577234
-4.0255,-0.1886492866663929,-0.2416327256285375
-4.025,0.3128489316442351,0.3199891098448256
-4.0245,1.177133095117674,1.11473699023354
-4.024,1.934715510012453,1.824711763379112
-4.0235,2.137448832308238,2.036644531482268
-4.023,1.049090996823561,1.188913459068035
-4.0225,-0.3060212101009019,0.05507314971615059
-4.022,-0.8928808272729134,-0.7290780922655262
-4.0215,-0.9035510021309553,-1.099960436447071
-4.021,-0.7114878546928423,-1.068170521231597
-4.0205,-0.4874141826815069,-0.6654982618352349
-4.02,-0.3166913849584972,-0.1038764263610139
-4.0195,-0.2206598112394408,0.2776025562246667
-4.019,-0.1779791118087102,0.309392471440169
-4.0185,-0.1779791118087102,0.1716361721731176
-4.018,-0.2313299860971235,-0.01910331912002144
-4.0175,-0.5407650569699201,-0.1780528951975329
-4.017,-0.8181896032694165,0.09745970333656973
-4.0165,-0.06060718837322104,0.8816109453199042
-4.016,1.017080472251745,1.644568910491266
-4.0155,1.892034810580926,2.121417638723366
-4.015,1.817343586576779,1.771728571352234
-4.0145,0.5369226036560266,0.627291623595192
-4.014,-0.871540477556801,-0.5277419625670079
-4.0135,-1.906547438753579,-1.248313374119569
-4.013,-2.215982509626095,-1.38606967338662
-4.0125,-1.682473766741963,-1.322489842955616
-4.012,-1.031593100422866,-1.216523458903884
-4.0115,-0.5300948821122373,-1.152943628472937
-4.011,-0.423393133535411,-1.195330182093607
-4.0105,-0.4340633083930839,-1.089363798042029
-4.01,-0.3700422592469978,-0.8456411147230812
-4.0095,-0.2953510352432193,-0.570128516188728
-4.009,-0.2313299860971817,-0.3158091944649409
-4.0085,0.09944543449178568,0.108056341742672
-4.008,0.9210488985326017,0.8604176685088755
-4.0075,1.742652362573418,1.591585718464763
-4.007,2.212140056311532,2.03664453148194
-4.0065,1.475897991132099,1.464426057603419
-4.006,0.00341386077189465,0.2987958330350016
-4.0055,-1.330357996439202,-0.6760949002409035
-4.005,-2.173301810195364,-1.227120097309109
-4.0045,-1.938557963326346,-1.354279758171118
-4.004,-1.309017646722585,-1.184733543688218
-4.0035,-0.7755089038389382,-0.9410108603695881
-4.003,-0.4127229586777283,-0.718481453861072
-4.0025,-0.2099896363819425,-0.5489352393785473
-4.002,-0.1459685872356623,-0.4429688553267188
-4.0015,-0.1779791118087102,-0.400582301706049
-4.001,-0.3593720843891502,-0.400582301706049
-4.0005,-0.8502001278423867,-0.178052895196839
-4,-0.4874141826815069,0.5849050699745222
-3.9995,0.5582629533713921,1.432636142387917
-3.999,1.571929564851243,2.068434446697963
-3.9985,1.988066384300866,2.110821000318633
-3.998,1.049090996824793,1.125333628638062
-3.9975,-0.1352984123779797,0.05507314971615059
-3.997,-0.690147504977477,-0.6019184314042303
-3.9965,-0.7328282044082075,-0.9728007755850904
-3.996,-0.5621054066852853,-1.174136905283272
-3.9955,-0.3700422592469978,-1.258910012524611
-3.995,-0.2206598112394408,-1.269506650929778
-3.9945,-0.2206598112394408,-1.269506650929778
-3.994,-0.4020527838200457,-1.195330182093607
-3.9935,-0.423393133535411,-0.8774310299385835
-3.993,-0.3593720843893152,-0.5065486857577234
-3.9925,-0.2846808603855366,-0.1674562567923655
-3.992,-0.1032878878049318,0.2564092794143318
-3.9915,0.5902734779444399,0.9451907757502149
-3.991,1.465227816274416,1.676358825706768
-3.9905,2.12677865745074,2.195594107559972
-3.99,1.92404533515477,2.004854616266958
-3.9895,0.7396559259519968,0.8922075837243778
-3.989,-0.156638762093345,-0.2310360872233701
-3.9885,-0.4980843575391895,-0.9516074987747555
-3.988,-0.5407650569699201,-1.248313374119443
-3.9875,-0.4554036581084589,-1.216523458903942
-3.987,-0.3487019095316325,-1.004590690800593
-3.9865,-0.2633405106701714,-0.7502713690765743
-3.986,-0.2099896363817582,-0.5595318777835605
-3.9855,-0.1886492866663929,-0.4429688553267188
-3.985,-0.1993194615240755,-0.3899856633008816
-3.9845,-0.2953510352432193,-0.4111789401112165
-3.984,-0.7434983792658902,-0.4111789401112165
-3.9835,-0.9462317015618604,0.1186529801471552
-3.983,-0.08194753808956648,1.019367244586387
-3.9825,1.038420821967111,1.782325209758442
-3.982,1.849354111150991,2.1214176387238
-3.9815,1.475897991132099,1.538602526439591
-3.981,0.3661998059331045,0.4789386859228479
-3.9805,-0.4660738329661415,-0.3899856633008816
-3.98,-0.754168554123573,-0.8774310299385835
-3.9795,-0.722158029550525,-1.142346990067769
-3.979,-0.5407650569699201,-1.258910012524611
-3.9785,-0.3487019095316325,-1.269506650929778
-3.978,-0.2313299860971235,-1.280103289334946
-3.9775,-0.3700422592469978,-1.290699927740113
-3.977,-0.4127229586777283,-1.004590690800593
-3.9765,-0.3700422592469978,-0.6231117082145651
-3.976,-0.2953510352432193,-0.2628260024388724
-3.9755,-0.1886492866663929,0.1186529801471552
-3.975,0.3768699807907871,0.7968378380778709
-3.9745,1.262494493978446,1.570392441655093
-3.974,1.998736559158548,2.142610915534135
-3.9735,2.190799706596836,2.216787384370307
-3.973,1.15579274540162,1.263089927905238
-3.9725,0.1101156093487211,0.06566978812131802
-3.972,-0.3807124341046804,-0.7714646458869092
-3.9715,-0.5087545323968721,-1.152943628472937
-3.971,-0.4660738329661415,-1.184733543688439
-3.9705,-0.3700422592469978,-1.004590690800593
-3.97,-0.2846808603855366,-0.7820612842920766
-3.9695,-0.2313299860971235,-0.570128516188728
-3.969,-0.1993194615240755,-0.4217755785163839
-3.9685,-0.2099896363817582,-0.3370024712750445
-3.968,-0.2846808603855366,-0.326405832869877
-3.9675,-0.658136980404429,-0.3370024712750445
-3.967,-0.9248913518464952,0.1186529801471552
-3.9665,-0.1352984123779797,0.9663840525605498
-3.966,0.974399772821015,1.729342017732605
-3.9655,1.870694460866357,2.184997469154805
-3.965,1.785333062004896,1.845905040189447
-3.9645,0.5049120790829789,0.6802748156210291
-3.964,-0.807519428411986,-0.3793890248957141
-3.9635,-1.30901764672307,-0.8456411147230812
-3.963,-1.180975548430879,-1.036380606016095
-3.9625,-0.839529952985034,-1.121153713257435
-3.962,-0.5087545323968721,-1.163540266878104
-3.9615,-0.274010685527854,-1.163540266878104
-3.961,-0.3273615598162672,-1.227120097309109
-3.9605,-0.4340633083930936,-1.089363798041932
-3.96,-0.4020527838200457,-0.792657922697244
-3.9595,-0.3380317346739499,-0.4853554089473885
-3.959,-0.2526703358124887,-0.1992461720078678
-3.9585,0.1314559590640864,0.2670059178194992
-3.958,0.9637295979633325,1.061753798207057
-3.9575,1.785333062004896,1.79292184816361
-3.957,2.222810231169884,2.184997469154805
-3.9565,1.507908515705147,1.570392441655093
-3.956,0.1101156093487211,0.3941655786815084
-3.9555,-1.138294849000148,-0.5807251545938954
-3.955,-1.746494815888059,-1.121153713257435
-3.9545,-1.543761493592088,-1.280103289334946
-3.954,-1.084943974711735,-1.163540266878104
-3.9535,-0.658136980404429,-0.9516074987747555
-3.953,-0.3700422592469978,-0.7290780922662394
-3.9525,-0.2099896363817582,-0.570128516188728
-3.952,-0.1673089369510276,-0.4641621321370536
-3.9515,-0.2099896363817582,-0.4217755785163839
-3.951,-0.4980843575391895,-0.4323722169215513
-3.9505,-1.042263275281004,-0.07208651114585861
-3.95,-0.6474668055467465,0.7438546460520338
-3.9495,0.4408910299368829,1.559795803249926
-3.949,1.497238340847464,2.132014277128968
-3.9485,1.892034810581722,2.110821000318633
-3.948,0.9850699476786977,1.157123543853563
-3.9475,-0.2420001609548061,0.05507314971615059
-3.947,-0.8928808272734472,-0.6654982618352349
-3.9465,-0.9889124009925911,-1.089363798041932
-3.946,-0.807519428411986,-1.301296566145281
-3.9455,-0.5407650569699201,-1.375473034981453
-3.945,-0.3273615598162672,-1.34368311976595
-3.9445,-0.2633405106701714,-1.322489842955616
-3.944,-0.3593720843893152,-1.195330182093607
-3.9435,-0.3487019095316325,-0.8774310299385835
-3.943,-0.2953510352432193,-0.5277419625680583
-3.9425,-0.2420001609548061,-0.2310360872233701
-3.942,-0.09261771294724913,0.09745970333682032
-3.9415,0.5796033030867573,0.7332580076468663
-3.941,1.443887466559051,1.496215972818921
-3.9405,2.105438307735375,2.068434446697963
-3.94,1.860024286008674,1.814115124973944
-3.9395,0.7289857510943143,0.7332580076468663
-3.939,-0.09261771294724913,-0.3158091944647096
-3.9385,-0.423393133535411,-0.9410108603695881
-3.938,-0.4874141826815069,-1.163540266878104
-3.9375,-0.423393133535411,-1.089363798041932
-3.937,-0.3380317346739499,-0.8774310299385835
-3.9365,-0.2633405106701714,-0.6443049850249
-3.936,-0.2206598112394408,-0.4535654937318862
-3.9355,-0.1993194615240755,-0.326405832869877
-3.935,-0.2206598112394408,-0.2734226408440398
-3.9345,-0.2953510352432193,-0.2840192792492073
-3.934,-0.690147504977477,-0.2734226408440398
-3.9335,-0.5407650569699201,0.309392471440169
-3.933,0.4195506802215176,1.178316820663898
-3.9325,1.443887466559051,1.888291593810116
-3.932,2.08409795802001,2.16380419234447
-3.9315,1.465227816274416,1.42203950398275
-3.931,0.03542438534494258,0.1928294489833272
-3.9305,-1.277007122150022,-0.8350444763179138
-3.93,-1.981238662757077,-1.290699927740113
-3.9295,-1.746494815888059,-1.290699927740113
-3.929,-1.180975548430879,-1.195330182093607
-3.9285,-0.690147504977477,-1.152943628472937
-3.928,-0.3807124341046804,-1.142346990067769
-3.9275,-0.4340633083930936,-1.163540266878104
-3.927,-0.4340633083930936,-0.9728007755850904
-3.9265,-0.3593720843893152,-0.7078848154559045
-3.926,-0.2846808603855366,-0.4535654937318862
-3.9255,-0.1779791118087102,-0.1992461720078678
-3.925,0.3768699807907871,0.3305857482505039
-3.9245,1.241154144263081,1.114736990232894
-3.924,1.988066384300866,1.803518486568777
-3.9235,2.116108482593058,1.941274785835954
-3.923,0.974399772821015,1.029963882991555
-3.9225,-0.4874141826815069,-0.1144730647665284
-3.922,-1.383708870726849,-0.9304142219644207
-3.9215,-1.447729919872945,-1.333086481360783
-3.921,-1.1062843244271,-1.354279758171118
-3.9205,-0.7114878546928423,-1.163540266878104
-3.92,-0.423393133535411,-0.9092209451540858
-3.9195,-0.2526703358124887,-0.6866915386455698
-3.919,-0.1779791118087102,-0.5277419625680583
-3.9185,-0.1673089369510276,-0.4217755785163839
-3.918,-0.2313299860971235,-0.400582301706049
-3.9175,-0.572775581542968,-0.3687923864905467
-3.917,-0.9462317015618604,0.09745970333682032
-3.9165,-0.2526703358124887,0.9557874141553824
-3.916,0.857027849386506,1.739938656137773
-3.9155,1.785333062004896,2.216787384370307
-3.915,1.817343586577944,1.962468062646288
-3.9145,1.059761171682476,0.9981739677760521
-3.914,0.3768699807907871,0.04447651131098315
-3.9135,-0.06060718837420119,-0.6549016234300674
-3.913,-0.274010685527854,-1.05757388282643
-3.9125,-0.3060212101009019,-1.258910012524611
-3.912,-0.2526703358124887,-1.333086481360783
-3.9115,-0.1886492866663929,-1.311893204550448
-3.911,-0.3700422592469978,-1.301296566145281
-3.9105,-0.5194247072545548,-1.046977244421262
-3.91,-0.4874141826815069,-0.6337083466197325
-3.9095,-0.3807124341046804,-0.2098428104130352
-3.909,-0.2846808603855366,0.1822328105781598
-3.9085,0.05676473506030786,0.7226613692416989
-3.908,0.8783681991018712,1.432636142387917
-3.9075,1.710641838001117,2.026047893077293
-3.907,2.190799706596836,2.333350406827149
-3.9065,1.486568165989782,1.70814874092227
-3.906,0.2488278824985954,0.5001319627331828
-3.9055,-0.4020527838200457,-0.4959520473525559
-3.905,-0.5834457564006506,-1.036380606016095
-3.9045,-0.5407650569699201,-1.184733543688439
-3.904,-0.423393133535411,-1.078767159636765
-3.9035,-0.3166913849585846,-0.8562377531282487
-3.903,-0.2420001609548061,-0.6443049850249
-3.9025,-0.2099896363817582,-0.474758770542221
-3.902,-0.1993194615240755,-0.3793890248957141
-3.9015,-0.2313299860971235,-0.3581957480853793
-3.901,-0.423393133535411,-0.3793890248957141
-3.9005,-0.9142211769888124,-0.1250697031716958
-3.9,-0.5407650569699201,0.6590815388106942
-3.8995,0.5262524287983441,1.485619334413754
-3.899,1.539919040278195,2.068434446697963
-3.8985,1.934715510012453,2.089627723508298
-3.898,0.942389248247967,1.114736990232894
-3.8975,-0.4767440078238243,-0.08268314955102604
-3.897,-1.426389570157579,-0.8032545611024114
-3.8965,-1.501080794161358,-1.05757388282643
-3.896,-1.116954499284783,-1.152943628472937
-3.8955,-0.690147504977477,-1.184733543688439
-3.895,-0.3700422592469978,-1.184733543688439
-3.8945,-0.274010685527854,-1.227120097309109
-3.894,-0.3807124341046804,-1.174136905283272
-3.8935,-0.3700422592469978,-0.9092209451540858
-3.893,-0.3166913849585846,-0.5913217929990628
-3.8925,-0.2633405106701714,-0.2946159176543747
-3.892,-0.04993701351651855,0.07626642652648545
-3.8915,0.6863050516635838,0.7650479228623686
-3.891,1.539919040278195,1.538602526439591
-3.8905,2.158789182023788,2.100224361913465
-3.89,1.838683936293309,1.814115124973944
-3.8895,0.5475927785137094,0.701468092431364
-3.889,-0.391382608962363,-0.3581957480853793
-3.8885,-0.690147504977477,-1.004590690800593
-3.888,-0.658136980404429,-1.237716735714276
-3.8875,-0.5194247072545548,-1.174136905283272
-3.887,-0.3700422592469978,-0.9516074987747555
-3.8865,-0.274010685527854,-0.7078848154559045
