Class_2_Relax_eyes_open/Class_2_Relax_Eyes_open_Turki_1.csv

#Digilent WaveForms Oscilloscope Acquisition
#Device Name: EExplorer
#Serial Number: SN:210151A2B84A
#Date Time: 2020-10-20 13:17:58.313
#Sample rate: 2000Hz
#Samples: 16384
#Trigger: Source: Channel 1 Type: Edge Condition: Rising Level: 0 V Hyst.: Auto HoldOff: 0 s
#Channel 1: Range: 1 V/div Offset: 0 V
#Channel 2: Range: 1 V/div Offset: 0 V

Time (s),Channel 1 (V),Channel 2 (V)
-4.0960000000000001,-0.39138260896236304,-0.48535540894738849
-4.0955000000000004,-0.27401068552796076,-0.16745625679265463
-4.0949999999999998,-0.26334051067017139,0.02328323450080249
-4.0945,-0.26334051067017139,0.19282944898332721
-4.0940000000000003,-0.25267033581249843,0.33058574825037856
-4.0934999999999997,-0.17797911180836087,0.1928294489826044
-4.093,0.20614718306786484,-0.60191843140423029
-4.0925000000000002,0.8890383739589327,-1.4390528654116961
-4.0919999999999996,1.4972383408475807,-2.0112713392914987
-4.0914999999999999,1.625280439139656,-2.0112713392914987
-4.0910000000000002,1.1557927454016199,-1.3118932045504481
-4.0904999999999996,0.57960330308634977,-0.4747587705416717
-4.0899999999999999,0.13145595906408636,0.12924961855232261
-4.0895000000000001,-0.13529841237797968,0.42595549389701071
-4.0890000000000004,-0.27401068552772789,0.4789386859227997
-4.0884999999999998,-0.31669138495858457,0.36237566346600614
-4.0880000000000001,-0.31669138495858457,0.17163617217299235
-4.0875000000000004,-0.33803173467393044,-0.061489872740479151
-4.0869999999999997,-0.32736155981624782,-0.28401927924940001
-4.0865,-0.30602121010090194,-0.49595204735255594
-4.0860000000000003,-0.28468086038555607,-0.68669153864539623
-4.0854999999999997,-0.27401068552773755,-0.84564111472298487
-4.085,-0.14596858723566233,-0.73967473067140688
-4.0845000000000002,0.44089102993634921,-0.12506970317225474
-4.0839999999999996,1.2304839694059613,0.55311515475945361
-4.0834999999999999,1.8493541111509915,1.0299638829915545
-4.0830000000000002,2.1374488323084226,1.3054764815259077
-4.0824999999999996,1.5612593899928422,1.2524932894994825
-4.0819999999999999,0.77166645052504479,0.60609834678485708
-4.0815000000000001,0.18480683335249956,-0.10387642636136091
-4.0810000000000004,-0.16730893695070734,-0.57012851618830385
-4.0804999999999998,-0.40205278382004572,-0.82444783791274634
-4.0800000000000001,-1.0636036249963696,-1.3966663117917877
-4.0795000000000003,-1.1062843244270613,-1.269506650929894
-4.0789999999999997,-0.93556152670401271,-0.88802766834339431
-4.0785,-0.75416855412357298,-0.49595204735255594
-4.0780000000000003,-0.48741418268174952,-0.019103319120455153
-4.0774999999999997,-0.28468086038549784,0.35177902506090614
-4.077,-0.24200016095480609,0.42595549389701071
-4.0765000000000002,0.056764735060036153,-0.17805289519698353
-4.0759999999999996,0.65429452709116664,-1.0681705212319346
-4.0754999999999999,1.3478558928399074,-1.4390528654124575
-4.0750000000000002,1.8173435865779437,-1.3860696733866202
-4.0744999999999996,1.5612593899929781,-0.9410108603689713
-4.0739999999999998,0.92104889853260175,-0.26282600243887239
-4.0735000000000001,0.34485945621773917,0.25640927941433178
-4.0730000000000004,-0.049937013516159534,0.53192187794843449
-4.0724999999999998,-0.25267033581248871,0.59550170837968963
-4.0720000000000001,-0.33803173467394987,0.50013196273318283
-4.0715000000000003,-0.33803173467394987,0.31998910984550022
-4.0709999999999997,-0.39138260896245036,0.065669788121105993
-4.0705,-0.48741418268150688,-0.1674562567923655
-4.0700000000000003,-0.46607383296616095,-0.40058230170583697
-4.0694999999999997,-0.40205278381998749,-0.6337083466199156
-4.069,-0.33803173467394987,-0.83504447631791379
-4.0685000000000002,-0.26334051067017139,-0.95160749877475548
-4.0679999999999996,0.088775259633918635,-0.65490162342945057
-4.0674999999999999,0.70764540137894905,0.023283234500648287
-4.0670000000000002,1.3158453682668594,0.63788826200035942
-4.0664999999999996,1.5399190402775544,1.06175379820724
-4.0659999999999998,0.83568749967114075,1.2630899279052379
-4.0655000000000001,0.05676473506030786,0.86041766850887547
-4.0650000000000004,-0.33803173467359082,0.12924961855298767
-4.0644999999999998,-0.46607383296614152,-0.4535654937318862
-4.0640000000000001,-0.4554036581084589,-0.73967473067140688
-4.0635000000000003,-0.40205278382009424,-0.77146464588688035
-4.0629999999999997,-0.33803173467392078,-0.63370834661952047
-4.0625,-0.30602121010090194,-0.40058230170604903
-4.0620000000000003,-0.49808435753901481,-0.35819574808541788
-4.0614999999999997,-1.0636036249962824,-0.67609490024010355
-4.0609999999999999,-0.96757205127722568,-0.34759910968021185
-4.0605000000000002,-0.81818960326966872,-0.019103319120021445
-4.0599999999999996,-0.50875453239614421,-0.09327978795670426
-4.0594999999999999,0.29150858192932599,-0.65490162343006741
-4.0590000000000002,1.2838348436938116,-1.3754730349814528
-4.0585000000000004,1.8813646357234961,-1.884111678429027
-4.0579999999999998,1.6999716631434345,-1.5874058030848013
-4.0575000000000001,1.0597611716824762,-0.78206128429207655
-4.0570000000000004,0.44089102993744578,-0.0085066807155576019
-4.0564999999999998,0.014084035629577295,0.50013196273318283
-4.056,-0.22065981123944084,0.70146809243136399
-4.0555000000000003,-0.30602121010082428,0.66967817721589051
-4.0549999999999997,-0.32736155981626724,0.48953532432777441
-4.0545,-0.32736155981626724,0.2246193641988295
-4.0540000000000003,-0.35937208438928603,-0.04029659593011542
-4.0534999999999997,-0.34870190953161306,-0.32640583287011793
-4.0529999999999999,-0.32736155981626724,-0.59132179299906285
-4.0525000000000002,-0.29535103524321932,-0.81385119950757889
-4.0519999999999996,-0.28468086038544932,-0.97280077558479161
-4.0514999999999999,-0.18864928666639288,-0.64430498502489997
-4.0510000000000002,0.15279630877945163,0.0020899576903134209
-4.0505000000000004,0.45156120479429385,0.43655213230178302
-4.0499999999999998,0.77166645052504479,0.7968378380778709
-4.0495000000000001,1.1131120459708892,1.0617537982070568
-4.0490000000000004,0.835687499671393,0.87101430691421644
-4.0484999999999998,0.38754015564813976,0.19282944898276824
-4.048,0.024754210487259936,-0.42177557851638392
-4.0475000000000003,-0.19931946152387175,-0.77146464588659125
-4.0469999999999997,-0.30602121010093103,-0.84564111472297521
-4.0465,-0.33803173467394987,-0.72907809226623943
-4.0460000000000003,-0.33803173467394987,-0.49595204735276799
-4.0454999999999997,-0.31669138495856514,-0.20984281041278466
-4.0449999999999999,-0.29535103524321932,0.065669788121318018
-4.0445000000000002,-0.28468086038553664,0.30939247144016896
-4.0439999999999996,-0.27401068552791225,0.53192187794854051
-4.0434999999999999,-0.33803173467394987,0.37297230187117358
-4.0430000000000001,-0.33803173467394987,-0.75027136907657432
-4.0425000000000004,0.52625242879755807,-1.4284562270066732
-4.0419999999999998,1.2304839694053984,-1.4708427806279598
-4.0415000000000001,1.2518243191207636,-1.0893637980419322
-4.0410000000000004,0.91037872367522976,-0.36879238649120205
-4.0404999999999998,0.46223137965185029,0.27760255622497509
-4.04,0.024754210487259936,0.61669498519002452
-4.0395000000000003,-0.23132998609689057,0.7332580076467603
-4.0389999999999997,-0.3380317346739693,0.6696781772157171
-4.0385,-0.35937208438931517,0.51072860113835017
-4.0380000000000003,-0.3380317346739693,0.26700591781972088
-4.0374999999999996,-0.31669138495856514,-0.22043944881852071
-4.0369999999999999,-0.29535103524321932,-0.57012851618872795
-4.0365000000000002,-0.27401068552785401,-0.75027136907657432
-4.0359999999999996,-0.28468086038553664,-0.88802766834387614
-4.0354999999999999,-0.28468086038553664,-1.0257839676109275
-4.0350000000000001,-0.20998963638175816,-0.9304142219644207
-4.0345000000000004,0.17413665849446752,-0.31580919446526856
-4.0339999999999998,0.6863050516635838,0.36237566346600614
-4.0335000000000001,1.1024418711132067,0.83922439169854057
-4.0330000000000004,1.2624944939783005,1.1147369902326436
-4.0324999999999998,0.61161382765929073,1.0617537982064689
-4.032,0.046094560202625215,0.41535885549184332
-4.0315000000000003,-0.25267033581221698,-0.29461591765372902
-4.0309999999999997,-0.37004225924701722,-0.73967473067154177
-4.0305,-0.39138260896236304,-0.88802766834375091
-4.0300000000000002,-0.37004225924701722,-0.82444783791280418
-4.0294999999999996,-0.33803173467392078,-0.60191843140397971
-4.0289999999999999,-0.30602121010090194,-0.32640583286987701
-4.0285000000000002,-0.28468086038553664,-0.050893234335523743
-4.0279999999999996,-0.27401068552786373,0.21402272579388373
-4.0274999999999999,-0.28468086038553664,0.45774540911251305
-4.0270000000000001,-0.26334051067017139,0.62729162359519197
-4.0265000000000004,-0.092617712947404396,0.3729723018714049
-4.0259999999999998,0.35552963107542179,-0.17805289519753292
-4.0255000000000001,0.77166645052504479,-0.2310360872233701
-4.0250000000000004,0.87836819910177422,0.097459703336521541
-4.0244999999999997,0.035424385344515578,-0.24163272562847007
-4.024,-0.43406330839309365,-0.1674562567923655
-4.0235000000000003,-0.60478610611586059,0.076266426526263781
-4.0229999999999997,-0.64746680554661062,0.23521600260416078
-4.0225,-0.4980843575391895,0.41535885549184332
-4.0220000000000002,-0.34870190953176838,0.44714877070731668
-4.0214999999999996,-0.32736155981627696,0.27760255622453173
-4.0209999999999999,-0.33803173467394987,0.12924961855232261
-4.0205000000000002,-0.35937208438931517,-0.019103319120021445
-4.0199999999999996,-0.33803173467393044,-0.24163272562873994
-4.0194999999999999,-0.31669138495858457,-0.4641621321370536
-4.0190000000000001,-0.28468086038553664,-0.66549826183523486
-4.0185000000000004,-0.23132998609717198,-0.78206128429197053
-4.0179999999999998,0.12078578420640371,-0.36879238649054674
-4.0175000000000001,0.86769802424418851,0.30939247144016896
-4.0170000000000003,1.5825997397082754,0.86041766850837442
-4.0164999999999997,1.2411541442617902,1.1995100974743778
-4.016,-0.17797911180871023,1.3584596735517449
-4.0155000000000003,-1.0529334501378911,1.0087706061815376
-4.0149999999999997,-1.1596351987153095,0.26700591781893063
-4.0145,-0.93556152670417769,-0.3581957480853793
-4.0140000000000002,-0.66880715526235446,-0.70788481545558657
-4.0134999999999996,-0.44473348325065981,-0.78206128429197053
-4.0129999999999999,-0.31669138495858457,-0.66549826183523486
-4.0125000000000002,-0.26334051067017139,-0.4535654937318862
-4.0119999999999996,-0.24200016095480609,-0.20984281041281358
-4.0114999999999998,-0.24200016095480609,0.033879872905815719
-4.0110000000000001,-0.25267033581248871,0.25640927941433178
-4.0105000000000004,-0.25267033581248871,0.41535885549169876
-4.0099999999999998,0.0034138607718946501,0.15044289536265748
-4.0095000000000001,0.75032610080967954,-0.47475877054222104
-4.0090000000000003,1.4972383408467849,-1.0045906908001108
-4.0084999999999997,1.8813646357236902,-1.2059268204984464
-4.008,1.4972383408474643,-0.84564111472308123
-4.0075000000000003,0.84635767452941524,-0.27342264084456025
-4.0069999999999997,0.27016823221345604,0.25640927941445707
-4.0065,-0.28468086038553664,0.39416557868150842
-4.0060000000000002,-1.0422632752810042,-0.050893234335523743
-4.0054999999999996,-1.042263275280878,-0.019103319120050359
-4.0049999999999999,-0.90355100213112993,-0.050893234335523743
-4.0045000000000002,-0.71148785469284226,-0.050893234335523743
-4.0039999999999996,-0.45540365810835215,0.086863064931527595
-4.0034999999999998,-0.33803173467394987,-0.050893234335523743
-4.0030000000000001,-0.31669138495858457,-0.36879238649054674
-4.0025000000000004,-0.30602121010091166,-0.67609490024012286
-4.0019999999999998,-0.29535103524321932,-0.89862430674891836
-4.0015000000000001,-0.23132998609712346,-1.0681705212315973
-4.0010000000000003,-0.01792648894366472,-0.71848145386138995
-4.0004999999999997,0.38754015564892585,0.023283234501245816
-4,0.88903837395955376,0.68027481562102909
-3.9994999999999998,0.79300680024041004,1.1041403518277266
-3.9990000000000001,0.23815770764091276,0.90280422212954525
-3.9984999999999999,-0.12462823752029703,0.21402272579366208
-3.9980000000000002,-0.30602121010090194,-0.40058230170604903
-3.9975000000000001,-0.35937208438931517,-0.75027136907657432
-3.9969999999999999,-0.34870190953163249,-0.83504447631791379
-3.9965000000000002,-0.32736155981626724,-0.73967473067140688
-3.996,-0.30602121010090194,-0.53833860097322561
-3.9954999999999998,-0.28468086038553664,-0.28401927924920728
-3.9950000000000001,-0.28468086038553664,-0.029699957525188878
-3.9944999999999999,-0.27401068552785401,0.20342608738849466
-3.9940000000000002,-0.26334051067017139,0.41535885549184332
-3.9935,-0.19931946152407554,0.39416557868150842
-3.9929999999999999,0.34485945621773917,-0.15685961838719809
-3.9925000000000002,1.1878032699746677,-0.78206128429207655
-3.992,1.8173435865779437,-1.131750351662602
-3.9914999999999998,1.6466207888550213,-0.84564111472308123
-3.9910000000000001,1.006410297394063,-0.27342264084403983
-3.9904999999999999,0.3982103305061524,0.2246193641988295
-3.9900000000000002,-0.028596663801153277,0.55311515475901996
-3.9895,-0.26334051067017139,0.69087145402619654
-3.9889999999999999,-0.34870190953163249,0.66967817721586165
-3.9885000000000002,-0.54076505696992005,0.35177902506083869
-3.988,-1.1169544992847826,-0.44296885532671876
-3.9874999999999998,-1.0422632752810042,-0.61251506980939763
-3.9870000000000001,-0.88221065241576446,-0.71848145386107198
-3.9864999999999999,-0.70081767983515975,-0.80325456110241145
-3.9860000000000002,-0.44473348325077627,-0.78206128429207655
-3.9855,-0.29535103524321932,-0.83504447631791379
-3.9849999999999999,-0.06060718837420119,-0.71848145386107198
-3.9845000000000002,0.67563487680590106,-0.093279787956193475
-3.984,1.3051751934091769,0.54251851635385251
-3.9834999999999998,1.7853330620048957,0.98757732937088472
-3.9830000000000001,2.0200769088739139,1.2313000126897355
-3.9824999999999999,1.3265155431245421,1.1783168206638983
-3.9820000000000002,0.54759277851370936,0.53192187794868506
-3.9815,0.014084035629577295,-0.18864953360270037
-3.9809999999999999,-0.27401068552785401,-0.66549826183523486
-3.9805000000000001,-0.38071243410468042,-0.85623775312824868
-3.98,-0.40205278382004572,-0.80325456110241145
-3.9794999999999998,-0.3700422592469978,-0.60191843140423029
-3.9790000000000001,-0.32736155981626724,-0.33700247127504446
-3.9784999999999999,-0.29535103524321932,-0.061489872740691176
-3.9780000000000002,-0.28468086038553664,0.19282944898332721
-3.9775,-0.27401068552785401,0.42595549389701071
-3.9769999999999999,-0.27401068552785401,0.58490506997452218
-3.9765000000000001,-0.24200016095480609,0.50013196273318283
-3.976,-0.049937013516518552,-0.11447306476652835
-3.9754999999999998,0.3768699807907871,-0.4535654937318862
-3.9750000000000001,0.59027347794443985,-0.30521255605954212
-3.9744999999999999,0.41955068022151765,-0.04029659593035631
-3.9740000000000002,0.16346648363713429,0.33058574825050385
-3.9735,-0.049937013516518552,0.60609834678485708
-3.9729999999999999,-0.19931946152407554,0.73325800764686633
-3.9725000000000001,-0.28468086038553664,0.70146809243136399
-3.972,-0.31669138495858457,0.58490506997452218
-3.9714999999999998,-0.31669138495858457,0.38356894027634103
-3.9710000000000001,-0.33803173467394987,0.055073149716150585
-3.9704999999999999,-0.3700422592469978,-0.28401927924920728
-3.9700000000000002,-0.46607383296614152,-0.60191843140423029
-3.9695,-1.0529334501386869,-1.3966663117917877
-3.9689999999999999,-1.0636036249963696,-1.5874058030848013
-3.9685000000000001,-0.88221065241576446,-1.5450192494641319
-3.968,-0.42339313353541097,-0.9092209451540858
-3.9674999999999998,0.47290155450993088,0.11865298014715518
-3.9670000000000001,1.3798664174129553,0.90280422212954525
-3.9664999999999999,1.7106418380011172,1.2736865663104053
-3.9660000000000002,1.0811015213978414,1.4220395039827496
-3.9655,0.13145595906408636,1.0193672445863871
-3.9649999999999999,-0.34870190953163249,0.24581264100916439
-3.9645000000000001,-0.4980843575391895,-0.40058230170604903
-3.964,-0.48741418268150688,-0.72907809226623943
-3.9634999999999998,-0.41272295867772835,-0.78206128429207655
-3.9630000000000001,-0.34870190953163249,-0.65490162343006741
-3.9624999999999999,-0.30602121010090194,-0.43237221692155131
-3.9620000000000002,-0.28468086038553664,-0.1674562567923655
-3.9615,-0.27401068552785401,0.086863064931652884
-3.9609999999999999,-0.26334051067017139,0.33058574825050385
-3.9605000000000001,-0.26334051067017139,0.53192187794868506
-3.96,-0.15663876209334496,0.48953532432801533
-3.9594999999999998,0.33418928136005654,-0.082683149551026042
-3.9590000000000001,1.1344523956862547,-0.63370834661973252
-3.9584999999999999,1.6039400894242908,-0.5807251545938954
-3.9580000000000002,1.3265155431245421,-0.29461591765437467
-3.9575,0.77166645052504479,0.12924961855232261
-3.9569999999999999,0.27016823221396069,0.51072860113835017
-3.9565000000000001,-0.06060718837420119,0.75445128445720111
-3.956,-0.24200016095480609,0.775644561267536
-3.9554999999999998,-0.32736155981626724,0.66967817721586165
-3.9550000000000001,-0.33803173467394987,0.46834204751768049
-3.9544999999999999,-0.33803173467394987,0.27760255622466667
-3.9540000000000002,-0.35937208438931517,0.15044289536265748
-3.9535,-0.34870190953163249,-0.093279787956193475
-3.9529999999999998,-0.32736155981626724,-0.36879238649054674
-3.9525000000000001,-0.31669138495858457,-0.64430498502489997
-3.952,-0.29535103524321932,-0.84564111472308123
-3.9514999999999998,-0.28468086038553664,-0.98339741399025782
-3.9510000000000001,-0.13529841237797968,-0.76086800748174177
-3.9504999999999999,0.18480683335249956,0.076266426526485451
-3.9500000000000002,0.41955068022151765,0.71206473083653143
-3.9495,0.28083840707164331,1.1783168206638983
-3.9489999999999998,-0.24200016095480609,1.1253336286380615
-3.9485000000000001,-0.53009488211223732,0.37297230187117358
-3.948,-0.58344575640065055,-0.34759910968021185
-3.9474999999999998,-0.51942470725455481,-0.77146464588690922
-3.9470000000000001,-0.42339313353541097,-0.87743102993858346
-3.9464999999999999,-0.34870190953163249,-0.76086800748174177
-3.9460000000000002,-0.29535103524321932,-0.51714532416289083
-3.9455,-0.26334051067017139,-0.2310360872233701
-3.9449999999999998,-0.25267033581248871,0.065669788121318018
-3.9445000000000001,-0.25267033581248871,0.31998910984533641
-3.944,-0.25267033581248871,0.52132523954351762
-3.9434999999999998,-0.19931946152407554,0.48953532432801533
-3.9430000000000001,0.17413665849481691,-0.10387642636136091
-3.9424999999999999,0.88903837395955376,-0.81385119950757889
-3.9420000000000002,1.5719295648512428,-1.2589100125246109
-3.9415,1.5505892151358776,-0.97280077558509037
-3.9409999999999998,1.0170804722517455,-0.31580919446470956
-3.9405000000000001,0.45156120479456557,0.26700591781949923
-3.9399999999999999,0.035424385344942577,0.63788826200035942
-3.9394999999999998,-0.20998963638175816,0.775644561267536
-3.9390000000000001,-0.31669138495858457,0.73325800764686633
-3.9384999999999999,-0.34870190953163249,0.57430843156935485
-3.9380000000000002,-0.34870190953163249,0.35177902506083869
-3.9375,-0.33803173467394987,0.20342608738849466
-3.9369999999999998,-0.32736155981626724,-0.04029659593035631
-3.9365000000000001,-0.31669138495858457,-0.34759910968021185
-3.9359999999999999,-0.30602121010090194,-0.62311170821456507
-3.9355000000000002,-0.30602121010090194,-0.88802766834375091
-3.9350000000000001,-0.16730893695102761,-0.96220413717992292
-3.9344999999999999,0.29150858192932599,-0.67609490024040231
-3.9340000000000002,0.6116138276598051,-0.47475877054222104
-3.9335,1.3265155431245421,0.27760255622466667
-3.9329999999999998,1.1131120459708892,0.82862775329337313
-3.9325000000000001,-0.017926488943470625,1.1041403518277266
-3.9319999999999999,-0.57277558154296804,0.72266136924169888
-3.9315000000000002,-0.74349837926589024,-0.019103319120021445
-3.931,-0.69014750497747701,-0.5807251545938954
-3.9304999999999999,-0.5621054066852853,-0.82444783791274634
-3.9300000000000002,-0.43406330839309365,-0.792657922697244
