Class_2_Relax_eyes_open/Class_2_Relax_eyes_open_SH_11.csv

#Digilent WaveForms Oscilloscope Acquisition
#Device Name: EExplorer
#Serial Number: SN:210151A2B84A
#Date Time: 2021-01-27 11:57:23.818
#Sample rate: 2000Hz
#Samples: 16384
#Trigger: Source: Channel 1 Type: Edge Condition: Rising Level: 0 V Hyst.: Auto HoldOff: 0 s
#Channel 1: Range: 1 V/div Offset: 0 V Attenuation: 1 X
#Channel 2: Range: 1 V/div Offset: 0 V Attenuation: 1 X
#Channel 4: Range: 1 V/div Offset: 0 V Attenuation: 1 X
#Power Supplies: ON
#Fixed Supply: ON
#Voltage: 3.3 V Readback: 3.331 V
#Positive Supply: ON
#Voltage: 3.7 V Readback: 3.732 V
#Current: 40 mA Readback: 18 mA
#Negative Supply: ON
#Voltage: -3.7 V Readback: -3.348 V
#Current: -40 mA Readback: -11 mA
#Reference 1: ON
#Voltage: 0 V
#Reference 2: ON
#Voltage: 0 V

Time (s),Channel 1 (V),Channel 2 (V),Channel 4 (V)
-4.096,0.2808384070716433,-0.1250697031716958,-0.1167018465269201
-4.0955,0.2808384070716433,-0.1356663415768536,-0.09553569170524114
-4.095,0.1848068333520046,-0.04029659592986479,-0.04262030465098588
-4.0945,-0.3593720843893152,0.5001319627331828,-0.05320338206182537
-4.094,-0.8395299529845972,0.7332580076466543,-0.05320338206182537
-4.0935,-1.084943974711638,0.1398462569572009,-0.0108710724184385
-4.093,-0.9782422261349084,-0.1780528951975329,-0.021454149829278
-4.0925,-0.5941159312586827,-0.1780528951975329,-0.021454149829278
-4.092,-0.1886492866661018,-0.1038764263612838,-0.021454149829278
-4.0915,0.1314559590640864,-0.01910331912002144,-0.021454149829278
-4.091,0.3235191065023739,0.1504428953626575,-0.021454149829278
-4.0905,0.4088805053638641,0.3305857482506195,-0.021454149829278
-4.09,0.4408910299368829,0.457745409112513,-0.021454149829278
-4.0895,0.4729015545099309,0.5213252395435176,-0.01087107241842888
-4.089,0.6009436528020061,0.5107286011383598,0.03146123722492912
-4.0885,0.5902734779444399,0.5425185163538525,0.03146123722496762
-4.088,0.5155822539406614,0.5849050699745222,0.03146123722496762
-4.0875,0.430220855079278,0.6272916235951534,0.01029508240328863
-4.087,0.366199805933153,0.6802748156211833,-0.0002879950076086278
-4.0865,0.4195506802215176,0.849821030103708,-0.03203722724012713
-4.086,0.8036769750977434,1.284283204715178,-0.03203722724012713
-4.0855,0.4622313796515203,1.326669758335443,-0.05320338206185424
-4.085,-0.3380317346739499,0.4471487707073456,-0.08495261429437276
-4.0845,-0.8502001278422509,-0.4217755785155937,-0.07436953688353326
-4.084,-0.732828204407897,-0.6125150698092434,-0.05320338206181575
-4.0835,-0.391382608962363,-0.4429688553267188,-0.04262030465097626
-4.083,-0.06060718837420119,-0.1992461720078678,-0.04262030465097626
-4.0825,0.1634664836372507,0.002089957690429072,-0.04262030465098588
-4.082,0.291508581929326,0.1292496185523226,-0.05320338206182537
-4.0815,0.3341892813600565,0.2034260873884947,-0.04262030465097626
-4.081,0.3448594562177295,0.2246193641988102,-0.05320338206181575
-4.0805,0.3341892813600565,0.2352160026039969,-0.106118769116071
-4.08,0.3128489316446912,0.2458126410091644,-0.1167018465269201
-4.0795,0.2808384070716724,0.2881991946297956,-0.1167018465269201
-4.079,0.2594980573562586,0.3199891098453749,-0.1061187691160421
-4.0785,0.2381577076409128,0.3623756634660061,-0.07436953688352363
-4.078,-0.08194753808927535,0.5531151547588464,-0.05320338206184462
-4.0775,-0.6474668055472415,0.6802748156204798,-0.04262030465098588
-4.077,-1.191645723288561,0.07626642652648545,-0.05320338206182537
-4.0765,-1.330357996438309,-0.368792386490142,-0.01087107241846738
-4.076,-1.020922925565193,-0.337002471274977,-0.021454149829278
-4.0755,-0.5300948821122373,-0.2628260024388724,-0.021454149829278
-4.075,-0.07127736323188383,-0.1674562567923655,-0.021454149829278
-4.0745,0.2381577076410486,-0.09327978795609709,-0.021454149829278
-4.074,0.3875401556484697,0.01268659609548085,-0.021454149829278
-4.0735,0.4515612047945656,0.06566978812131802,-0.021454149829278
-4.073,0.4515612047945656,0.1398462569574226,-0.0320372272401175
-4.0725,0.5689331282290746,0.1292496185523226,0.03146123722496762
-4.072,0.6116138276598051,0.1504428953626575,0.03146123722496762
-4.0715,0.6329541773751511,0.1186529801471841,0.03146123722496762
-4.071,0.5582629533713145,0.2034260873886103,0.02087815981410887
-4.0705,0.4729015545099309,0.3305857482505039,0.01029508240326937
-4.07,0.451561204794585,0.425955493896924,-0.02145414982924913
-4.0695,0.7823366253826014,0.7544512844571818,-0.04262030465098588
-4.069,0.6436243522328531,0.7332580076468663,-0.05320338206182537
-4.0685,-0.08194753808956648,-0.05089323433552374,-0.05320338206182537
-4.068,-0.8181896032698531,-0.7926579226974753,-0.09553569170519301
-4.0675,-1.020922925565639,-1.046977244421262,-0.0637864594726745
-4.067,-0.7114878546928423,-0.7714646458869092,-0.04262030465097626
-4.0665,-0.3060212101006108,-0.368792386490248,-0.04262030465097626
-4.066,0.01408403562957729,-0.04029659593035631,-0.04262030465097626
-4.0655,0.2168173579255475,0.1610395337678249,-0.04262030465097626
-4.065,0.3128489316446039,0.2564092794142451,-0.05320338206181575
-4.0645,0.3448594562177392,0.2881991946298341,-0.05320338206182537
-4.064,0.3448594562177392,0.2776025562246667,-0.09553569170522189
-4.0635,0.3235191065023933,0.2670059178195089,-0.1167018465269009
-4.063,0.2915085819292969,0.2670059178195185,-0.1167018465269105
-4.0625,0.2594980573562781,0.2881991946298341,-0.106118769116071
-4.062,0.2381577076409322,0.3199891098453075,-0.08495261429439201
-4.0615,0.0247542104867553,0.5955017083800654,-0.04262030465099551
-4.061,-0.5300948821122373,1.00877060618122,-0.0637864594726745
-4.0605,-0.8822106524157645,0.6166949851900245,-0.05320338206182537
-4.06,-1.095614149569456,-0.3052125560599469,-0.02145414982928762
-4.0595,-1.138294849000148,-0.7502713690765743,-0.03203722724012713
-4.059,-0.8715404775580819,-0.6231117082145651,-0.021454149829278
-4.0585,-0.4660738329665103,-0.2840192792495157,-0.021454149829278
-4.058,-0.09261771294724913,0.05507314971615059,-0.021454149829278
-4.0575,0.1848068333524996,0.2776025562246667,-0.021454149829278
-4.057,0.3448594562175936,0.3729723018710869,-0.021454149829278
-4.0565,0.408880505363835,0.4259554938970107,-0.03203722724012713
-4.056,0.5155822539406614,0.4471487707073456,0.01029508240326937
-4.0555,0.6542945270904097,0.42595549389703,0.04204431463578787
-4.055,0.6116138276597177,0.4365521323021974,0.031461237224958
-4.0545,0.5155822539406614,0.457745409112513,0.0208781598141185
-4.054,0.430220855079278,0.4789386859228286,0.010295082403279
-4.0535,0.3982103305065018,0.4895353243279382,-0.01087107241845775
-4.053,0.7823366253827275,0.4047622170866759,-0.04262030465097626
-4.0525,1.123782220828572,0.3623756634660061,-0.05320338206182537
-4.052,0.5582629533706061,-0.2310360872240255,-0.05320338206185424
-4.0515,-0.3060212101009019,-0.9516074987747555,-0.08495261429437276
-4.051,-0.7008176798351597,-1.163540266878104,-0.05320338206182537
-4.0505,-0.5621054066854114,-0.8350444763182125,-0.04262030465098588
-4.05,-0.2633405106701714,-0.400582301706049,-0.04262030465097626
-4.0495,0.01408403562957729,-0.08268314955102604,-0.04262030465097626
-4.049,0.1954770082100172,0.08686306493149867,-0.04262030465097626
-4.0485,0.2915085819293648,0.1504428953626382,-0.05320338206182537
-4.048,0.3341892813600565,0.1292496185523226,-0.05320338206182537
-4.0475,0.3341892813600565,0.08686306493169144,-0.07436953688350438
-4.047,0.3128489316446718,0.04447651131096388,-0.1167018465269201
-4.0465,0.291508581929326,0.02328323450064829,-0.1167018465269201
-4.046,0.2594980573563072,0.03387987290580608,-0.1061187691160806
-4.0455,0.2274875327831913,0.0868630649317589,-0.09553569170518339
-4.045,0.1848068333524996,0.2034260873884947,-0.05320338206182537
-4.0445,-0.2099896363817582,0.3623756634660061,-0.0637864594726745
-4.044,-0.5941159312585564,0.04447651131036635,-0.05320338206178687
-4.0435,-0.839529952985034,-0.6337083466197325,-0.01087107241842888
-4.043,-0.839529952985034,-0.7502713690765743,-0.021454149829278
-4.0425,-0.6261264558315753,-0.4853554089476294,-0.021454149829278
-4.042,-0.274010685527854,-0.1462629799820306,-0.021454149829278
-4.0415,0.04609456020262521,0.08686306493165288,-0.021454149829278
-4.041,0.2701682322137569,0.2564092794141776,-0.021454149829278
-4.0405,0.3875401556484891,0.3941655786815759,-0.021454149829278
-4.04,0.408880505363835,0.4683420475176805,-0.021454149829278
-4.0395,0.4622313796521997,0.4577454091125227,-0.0108710724184385
-4.039,0.6649647019482474,0.2776025562246474,0.03146123722497725
-4.0385,0.6969752265212663,0.2564092794143318,0.04204431463581675
-4.038,0.6436243522329016,0.3093924714401208,0.03146123722497725
-4.0375,0.5369226036559392,0.3835689402763892,0.02087815981409925
-4.037,0.4408910299368829,0.4365521323021782,-0.000287995007579752
-4.0365,0.5262524287983441,0.4365521323021782,-0.03203722724012713
-4.036,0.8997085488168192,0.7438546460518217,-0.04262030465098588
-4.0355,0.4408910299368829,0.5107286011383502,-0.05320338206182537
-4.035,-0.3807124341046804,-0.3475991096802118,-0.08495261429437276
-4.0345,-0.9248913518460002,-1.025783967610311,-0.07436953688353326
-4.034,-0.8181896032696687,-0.9833974139902578,-0.04262030465097626
-4.0335,-0.4554036581084589,-0.6443049850249,-0.03203722724012713
-4.033,-0.1139580626629249,-0.3052125560598505,-0.04262030465096663
-4.0325,0.1421261339218854,-0.08268314955092003,-0.04262030465097626
-4.032,0.2701682322139607,0.03387987290581572,-0.04262030465097626
-4.0315,0.3235191065023253,0.0656697881212891,-0.05320338206181575
-4.031,0.3448594562177197,0.05507314971613131,-0.0532033820618735
-4.0305,0.3235191065023739,0.03387987290581572,-0.106118769116071
-4.03,0.302178756787028,0.03387987290581572,-0.1167018465269105
-4.0295,0.259498057356249,0.04447651131104098,-0.1167018465269105
-4.029,0.2274875327832301,0.1080563417419877,-0.106118769116071
-4.0285,0.2061471830678648,0.1716361721729923,-0.07436953688352363
-4.028,-0.07127736323231082,0.2987958330350498,-0.05320338206182537
-4.0275,-0.5407650569699201,0.3517790250608387,-0.05320338206182537
-4.027,-0.9142211769888124,-0.2840192792492073,-0.04262030465097626
-4.0265,-1.063603624996234,-0.8668343915328862,-0.02145414982929725
-4.026,-0.9462317015618604,-0.8032545611024114,-0.021454149829278
-4.0255,-0.5300948821122373,-0.4641621321370536,-0.021454149829278
-4.025,-0.1459685872360117,-0.06148987274105738,-0.021454149829278
-4.0245,0.1314559590642513,0.2246193641989837,-0.021454149829278
-4.024,0.3128489316446912,0.3941655786815084,-0.021454149829278
-4.0235,0.3982103305060748,0.5001319627330865,-0.021454149829278
-4.023,0.4195506802216826,0.5425185163537947,-0.03203722724006938
-4.0225,0.6009436528021226,0.4789386859228479,0.03146123722496762
-4.022,0.6542945270904873,0.4365521323022167,0.04204431463580712
-4.0215,0.57960330308667,0.4577454091125516,0.031461237224958
-4.021,0.4835717293676135,0.5001319627331828,0.0208781598141185
-4.0205,0.3982103305061524,0.5213252395435176,0.01029508240326937
-4.02,0.3982103305064824,0.563711793164515,-0.02145414982928762
-4.0195,0.7609962756673623,0.92399749893988,-0.03203722724012713
-4.019,0.6329541773751706,1.051157159801889,-0.04262030465097626
-4.0185,-0.1352984123772809,0.288199194630528,-0.06378645947265525
-4.018,-0.9355615267041777,-0.6760949002404023,-0.09553569170522189
-4.0175,-1.042263275281004,-0.9939940523954253,-0.05320338206182537
-4.017,-0.7008176798354703,-0.7820612842922693,-0.03203722724014638
-4.0165,-0.2846808603852455,-0.4323722169212911,-0.03203722724013675
-4.016,0.03542438534494258,-0.1462629799820306,-0.04262030465097626
-4.0155,0.2274875327830554,0.04447651131080968,-0.04262030465097626
-4.015,0.3128489316447203,0.1292496185523515,-0.04262030465098588
-4.0145,0.3448594562177392,0.1610395337678249,-0.05320338206182537
-4.014,0.3341892813600663,0.1610395337678249,-0.09553569170518339
-4.0135,0.3128489316446524,0.1610395337678346,-0.1167018465269201
-4.013,0.2701682322139607,0.1716361721729923,-0.1167018465269201
-4.0125,0.2488278824985954,0.1822328105781598,-0.106118769116071
-4.012,0.2381577076407866,0.1928294489834718,-0.08495261429433426
-4.0115,0.09944543449103843,0.3517790250608387,-0.04262030465097626
-4.011,-0.3807124341046804,0.6166949851900245,-0.05320338206182537
-4.0105,-0.7861790786962519,0.2034260873888705,-0.05320338206182537
-4.01,-0.9035510021311299,-0.5807251545938954,-0.01087107241842888
-4.0095,-0.9462317015618604,-0.8350444763179138,-0.021454149829278
-4.009,-0.7221580295507288,-0.5913217929992844,-0.021454149829278
-4.0085,-0.3380317346736199,-0.2310360872231195,-0.021454149829278
-4.008,0.02475421048725994,0.04447651131098315,-0.021454149829278
-4.0075,0.2488278824983916,0.2034260873883501,-0.021454149829278
-4.007,0.3555296310754606,0.330585748250581,-0.02145414982928762
-4.0065,0.3982103305061524,0.4153588554918433,-0.03203722724012713
-4.006,0.5155822539406614,0.3517790250608387,0.01029508240326937
-4.0055,0.675634876805872,0.1928294489833465,0.03146123722496762
-4.005,0.6436243522328531,0.2140227257936621,0.03146123722496762
-4.0045,0.5369226036560266,0.2987958330350016,0.0208781598141185
-4.004,0.4302208550791518,0.3835689402763603,0.01029508240325012
-4.0035,0.3768699807907871,0.4047622170866759,-0.01087107241842888
-4.003,0.6756348768059011,0.1822328105781598,-0.04262030465097626
-4.0025,0.8997085488170327,-0.1250697031714162,-0.05320338206181575
-4.002,0.2381577076409128,-0.792657922697244,-0.04262030465097626
-4.0015,-0.5194247072545548,-0.9728007755850904,-0.0637864594726745
-4.001,-1.020922925565183,-0.4535654937323584,-0.0637864594726745
-4.0005,-0.8928808272730978,-0.2098428104130256,-0.04262030465097626
-4,-0.5087545323968721,-0.1992461720078678,-0.04262030465097626
-3.9995,-0.1352984123779797,-0.2734226408440398,-0.04262030465097626
-3.999,0.1207857842064037,-0.3475991096802118,-0.04262030465097626
-3.9985,0.2701682322139607,-0.3793890248957141,-0.04262030465097626
-3.998,0.3235191065023739,-0.3687923864905467,-0.04262030465097626
-3.9975,0.3341892813600565,-0.326405832869877,-0.07436953688352363
-3.997,0.3235191065023739,-0.2416327256285375,-0.106118769116071
-3.9965,0.2808384070716433,-0.1144730647665284,-0.1167018465269201
-3.996,0.2381577076409128,0.02328323450064829,-0.106118769116071
-3.9955,0.2274875327832301,0.1822328105781598,-0.09553569170522189
-3.995,0.142126133921769,0.4153588554918433,-0.04262030465097626
-3.9945,-0.391382608962363,0.775644561267536,-0.04262030465097626
-3.994,-1.148965023857831,1.241896651094903,-0.04262030465097626
-3.9935,-1.810515865034154,1.602182356870596,-0.021454149829278
-3.993,-2.066600061618538,1.305476481525908,-0.03203722724012713
-3.9925,-1.639793067311232,0.8604176685088755,-0.03203722724012713
-3.992,-1.020922925565639,0.5743084315693548,-0.03203722724012713
-3.9915,-0.423393133535411,0.457745409112513,-0.021454149829278
-3.991,0.03542438534494258,0.4365521323021782,-0.021454149829278
-3.9905,0.291508581929326,0.4471487707073456,-0.021454149829278
-3.99,0.3982103305061524,0.5107286011383502,-0.021454149829278
-3.9895,0.4622313796522482,0.5319218779486851,-0.01087107241842888
-3.989,0.5796033030867573,0.4365521323021782,0.03146123722496762
-3.9885,0.5796033030867573,0.4789386859228479,0.03146123722496762
-3.988,0.5262524287983441,0.5637117931641874,0.03146123722496762
-3.9875,0.4622313796522482,0.6378882620003594,0.01029508240326937
-3.987,0.408880505363835,0.6908714540261965,-0.000287995007579752
-3.9865,0.5475927785137094,0.5213252395435176,-0.04262030465097626
-3.986,1.017080472251745,0.3729723018711736,-0.04262030465097626
-3.9855,0.6969752265212663,-0.1250697031716958,-0.05320338206182537
-3.985,-0.1352984123779797,-0.8350444763179138,-0.08495261429437276
-3.9845,-0.658136980404429,-1.163540266878104,-0.0637864594726745
-3.984,-0.5941159312583333,-0.8774310299385835,-0.04262030465097626
-3.9835,-0.3166913849585846,-0.4641621321370536,-0.04262030465097626
-3.983,-0.03926683865883591,-0.1568596183871981,-0.04262030465097626
-3.9825,0.1634664836371343,0.002089957690313421,-0.04262030465097626
-3.982,0.2701682322139607,0.02328323450064829,-0.05320338206182537
-3.9815,0.3128489316446912,-0.02969995752518888,-0.05320338206182537
-3.981,0.3235191065023739,-0.1144730647665284,-0.0637864594726745
-3.9805,0.3128489316446912,-0.1992461720078678,-0.106118769116071
-3.98,0.2701682322139607,-0.2416327256285375,-0.1167018465269201
-3.9795,0.2381577076409128,-0.2734226408440398,-0.1167018465269201
-3.979,0.2168173579255475,-0.252229364033705,-0.09553569170522189
-3.9785,0.1848068333524996,-0.1568596183871981,-0.0637864594726745
-3.978,-0.1993194615240755,0.1292496185523226,-0.05320338206182537
-3.9775,-0.7755089038389382,0.4471487707073456,-0.05320338206182537
-3.977,-1.180975548430879,0.002089957690313421,-0.03203722724012713
-3.9765,-1.415719395299897,-0.252229364033705,-0.01087107241842888
-3.976,-1.223656247861609,-0.1886495336027004,-0.021454149829278
-3.9755,-0.7434983792658902,-0.06148987274069118,-0.021454149829278
-3.975,-0.274010685527854,0.05507314971615059,-0.021454149829278
-3.9745,0.1101156093487211,0.1822328105781598,-0.021454149829278
-3.974,0.3235191065023739,0.2881991946298341,-0.021454149829278
-3.9735,0.408880505363835,0.383568940276341,-0.021454149829278
-3.973,0.4302208550792003,0.457745409112513,-0.03203722724012713
-3.9725,0.6542945270905358,0.309392471440169,0.03146123722496762
-3.972,0.7609962756673623,0.2564092794143318,0.03146123722496762
-3.9715,0.6756348768059011,0.4047622170866759,0.03146123722496762
-3.971,0.5475927785137094,0.5849050699745222,0.0208781598141185
-3.9705,0.4302208550792003,0.7120647308365314,0.01029508240326937
-3.97,0.4302208550792003,0.6484849004055269,-0.03203722724012713
-3.9695,0.8036769750980928,0.04447651131098315,-0.0637864594726745
-3.969,0.6649647019482183,-0.6549016234300674,-0.0637864594726745
-3.9685,0.1954770082101822,-1.01518732920576,-0.04262030465097626
-3.968,-0.4447334832507763,-1.258910012524611,-0.07436953688352363
-3.9675,-0.6047861061160158,-1.025783967610927,-0.04262030465097626
-3.967,-0.4020527838200457,-0.5489352393783931,-0.04262030465097626
-3.9665,-0.1352984123779797,-0.1568596183871981,-0.04262030465097626
-3.966,0.08877525963335578,0.04447651131098315,-0.04262030465097626
-3.9655,0.2274875327832301,0.09745970333682032,-0.05320338206182537
-3.965,0.291508581929326,0.03387987290581572,-0.05320338206182537
-3.9645,0.3128489316446912,-0.07208651114585861,-0.05320338206182537
-3.964,0.3128489316446912,-0.1886495336027004,-0.09553569170522189
-3.9635,0.291508581929326,-0.2840192792492073,-0.1272849239377692
-3.963,0.2701682322139607,-0.3370024712750445,-0.1167018465269201
-3.9625,0.2381577076409128,-0.3581957480853793,-0.106118769116071
-3.962,0.2061471830678648,-0.3052125560595421,-0.07436953688352363
-3.9615,-0.04993701351651855,-0.008506680714854012,-0.05320338206182537
-3.961,-0.6688071552621118,0.5849050699745222,-0.05320338206182537
-3.9605,-1.031593100423322,0.5425185163538525,-0.04262030465097626
-3.96,-1.202315898146244,-0.1356663415768632,-0.021454149829278
-3.9595,-1.116954499284783,-0.4853554089473885,-0.03203722724012713
-3.959,-0.7434983792658902,-0.4853554089473885,-0.021454149829278
-3.9585,-0.2846808603855366,-0.252229364033705,-0.021454149829278
-3.958,0.05676473506030786,0.01268659609548085,-0.021454149829278
-3.9575,0.2594980573562781,0.2246193641988295,-0.021454149829278
-3.957,0.3448594562177392,0.383568940276341,-0.021454149829278
-3.9565,0.3768699807907871,0.5001319627331828,-0.03203722724012713
-3.956,0.5049120790829789,0.5001319627331828,0.01029508240326937
-3.9555,0.6222840025174878,0.4683420475176805,0.04204431463581675
-3.955,0.5902734779444399,0.5319218779486851,0.03146123722496762
-3.9545,0.5049120790829789,0.6166949851900245,0.0208781598141185
-3.954,0.4408910299368829,0.6908714540261965,0.01029508240326937
-3.9535,0.3875401556484697,0.7438546460520338,-0.01087107241842888
-3.953,0.6756348768059011,0.8074344764830383,-0.04262030465097626
-3.9525,0.8676980242441885,0.701468092431364,-0.05320338206182537
-3.952,0.2488278824985954,-0.04029659593035631,-0.04262030465097626
