Class_2_Relax_eyes_open/Class_2_Relax_Eyes_open_Zakour_1.csv

#Digilent WaveForms Oscilloscope Acquisition
#Device Name: EExplorer
#Serial Number: SN:210151A2B84A
#Date Time: 2020-10-20 13:14:08.383
#Sample rate: 2000Hz
#Samples: 16384
#Trigger: Source: Channel 1 Type: Edge Condition: Rising Level: 0 V Hyst.: Auto HoldOff: 0 s
#Channel 1: Range: 1 V/div Offset: 0 V
#Channel 2: Range: 1 V/div Offset: 0 V

Time (s),Channel 1 (V),Channel 2 (V)
-4.0960000000000001,0.20614718306786484,-0.44296885532671876
-4.0955000000000004,0.14212613392182721,0.0020899576899086614
-4.0949999999999998,0.067434909917961389,0.076266426526456543
-4.0945,0.035424385344942577,0.044476511310983152
-4.0940000000000003,0.046094560202615514,-0.0085066807148058213
-4.0934999999999997,0.014084035629451137,0.02328323450080249
-4.093,-0.12462823752029703,0.19282944898332721
-4.0925000000000002,-0.10328788780495116,0.1822328105781694
-4.0919999999999996,-0.0072563140857103518,0.086863064931585424
-4.0914999999999999,0.078105084775673142,0.012686596095480854
-4.0910000000000002,0.046094560202625215,0.097459703336820316
-4.0904999999999996,-0.55143523182849563,0.71206473083700372
-4.0899999999999999,-1.5330913187344057,1.2313000126897355
-4.0895000000000001,-2.3546947827759692,0.5637117931641874
-4.0890000000000004,-2.9949052742363453,-0.64430498502380129
-4.0884999999999998,-3.037585973667658,-1.6191957183003036
-4.0880000000000001,-2.5040772307835262,-1.650985633515806
-4.0875000000000004,-1.4050492204432137,-0.95160749877539152
-4.0869999999999997,-0.55143523182711751,-0.16745625679180653
-4.0865,-0.017926488943470625,0.4471487707073456
-4.0860000000000003,0.24882788249835278,0.83922439169818397
-4.0854999999999997,0.34485945621773917,1.040560521396799
-4.085,0.34485945621773917,1.1253336286380615
-4.0845000000000002,0.32351910650239329,1.0723504366122725
-4.0839999999999996,0.32351910650240295,0.90280422212934286
-4.0834999999999999,0.35552963107542179,0.68027481562102909
-4.0830000000000002,0.59027347794443985,0.25640927941433178
-4.0824999999999996,1.0490909968252786,-0.32640583287050345
-4.0819999999999999,1.5825997397089255,-1.01518732920576
-4.0815000000000001,1.9773962094431832,-1.6403889951106385
-4.0810000000000004,1.6999716631436868,-2.4987167059284201
-4.0804999999999998,1.2838348436938116,-2.2020108305845123
-4.0800000000000001,0.75032610080967954,-1.3966663117917877
-4.0795000000000003,0.30217875678741618,-0.69728817705137325
-4.0789999999999997,0.16346648363707605,-0.18864953360251727
-4.0785,0.099445434491038431,0.012686596095480854
-4.0780000000000003,0.056764735060346676,0.012686596095480854
-4.0774999999999997,0.035424385344942577,-0.0085066807148443738
-4.077,0.035424385344942577,0.0020899576903134209
-4.0765000000000002,-0.12462823752015145,0.21402272579346932
-4.0759999999999996,-0.16730893695094026,0.29879583303494373
-4.0754999999999999,-0.071277363231883828,0.23521600260399694
-4.0750000000000002,0.035424385344942577,0.15044289536265748
-4.0744999999999996,0.11011560934858521,0.12924961855260211
-4.0739999999999998,-0.039266838658835915,0.43655213230217815
-4.0735000000000001,-0.62612645583138127,1.1253336286380615
-4.0730000000000004,-1.4904106193028892,1.2948798431205861
-4.0724999999999998,-2.1839719850530468,0.31998910984533641
-4.0720000000000001,-2.8135123016563228,-0.86683439153341613
-4.0715000000000003,-2.600108804502864,-1.3966663117913058
-4.0709999999999997,-1.5864421930220427,-1.0045906907999758
-4.0705,-0.73282820440820751,-0.32640583286987701
-4.0700000000000003,-0.13529841237852314,0.27760255622411734
-4.0694999999999997,0.18480683335261602,0.70146809243159525
-4.069,0.31284893164469124,0.95578741415538238
-4.0685000000000002,0.33418928136005654,1.0723504366122243
-4.0679999999999996,0.32351910650237387,1.051157159801793
-4.0674999999999999,0.32351910650237387,0.94519077575021493
-4.0670000000000002,0.32351910650237387,0.81803111488820579
-4.0664999999999996,0.33418928136008563,0.64848490040512208
-4.0659999999999998,0.36619980593310447,0.20342608738849466
-4.0655000000000001,0.40888050536383502,-1.0999604364470996
-4.0650000000000004,0.82501732481307954,-1.809935209592672
-4.0644999999999998,1.2304839694053984,-2.4033469602826938
-4.0640000000000001,1.2624944939784462,-2.1914141921793449
-4.0635000000000003,1.0170804722519686,-1.2906999277409326
-4.0629999999999997,0.65429452709023495,-0.50654868575734757
-4.0625,0.32351910650237387,-0.093279787956193475
-4.0620000000000003,0.14212613392193396,0.097459703336646844
-4.0614999999999997,0.067434909917990504,0.11865298014711663
-4.0609999999999999,0.067434909917990504,0.076266426526485451
-4.0605000000000002,0.08877525963335578,0.023283234500648287
-4.0599999999999996,0.024754210487143484,0.12924961855249609
-4.0594999999999999,-0.10328788780493176,0.31998910984533641
-4.0590000000000002,-0.071277363231883828,0.28819919462983412
-4.0585000000000004,0.0034138607718267183,0.18223281057825613
-4.0579999999999998,0.078105084775673142,0.12924961855232261
-4.0575000000000001,-0.049937013516518552,0.34118238665567124
-4.0570000000000004,-0.76483872898060534,0.99817396777545453
-4.0564999999999998,-1.7144842913150107,1.0617537982070568
-4.056,-2.322684258202921,0.38356894027634103
-4.0555000000000003,-2.6854702033638009,-0.34759910967954688
-4.0549999999999997,-2.8135123016555466,-1.1741369052832813
-4.0545,-1.9598983130417114,-1.1847335436884392
-4.0540000000000003,-1.0315931004241659,-0.63370834662023368
-4.0534999999999997,-0.33803173467356168,-0.019103319119578115
-4.0529999999999999,0.08877525963335578,0.46834204751768049
-4.0525000000000002,0.28083840707164331,0.78624119967270345
-4.0519999999999996,0.34485945621772945,0.95578741415544022
-4.0514999999999999,0.33418928136005654,1.0193672445863871
-4.0510000000000002,0.32351910650237387,0.92399749893988004
-4.0505000000000004,0.33418928136004683,0.78624119967282868
-4.0499999999999998,0.45156120479456557,0.53192187794868506
-4.0495000000000001,0.73965592595199681,0.10805634174198775
-4.0490000000000004,1.3158453682663354,-0.4959520473520066
-4.0484999999999998,1.6146102642817599,-1.4602461422236308
-4.048,1.3798664174129553,-2.3821536834723589
-4.0475000000000003,1.2945050185515719,-2.127834361748572
-4.0469999999999997,0.89970854881690654,-1.3754730349807684
-4.0465,0.53692260365602662,-0.62311170821456507
-4.0460000000000003,0.34485945621791386,-0.040296595930886303
-4.0454999999999997,0.17413665849472956,0.18223281057818869
-4.0449999999999999,0.078105084775673142,0.21402272579366208
-4.0445000000000002,0.05676473506030786,0.18223281057815977
-4.0439999999999996,0.056764735060288452,0.1398462569575093
-4.0434999999999999,0.035424385344942577,0.16103953376782493
-4.0430000000000001,-0.12462823752029703,0.37297230187117358
-4.0425000000000004,-0.13529841237796997,0.40476221708664695
-4.0419999999999998,-0.06060718837420119,0.30939247144016896
-4.0415000000000001,0.0034138607718946501,0.24581264100916439
-4.0410000000000004,-0.028596663801124161,0.35177902506074232
-4.0404999999999998,-0.58344575640146568,0.87101430691460191
-4.04,-1.4797404444459925,1.4856193344137538
-4.0395000000000003,-2.1519614604793875,1.1465269054487044
-4.0389999999999997,-2.7388210776527577,-0.082683149552057258
-4.0385,-2.9735649245215625,-1.2165234589039415
-4.0380000000000003,-2.3013439084881675,-1.4284562270070973
-4.0374999999999996,-1.2770071221493042,-0.87743102993796662
-4.0369999999999999,-0.48741418268150688,-0.19924617200786782
-4.0365000000000002,0.014084035629577295,0.36237566346600614
-4.0359999999999996,0.27016823221402864,0.7332580076470494
-4.0354999999999999,0.34485945621773917,0.93459413734504748
-4.0350000000000001,0.34485945621773917,1.0193672445863871
-4.0345000000000004,0.33418928136006626,0.95578741415544022
-4.0339999999999998,0.33418928136005654,0.76504792286236856
-4.0335000000000001,0.3982103305061524,0.51072860113835017
-4.0330000000000004,0.75032610080935935,0.04447651131140723
-4.0324999999999998,1.2731646688366918,-0.53833860097379427
-4.032,1.8920348105817222,-1.1635402668781043
-4.0315000000000003,2.0307470837314705,-1.9053049552391501
-4.0309999999999997,1.6359506139970281,-2.6470696436010144
-4.0305,1.2945050185514941,-2.0642545313173359
-4.0300000000000002,0.75032610081017448,-1.184733543689239
-4.0294999999999996,0.33418928135992071,-0.4429688553262176
-4.0289999999999999,0.18480683335249956,0.10805634174198775
-4.0285000000000002,0.078105084775673142,0.24581264100916439
-4.0279999999999996,0.035424385344952285,0.20342608738841755
-4.0274999999999999,0.046094560202625215,0.11865298014715518
-4.0270000000000001,0.05676473506030786,0.097459703336820316
-4.0265000000000004,-0.071277363231767366,0.25640927941418723
-4.0259999999999998,-0.10328788780493176,0.31998910984533641
-4.0255000000000001,-0.028596663801153277,0.25640927941433178
-4.0250000000000004,0.024754210487211416,0.25640927941433178
-4.0244999999999997,0.0034138607716035162,0.36237566346637234
-4.024,-0.31669138495858457,0.76504792286236856
-4.0235000000000003,-1.0742737998533631,1.4114428655769942
-4.0229999999999997,-1.7038141164574736,1.5597958032490105
-4.0225,-1.8638667393225676,0.55311515475901996
-4.0220000000000002,-2.0772702364760263,-0.75027136907538872
-4.0214999999999996,-2.0986105861910036,-1.5238259726535466
-4.0209999999999999,-1.4584000947306273,-1.2483133741194434
-4.0205000000000002,-0.73282820440820751,-0.55953187778356051
-4.0199999999999996,-0.18864928666609204,0.10805634174243108
-4.0194999999999999,0.14212613392176898,0.59550170837968963
-4.0190000000000001,0.29150858192932599,0.90280422212954525
-4.0185000000000004,0.33418928136001774,1.0617537982069123
-4.0179999999999998,0.32351910650237387,1.0829470750173917
-4.0175000000000001,0.32351910650237387,0.96638405256054982
-4.0170000000000003,0.36619980593306567,0.71206473083676269
-4.0164999999999997,0.5796033030873784,0.31998910984470996
-4.016,1.2624944939784462,-0.36879238649054674
-4.0155000000000003,1.9560558597271871,-1.0363806060154879
-4.0149999999999997,2.3828628540349879,-1.7039688255424046
-4.0145,2.2334804060275668,-2.5411032595498702
-4.0140000000000002,2.009406734016435,-2.3503637682570302
-4.0134999999999996,1.3371857179816717,-1.5662125262736668
-4.0129999999999999,0.72898575109431429,-0.68669153864556975
-4.0125000000000002,0.3982103305061524,-0.04029659593035631
-4.0119999999999996,0.16346648363702754,0.21402272579368134
-4.0114999999999998,0.046094560202625215,0.23521600260399694
-4.0110000000000001,0.024754210487259936,0.19282944898332721
-4.0105000000000004,0.046094560202605807,0.15044289536269603
-4.0099999999999998,-0.028596663801153277,0.21402272579366208
-4.0095000000000001,-0.17797911180871023,0.38356894027634103
-4.0090000000000003,-0.12462823752034555,0.31998910984539425
-4.0084999999999997,-0.0072563140857006478,0.19282944898323084
-4.008,0.08877525963335578,0.086863064931652884
-4.0075000000000003,0.12078578420637459,0.11865298014712627
-4.0069999999999997,-0.039266838659107642,0.62729162359550039
-4.0065,-0.33803173467394987,0.96638405256054982
-4.0060000000000002,-0.30602121010090194,0.74385464605203377
-4.0054999999999996,0.41955068022224551,0.19282944898246945
-4.0049999999999999,1.2198137945477157,-0.75027136907657432
-4.0045000000000002,1.4972383408474643,-1.0787671596367647
-4.0039999999999996,1.2198137945473566,-0.71848145386057083
-4.0034999999999998,0.82501732481345802,-0.1674562567923655
-4.0030000000000001,0.50491207908297886,0.29879583303500157
-4.0025000000000004,0.29150858192952012,0.62729162359489321
-4.0019999999999998,0.18480683335249956,0.81803111488820579
-4.0015000000000001,0.15279630877945163,0.90280422212954525
-4.0010000000000003,0.19547700821014335,0.83922439169859842
-4.0004999999999997,0.30217875678709594,0.60609834678462582
-4,0.3982103305061524,0.35177902506083869
-3.9994999999999998,0.66496470194821833,-0.0085066807148540119
-3.9990000000000001,0.77166645052504479,-1.1741369052832717
-3.9984999999999999,0.91037872367491923,-1.9582881472656615
-3.9980000000000002,1.2411541442630809,-2.4457335139033636
-3.9975000000000001,1.3905365922706379,-2.4245402370930287
-3.9969999999999999,1.1878032699746677,-1.6085990798951362
-3.9965000000000002,0.83568749967114075,-0.62311170821456507
-3.996,0.44089102993688295,0.0020899576903134209
-3.9954999999999998,0.19547700821018218,0.27760255622466667
-3.9950000000000001,0.078105084775673142,0.35177902506083869
-3.9944999999999999,0.046094560202625215,0.33058574825050385
-3.9940000000000002,0.035424385344942577,0.28819919462983412
-3.9935,0.024754210487259936,0.24581264100916439
-3.9929999999999999,-0.11395806266261441,0.37297230187117358
-3.9925000000000002,-0.11395806266261441,0.34118238665567124
-3.992,-0.049937013516518552,0.21402272579366208
-3.9914999999999998,0.035424385344942577,0.10805634174198775
-3.9910000000000001,0.035424385344942577,0.15044289536265748
-3.9904999999999999,-0.46607383296614152,0.72266136924169888
-3.9900000000000002,-1.373038695869166,1.4644260576034194
-3.9895,-2.0239193621878071,1.6869554641119353
-3.9889999999999999,-2.3973754822066997,0.69087145402619654
-3.9885000000000002,-2.8241824765140051,-0.62311170821456507
-3.988,-2.2906737336298733,-1.1635402668781043
-3.9874999999999998,-1.3410281712961183,-0.84564111472308123
-3.9870000000000001,-0.5621054066852853,-0.26282600243887239
-3.9864999999999999,-0.049937013516518552,0.25640927941433178
-3.9860000000000002,0.20614718306786484,0.63788826200035942
-3.9855,0.31284893164469124,0.86041766850887547
-3.9849999999999999,0.31284893164469124,0.96638405256054982
-3.9845000000000002,0.30217875678700862,0.93459413734504748
-3.984,0.32351910650237387,0.72266136924169888
-3.9834999999999998,0.3768699807907871,0.50013196273318283
-3.9830000000000001,0.47290155450993088,0.23521600260399694
-3.9824999999999999,0.79300680024041004,-0.2310360872233701
-3.9820000000000002,1.2624944939784462,-0.85623775312824868
-3.9815,1.3798664174129553,-1.9264982320501591
-3.9809999999999999,1.4332172917013686,-2.5516998979550376
-3.9805000000000001,1.2838348436938116,-2.2549940226103495
-3.98,0.78233662538272752,-1.3754730349814528
-3.9794999999999998,0.44089102993688295,-0.52774196256805828
-3.9790000000000001,0.28083840707164331,0.044476511310983152
-3.9784999999999999,0.12078578420640371,0.24581264100916439
-3.9780000000000002,0.035424385344942577,0.27760255622466667
-3.9775,0.024754210487259936,0.24581264100916439
-3.9769999999999999,0.024754210487259936,0.2246193641988295
-3.9765000000000001,-0.071277363231883828,0.35177902506083869
-3.976,-0.11395806266261441,0.40476221708667587
-3.9754999999999998,-0.039266838658835915,0.30939247144016896
-3.9750000000000001,0.05676473506030786,0.20342608738849466
-3.9744999999999999,0.08877525963335578,0.18223281057815977
-3.9740000000000002,-0.25267033581248871,0.60609834678485708
-3.9735,-1.0422632752810042,1.2736865663104053
-3.9729999999999999,-1.5330913187344057,1.1571235438535634
-3.9725000000000001,-1.3090176467230703,0.52132523954351762
-3.972,-0.10328788780493176,-0.10387642636136091
-3.9714999999999998,1.006410297394063,-0.85623775312824868
-3.9710000000000001,1.2518243191207636,-0.84564111472308123
-3.9704999999999999,1.0277506471094282,-0.40058230170604903
-3.9700000000000002,0.70764540137894905,0.086863064931652884
-3.9695,0.44089102993688295,0.47893868592284788
-3.9689999999999999,0.27016823221396069,0.73325800764686633
-3.9685000000000001,0.18480683335249956,0.88161094531921036
-3.968,0.16346648363713429,0.9134008605347127
-3.9674999999999998,0.19547700821018218,0.81803111488820579
-3.9670000000000001,0.28083840707164331,0.59550170837968963
-3.9664999999999999,0.3982103305061524,0.34118238665567124
-3.9660000000000002,0.55826295337139209,0.065669788121318018
-3.9655,0.99574012253638022,-0.42177557851638392
-3.9649999999999999,1.4652278162744163,-1.1105570748522671
-3.9645000000000001,1.2411541442630809,-2.1278343617483406
-3.964,1.0384208219671107,-1.9159015936449921
-3.9634999999999998,0.67563487680590106,-1.1635402668781043
-3.9630000000000001,0.31284893164469124,-0.51714532416289083
-3.9624999999999999,0.18480683335249956,0.023283234500648287
-3.9620000000000002,0.12078578420640371,0.31998910984533641
-3.9615,0.024754210487259936,0.33058574825050385
-3.9609999999999999,-0.0072563140857879876,0.24581264100916439
-3.9605000000000001,-0.0072563140857879876,0.19282944898332721
-3.96,-0.049937013516518552,0.2246193641988295
-3.9594999999999998,-0.15663876209334496,0.36237566346600614
-3.9590000000000001,-0.10328788780493176,0.28819919462983412
-3.9584999999999999,0.0034138607718946501,0.16103953376782493
-3.9580000000000002,0.08877525963335578,0.076266426526485451
-3.9575,0.024754210487259936,0.19282944898332721
-3.9569999999999999,-0.64746680554674652,0.60609834678485708
-3.9565000000000001,-1.6504632421689147,0.086863064931652884
-3.956,-2.1306211107646336,-0.63370834661973252
-3.9554999999999998,-1.1276246741424654,-0.20984281041303524
-3.9550000000000001,0.40888050536383502,0.41535885549184332
-3.9544999999999999,1.2091436196900331,0.37297230187117358
-3.9540000000000002,1.1984734448323504,0.28819919462983412
-3.9535,0.8997085488172365,0.26700591781949923
-3.9529999999999998,0.57960330308675734,0.30939247144016896
-3.9525000000000001,0.34485945621773917,0.40476221708667587
-3.952,0.21681735792554749,0.53192187794868506
-3.9514999999999998,0.16346648363713429,0.64848490040552687
-3.9510000000000001,0.16346648363713429,0.69087145402619654
-3.9504999999999999,0.21681735792554749,0.61669498519002452
-3.9500000000000002,0.28083840707164331,0.51072860113835017
-3.9495,0.44089102993688295,0.27760255622466667
-3.9489999999999998,0.99574012253638022,-0.22043944881820265
-3.9485000000000001,1.7533225374318477,-0.80325456110241145
-3.948,2.1907997065968359,-1.2377167357142764
-3.9474999999999998,2.0734277831623271,-1.3860696733866202
-3.9470000000000001,0.94238924824796699,-1.5132293342486296
-3.9464999999999999,0.30217875678700862,-0.85623775312824868
-3.9460000000000002,-0.06060718837420119,-0.1674562567923655
-3.9455,-0.18864928666639288,0.31998910984533641
-3.9449999999999998,-0.08194753808956648,0.6590815388106942
-3.9445000000000001,0.014084035629577295,0.73325800764686633
-3.944,0.024754210487259936,0.60609834678485708
-3.9434999999999998,0.0034138607718946501,0.48953532432801533
-3.9430000000000001,-0.30602121010090194,0.70146809243136399
-3.9424999999999999,-0.40205278382004572,0.71206473083653143
-3.9420000000000002,-0.28468086038553664,0.47893868592284788
-3.9415,-0.11395806266261441,0.2246193641988295
-3.9409999999999998,-0.028596663801153277,0.12924961855232261
-3.9405000000000001,-0.4980843575391895,0.58490506997452218
-3.9399999999999999,-1.373038695869166,1.2524932895000704
-3.9394999999999998,-1.7464948158880587,1.0299638829915545
-3.9390000000000001,-1.7571649907457412,-0.04029659593035631
-3.9384999999999999,-2.0345895370454898,-1.1953301820936066
-3.9380000000000002,-1.9172176136109809,-1.6615822719209734
-3.9375,-1.2770071221500223,-1.2377167357142764
-3.9369999999999998,-0.61545628097369853,-0.57012851618872795
-3.9365000000000001,-0.13529841237797968,0.012686596095480854
-3.9359999999999999,0.13145595906408636,0.40476221708667587
-3.9355000000000002,0.24882788249859539,0.63788826200035942
-3.9350000000000001,0.27016823221396069,0.73325800764686633
-3.9344999999999999,0.25949805735627807,0.73325800764686633
-3.9340000000000002,0.28083840707164331,0.60609834678485708
-3.9335,0.31284893164469124,0.41535885549184332
-3.9329999999999998,0.36619980593310447,0.19282944898332721
-3.9325000000000001,0.5689331282290746,-0.11447306476652835
-3.9319999999999999,1.2518243191207636,-0.75027136907657432
-3.9315000000000002,1.774662887147213,-1.3860696733866202
-3.931,1.8600242860086742,-1.6721789103261409
-3.9304999999999999,1.4758979911320991,-1.2589100125246109
-3.9300000000000002,0.44089102993688295,-1.1953301820936066
-3.9295,-0.11395806266261441,-0.87743102993858346
-3.9289999999999998,-0.28468086038553664,-0.4641621321370536
-3.9285000000000001,-0.29535103524321932,-0.19924617200786782
