Class_2_Relax_eyes_open/Class_2_Relax_Eyes_open_Zakour_3.csv

#Digilent WaveForms Oscilloscope Acquisition
#Device Name: EExplorer
#Serial Number: SN:210151A2B84A
#Date Time: 2020-11-04 11:33:25.216
#Sample rate: 2000Hz
#Samples: 16384
#Trigger: Source: Channel 1 Type: Edge Condition: Rising Level: 0 V Hyst.: Auto HoldOff: 0 s
#Channel 1: Range: 1 V/div Offset: 0 V Attenuation: 1 X
#Channel 2: Range: 1 V/div Offset: 0 V Attenuation: 1 X
#Power Supplies: ON
#Fixed Supply: ON
#Voltage: 3.3 V Readback: 3.326 V
#Positive Supply: ON
#Voltage: 3.7 V Readback: 3.717 V
#Current: 500 mA Readback: 20 mA
#Negative Supply: ON
#Voltage: -3.7 V Readback: -3.701 V
#Current: -500 mA Readback: -8 mA
#Reference 1: ON
#Voltage: 0 V
#Reference 2: ON
#Voltage: 0 V

Time (s),Channel 1 (V),Channel 2 (V)
-4.096,-0.3166913849585846,0.02328323450064829
-4.0955,-0.2633405106702199,0.01268659609549049
-4.095,-0.3380317346744836,0.1716361721734935
-4.0945,-0.9248913518464952,0.7226613692416989
-4.094,-1.479740444445488,0.4471487707075962
-4.0935,-1.629122892453646,-0.4429688553273837
-4.093,-1.735824641030376,-1.174136905283272
-4.0925,-1.810515865034086,-1.47084278062769
-4.092,-1.36236852101096,-0.9410108603688461
-4.0915,-0.7861790786966207,-0.1250697031716958
-4.091,-0.3380317346739499,0.5849050699745222
-4.0905,-0.06060718837408473,1.061753798207298
-4.09,0.0674349099179905,1.326669758336243
-4.0895,0.09944543449103843,1.443232780793084
-4.089,0.08877525963336548,1.453829419198242
-4.0885,0.07810508477567314,1.390249588767247
-4.088,0.07810508477567314,1.273686566310405
-4.0875,0.110115609348692,1.093543713422723
-4.087,0.3021787567874162,0.7226613692411495
-4.0865,0.7503261008096795,0.1186529801471552
-4.086,1.44388746655842,-0.7820612842912573
-4.0855,1.8066734117203,-1.576809164680135
-4.085,1.849354111150991,-2.127834361748341
-4.0845,1.123782220829232,-2.159624276963814
-4.084,0.4729015545095912,-1.428456227006587
-4.0835,0.09944543449103843,-0.6549016234300674
-4.083,-0.08194753808956648,-0.1674562567923655
-4.0825,-0.1246282375202873,0.02328323450063865
-4.082,-0.1139580626626144,0.01268659609548085
-4.0815,-0.09261771294724913,-0.06148987274069118
-4.081,-0.08194753808957618,-0.1568596183871113
-4.0805,-0.2206598112394408,-0.08268314955102604
-4.08,-0.3273615598162672,-0.008506680714854012
-4.0795,-0.2953510352432485,-0.06148987274064299
-4.079,-0.2526703358124693,-0.09327978795615492
-4.0785,-0.2313299860971235,-0.05089323433552374
-4.078,-0.3166913849585069,0.3411823866553146
-4.0775,-0.3166913849588563,0.5001319627325275
-4.077,-0.6154562809736985,-0.2204394488182027
-4.0765,-1.052933450138289,-1.068170521230826
-4.076,-1.298347471865145,-1.407262950196493
-4.0755,-1.031593100423322,-0.8986243067489184
-4.075,-0.6154562809736985,-0.1250697031716958
-4.0745,-0.2846808603853329,0.542518516354267
-4.074,-0.06060718837420119,0.9981739677760521
-4.0735,0.04609456020262521,1.25249328950007
-4.073,0.07810508477564403,1.379652950361964
-4.0725,0.07810508477567314,1.411442865577582
-4.072,0.0674349099179905,1.358459673551745
-4.0715,0.08877525963333638,1.241896651095009
-4.071,0.09944543449108695,1.135930267043026
-4.0705,0.1527963087794516,0.9134008605347127
-4.07,0.3982103305059292,0.478938685923243
-4.0695,1.049090996825453,-0.3370024712758444
-4.069,1.774662887147213,-1.216523458903942
-4.0685,2.148119007166105,-1.905304955239825
-4.068,1.742652362573544,-2.202010830583953
-4.0675,1.059761171682476,-1.587405803084801
-4.067,0.5155822539406614,-0.8032545611024114
-4.0665,0.1634664836369693,-0.2310360872231195
-4.066,-0.01792648894347063,0.04447651131098315
-4.0655,-0.09261771294724913,0.08686306493165288
-4.065,-0.1032878878049221,0.02328323450070612
-4.0645,-0.1032878878049318,-0.07208651114585861
-4.064,-0.1779791118087102,-0.08268314955102604
-4.0635,-0.4020527838198419,0.1186529801469721
-4.063,-0.4980843575391798,0.1822328105781405
-4.0625,-0.4874141826815069,0.1610395337678249
-4.062,-0.3593720843894316,0.08686306493172034
-4.0615,-0.4447334832511062,0.2987958330353196
-4.061,-0.807519428411986,0.6484849004055269
-4.0605,-1.30901764672307,0.06566978812131802
-4.06,-1.853196564465273,-0.7926579226977837
-4.0595,-2.280003558772191,-1.38606967338662
-4.059,-2.066600061618538,-1.375473034981453
-4.0585,-1.373038695869797,-0.6654982618358806
-4.058,-0.7114878546928423,0.1504428953626575
-4.0575,-0.2526703358124887,0.7862411996727035
-4.057,0.003413860771661725,1.1889134590687
-4.0565,0.09944543449103843,1.390249588767247
-4.056,0.1207857842064037,1.464426057603419
-4.0555,0.09944543449105783,1.443232780793104
-4.055,0.09944543449110636,1.337266396741208
-4.0545,0.1741366584948169,1.114736990232894
-4.054,0.3448594562175839,0.7862411996730022
-4.0535,0.9210488985331743,0.05507314971541813
-4.053,1.550589215135878,-0.7502713690765743
-4.0525,1.998736559158548,-1.502632695843462
-4.052,2.222810231169748,-2.117237723343414
-4.0515,2.073427783162327,-2.382153683472359
-4.051,1.401206767128321,-1.714565463946811
-4.0505,0.7823366253832904,-0.8986243067496604
-4.05,0.3235191065023739,-0.326405832869877
-4.0495,0.05676473506030786,-0.04029659593035631
-4.049,-0.07127736323176737,0.002089957690274868
-4.0485,-0.1139580626626047,-0.08268314955111278
-4.048,-0.1032878878049318,-0.1780528951975329
-4.0475,-0.1139580626626047,-0.2416327256284797
-4.047,-0.2846808603855852,-0.125069703171638
-4.0465,-0.3380317346739499,-0.06148987274069118
-4.046,-0.327361559816277,-0.02969995752521779
-4.0455,-0.2526703358124402,-0.0296999575250925
-4.045,-0.1993194615240755,0.07626642652648545
-4.0445,-0.02859666380115328,0.5849050699745222
-4.044,0.3448594562175451,0.4259554938962397
-4.0435,0.1314559590640864,-0.4217755785163839
-4.043,-0.6047861061160158,-1.227120097309109
-4.0425,-1.116954499284317,-1.449649503817422
-4.042,-0.9995825758502737,-0.8456411147230812
-4.0415,-0.6474668055467465,-0.02969995752518888
-4.041,-0.3273615598165584,0.64848490040491
-4.0405,-0.103287887804825,1.104140351827958
-4.04,0.01408403562957729,1.358459673551745
-4.0395,0.05676473506026904,1.464426057603323
-4.039,0.0674349099179808,1.475022696008538
-4.0385,0.05676473506030786,1.42203950398275
-4.038,0.08877525963332666,1.284283204715698
-4.0375,0.142126133921866,1.093543713422318
-4.037,0.2488278824985954,0.8286277532933731
-4.0365,0.6863050516635838,0.2246193641988295
-4.036,1.4438874665594,-0.7184814538618334
-4.0355,1.828013761435626,-1.555615887869299
-4.035,1.828013761435626,-2.043061254507001
-4.0345,1.443887466559401,-1.693372187136794
-4.034,0.8997085488172365,-1.025783967610927
-4.0335,0.4302208550792003,-0.4535654937318862
-4.033,0.1207857842066851,-0.1356663415771523
-4.0325,-0.0285966638012018,-0.061489872740749
-4.032,-0.08194753808956648,-0.1250697031716958
-4.0315,-0.08194753808956648,-0.1886495336026425
-4.031,-0.07127736323199058,-0.2310360872232448
-4.0305,-0.1886492866663929,-0.09327978795619347
-4.03,-0.3060212101007952,0.08686306493148906
-4.0295,-0.2740106855277861,0.09745970333682032
-4.029,-0.1993194615240755,0.09745970333682032
-4.0285,-0.1886492866663929,0.1610395337678249
-4.028,0.02475421048780339,0.5107286011386393
-4.0275,0.6222840025174878,0.8286277532933731
-4.027,0.5796033030867573,0.13984625695749
-4.0265,0.04609456020311054,-0.7926579226963959
-4.026,-0.8181896032696687,-1.449649503817625
-4.0255,-1.148965023857831,-1.322489842955616
-4.025,-0.924891351846699,-0.5595318777842544
-4.0245,-0.5727755815426866,0.2352160026045463
-4.024,-0.2633405106701714,0.8392243916985406
-4.0235,-0.07127736323205852,1.210106735879063
-4.023,0.02475421048728905,1.390249588767295
-4.0225,0.05676473506030786,1.443232780793084
-4.022,0.05676473506030786,1.411442865577611
-4.0215,0.07810508477572166,1.284283204715409
-4.021,0.1314559590640864,1.104140351827727
-4.0205,0.2594980573562781,0.8180311148882058
-4.02,0.526252428798907,0.3623756634652737
-4.0195,1.145122570543937,-0.4429688553267188
-4.019,1.710641838001117,-1.290699927740113
-4.0185,2.094768132877343,-1.937094870454739
-4.018,1.934715510012453,-2.021867977696666
-4.0175,1.294505018551494,-1.311893204550448
-4.017,0.6756348768064639,-0.6125150698100337
-4.0165,0.2488278824983722,-0.1674562567921824
-4.016,0.00341386077189465,0.03387987290581572
-4.0155,-0.1032878878048347,0.05507314971613131
-4.015,-0.13529841237797,-0.008506680714960026
-4.0145,-0.124628237520297,-0.1250697031716958
-4.014,-0.1673089369509888,-0.1568596183871692
-4.0135,-0.2846808603855852,-0.01910331911996362
-4.013,-0.3380317346739499,0.04447651131098315
-4.0125,-0.3593720843893152,0.08686306493165288
-4.012,-0.370042259246959,0.1928294489835585
-4.0115,-0.3273615598162672,0.4471487707073456
-4.011,0.142126133921769,0.8286277532933731
-4.0105,0.5049120790826489,0.2352160026045367
-4.01,0.2808384070716433,-0.7078848154559045
-4.0095,-0.4874141826815069,-1.407262950196955
-4.009,-0.9248913518460973,-1.354279758171166
-4.0085,-0.8181896032694164,-0.6231117082138422
-4.008,-0.5407650569699201,0.1716361721729923
-4.0075,-0.2740106855280967,0.7862411996721445
-4.007,-0.1032878878048347,1.167720182258904
-4.0065,0.00341386077189465,1.358459673551745
-4.006,0.03542438534494258,1.42203950398275
-4.0055,0.03542438534493287,1.400846227172347
-4.005,0.02475421048725994,1.326669758336243
-4.0045,0.03542438534494258,1.220703374284568
-4.004,0.09944543449108695,1.019367244586194
-4.0035,0.1527963087794516,0.8074344764830383
-4.003,0.3768699807907871,0.3199891098453364
-4.0025,0.9743997728204714,-0.5489352393776028
-4.002,1.614610264281974,-1.396666311791788
-4.0015,1.860024286008674,-1.958288147265661
-4.001,1.422547116844084,-1.703968825541875
-4.0005,0.8463576745284157,-1.036380606015555
-4,0.3982103305061524,-0.4429688553267188
-3.9995,0.1101156093487211,-0.1038764263613609
-3.999,-0.04993701351651855,0.01268659609548085
-3.9985,-0.1139580626626144,-0.01910331912002144
-3.998,-0.1352984123779797,-0.09327978795619347
-3.9975,-0.124628237520297,-0.1568596183871981
-3.997,-0.3060212101009019,-0.01910331912002144
-3.9965,-0.4020527838200457,0.06566978812131802
-3.996,-0.5300948821122373,0.1504428953626575
-3.9955,-0.5087545323968721,0.1292496185523226
-3.995,-0.4554036581084589,0.1822328105781598
-3.9945,-0.572775581542968,0.701468092431364
-3.994,-0.4980843575391895,0.6696781772158616
-3.9935,-0.7755089038389382,-0.1992461720078678
-3.993,-1.319687821580753,-1.05757388282643
-3.9925,-1.725154466172693,-1.492036057438295
-3.992,-1.447729919872945,-1.05757388282643
-3.9915,-0.9142211769888124,-0.2416327256285375
-3.991,-0.4554036581084589,0.5001319627331828
-3.9905,-0.1459685872356623,1.00877060618122
-3.99,0.00341386077189465,1.305476481525908
-3.9895,0.0674349099179905,1.443232780793084
-3.989,0.0674349099179905,1.464426057603419
-3.9885,0.05676473506030786,1.42203950398275
-3.988,0.1101156093487211,1.263089927905238
-3.9875,0.1741366584948169,1.040560521396722
-3.987,0.2808384070716433,0.7544512844572011
-3.9865,0.6116138276598051,0.2140227257936621
-3.986,1.241154144263081,-0.6549016234300674
-3.9855,1.689301488285752,-1.481439419033127
-3.985,2.020076908873914,-2.096044446532838
-3.9845,1.710641838001117,-2.106641084938006
-3.984,1.081101521397841,-1.375473034981453
-3.9835,0.5475927785137094,-0.6549016234300674
-3.983,0.1848068333524996,-0.1992461720078678
-3.9825,-0.007256314085787988,-0.01910331912002144
-3.982,-0.09261771294724913,-0.01910331912002144
-3.9815,-0.1139580626626144,-0.09327978795619347
-3.981,-0.1139580626626144,-0.1674562567923655
-3.9805,-0.2526703358124887,-0.1144730647665284
-3.98,-0.4554036581084589,-0.008506680714854012
-3.9795,-0.423393133535411,-0.01910331912002144
-3.979,-0.3060212101009019,-0.05089323433552374
-3.9785,-0.2420001609548061,-0.01910331912002144
-3.978,-0.1886492866663929,0.2987958330350016
-3.9775,0.07810508477567314,0.4895353243280153
-3.977,-0.1032878878049318,-0.2098428104130352
-3.9765,-0.7114878546928423,-0.9728007755850904
-3.976,-1.447729919872945,-1.481439419033127
-3.9755,-1.618452717595867,-1.364876396576285
-3.975,-1.212986073003927,-0.6125150698093976
-3.9745,-0.7008176798351597,0.1822328105781598
-3.974,-0.3166913849585846,0.7862411996727035
-3.9735,-0.08194753808956648,1.157123543853563
-3.973,0.03542438534494258,1.33726639674141
-3.9725,0.0674349099179905,1.390249588767247
-3.972,0.0674349099179905,1.33726639674141
-3.9715,0.1207857842064037,1.157123543853563
-3.971,0.1741366584948169,0.9557874141553824
-3.9705,0.2381577076409128,0.7120647308365314
-3.97,0.3128489316446912,0.457745409112513
-3.9695,0.5475927785137094,-0.04029659593035631
-3.969,0.9210488985326017,-0.8774310299385835
-3.9685,1.123782220828572,-1.598002441489969
-3.968,1.006410297394063,-2.021867977696666
-3.9675,0.5796033030867573,-1.619195718300304
-3.967,0.2488278824985954,-0.9198175835592532
-3.9665,0.04609456020262521,-0.3687923864905467
-3.966,-0.06060718837420119,-0.06148987274069118
-3.9655,-0.1032878878049318,0.04447651131098315
-3.965,-0.1139580626626144,0.04447651131098315
-3.9645,-0.1032878878049318,-0.02969995752518888
-3.964,-0.1352984123779797,-0.06148987274069118
-3.9635,-0.3060212101009019,0.09745970333682032
-3.963,-0.3273615598162672,0.09745970333682032
-3.9625,-0.2953510352432193,0.07626642652648545
-3.962,-0.2526703358124887,0.06566978812131802
-3.9615,-0.3487019095316325,0.2352160026039969
-3.961,-0.9355615267041777,0.7120647308365314
-3.9605,-1.661133417026597,0.2776025562246667
-3.96,-2.280003558772191,-0.6019184314042303
-3.9595,-2.632119329075718,-1.269506650929778
-3.959,-2.6427895039334,-1.566212526274467
-3.9585,-1.83185621474952,-1.046977244421262
-3.958,-1.042263275281004,-0.2310360872233701
-3.9575,-0.4447334832507763,0.4683420475176805
-3.957,-0.09261771294724913,0.9557874141553824
-3.9565,0.0674349099179905,1.220703374284568
-3.956,0.1101156093487211,1.326669758336243
-3.9555,0.09944543449103843,1.33726639674141
-3.955,0.07810508477567314,1.263089927905238
-3.9545,0.1207857842064037,1.093543713422559
-3.954,0.3128489316446912,0.7544512844572011
-3.9535,0.6649647019482183,0.2564092794143318
-3.953,1.166462920259302,-0.3687923864905467
-3.9525,1.774662887147213,-1.152943628472937
-3.952,2.169459356881471,-1.831128486403653
-3.9515,2.276161105458297,-2.25499402261035
-3.951,1.7213120128588,-1.894708316834657
-3.9505,1.038420821967111,-1.121153713257435
-3.95,0.5049120790829789,-0.4535654937318862
-3.9495,0.1527963087794516,-0.06148987274069118
-3.949,-0.02859666380115328,0.07626642652648545
-3.9485,-0.1032878878049318,0.06566978812131802
-3.948,-0.124628237520297,-0.008506680714854012
-3.9475,-0.1139580626626144,-0.1038764263613609
-3.947,-0.2206598112394408,-0.02969995752518888
-3.9465,-0.2420001609548061,0.002089957690313421
-3.946,-0.1886492866663929,-0.04029659593035631
-3.9455,-0.1352984123779797,-0.05089323433552374
-3.945,-0.1673089369510276,0.04447651131098315
-3.9445,-0.6047861061160158,0.5213252395435176
-3.944,-1.319687821580753,0.5319218779486851
-3.9435,-2.002579012472442,-0.2734226408440398
-3.943,-2.354694782775969,-1.01518732920576
-3.9425,-2.482736881068161,-1.47084278062796
-3.942,-1.853196564464885,-1.142346990067769
-3.9415,-1.095614149569417,-0.3581957480853793
-3.941,-0.4980843575391895,0.3729723018711736
-3.9405,-0.124628237520297,0.9028042221295453
-3.94,0.04609456020262521,1.210106735879401
-3.9395,0.09944543449103843,1.347863035146577
-3.939,0.09944543449103843,1.37965295036208
-3.9385,0.07810508477567314,1.326669758336243
-3.938,0.09944543449103843,1.178316820663898
-3.9375,0.1634664836371343,0.9769806909657173
-3.937,0.2381577076409128,0.7332580076468663
-3.9365,0.4835717293676135,0.3305857482505039
-3.936,1.145122570543937,-0.4959520473525559
-3.9355,1.731982187716482,-1.354279758171118
-3.935,2.062757608304644,-1.947691508860494
-3.9345,1.774662887147213,-1.862918401619155
-3.934,1.166462920259302,-1.227120097309109
-3.9335,0.6009436528021226,-0.6019184314042303
-3.933,0.2168173579255475,-0.2310360872233701
-3.9325,0.01408403562957729,-0.09327978795619347
-3.932,-0.07127736323188383,-0.08268314955102604
-3.9315,-0.1032878878049318,-0.1356663415768632
-3.931,-0.1032878878049318,-0.1886495336027004
-3.9305,-0.156638762093345,-0.1356663415768632
-3.93,-0.2633405106701714,-0.008506680714854012
-3.9295,-0.2633405106701714,0.002089957690313421
-3.929,-0.2846808603855366,0.06566978812131802
-3.9285,-0.2953510352432193,0.13984625695749
-3.928,-0.4660738329661415,0.4365521323021782
-3.9275,-1.127624674142465,0.7120647308365314
-3.927,-1.735824641030376,0.02328323450064829
-3.9265,-2.098610586191586,-0.8562377531282487
-3.926,-2.247993034199143,-1.439052865412457
-3.9255,-1.799845690176472,-1.248313374119443
-3.925,-1.1062843244271,-0.474758770542221
-3.9245,-0.5300948821122373,0.3199891098453364
-3.924,-0.156638762093345,0.9028042221295453
-3.9235,0.03542438534494258,1.263089927905238
-3.923,0.09944543449103843,1.443232780793084
-3.9225,0.09944543449103843,1.496215972818921
-3.922,0.0674349099179905,1.464426057603419
-3.9215,0.07810508477567314,1.347863035146577
-3.921,0.08877525963335578,1.220703374284568
-3.9205,0.1314559590640864,1.019367244586387
-3.92,0.5155822539406614,0.4683420475176805
-3.9195,1.219813794547716,-0.4111789401112165
-3.919,1.667961138570387,-1.290699927740113
-3.9185,1.774662887147213,-1.968884785670829
-3.918,1.56125938999356,-2.276187299420684
-3.9175,0.9317190733902845,-1.75695201756748
-3.917,0.4622313796522482,-0.9516074987747555
-3.9165,0.1527963087794516,-0.326405832869877
-3.916,-0.007256314085787988,-0.008506680714854012
-3.9155,-0.08194753808956648,0.04447651131098315
-3.915,-0.09261771294724913,-0.01910331912002144
-3.9145,-0.08194753808956648,-0.1250697031716958
-3.914,-0.1032878878049318,-0.1780528951975329
-3.9135,-0.3273615598162672,-0.008506680714854012
-3.913,-0.4127229586777283,0.03387987290581572
-3.9125,-0.3593720843893152,-0.01910331912002144
-3.912,-0.3273615598162672,-0.04029659593035631
-3.9115,-0.4340633083930936,0.08686306493165288
-3.911,-0.1993194615240755,0.5955017083796896
-3.9105,0.4515612047945656,0.2776025562246667
-3.91,0.8997085488172365,-0.5807251545938954
-3.9095,0.6329541773751706,-1.269506650929778
-3.909,-0.124628237520297,-1.523825972653797
-3.9085,-0.4127229586777283,-0.9622041371799229
-3.908,-0.391382608962363,-0.1462629799820306
-3.9075,-0.274010685527854,0.5319218779486851
-3.907,-0.1459685872356623,0.9875773293708847
-3.9065,-0.04993701351651855,1.241896651094903
-3.906,-0.007256314085787988,1.347863035146577
-3.9055,0.01408403562957729,1.358459673551745
-3.905,0.04609456020262521,1.284283204715573
-3.9045,0.1101156093487211,1.114736990232894
-3.904,0.1848068333524996,0.9028042221295453
-3.9035,0.3128489316446912,0.6166949851900245
-3.903,0.6649647019482183,0.08686306493165288
-3.9025,1.347855892839907,-0.7714646458869092
-3.902,1.966726034585501,-1.555615887869299
-3.9015,2.201469881454519,-2.043061254507001
-3.901,1.657290963712704,-1.831128486403653
-3.9005,0.9637295979633325,-1.142346990067769
-3.9,0.4302208550792003,-0.5277419625680583
-3.8995,0.09944543449103843,-0.1356663415768632
-3.899,-0.06060718837420119,0.03387987290581572
-3.8985,-0.1139580626626144,0.05507314971615059
-3.898,-0.1352984123779797,-0.008506680714854012
-3.8975,-0.1352984123779797,-0.08268314955102604
-3.897,-0.1993194615240755,0.002089957690313421
-3.8965,-0.2313299860971235,0.03387987290581572
-3.896,-0.1779791118087102,-0.008506680714854012
-3.8955,-0.124628237520297,-0.02969995752518888
-3.895,-0.09261771294724913,0.03387987290581572
-3.8945,-0.2206598112394408,0.4153588554918433
-3.894,-0.3700422592469978,0.5849050699745222
-3.8935,-0.754168554123573,-0.1462629799820306
-3.893,-1.255666772434657,-0.9304142219644207
-3.8925,-1.767835165603424,-1.439052865412457
-3.892,-1.639793067311232,-1.237716735714276
-3.8915,-1.1062843244271,-0.4959520473525559
-3.891,-0.5834457564006506,0.2352160026039969
-3.8905,-0.2206598112394408,0.7650479228623686
-3.89,-0.02859666380115328,1.093543713422559
-3.8895,0.05676473506030786,1.25249328950007
-3.889,0.0674349099179905,1.29487984312074
-3.8885,0.0674349099179905,1.263089927905238
-3.888,0.09944543449103843,1.135930267043229
