Class_2_Relax_eyes_open/Class_2_Relax_eyes_open_Basim_11.csv

#Digilent WaveForms Oscilloscope Acquisition
#Device Name: EExplorer
#Serial Number: SN:210151A2B84A
#Date Time: 2021-02-03 11:03:00.327
#Sample rate: 2000Hz
#Samples: 16384
#Trigger: Source: Channel 1 Type: Edge Condition: Rising Level: 0 V Hyst.: Auto HoldOff: 0 s
#Channel 1: Range: 1 V/div Offset: 0 V Attenuation: 1 X
#Channel 2: Range: 1 V/div Offset: 0 V Attenuation: 1 X
#Power Supplies: ON
#Fixed Supply: ON
#Voltage: 3.3 V Readback: 3.315 V
#Positive Supply: ON
#Voltage: 3.7 V Readback: 3.71 V
#Current: 40 mA Readback: 18 mA
#Negative Supply: ON
#Voltage: -3.7 V Readback: -3.353 V
#Current: -40 mA Readback: -8 mA
#Reference 1: ON
#Voltage: 0 V
#Reference 2: ON
#Voltage: 0 V

Time (s),Channel 1 (V),Channel 2 (V)
-4.096,-0.1139580626626144,-0.4429688553267188
-4.0955,0.1848068333522278,-0.06148987274103812
-4.095,0.3875401556485474,0.2564092794145149
-4.0945,0.4729015545099309,0.457745409112513
-4.094,0.4835717293676038,0.5319218779486176
-4.0935,0.4729015545099114,0.5213252395434406
-4.093,0.4515612047945656,0.4365521323021782
-4.0925,0.5582629533712951,0.500131962733125
-4.092,0.5796033030866992,0.447148770707201
-4.0915,0.5155822539406614,0.2881991946298341
-4.091,0.4302208550792003,0.1186529801471552
-4.0905,0.3661998059330462,0.002089957690255595
-4.09,0.3021787567870086,-0.06148987274069118
-4.0895,-0.1032878878049318,-0.1356663415768632
-4.089,-0.6367966306885786,-0.6760949002399108
-4.0885,-0.9355615267041777,-1.301296566145281
-4.088,-1.244996597576974,-1.862918401619155
-4.0875,-1.159635198715591,-1.756952017567577
-4.087,-0.7008176798347424,-1.057573882825832
-4.0865,-0.2420001609548061,-0.400582301706049
-4.086,0.08877525963305499,0.07626642652605176
-4.0855,0.2808384070717113,0.3411823866557869
-4.085,0.3555296310754218,0.4683420475176805
-4.0845,0.3768699807907677,0.500131962733154
-4.084,0.366199805933085,0.478938685922819
-4.0835,0.3448594562177392,0.4471487707073456
-4.083,0.3341892813600565,0.4047622170866759
-4.0825,0.3235191065023642,0.3729723018711447
-4.082,0.3128489316446912,0.3411823866556712
-4.0815,0.2701682322139607,0.2034260873884947
-4.081,-0.1993194615236485,-0.4111789401106575
-4.0805,-0.9569018764195432,-1.131750351662602
-4.08,-1.341028171296118,-1.555615887869299
-4.0795,-0.9355615267045465,-1.248313374119723
-4.079,-0.3380317346735326,-0.835044476317509
-4.0785,0.1207857842064037,-0.3899856633008816
-4.078,0.3768699807905542,-0.02969995752551657
-4.0775,0.4835717293676232,0.1928294489834332
-4.077,0.4942419042252961,0.309392471440169
-4.0765,0.4729015545099503,0.3411823866556423
-4.076,0.5262524287984121,0.2881991946297281
-4.0755,0.6009436528021226,0.1716361721729923
-4.075,0.5582629533713921,0.1504428953626575
-4.0745,0.4729015545098532,0.171636172173002
-4.074,0.3875401556484697,0.1822328105781598
-4.0735,0.3341892813600565,0.1928294489833272
-4.073,0.1207857842065978,0.203426087388485
-4.0725,-0.4874141826815069,-0.1674562567923655
-4.072,-0.8288597781273515,-0.8562377531282487
-4.0715,-1.04226327528081,-1.502632695842874
-4.071,-1.309017646722847,-1.640388995110089
-4.0705,-1.06360362499637,-1.036380606016095
-4.07,-0.5727755815434145,-0.4323722169221007
-4.0695,-0.124628237520035,0.002089957690554361
-4.069,0.1634664836371343,0.2670059178194992
-4.0685,0.3128489316446912,0.383568940276341
-4.068,0.3768699807907871,0.425955493897001
-4.0675,0.3768699807907871,0.4153588554918433
-4.067,0.3555296310754218,0.4047622170866759
-4.0665,0.3448594562177197,0.3835689402763218
-4.066,0.3235191065023739,0.3623756634660061
-4.0655,0.3235191065023739,0.3517790250608387
-4.065,0.312848931644701,0.3093924714402075
-4.0645,0.08877525963335578,-0.1356663415768632
-4.064,-0.5407650569699201,-0.8774310299385835
-4.0635,-1.052933450138221,-1.47084278062742
-4.063,-0.9675720512767404,-1.322489842955249
-4.0625,-0.4340633083930936,-0.9198175835592532
-4.062,0.04609456020218849,-0.4959520473529415
-4.0615,0.3448594562178556,-0.08268314955079474
-4.061,0.4729015545099309,0.1716361721729923
-4.0605,0.5049120790829789,0.2881991946298341
-4.06,0.4729015545099406,0.362375663466064
-4.0595,0.4835717293676135,0.4259554938970107
-4.059,0.5902734779444399,0.5637117931641874
-4.0585,0.568933128229094,0.5107286011383984
-4.058,0.4942419042252961,0.4047622170866759
-4.0575,0.408880505363835,0.2987958330350016
-4.057,0.3448594562177974,0.2246193641988969
-4.0565,0.2594980573562781,0.2458126410091644
-4.056,-0.2526703358124887,0.4259554938970107
-4.0555,-1.02092292556494,-0.07208651114540565
-4.055,-1.735824641030871,-0.7184814538607829
-4.0545,-2.280003558772191,-0.400582301706049
-4.054,-1.895877263895965,0.1610395337673142
-4.0535,-1.052933450138066,0.30939247144014
-4.053,-0.3700422592469978,0.2776025562246667
-4.0525,0.07810508477567314,0.2246193641988295
-4.052,0.3128489316447689,0.2034260873885236
-4.0515,0.3982103305061524,0.2352160026039969
-4.051,0.408880505363835,0.309392471440169
-4.0505,0.3875401556484891,0.3941655786814313
-4.05,0.3661998059331045,0.4895353243280153
-4.0495,0.3448594562177392,0.5849050699745222
-4.049,0.3235191065023933,0.6590815388106267
-4.0485,0.3235191065023156,0.722661369241458
-4.048,0.2594980573562781,0.457745409112513
-4.0475,-0.1779791118083123,-0.1780528951969547
-4.047,-0.4874141826815069,-0.739674730671696
-4.0465,-0.4874141826815069,-1.05757388282643
-4.046,-0.1566387620936458,-0.8880276683439051
-4.0455,0.1741366584950013,-0.3793890248952322
-4.045,0.3768699807907871,0.1504428953626575
-4.0445,0.4729015545099309,0.4895353243280153
-4.044,0.4942419042252767,0.6590815388107424
-4.0435,0.4729015545099309,0.7120647308365314
-4.043,0.4515612047945656,0.6802748156210291
-4.0425,0.5902734779443137,0.7438546460519759
-4.042,0.6436243522328531,0.6590815388106942
-4.0415,0.5689331282290746,0.3941655786815084
-4.041,0.4729015545100183,0.1398462569577213
-4.0405,0.3875401556484018,-0.04029659593046232
-4.04,0.3128489316446912,-0.1568596183871981
-4.0395,-0.06060718837386153,-0.1356663415768825
-4.039,-0.8075194284126361,-0.5383386009737846
-4.0385,-1.522421143876723,-1.152943628472937
-4.038,-2.077270236475716,-1.7145654639463
-4.0375,-1.799845690175783,-1.756952017566892
-4.037,-1.042263275281004,-1.110557074852267
-4.0365,-0.391382608962363,-0.4535654937318862
-4.036,0.05676473506052136,0.03387987290607593
-4.0355,0.291508581929326,0.3199891098453364
-4.035,0.3982103305061524,0.4683420475176805
-4.0345,0.4088805053638253,0.500131962733154
-4.034,0.3875401556484697,0.4895353243280153
-4.0335,0.3555296310754218,0.4683420475176805
-4.033,0.334189281360076,0.4365521323022071
-4.0325,0.3235191065023739,0.4047622170866469
-4.032,0.3235191065023739,0.3729723018711736
-4.0315,0.2701682322140092,0.2246193641989644
-4.031,-0.2099896363823792,-0.4005823017066947
-4.0305,-0.8928808272734472,-1.110557074852267
-4.03,-1.159635198715271,-1.513229334248263
-4.0295,-0.7968492535538085,-1.205926820498408
-4.029,-0.2526703358124887,-0.8032545611024114
-4.0285,0.1527963087794516,-0.3687923864905467
-4.028,0.3875401556485474,-0.01910331911982869
-4.0275,0.4729015545099309,0.1928294489833272
-4.027,0.4835717293676135,0.2987958330350016
-4.0265,0.4622313796522676,0.2987958330350016
-4.026,0.5049120790829789,0.3517790250608387
-4.0255,0.5689331282290746,0.4683420475176805
-4.025,0.5369226036560557,0.4047622170867337
-4.0245,0.4622313796521803,0.2987958330349245
-4.024,0.3875401556484697,0.2140227257936621
-4.0235,0.344859456217778,0.1716361721730309
-4.023,0.1634664836365326,0.2987958330350112
-4.0225,-0.4980843575391895,0.309392471440169
-4.022,-1.19164572328793,-0.3581957480847721
-4.0215,-1.554431668449674,-1.089363798042125
-4.021,-1.447729919872945,-1.301296566145281
-4.0205,-0.8928808272734472,-0.8562377531282487
-4.02,-0.3380317346735908,-0.2946159176539603
-4.0195,0.05676473506030786,0.1610395337678249
-4.019,0.2808384070716433,0.457745409112513
-4.0185,0.3768699807906998,0.61669498518988
-4.018,0.3982103305061524,0.6802748156210291
-4.0175,0.3768699807907871,0.6908714540261965
-4.017,0.3555296310754412,0.669678177215881
-4.0165,0.3448594562177197,0.6272916235951534
-4.016,0.3235191065023739,0.5849050699745222
-4.0155,0.3235191065023739,0.5319218779487332
-4.015,0.3128489316444389,0.4577454091120697
-4.0145,0.03542438534494258,-0.02969995752518888
-4.014,-0.6794773301191441,-0.8032545611017079
-4.0135,-1.341028171296002,-1.460246142222667
-4.013,-1.212986073003927,-1.322489842955616
-4.0125,-0.572775581542968,-0.9198175835592532
-4.012,0.003413860772205193,-0.6019184314039508
-4.0115,0.3448594562177392,-0.2946159176543747
-4.011,0.5049120790829789,-0.07208651114585861
-4.0105,0.5262524287983247,0.04447651131087714
-4.01,0.5049120790829789,0.1186529801471552
-4.0095,0.4942419042252961,0.1610395337678249
-4.009,0.6009436528020256,0.2776025562245606
-4.0085,0.5902734779443719,0.2670059178194318
-4.008,0.5155822539406614,0.1928294489833272
-4.0075,0.430220855079278,0.1292496185523804
-4.007,0.3661998059330074,0.09745970333683959
-4.0065,0.2594980573562781,0.1186529801471552
-4.006,-0.2313299860971235,0.02328323450064829
-4.0055,-0.7328282044083628,-0.5701285161893255
-4.005,-0.9035510021311299,-1.227120097309109
-4.0045,-1.212986073003927,-1.75695201756748
-4.004,-1.202315898145836,-1.555615887868654
-4.0035,-0.754168554123573,-0.8456411147230812
-4.003,-0.2846808603855366,-0.1674562567923655
-4.0025,0.06743490991767026,0.3093924714397353
-4.002,0.2701682322139607,0.5849050699745222
-4.0015,0.3661998059331045,0.7226613692416989
-4.001,0.3875401556484503,0.7544512844571722
-4.0005,0.3768699807907677,0.7332580076468278
-4,0.3555296310754218,0.6908714540261965
-3.9995,0.3341892813600565,0.6378882620003594
-3.999,0.3235191065023739,0.5849050699745222
-3.9985,0.3235191065023739,0.5107286011383502
-3.998,0.2274875327832301,0.13984625695749
-3.9975,-0.3700422592469978,-0.6231117082145651
-3.997,-0.9675720512772257,-1.322489842955616
-3.9965,-1.020922925565639,-1.47084278062796
-3.996,-0.5194247072545548,-0.9833974139902578
-3.9955,-0.007256314085787988,-0.6549016234300674
-3.995,0.3235191065023739,-0.3793890248957141
-3.9945,0.4729015545099309,-0.1780528951975329
-3.994,0.5155822539406614,-0.04029659593035631
-3.9935,0.4942419042252961,0.04447651131098315
-3.993,0.4622313796522482,0.08686306493165288
-3.9925,0.5582629533713921,-0.008506680714854012
-3.992,0.5796033030867573,-0.07208651114585861
-3.9915,0.5155822539406614,-0.01910331912002144
-3.991,0.4408910299368829,0.05507314971615059
-3.9905,0.3768699807907871,0.1292496185523226
-3.99,0.3235191065023739,0.1928294489833272
-3.9895,-0.007256314085787988,0.457745409112513
-3.989,-0.7328282044082075,0.2458126410091644
-3.9885,-1.234326422719292,-0.5065486857577234
-3.988,-1.554431668449771,-1.248313374119443
-3.9875,-1.447729919872945,-1.492036057438295
-3.987,-0.9035510021311299,-0.9939940523954253
-3.9865,-0.3487019095316325,-0.3581957480853793
-3.986,0.04609456020262521,0.1504428953626575
-3.9855,0.2808384070716433,0.4789386859228479
-3.985,0.3768699807907871,0.6484849004055269
-3.9845,0.3982103305061524,0.7120647308365314
-3.984,0.3875401556484697,0.7226613692416989
-3.9835,0.3555296310754218,0.6908714540261965
-3.983,0.3448594562177392,0.6484849004055269
-3.9825,0.3341892813600565,0.5955017083796896
-3.982,0.3235191065023739,0.5425185163538525
-3.9815,0.3021787567870086,0.3623756634660061
-3.981,-0.03926683865883591,-0.3052125560595421
-3.9805,-0.6794773301197943,-1.078767159636765
-3.98,-0.9889124009925911,-1.629792356705471
-3.9795,-0.7328282044082075,-1.51322933424863
-3.979,-0.2526703358124887,-0.9939940523954253
-3.9785,0.142126133921769,-0.474758770542221
-3.978,0.3875401556484697,-0.1144730647665284
-3.9775,0.4835717293676135,0.08686306493165288
-3.977,0.4942419042252961,0.1928294489833272
-3.9765,0.4729015545099309,0.2458126410091644
-3.976,0.5049120790829789,0.3411823866556712
-3.9755,0.5902734779444399,0.457745409112513
-3.975,0.5475927785137094,0.3729723018711736
-3.9745,0.4622313796522482,0.2564092794143318
-3.974,0.3875401556484697,0.1716361721729923
-3.9735,0.3448594562177392,0.13984625695749
-3.973,0.1741366584948169,0.1928294489833272
-3.9725,-0.4447334832507763,0.02328323450064829
-3.972,-0.9569018764195432,-0.6337083466197325
-3.9715,-1.277007122150022,-0.9833974139902578
-3.971,-1.543761493592088,-0.3370024712750445
-3.9705,-1.202315898146244,0.1928294489833272
-3.97,-0.6367966306890638,0.3305857482505039
-3.9695,-0.156638762093345,0.309392471440169
-3.969,0.1634664836371343,0.2670059178194992
-3.9685,0.3235191065023739,0.2564092794143318
-3.968,0.3875401556484697,0.2881991946298341
-3.9675,0.3875401556484697,0.3517790250608387
-3.967,0.3768699807907871,0.4259554938970107
-3.9665,0.3555296310754218,0.5107286011383502
-3.966,0.3341892813600565,0.5955017083796896
-3.9655,0.3235191065023739,0.6590815388106942
-3.965,0.3235191065023739,0.6908714540261965
-3.9645,0.0674349099179905,0.2881991946298341
-3.964,-0.6261264558313813,-0.400582301706049
-3.9635,-1.116954499284783,-0.9410108603695881
-3.963,-0.9782422261349084,-1.248313374119443
-3.9625,-0.4127229586777283,-1.05757388282643
-3.962,0.07810508477567314,-0.5383386009732256
-3.9615,0.3555296310754218,0.04447651131098315
-3.961,0.4729015545099309,0.4153588554918433
-3.9605,0.4942419042252961,0.5637117931641874
-3.96,0.4729015545099309,0.6060983467848571
-3.9595,0.4729015545099309,0.5319218779486851
-3.959,0.5902734779444399,0.2564092794143318
-3.9585,0.5902734779444399,0.1080563417419877
-3.958,0.5155822539406614,0.04447651131098315
-3.9575,0.4302208550792003,0.01268659609548085
-3.957,0.3661998059331045,-0.008506680714854012
-3.9565,0.291508581929326,0.03387987290581572
-3.956,-0.1779791118087102,0.2987958330350016
-3.9555,-0.9569018764195432,-0.06148987274069118
-3.955,-1.682473766741963,-0.792657922697244
-3.9545,-2.183971985053047,-1.42845622700729
-3.954,-1.661133417026597,-1.396666311791788
-3.9535,-0.8822106524157645,-0.8668343915334161
-3.953,-0.2633405106701714,-0.3370024712750445
-3.9525,0.142126133921769,0.04447651131098315
-3.952,0.3341892813600565,0.2670059178194992
-3.9515,0.408880505363835,0.3623756634660061
-3.951,0.408880505363835,0.383568940276341
-3.9505,0.3875401556484697,0.3623756634660061
-3.95,0.3661998059331045,0.3411823866556712
-3.9495,0.3448594562177392,0.3199891098453364
-3.949,0.3341892813600565,0.2987958330350016
-3.9485,0.3235191065023739,0.2881991946298341
-3.948,0.3128489316446912,0.01268659609548085
-3.9475,-0.1352984123779797,-0.6760949002404023
-3.947,-0.839529952985034,-1.354279758171118
-3.9465,-1.06360362499637,-1.51322933424863
-3.946,-0.6154562809736985,-1.025783967610927
-3.9455,-0.09261771294724913,-0.570128516188728
-3.945,0.2594980573562781,-0.1250697031716958
-3.9445,0.4515612047945656,0.1822328105781598
-3.944,0.5155822539406614,0.3411823866556712
-3.9435,0.5049120790829789,0.4259554938970107
-3.943,0.4835717293676135,0.457745409112513
-3.9425,0.5796033030867573,0.5637117931641874
-3.942,0.6116138276598051,0.5955017083796896
-3.9415,0.5475927785137094,0.5213252395435176
-3.941,0.4515612047945656,0.4259554938970107
-3.9405,0.3875401556484697,0.3411823866556712
-3.94,0.3235191065023739,0.2776025562246667
-3.9395,-0.02859666380115328,0.2987958330350016
-3.939,-0.7755089038389382,-0.1674562567923655
-3.9385,-1.501080794161358,-0.8986243067489184
-3.938,-2.098610586191586,-0.9516074987747555
-3.9375,-2.183971985053047,-0.1886495336027004
-3.937,-1.405049220442214,0.2246193641988295
-3.9365,-0.6474668055467465,0.2670059178194992
-3.936,-0.09261771294724913,0.1822328105781598
-3.9355,0.2381577076409128,0.1080563417419877
-3.935,0.3875401556484697,0.07626642652648545
-3.9345,0.4195506802215176,0.08686306493165288
-3.934,0.408880505363835,0.1504428953626575
-3.9335,0.3875401556484697,0.2352160026039969
-3.933,0.3555296310754218,0.3199891098453364
-3.9325,0.3341892813600565,0.4153588554918433
-3.932,0.3341892813600565,0.5001319627331828
-3.9315,0.3341892813600565,0.457745409112513
-3.931,0.1848068333524996,-0.06148987274069118
-3.9305,-0.01792648894347063,-0.6231117082145651
-3.93,-0.1459685872356623,-0.9939940523954253
-3.9295,-0.04993701351651855,-0.9410108603695881
-3.929,0.1848068333524996,-0.4429688553267188
-3.9285,0.3875401556484697,0.1080563417419877
-3.928,0.4835717293676135,0.5213252395435176
-3.9275,0.5155822539406614,0.7438546460520338
-3.927,0.4942419042252961,0.8392243916985406
-3.9265,0.4622313796522482,0.8180311148882058
-3.926,0.4835717293676135,0.8180311148882058
-3.9255,0.6116138276598051,0.8816109453192104
-3.925,0.5796033030867573,0.7120647308365314
-3.9245,0.4942419042252961,0.4683420475176805
-3.924,0.4195506802215176,0.2670059178194992
-3.9235,0.3555296310754218,0.1186529801471552
-3.923,0.1207857842064037,0.002089957690313421
-3.9225,-0.5834457564006506,-0.4853554089473885
-3.922,-1.223656247861609,-1.142346990067769
-3.9215,-1.543761493592088,-1.375473034981453
-3.921,-1.767835165603424,-0.570128516188728
-3.9205,-1.330357996438436,0.05507314971615059
-3.92,-0.690147504977477,0.2140227257936621
-3.9195,-0.1673089369510276,0.1716361721729923
-3.919,0.1741366584948169,0.08686306493165288
-3.9185,0.3448594562177392,0.02328323450064829
-3.918,0.3982103305061524,0.01268659609548085
-3.9175,0.3982103305061524,0.05507314971615059
-3.917,0.3768699807907871,0.1186529801471552
-3.9165,0.3555296310754218,0.2034260873884947
-3.916,0.3448594562177392,0.2987958330350016
-3.9155,0.3341892813600565,0.383568940276341
-3.915,0.3235191065023739,0.4471487707073456
-3.9145,0.09944543449103843,0.13984625695749
-3.914,-0.5834457564006506,-0.5065486857577234
-3.9135,-1.020922925565639,-1.046977244421262
-3.913,-0.8822106524157645,-1.237716735714276
-3.9125,-0.391382608962363,-0.9198175835592532
-3.912,0.05676473506030786,-0.3581957480853793
-3.9115,0.3235191065023739,0.2034260873884947
-3.911,0.4622313796522482,0.5849050699745222
-3.9105,0.5049120790829789,0.7650479228623686
-3.91,0.4835717293676135,0.8710143069140429
-3.9095,0.4835717293676135,0.8710143069140429
-3.909,0.6222840025174878,0.5955017083796896
-3.9085,0.6222840025174878,0.383568940276341
-3.908,0.5475927785137094,0.2670059178194992
-3.9075,0.4515612047945656,0.1928294489833272
-3.907,0.3768699807907871,0.1504428953626575
-3.9065,0.3021787567870086,0.1504428953626575
-3.906,-0.156638762093345,0.383568940276341
-3.9055,-0.9248913518464952,-0.008506680714854012
-3.905,-1.479740444445993,-0.7714646458869092
-3.9045,-1.554431668449771,-1.269506650929778
-3.904,-1.052933450138687,-1.078767159636765
-3.9035,-0.4767440078238243,-0.6231117082145651
-3.903,-0.02859666380115328,-0.2098428104130352
-3.9025,0.2381577076409128,0.05507314971615059
-3.902,0.3661998059331045,0.1928294489833272
-3.9015,0.3982103305061524,0.2352160026039969
-3.901,0.3875401556484697,0.2352160026039969
-3.9005,0.3661998059331045,0.2140227257936621
-3.9,0.3555296310754218,0.2034260873884947
-3.8995,0.3341892813600565,0.1928294489833272
-3.899,0.3235191065023739,0.1822328105781598
-3.8985,0.3235191065023739,0.1822328105781598
-3.898,0.2488278824985954,0.01268659609548085
-3.8975,-0.1779791118087102,-0.6019184314042303
-3.897,-0.6047861061160158,-1.248313374119443
-3.8965,-0.7328282044082075,-1.502632695843462
-3.896,-0.4020527838200457,-1.089363798041932
-3.8955,0.00341386077189465,-0.5277419625680583
-3.895,0.3021787567870086,-0.008506680714854012
-3.8945,0.4622313796522482,0.3729723018711736
-3.894,0.5049120790829789,0.5955017083796896
-3.8935,0.5049120790829789,0.6908714540261965
-3.893,0.4622313796522482,0.7438546460520338
-3.8925,0.5369226036560266,0.5955017083796896
-3.892,0.5796033030867573,0.4365521323021782
-3.8915,0.5262524287983441,0.3729723018711736
-3.891,0.4515612047945656,0.3517790250608387
-3.8905,0.3875401556484697,0.3305857482505039
-3.89,0.3341892813600565,0.309392471440169
-3.8895,0.00341386077189465,0.2564092794143318
-3.889,-0.7328282044082075,-0.2840192792492073
-3.8885,-1.330357996438436,-1.01518732920576
-3.888,-1.661133417026597,-1.661582271920973
-3.8875,-1.575772018165136,-1.894708316834657
-3.887,-0.9889124009925911,-1.290699927740113
-3.8865,-0.4020527838200457,-0.6231117082145651
