Class_2_Relax_eyes_open/Class_2_Relax_Eyes_open_Turki_17.csv

#Digilent WaveForms Oscilloscope Acquisition
#Device Name: EExplorer
#Serial Number: SN:210151A2B84A
#Date Time: 2021-02-10 11:36:50.085
#Sample rate: 2000Hz
#Samples: 16384
#Trigger: Source: Channel 1 Type: Edge Condition: Rising Level: 0 V Hyst.: Auto HoldOff: 0 s
#Channel 1: Range: 1 V/div Offset: 0 V Attenuation: 1 X
#Channel 2: Range: 1 V/div Offset: 0 V Attenuation: 1 X
#Power Supplies: ON
#Fixed Supply: ON
#Voltage: 3.3 V Readback: 3.331 V
#Positive Supply: ON
#Voltage: 3.7 V Readback: 3.717 V
#Current: 40 mA Readback: 21 mA
#Negative Supply: ON
#Voltage: -3.7 V Readback: -3.712 V
#Current: -40 mA Readback: -6 mA
#Reference 1: ON
#Voltage: 0 V
#Reference 2: ON
#Voltage: 0 V

Time (s),Channel 1 (V),Channel 2 (V)
-4.096,0.3555296310754218,0.05507314971615059
-4.0955,0.3021787567870571,0.2246193641986753
-4.095,0.2701682322140577,0.3623756634662375
-4.0945,0.3768699807907871,0.6166949851900245
-4.094,0.6222840025172647,1.07235043661181
-4.0935,0.08877525963268618,0.5955017083789282
-4.093,-0.6474668055467465,-0.2416327256285375
-4.0925,-1.490410619302909,-0.9622041371792676
-4.092,-2.205312334768393,-1.502632695843684
-4.0915,-2.183971985053047,-1.746355379162313
-4.091,-1.458400094730627,-1.460246142222792
-4.0905,-0.7221580295500301,-0.7820612842913537
-4.09,-0.1779791118087102,0.01268659609548085
-4.0895,0.142126133921769,0.6484849004055269
-4.089,0.2808384070715172,1.029963882991208
-4.0885,0.3235191065023739,1.220703374284568
-4.088,0.3128489316446912,1.284283204715573
-4.0875,0.2808384070716724,1.252493289500099
-4.087,0.280838407071653,1.178316820663696
-4.0865,0.291508581929326,0.9557874141553824
-4.086,-0.07127736323155387,0.2881991946304413
-4.0855,-0.7221580295507967,-0.6549016234307903
-4.085,-1.020922925565639,-1.449649503817625
-4.0845,-1.180975548430733,-1.947691508860041
-4.084,-0.7648387289806635,-1.598002441489342
-4.0835,-0.1139580626626144,-0.9092209451540858
-4.083,0.3555296310754218,-0.326405832869877
-4.0825,0.5796033030868059,-0.05089323433547555
-4.082,0.6329541773751706,0.002089957690313421
-4.0815,0.6116138276598051,0.04447651131098315
-4.081,0.5582629533714406,0.002089957690351973
-4.0805,0.4515612047945656,-0.1250697031716958
-4.08,0.3555296310754218,-0.09327978795619347
-4.0795,0.2915085819293842,0.04447651131085788
-4.079,0.2594980573562684,0.2034260873886103
-4.0785,0.2488278824985954,0.3305857482505039
-4.078,0.2701682322139413,0.5425185163536598
-4.0775,0.1634664836366297,0.9875773293705185
-4.077,-0.391382608962363,0.5849050699745222
-4.0765,-0.8502001278422995,-0.337002471274206
-4.076,-1.426389570158113,-1.099960436447581
-4.0755,-2.013249187330125,-1.629792356705471
-4.075,-1.949228138184029,-1.809935209593318
-4.0745,-1.287677297007084,-1.417859588601467
-4.074,-0.6047861061160158,-0.6972881770507372
-4.0735,-0.1139580626626144,0.07626642652648545
-4.073,0.1741366584945549,0.669678177215322
-4.0725,0.291508581929326,1.019367244586387
-4.072,0.3235191065023739,1.178316820663898
-4.0715,0.312848931644701,1.210106735879372
-4.071,0.2808384070716336,1.188913459068998
-4.0705,0.2701682322139607,1.114736990232894
-4.07,0.2594980573562878,1.029963882991632
-4.0695,0.06743490991740823,0.8074344764823155
-4.069,-0.572775581542968,0.01268659609548085
-4.0685,-0.7648387289812555,-0.8986243067489184
-4.068,-0.8395299529849369,-1.598002441489998
-4.0675,-0.7328282044082075,-1.629792356705471
-4.067,-0.2420001609548061,-1.004590690800593
-4.0665,0.1954770082104442,-0.3687923864901227
-4.066,0.4835717293676135,0.09745970333682032
-4.0655,0.5902734779444399,0.3199891098453364
-4.065,0.5902734779444399,0.2987958330350208
-4.0645,0.5475927785137094,0.2458126410091644
-4.064,0.5155822539406614,0.04447651131098315
-4.0635,0.4835717293676426,-0.0932797879560682
-4.063,0.4088805053637768,-0.01910331911989616
-4.0625,0.3448594562177392,0.1186529801471552
-4.062,0.3021787567870474,0.2564092794142065
-4.0615,0.2915085819295104,0.3623756634662664
-4.061,0.4942419042252961,0.6484849004055269
-4.0605,0.291508581929326,0.4259554938970107
-4.06,-0.327361559816898,-0.368792386491125
-4.0595,-1.020922925565639,-1.004590690800593
-4.059,-1.767835165603424,-1.449649503817625
-4.0585,-2.429386006779146,-1.703968825541412
-4.058,-2.312014083345239,-1.703968825541643
-4.0575,-1.479740444445993,-1.227120097309109
-4.057,-0.7008176798358682,-0.4641621321377475
-4.0565,-0.1459685872356623,0.309392471440169
-4.056,0.1741366584948169,0.8710143069140429
-4.0555,0.3128489316445651,1.188913459068777
-4.055,0.3448594562177197,1.316073119931085
-4.0545,0.3235191065023739,1.326669758336243
-4.054,0.302178756787028,1.263089927905296
-4.0535,0.2808384070715171,1.157123543853332
-4.053,0.142126133921769,0.9028042221295453
-4.0525,-0.5087545323968721,0.1080563417419877
-4.052,-1.063603624996612,-0.8350444763185306
-4.0515,-1.330357996438436,-1.51322933424863
-4.051,-1.287677297007705,-1.42845622700729
-4.0505,-0.7434983792663852,-0.8668343915339269
-4.05,-0.1139580626626144,-0.3687923864905467
-4.0495,0.3235191065023739,-0.06148987274069118
-4.049,0.5262524287981597,0.04447651131088677
-4.0485,0.5689331282290552,0.02328323450059046
-4.048,0.5475927785137094,-0.04029659593035631
-4.0475,0.4729015545099988,-0.08268314955098749
-4.047,0.2061471830677969,-0.1780528951974269
-4.0465,0.1314559590640864,-0.06148987274069118
-4.046,0.1421261339217593,0.1080563417418335
-4.0455,0.1848068333525384,0.2670059178196053
-4.045,0.2274875327832301,0.383568940276341
-4.0445,0.00341386077189465,0.1716361721729923
-4.044,-0.3273615598167913,-0.5383386009738713
-4.0435,-0.9035510021311299,-1.248313374119443
-4.043,-1.533091318734406,-1.746355379162313
-4.0425,-2.183971985052455,-1.979481424075784
-4.042,-2.461396531352796,-1.979481424075996
-4.0415,-1.789175515318789,-1.703968825541643
-4.041,-0.967572051277973,-1.131750351663122
-4.0405,-0.3166913849582158,-0.3899856633002262
-4.04,0.08877525963335578,0.3305857482505039
-4.0395,0.2915085819291416,0.8286277532929202
-4.039,0.3555296310754121,1.093543713422646
-4.0385,0.3448594562177392,1.188913459069066
-4.038,0.3235191065023933,1.16772018225875
-4.0375,0.2915085819293163,1.093543713422453
-4.037,0.2808384070716433,0.9769806909657173
-4.0365,0.2808384070716433,0.8816109453192104
-4.036,0.06743490991749558,0.5743084315685935
-4.0355,-0.4767440078238243,-0.2628260024388724
-4.035,-0.8822106524157645,-1.0999604364471
-4.0345,-1.319687821580355,-1.608599079894673
-4.034,-1.437059745015262,-1.258910012524611
-4.0335,-0.8715404775580819,-0.5807251545938954
-4.033,-0.1993194615246869,-0.05089323433600557
-4.0325,0.2701682322141742,0.1504428953627057
-4.032,0.5049120790829789,0.2034260873884947
-4.0315,0.5582629533713436,0.2776025562245992
-4.031,0.558262953371363,0.2670059178193065
-4.0305,0.5262524287983441,0.05507314971615059
-4.03,0.4835717293676523,-0.02969995752511177
-4.0295,0.4088805053637768,0.05507314971628551
-4.029,0.3448594562177392,0.2034260873884947
-4.0285,0.3235191065023739,0.3411823866556712
-4.028,0.1848068333518688,0.3305857482499834
-4.0275,-0.5087545323968721,-0.2416327256285375
-4.027,-1.170305373573196,-1.004590690800593
-4.0265,-1.490410619303384,-1.54501924946364
-4.026,-1.87453691418025,-1.778145294377815
-4.0255,-2.376035132491334,-1.905304955239825
-4.025,-2.589438629644793,-1.915901593644983
-4.0245,-1.842526389606426,-1.661582271920415
-4.024,-0.9889124009925911,-1.046977244421262
-4.0235,-0.316691384959196,-0.2840192792499012
-4.023,0.09944543449122281,0.3835689402767362
-4.0225,0.3021787567870086,0.8180311148882058
-4.022,0.3661998059330462,1.029963882991362
-4.0215,0.366199805933085,1.09354371342253
-4.021,0.3448594562177392,1.061753798207057
-4.0205,0.3128489316446912,0.9981739677760521
-4.02,0.3021787567868146,0.923997498939774
-4.0195,0.08877525963335578,0.8074344764830383
-4.019,-0.4767440078238243,0.1504428953626575
-4.0185,-0.6794773301196099,-0.7396747306705973
-4.018,-0.690147504977477,-1.333086481360783
-4.0175,-0.4127229586777283,-1.174136905283272
-4.017,0.03542438534453501,-0.6654982618356975
-4.0165,0.3768699807909521,-0.1886495336024787
-4.016,0.5582629533713921,0.05507314971615059
-4.0155,0.6116138276597566,0.1292496185522551
-4.015,0.5902734779444204,0.1504428953626478
-4.0145,0.5689331282290746,0.13984625695749
-4.014,0.5902734779444204,0.0232832345007543
-4.0135,0.5796033030866797,-0.04029659593027921
-4.013,0.4942419042252961,0.04447651131098315
-4.0125,0.408880505363835,0.1822328105781598
-4.012,0.3341892813600371,0.3093924714402653
-4.0115,0.3128489316446912,0.4153588554918433
-4.011,0.6116138276598051,0.8074344764830383
-4.0105,0.6863050516635159,0.7332580076469338
-4.01,0.1954770082101822,-0.1038764263613609
-4.0095,-0.5300948821122373,-0.9622041371799229
-4.009,-1.095614149568903,-1.55561588786876
-4.0085,-1.116954499284433,-1.820531847998341
-4.008,-0.7328282044082075,-1.661582271920973
-4.0075,-0.3060212101012901,-1.110557074852768
-4.007,0.02475421048743462,-0.3475991096795469
-4.0065,0.2168173579255475,0.383568940276341
-4.006,0.3021787567870086,0.9134008605347127
-4.0055,0.3235191065023739,1.199510097474349
-4.005,0.3235191065023739,1.326669758336243
-4.0045,0.3021787567870086,1.326669758336243
-4.004,0.2915085819293163,1.252493289499984
-4.0035,0.2808384070716433,1.157123543853563
-4.003,0.2168173579255475,0.9451907757502149
-4.0025,-0.2099896363813699,0.1716361721736959
-4.002,-0.572775581542968,-0.7820612842920766
-4.0015,-0.9035510021311299,-1.492036057438295
-4.001,-1.095614149569243,-1.460246142222821
-4.0005,-0.7434983792653759,-0.856237753127786
-4,-0.1779791118087102,-0.3475991096802118
-3.9995,0.2808384070716433,-0.01910331912002144
-3.999,0.5155822539406614,0.1186529801471552
-3.9985,0.5902734779444399,0.1292496185523226
-3.998,0.6009436528021226,0.1292496185523226
-3.9975,0.5902734779444399,-0.008506680714854012
-3.997,0.4729015545099309,-0.2204394488182027
-3.9965,0.3768699807907871,-0.1568596183871981
-3.996,0.3235191065023739,0.02328323450064829
-3.9955,0.3128489316446912,0.2140227257936621
-3.995,0.3235191065023739,0.3623756634660061
-3.9945,0.1527963087794516,0.4471487707073456
-3.994,-0.07127736323188383,0.5743084315693548
-3.9935,-0.5194247072545548,-0.04029659593035631
-3.993,-0.9142211769888124,-0.792657922697244
-3.9925,-1.490410619303675,-1.354279758171118
-3.992,-2.07727023647622,-1.746355379162313
-3.9915,-2.109280761049269,-1.820531847998485
-3.991,-1.426389570157579,-1.258910012524611
-3.9905,-0.690147504977477,-0.4111789401112165
-3.99,-0.1459685872356623,0.3623756634660061
-3.9895,0.1848068333524996,0.8816109453192104
-3.989,0.3341892813600565,1.146526905448396
-3.9885,0.3661998059331045,1.25249328950007
-3.988,0.3555296310754218,1.263089927905238
-3.9875,0.3341892813600565,1.210106735879401
-3.987,0.3128489316446912,1.135930267043229
-3.9865,0.3021787567870086,0.9769806909657173
-3.986,0.00341386077189465,0.7226613692416989
-3.9855,-0.5087545323968721,0.07626642652648545
-3.985,-0.8928808272734472,-0.792657922697244
-3.9845,-1.255666772434657,-1.439052865412457
-3.984,-0.8928808272734472,-1.333086481360783
-3.9835,-0.1993194615240755,-0.7396747306714069
-3.983,0.3341892813600565,-0.1568596183871981
-3.9825,0.6009436528021226,0.2034260873884947
-3.982,0.6863050516635838,0.3729723018711736
-3.9815,0.6542945270905358,0.3517790250608387
-3.981,0.5796033030867573,0.2034260873884947
-3.9805,0.6116138276598051,-0.08268314955102604
-3.98,0.5902734779444399,-0.1356663415768632
-3.9795,0.5155822539406614,0.002089957690313421
-3.979,0.4302208550792003,0.1822328105781598
-3.9785,0.3661998059331045,0.3411823866556712
-3.978,0.3768699807907871,0.4895353243280153
-3.9775,0.6863050516635838,0.8180311148882058
-3.977,0.4195506802215176,0.3941655786815084
-3.9765,-0.1352984123779797,-0.4853554089473885
-3.976,-0.7755089038389382,-1.237716735714276
-3.9755,-1.010252750707956,-1.629792356705471
-3.975,-0.754168554123573,-1.396666311791788
-3.9745,-0.3593720843893152,-0.7502713690765743
-3.974,-0.02859666380115328,0.03387987290581572
-3.9735,0.1848068333524996,0.6696781772158616
-3.973,0.2808384070716433,1.072350436612224
-3.9725,0.3235191065023739,1.273686566310405
-3.972,0.3235191065023739,1.33726639674141
-3.9715,0.3128489316446912,1.326669758336243
-3.971,0.3021787567870086,1.284283204715573
-3.9705,0.291508581929326,1.210106735879401
-3.97,0.291508581929326,1.125333628638062
-3.9695,0.02475421048725994,0.7862411996727035
-3.969,-0.6047861061160158,-0.1144730647665284
-3.9685,-1.1062843244271,-1.025783967610927
-3.968,-1.1062843244271,-1.492036057438295
-3.9675,-0.6154562809736985,-1.152943628472937
-3.967,-0.02859666380115328,-0.6019184314042303
-3.9665,0.408880505363835,-0.1780528951975329
-3.966,0.6009436528021226,0.08686306493165288
-3.9655,0.6649647019482183,0.1292496185523226
-3.965,0.6542945270905358,0.1186529801471552
-3.9645,0.6116138276598051,0.06566978812131802
-3.964,0.6969752265212663,-0.1144730647665284
-3.9635,0.7289857510943143,-0.1674562567923655
-3.963,0.6222840025174878,-0.02969995752518888
-3.9625,0.4835717293676135,0.1610395337678249
-3.962,0.3875401556484697,0.3199891098453364
-3.9615,0.3341892813600565,0.4471487707073456
-3.961,0.5902734779444399,0.8392243916985406
-3.9605,0.5262524287983441,0.7650479228623686
-3.96,-0.1673089369510276,-0.06148987274069118
-3.9595,-0.9248913518464952,-0.8032545611024114
-3.959,-1.714484291315011,-1.38606967338662
-3.9585,-2.023919362187807,-1.735758740757146
-3.958,-1.522421143876723,-1.566212526274467
-3.9575,-0.807519428411986,-0.9198175835592532
-3.957,-0.2420001609548061,-0.1250697031716958
-3.9565,0.1207857842064037,0.5319218779486851
-3.956,0.3021787567870086,0.9557874141553824
-3.9555,0.3555296310754218,1.167720182258731
-3.955,0.3555296310754218,1.25249328950007
-3.9545,0.3341892813600565,1.263089927905238
-3.954,0.3128489316446912,1.220703374284568
-3.9535,0.3021787567870086,1.146526905448396
-3.953,0.2488278824985954,0.9981739677760521
-3.9525,-0.1779791118087102,0.3305857482505039
-3.952,-0.5941159312583333,-0.6231117082145651
-3.9515,-0.839529952985034,-1.417859588602123
-3.951,-0.7968492535543035,-1.79933857118815
-3.9505,-0.124628237520297,-1.269506650929778
-3.95,0.4835717293676135,-0.5065486857577234
-3.9495,0.79300680024041,0.01268659609548085
-3.949,0.825017324813458,0.2987958330350016
-3.9485,0.6969752265212663,0.3411823866556712
-3.948,0.6009436528021226,0.2458126410091644
-3.9475,0.5796033030867573,-0.008506680714854012
-3.947,0.5796033030867573,-0.1886495336027004
-3.9465,0.5155822539406614,-0.07208651114585861
-3.946,0.4302208550792003,0.1292496185523226
-3.9455,0.3661998059331045,0.2987958330350016
-3.945,0.3235191065023739,0.4365521323021782
-3.9445,0.07810508477567314,0.383568940276341
-3.944,-0.6367966306890638,0.4471487707073456
-3.9435,-1.191645723288561,-0.04029659593035631
-3.943,-1.543761493592088,-0.8350444763179138
-3.9425,-1.949228138184029,-1.492036057438295
-3.942,-2.087940411333903,-1.915901593644992
-3.9415,-1.522421143876723,-1.926498232050159
-3.941,-0.7968492535543035,-1.449649503817625
-3.9405,-0.2206598112394408,-0.718481453861072
-3.94,0.142126133921769,0.03387987290581572
-3.9395,0.3128489316446912,0.5955017083796896
-3.939,0.3661998059331045,0.92399749893988
-3.9385,0.3661998059331045,1.061753798207057
-3.938,0.3341892813600565,1.093543713422559
-3.9375,0.3128489316446912,1.051157159801889
-3.937,0.3021787567870086,1.00877060618122
-3.9365,0.291508581929326,0.9028042221295453
-3.936,-0.07127736323188383,0.4153588554918433
-3.9355,-0.6367966306890638,-0.474758770542221
-3.935,-0.7434983792658902,-1.280103289334946
-3.9345,-0.5621054066852853,-1.640388995110639
-3.934,-0.124628237520297,-1.227120097309109
-3.9335,0.3235191065023739,-0.7078848154559045
-3.933,0.5902734779444399,-0.326405832869877
-3.9325,0.7183155762366316,-0.1568596183871981
-3.932,0.7396559259519968,-0.1250697031716958
-3.9315,0.7183155762366316,-0.1144730647665284
-3.931,0.6649647019482183,0.002089957690313421
-3.9305,0.6863050516635838,0.2458126410091644
-3.93,0.6329541773751706,0.4153588554918433
-3.9295,0.5262524287983441,0.4895353243280153
-3.929,0.4408910299368829,0.5001319627331828
-3.9285,0.3768699807907871,0.5107286011383502
-3.928,0.3021787567870086,0.6166949851900245
-3.9275,-0.274010685527854,0.5001319627331828
-3.927,-1.052933450138687,-0.2628260024388724
-3.9265,-1.447729919872945,-1.004590690800593
-3.926,-1.735824641030376,-1.38606967338662
-3.9255,-2.173301810195364,-1.661582271920973
-3.925,-2.151961460479999,-1.725162102351978
-3.9245,-1.426389570157579,-1.333086481360783
-3.924,-0.6794773301197943,-0.6019184314042303
-3.9235,-0.124628237520297,0.1716361721729923
-3.923,0.1954770082101822,0.7650479228623686
-3.9225,0.3448594562177392,1.093543713422559
-3.922,0.3875401556484697,1.241896651094903
-3.9215,0.3661998059331045,1.273686566310405
-3.921,0.3448594562177392,1.231300012689736
-3.9205,0.3235191065023739,1.146526905448396
-3.92,0.3128489316446912,1.051157159801889
-3.9195,0.1314559590640864,0.7120647308365314
-3.919,-0.5087545323968721,-0.1038764263613609
-3.9185,-0.9675720512772257,-0.9833974139902578
-3.918,-1.1062843244271,-1.545019249464132
-3.9175,-0.7648387289812555,-1.290699927740113
-3.917,-0.1886492866663929,-0.6866915386455698
-3.9165,0.2701682322139607,-0.1144730647665284
-3.916,0.5369226036560266,0.2564092794143318
-3.9155,0.6222840025174878,0.383568940276341
-3.915,0.6436243522328531,0.3199891098453364
-3.9145,0.6222840025174878,0.1716361721729923
-3.914,0.4835717293676135,-0.008506680714854012
-3.9135,0.3128489316446912,-0.1356663415768632
-3.913,0.2488278824985954,-0.05089323433552374
-3.9125,0.2488278824985954,0.1080563417419877
-3.912,0.2701682322139607,0.2564092794143318
-3.9115,0.3128489316446912,0.3941655786815084
-3.911,0.5902734779444399,0.8074344764830383
-3.9105,0.5689331282290746,0.7120647308365314
-3.91,0.1101156093487211,-0.1250697031716958
-3.9095,-0.6688071552621118,-0.9833974139902578
-3.909,-1.554431668449771,-1.566212526274467
-3.9085,-2.03458953704549,-1.84172512480882
-3.908,-1.639793067311232,-1.598002441489969
-3.9075,-0.9355615267041777,-0.8986243067489184
-3.907,-0.3166913849585846,-0.05089323433552374
-3.9065,0.07810508477567314,0.6378882620003594
-3.906,0.291508581929326,1.082947075017392
-3.9055,0.3661998059331045,1.29487984312074
-3.905,0.3768699807907871,1.37965295036208
-3.9045,0.3661998059331045,1.37965295036208
-3.904,0.3341892813600565,1.305476481525908
-3.9035,0.3235191065023739,1.199510097474233
-3.903,0.2808384070716433,1.061753798207057
-3.9025,-0.1139580626626144,0.5637117931641874
-3.902,-0.6474668055467465,-0.3793890248957141
-3.9015,-0.9675720512772257,-1.152943628472937
-3.901,-0.7434983792658902,-1.152943628472937
-3.9005,-0.1886492866663929,-0.6760949002404023
-3.9,0.2701682322139607,-0.2204394488182027
-3.8995,0.5262524287983441,0.002089957690313421
-3.899,0.6116138276598051,0.07626642652648545
-3.8985,0.6116138276598051,0.002089957690313421
-3.898,0.5796033030867573,-0.06148987274069118
-3.8975,0.5582629533713921,-0.2416327256285375
-3.897,0.4515612047945656,-0.4217755785163839
-3.8965,0.3768699807907871,-0.2734226408440398
-3.896,0.3235191065023739,0.002089957690313421
-3.8955,0.3021787567870086,0.2458126410091644
-3.895,0.3021787567870086,0.4471487707073456
-3.8945,0.4515612047945656,0.7544512844572011
-3.894,0.4942419042252961,0.7968378380778709
-3.8935,-0.06060718837420119,0.02328323450064829
-3.893,-0.7008176798351597,-0.7820612842920766
-3.8925,-1.415719395299897,-1.333086481360783
-3.892,-2.109280761049269,-1.682775548731308
-3.8915,-2.290673733629873,-1.746355379162313
-3.891,-1.586442193022819,-1.237716735714276
-3.8905,-0.7968492535543035,-0.4111789401112165
-3.89,-0.1993194615240755,0.3623756634660061
-3.8895,0.1741366584948169,0.8816109453192104
-3.889,0.3448594562177392,1.157123543853563
-3.8885,0.3875401556484697,1.25249328950007
-3.888,0.3875401556484697,1.25249328950007
-3.8875,0.3555296310754218,1.178316820663898
-3.887,0.3341892813600565,1.093543713422559
-3.8865,0.3021787567870086,0.9875773293708847
-3.886,-0.156638762093345,0.55311515475902
