Class_2_Relax_eyes_open/Class_2_Relax_Eyes_open_Turki_6.csv

#Digilent WaveForms Oscilloscope Acquisition
#Device Name: EExplorer
#Serial Number: SN:210151A2B84A
#Date Time: 2020-11-26 10:53:30.384
#Sample rate: 2000Hz
#Samples: 16384
#Trigger: Source: Channel 1 Type: Edge Condition: Rising Level: 0 V Hyst.: Auto HoldOff: 0 s
#Channel 1: Range: 1 V/div Offset: 0 V Attenuation: 1 X
#Channel 2: Range: 1 V/div Offset: 0 V Attenuation: 1 X
#Power Supplies: ON
#Fixed Supply: ON
#Voltage: 3.3 V Readback: 3.324 V
#Positive Supply: ON
#Voltage: 3.7 V Readback: 3.712 V
#Current: 500 mA Readback: 21 mA
#Negative Supply: ON
#Voltage: -3.7 V Readback: -3.704 V
#Current: -500 mA Readback: -8 mA
#Reference 1: ON
#Voltage: 0 V
#Reference 2: ON
#Voltage: 0 V

Time (s),Channel 1 (V),Channel 2 (V)
-4.096,-1.148965023857831,1.570392441655093
-4.0955,-1.554431668449402,1.994257977861405
-4.095,-1.586442193022343,1.549199164843881
-4.0945,-1.06360362499637,0.5849050699745222
-4.094,-0.3487019095322826,-0.3158091944638903
-4.0935,0.2701682322143197,-0.9728007755854277
-4.093,0.6649647019482183,-1.34368311976595
-4.0925,0.8570278493863313,-1.49203605743816
-4.092,0.9103787236749677,-1.523825972653758
-4.0915,0.9637295979633325,-1.481439419033127
-4.091,1.123782220828572,-1.375473034981453
-4.0905,1.049090996824648,-1.036380606015709
-4.09,0.8890383739595538,-0.6125150698093976
-4.0895,0.7396559259519968,-0.1886495336027004
-4.089,0.6436243522329405,0.2034260873881381
-4.0885,0.857027849386506,0.7332580076468663
-4.088,1.315845368266859,1.453829419198252
-4.0875,0.7396559259525208,2.068434446697404
-4.087,-0.2206598112402851,2.269770576395296
-4.0865,-1.148965023857831,1.33726639674141
-4.086,-1.938557963325628,0.03387987290700112
-4.0855,-2.440056181637372,-0.9304142219648351
-4.085,-2.376035132491334,-1.38606967338662
-4.0845,-1.554431668450518,-1.460246142222725
-4.084,-0.6367966306884524,-1.290699927739911
-4.0835,0.03542438534494258,-1.068170521231597
-4.083,0.4302208550792003,-0.8456411147230812
-4.0825,0.5902734779444689,-0.6866915386454349
-4.082,0.6222840025174878,-0.5383386009732256
-4.0815,0.5902734779444399,-0.3052125560595421
-4.081,0.5369226036560751,0.002089957690033895
-4.0805,0.408880505363835,0.3517790250608387
-4.08,-0.2313299860971235,0.7968378380778709
-4.0795,-1.010252750707248,1.47502269600797
-4.079,-1.565101843307735,2.015451254672048
-4.0785,-1.87453691418025,1.930678147430786
-4.078,-1.831856214749559,1.061753798207847
-4.0775,-1.191645723287814,0.06566978812061447
-4.077,-0.3700422592469978,-0.7078848154559045
-4.0765,0.2808384070710513,-1.216523458903479
-4.076,0.6969752265214507,-1.449649503817702
-4.0755,0.8997085488172365,-1.534422611058964
-4.075,0.9530594231056497,-1.523825972653797
-4.0745,1.038420821967062,-1.51322933424836
-4.074,0.9850699476786977,-1.216523458903942
-4.0735,0.857027849386506,-0.7714646458869092
-4.073,0.7289857510944308,-0.315809194465124
-4.0725,0.6436243522328531,0.07626642652648545
-4.072,0.707645401378949,0.5001319627331828
-4.0715,1.230483969404923,1.188913459068439
-4.071,0.9530594231047569,1.867098317000167
-4.0705,-0.02859666380115328,2.290963853206479
-4.07,-0.9782422261340449,1.750535294543432
-4.0695,-1.799845690177015,0.4365521323011373
-4.069,-2.3973754822067,-0.7078848154559045
-4.0685,-2.44005618163743,-1.364876396576285
-4.068,-1.853196564463992,-1.576809164679557
-4.0675,-0.8715404775580819,-1.492036057438295
-4.067,-0.124628237520297,-1.280103289334946
-4.0665,0.3555296310756159,-1.057573882826266
-4.066,0.5689331282290746,-0.8774310299385835
-4.0655,0.6222840025174878,-0.7502713690765743
-4.065,0.600943652802142,-0.6019184314043652
-4.0645,0.5582629533713921,-0.3475991096802118
-4.064,0.5049120790829789,-0.2416327256285375
-4.0635,0.04609456020304248,0.02328323450040737
-4.063,-0.764838728981828,0.828627753294096
-4.0625,-1.394379045584531,1.623375633680931
-4.062,-1.735824641030066,1.920081509025349
-4.0615,-1.693143941599092,1.210106735878504
-4.061,-1.084943974711735,0.2246193641988295
-4.0605,-0.2846808603855366,-0.5807251545938954
-4.06,0.3555296310757712,-1.131750351662852
-4.0595,0.7396559259519968,-1.407262950196955
-4.059,0.8997085488172365,-1.523825972653797
-4.0585,0.9317190733902554,-1.481439419033166
-4.058,1.017080472251745,-1.460246142222792
-4.0575,1.038420821967111,-1.311893204550448
-4.057,0.9103787236750357,-0.9410108603699254
-4.0565,0.7716664505250448,-0.5065486857577234
-4.056,0.6649647019482183,-0.08268314955102604
-4.0555,0.6436243522328725,0.3411823866552858
-4.055,1.102441871113362,0.9769806909663726
-4.0545,1.273164668836129,1.697552102517103
-4.054,0.3982103305069482,2.23798066118015
-4.0535,-0.6154562809745137,2.110821000317563
-4.053,-1.51175096901904,0.9345941373450475
-4.0525,-2.247993034199143,-0.3158091944647096
-4.052,-2.450726356494831,-1.110557074852547
-4.0515,-2.141291285622316,-1.417859588602123
-4.051,-1.170305373573196,-1.38606967338662
-4.0505,-0.3380317346747068,-1.184733543688622
-4.05,0.2274875327832301,-0.9410108603695881
-4.0495,0.5262524287983441,-0.7290780922662394
-4.049,0.6116138276597275,-0.5701285161888725
-4.0485,0.6116138276597662,-0.3264058328695493
-4.048,0.5689331282290746,0.03387987290581572
-4.0475,0.526252428798383,0.4153588554914964
-4.047,0.291508581928637,0.5955017083801523
-4.0465,-0.4660738329661415,1.104140351827727
-4.046,-1.159635198714883,1.718745379326879
-4.0455,-1.575772018165262,2.079031085102658
-4.045,-1.714484291315011,1.559795803249926
-4.0445,-1.351698346153801,0.5955017083796896
-4.044,-0.6047861061153657,-0.2946159176549529
-4.0435,0.1101156093487211,-0.9304142219644207
-4.043,0.5902734779444399,-1.301296566145281
-4.0425,0.8356874996709176,-1.428456227007174
-4.042,0.9103787236749192,-1.449649503817625
-4.0415,0.9637295979633325,-1.38606967338662
-4.041,1.059761171682389,-1.237716735714411
-4.0405,0.9850699476785618,-0.993994052395165
-4.04,0.8356874996711408,-0.7078848154559045
-4.0395,0.7183155762367384,-0.4005823017063285
-4.039,0.6329541773753841,-0.09327978795570195
-4.0385,0.8676980242441885,0.4471487707073456
-4.038,1.305175193408779,1.263089927904496
-4.0375,0.6969752265203832,1.962468062646539
-4.037,-0.274010685527854,2.237980661180642
-4.0365,-1.212986073003927,1.42203950398275
-4.036,-2.013249187330513,0.1504428953617901
-4.0355,-2.44005618163743,-0.8032545611024114
-4.035,-2.418715831922065,-1.269506650929778
-4.0345,-1.682473766742632,-1.333086481360725
-4.034,-0.7328282044082075,-1.152943628472937
-4.0335,-0.01792648894347063,-0.9092209451540858
-4.033,0.4088805053634468,-0.6654982618354566
-4.0325,0.5902734779444689,-0.4853554089472439
-4.032,0.6222840025174878,-0.326405832869877
-4.0315,0.5902734779444689,-0.09327978795640549
-4.031,0.5582629533712756,0.1292496185523419
-4.0305,0.4302208550792003,0.1504428953626575
-4.03,-0.2313299860965218,0.5319218779483381
-4.0295,-1.020922925566153,1.263089927905797
-4.029,-1.586442193022819,1.877694955404949
-4.0285,-1.885207089037933,1.814115124973944
-4.028,-1.618452717595178,0.9663840525597017
-4.0275,-0.8608703027003992,0.03387987290581572
-4.027,-0.07127736323188383,-0.6972881770507372
-4.0265,0.5049120790824548,-1.174136905282838
-4.026,0.8143471499557753,-1.47084278062796
-4.0255,0.9210488985326017,-1.587405803084801
-4.025,0.9423892482479476,-1.587405803084801
-4.0245,1.006410297394005,-1.598002441489708
-4.024,0.942389248247967,-1.311893204550448
-4.0235,0.8143471499558917,-0.8562377531286631
-4.023,0.7076454013788811,-0.3899856633004961
-4.0225,0.6329541773751706,0.03387987290581572
-4.022,0.718315576236554,0.5001319627327587
-4.0215,1.305175193408934,1.220703374285194
-4.021,1.038420821967111,1.909484870620451
-4.0205,0.05676473506030786,2.301560491611646
-4.02,-0.8928808272742041,1.68695546411074
-4.0195,-1.725154466172693,0.3729723018711736
-4.019,-2.354694782775969,-0.7396747306714069
-4.0185,-2.440056181637352,-1.354279758170559
-4.018,-2.023919362187807,-1.523825972653797
-4.0175,-1.031593100423322,-1.417859588602123
-4.017,-0.2206598112401784,-1.195330182093809
-4.0165,0.3021787567872318,-0.9622041371797494
-4.016,0.5475927785137094,-0.7714646458869092
-4.0155,0.6222840025174199,-0.5065486857579643
-4.015,0.6116138276597662,-0.04029659592991298
-4.0145,0.5689331282290746,0.4471487707073456
-4.014,0.5155822539407099,0.5531151547589236
-4.0135,0.05676473505959943,0.616694985190545
-4.013,-0.722158029550525,1.188913459069066
-4.0125,-1.277007122150022,1.79292184816361
-4.012,-1.575772018165029,1.941274785835269
-4.0115,-1.458400094730627,1.188913459069066
-4.011,-0.7968492535543035,0.2564092794143318
-4.0105,-0.0819475380902166,-0.4959520473518717
-4.01,0.4622313796522482,-1.004590690800593
-4.0095,0.7716664505250448,-1.311893204550448
-4.009,0.889038373959447,-1.439052865412342
-4.0085,0.910378723675026,-1.407262950196965
-4.008,1.027750647109428,-1.417859588602123
-4.0075,1.091771696255466,-1.280103289335071
-4.007,0.9743997728208791,-0.9198175835588774
-4.0065,0.825017324813458,-0.5065486857577234
-4.006,0.707645401378949,-0.1144730647665284
-4.0055,0.6649647019486259,0.2776025562252642
-4.005,1.113112045970889,0.9345941373450475
-4.0045,1.123782220828572,1.676358825706768
-4.004,0.1954770082092991,2.227384022775311
-4.0035,-0.7755089038389382,2.047241169887628
-4.003,-1.618452717595867,0.849821030103708
-4.0025,-2.301343908486935,-0.379389024894596
-4.002,-2.450726356495113,-1.152943628472937
-4.0015,-2.322684258202921,-1.449649503817625
-4.001,-1.437059745016068,-1.417859588602151
-4.0005,-0.530094882111655,-1.205926820498562
-4,0.1101156093487211,-0.9728007755850904
-3.9995,0.4729015545099309,-0.7608680074817418
-3.999,0.6222840025174878,-0.5913217929990628
-3.9985,0.6329541773751706,-0.3581957480853793
-3.998,0.6009436528021226,-0.04029659593035631
-3.9975,0.5475927785137094,0.2140227257936621
-3.997,0.2701682322139607,0.2352160026039969
-3.9965,-0.5194247072545548,0.7862411996727035
-3.996,-1.223656247861609,1.517409249629256
-3.9955,-1.67180359188428,1.983661339456623
-3.995,-1.799845690176472,1.538602526439591
-3.9945,-1.362368521011484,0.5743084315693548
-3.994,-0.572775581542968,-0.3370024712750445
-3.9935,0.1527963087794516,-0.9833974139902578
-3.993,0.6116138276598051,-1.375473034981453
-3.9925,0.8463576745288233,-1.566212526274467
-3.992,0.9103787236749192,-1.576809164679634
-3.9915,0.8783681991018712,-1.566212526274467
-3.991,0.707645401378949,-1.51322933424863
-3.9905,0.6222840025174878,-1.131750351662602
-3.99,0.5796033030867573,-0.6443049850249
-3.9895,0.5796033030867573,-0.1780528951975329
-3.989,0.5902734779444399,0.2246193641988295
-3.9885,0.9210488985326017,0.775644561267536
-3.988,1.337185717982225,1.506812611224089
-3.9875,0.6756348768059011,2.110821000318633
-3.987,-0.3700422592469978,2.280367214801311
-3.9865,-1.330357996438436,1.316073119931075
-3.986,-2.119950935906951,-0.01910331912002144
-3.9855,-2.429386006779747,-0.9939940523954253
-3.985,-2.269333383914508,-1.47084278062796
-3.9845,-1.351698346153801,-1.555615887869299
-3.984,-0.4660738329661415,-1.407262950196955
-3.9835,0.1527963087794516,-1.174136905283272
-3.983,0.5049120790829789,-0.9622041371799229
-3.9825,0.6222840025174878,-0.792657922697244
-3.982,0.6329541773751706,-0.6972881770507372
-3.9815,0.6009436528021226,-0.5913217929990628
-3.981,0.5582629533713921,-0.5595318777835605
-3.9805,0.4195506802215176,-0.5913217929990628
-3.98,-0.2526703358124887,-0.008506680714854012
-3.9795,-1.052933450138687,0.9663840525605498
-3.979,-1.618452717595867,1.761131932948107
-3.9785,-1.885207089037933,1.761131932948107
-3.978,-1.639793067311232,0.9028042221295453
-3.9775,-0.8715404775580819,-0.02969995752518888
-3.977,-0.06060718837420119,-0.7608680074817418
-3.9765,0.5049120790829789,-1.195330182093607
-3.976,0.8036769750980928,-1.375473034981453
-3.9755,0.9210488985326017,-1.449649503817625
-3.975,0.942389248247967,-1.502632695843462
-3.9745,0.9850699476786977,-1.555615887869299
-3.974,0.9103787236749192,-1.269506650929778
-3.9735,0.79300680024041,-0.792657922697244
-3.973,0.6969752265212663,-0.3158091944647096
-3.9725,0.6222840025174878,0.1186529801471552
-3.972,0.7289857510943143,0.6060983467848571
-3.9715,1.230483969405398,1.326669758336243
-3.971,0.79300680024041,1.983661339456623
-3.9705,-0.2099896363817582,2.354543683637484
-3.97,-1.170305373573196,1.676358825706768
-3.9695,-1.970568487899394,0.3517790250608387
-3.969,-2.418715831922065,-0.7396747306714069
-3.9685,-2.429386006779747,-1.333086481360783
-3.968,-2.013249187330125,-1.492036057438295
-3.9675,-1.010252750707956,-1.375473034981453
-3.967,-0.1993194615240755,-1.152943628472937
-3.9665,0.3128489316446912,-0.9198175835592532
-3.966,0.5689331282290746,-0.7396747306714069
-3.9655,0.6329541773751706,-0.5277419625680583
-3.965,0.6222840025174878,-0.1992461720078678
-3.9645,0.5796033030867573,0.1186529801471552
-3.964,0.5262524287983441,0.1928294489833272
-3.9635,0.05676473506030786,0.3411823866556712
-3.963,-0.7328282044082075,1.019367244586387
-3.9625,-1.298347471865388,1.70814874092227
-3.962,-1.565101843307454,1.888291593810116
-3.9615,-1.447729919872945,1.104140351827727
-3.961,-0.8181896032696687,0.1822328105781598
-3.9605,-0.08194753808956648,-0.570128516188728
-3.96,0.4835717293676135,-1.05757388282643
-3.9595,0.8036769750980928,-1.322489842955616
-3.959,0.9210488985326017,-1.439052865412457
-3.9585,0.9317190733902845,-1.417859588602123
-3.958,1.027750647109428,-1.38606967338662
-3.9575,1.070431346540159,-1.205926820498774
-3.957,0.9530594231056497,-0.8562377531282487
-3.9565,0.8143471499557753,-0.4641621321370536
-3.956,0.707645401378949,-0.09327978795619347
-3.9555,0.6756348768059011,0.309392471440169
-3.955,1.123782220828572,0.9557874141553824
-3.9545,1.177133095116985,1.686955464111935
-3.954,0.3341892813600565,2.237980661180642
-3.9535,-0.6688071552621118,2.057837808292796
-3.953,-1.565101843307454,0.8604176685088755
-3.9525,-2.269333383914508,-0.3793890248957141
-3.952,-2.418715831922065,-1.152943628472937
-3.9515,-1.949228138184029,-1.47084278062796
-3.951,-0.9675720512772257,-1.439052865412457
-3.9505,-0.1779791118087102,-1.237716735714276
-3.95,0.3341892813600565,-1.004590690800593
-3.9495,0.5796033030867573,-0.8032545611024114
-3.949,0.6436243522328531,-0.6654982618352349
-3.9485,0.6329541773751706,-0.5489352393783931
-3.948,0.5902734779444399,-0.3793890248957141
-3.9475,0.5582629533713921,-0.2734226408440398
-3.947,0.2701682322139607,-0.1356663415768632
-3.9465,-0.5300948821122373,0.6060983467848571
-3.946,-1.255666772434657,1.453829419198252
-3.9455,-1.735824641030376,1.962468062646288
-3.945,-1.83185621474952,1.475022696008586
-3.9445,-1.319687821580753,0.5743084315693548
-3.944,-0.5194247072545548,-0.2734226408440398
-3.9435,0.1848068333524996,-0.8880276683437509
-3.943,0.6329541773751706,-1.237716735714276
-3.9425,0.857027849386506,-1.38606967338662
-3.942,0.942389248247967,-1.449649503817625
-3.9415,1.006410297394063,-1.449649503817625
-3.941,1.113112045970889,-1.34368311976595
-3.9405,1.017080472251745,-1.01518732920576
-3.94,0.8676980242441885,-0.6125150698093976
-3.9395,0.7396559259519968,-0.2204394488182027
-3.939,0.6649647019482183,0.1504428953626575
-3.9385,0.942389248247967,0.7120647308365314
-3.938,1.337185717982225,1.475022696008586
-3.9375,0.6329541773751706,2.100224361913465
-3.937,-0.4020527838200457,2.259173937990977
-3.9365,-1.330357996438436,1.284283204715573
-3.936,-2.109280761049269,-0.008506680714854012
-3.9355,-2.418715831922065,-0.9304142219644207
-3.935,-2.280003558772191,-1.354279758171118
-3.9345,-1.373038695869166,-1.396666311791788
-3.934,-0.4874141826815069,-1.227120097309109
-3.9335,0.1527963087794516,-0.9833974139902578
-3.933,0.5049120790829789,-0.7714646458869092
-3.9325,0.6436243522328531,-0.5807251545938954
-3.932,0.6436243522328531,-0.3052125560595421
-3.9315,0.6116138276598051,0.1292496185523226
-3.931,0.5689331282290746,0.4789386859228479
-3.9305,0.4302208550792003,0.4047622170866759
-3.93,-0.2526703358124887,0.6908714540261965
-3.9295,-1.031593100423322,1.358459673551745
-3.929,-1.543761493592088,1.920081509025619
-3.9285,-1.650463242168915,1.718745379327438
-3.928,-1.223656247861609,0.8816109453192104
-3.9275,-0.4660738329661415,0.01268659609548085
-3.927,0.2168173579255475,-0.6866915386455698
-3.9265,0.6542945270905358,-1.131750351662602
-3.926,0.857027849386506,-1.364876396576285
-3.9255,0.9210488985326017,-1.460246142222792
-3.925,0.9317190733902845,-1.439052865412457
-3.9245,1.081101521397841,-1.42845622700729
-3.924,1.070431346540159,-1.152943628472937
-3.9235,0.9317190733902845,-0.7396747306714069
-3.923,0.79300680024041,-0.326405832869877
-3.9225,0.6863050516635838,0.05507314971615059
-3.922,0.7716664505250448,0.4895353243280153
-3.9215,1.315845368266859,1.210106735879401
-3.921,0.974399772821015,1.909484870620451
-3.9205,-0.03926683865883591,2.301560491611646
-3.92,-1.031593100423322,1.623375633680931
-3.9195,-1.863866739322568,0.309392471440169
-3.919,-2.386705307349017,-0.7714646458869092
-3.9185,-2.376035132491334,-1.354279758171118
-3.918,-1.639793067311232,-1.51322933424863
-3.9175,-0.7008176798351597,-1.396666311791788
-3.917,0.01408403562957729,-1.174136905283272
-3.9165,0.4408910299368829,-0.9410108603695881
-3.916,0.6222840025174878,-0.7608680074817418
-3.9155,0.6436243522328531,-0.6443049850249
-3.915,0.6222840025174878,-0.474758770542221
-3.9145,0.5796033030867573,-0.1144730647665284
-3.914,0.5155822539406614,0.002089957690313421
-3.9135,0.01408403562957729,0.2670059178194992
-3.913,-0.807519428411986,1.029963882991555
-3.9125,-1.447729919872945,1.75053529454294
-3.912,-1.757164990745741,1.920081509025619
-3.9115,-1.650463242168915,1.125333628638062
-3.911,-1.052933450138687,0.1610395337678249
-3.9105,-0.2633405106701714,-0.6019184314042303
-3.91,0.3875401556484697,-1.078767159636765
-3.9095,0.7823366253827275,-1.354279758171118
-3.909,0.974399772821015,-1.460246142222792
-3.9085,1.017080472251745,-1.47084278062796
-3.908,1.123782220828572,-1.51322933424863
-3.9075,1.134452395686255,-1.34368311976595
-3.907,0.9957401225363802,-0.9622041371799229
-3.9065,0.8356874996711408,-0.5383386009732256
-3.906,0.707645401378949,-0.1356663415768632
-3.9055,0.6863050516635838,0.2670059178194992
-3.905,1.15579274540162,0.9345941373450475
-3.9045,1.19847344483235,1.697552102517103
-3.904,0.291508581929326,2.248577299585809
-3.9035,-0.7434983792658902,2.015451254672126
-3.903,-1.629122892453549,0.8074344764830383
-3.9025,-2.312014083345239,-0.400582301706049
-3.902,-2.418715831922065,-1.142346990067769
-3.9015,-2.055929886760855,-1.407262950196955
-3.901,-1.06360362499637,-1.354279758171118
-3.9005,-0.2420001609548061,-1.152943628472937
-3.9,0.3021787567870086,-0.9092209451540858
-3.8995,0.5689331282290746,-0.6972881770507372
-3.899,0.6542945270905358,-0.5489352393783931
-3.8985,0.6436243522328531,-0.3687923864905467
-3.898,0.6009436528021226,-0.09327978795619347
-3.8975,0.5475927785137094,0.2352160026039969
-3.897,0.2274875327832301,0.55311515475902
-3.8965,-0.5621054066852853,1.241896651094903
-3.896,-1.255666772434657,1.888291593810116
-3.8955,-1.693143941599645,2.184997469154805
-3.895,-1.757164990745741,1.580989080060261
-3.8945,-1.223656247861609,0.55311515475902
-3.894,-0.391382608962363,-0.3475991096802118
-3.8935,0.3128489316446912,-0.9833974139902578
-3.893,0.7396559259519968,-1.269506650929778
-3.8925,0.9210488985326017,-1.34368311976595
-3.892,0.9637295979633325,-1.34368311976595
-3.8915,1.006410297394063,-1.396666311791788
-3.891,1.070431346540159,-1.364876396576285
-3.8905,0.974399772821015,-1.025783967610927
-3.89,0.8356874996711408,-0.5913217929990628
-3.8895,0.7183155762366316,-0.1674562567923655
-3.889,0.6542945270905358,0.2352160026039969
-3.8885,0.9637295979633325,0.8074344764830383
-3.888,1.379866417412955,1.549199164844759
-3.8875,0.6969752265212663,2.153207553939303
-3.887,-0.2633405106701714,2.248577299585809
-3.8865,-1.170305373573196,1.220703374284568
-3.886,-1.959898313041711,-0.08268314955102604
-3.8855,-2.3973754822067,-1.004590690800593
-3.885,-2.290673733629873,-1.417859588602123
-3.8845,-1.426389570157579,-1.449649503817625
