Class_2_Relax_eyes_open/Class_2_Relax_eyes_open_Basim_1.csv

#Digilent WaveForms Oscilloscope Acquisition
#Device Name: EExplorer
#Serial Number: SN:210151A2B84A
#Date Time: 2020-10-20 13:00:05.779
#Sample rate: 2000Hz
#Samples: 16384
#Trigger: Source: Channel 1 Type: Edge Condition: Rising Level: 0 V Hyst.: Auto HoldOff: 0 s
#Channel 1: Range: 1 V/div Offset: 0 V
#Channel 2: Range: 1 V/div Offset: 0 V

Time (s),Channel 1 (V),Channel 2 (V)
-4.0960000000000001,0.36619980593310447,0.775644561267536
-4.0955000000000004,0.32351910650241267,0.6802748156211158
-4.0949999999999998,0.32351910650239329,0.55311515475884643
-4.0945,0.34485945621773917,0.36237566346600614
-4.0940000000000003,0.47290155450981441,0.05507314971643007
-4.0934999999999997,1.0917716962557082,-0.60191843140506873
-4.093,1.2945050185514941,-1.523825972653797
-4.0925000000000002,0.68630505166413691,-2.1490276385581071
-4.0919999999999996,0.48357172936741943,-1.8205318479980226
-4.0914999999999999,0.27016823221396069,-1.3118932045504481
-4.0910000000000002,0.19547700821018218,-0.75027136907657432
-4.0904999999999996,0.25949805735626835,-0.25222936403349294
-4.0899999999999999,0.24882788249859539,-0.019103319120021445
-4.0895000000000001,0.21681735792554749,0.055073149716150585
-4.0890000000000004,0.20614718306787455,0.086863064931623962
-4.0884999999999998,0.20614718306786484,0.086863064931652884
-4.0880000000000001,0.17413665849481691,0.23521600260399694
-4.0875000000000004,0.1421261339217981,0.35177902506073266
-4.0869999999999997,0.17413665849485574,0.33058574825044601
-4.0865,0.21681735792554749,0.26700591781949923
-4.0860000000000003,0.23815770764089336,0.21402272579371026
-4.0854999999999997,0.024754210486483578,0.38356894027655308
-4.085,-0.82885977812735145,0.61669498519002452
-4.0845000000000002,-1.8105158650332616,-0.082683149550390023
-4.0839999999999996,-2.4720667062108372,-0.93041422196495072
-4.0834999999999999,-2.8668631759447361,-1.5132293342486296
-4.0830000000000002,-2.6001088045026699,-1.7675486559726479
-4.0824999999999996,-1.5971123678797057,-1.2377167357136019
-4.0819999999999999,-0.72215802955052499,-0.49595204735255594
-4.0815000000000001,-0.11395806266261441,0.12924961855232261
-4.0810000000000004,0.22748753278291958,0.5319218779483188
-4.0804999999999998,0.36619980593310447,0.74385464605203377
-4.0800000000000001,0.3982103305061524,0.82862775329337313
-4.0795000000000003,0.36619980593313362,0.82862775329337313
-4.0789999999999997,0.35552963107541208,0.69087145402602301
-4.0785,0.34485945621773917,0.50013196273318283
-4.0780000000000003,0.36619980593308504,0.30939247144034243
-4.0774999999999997,0.46223137965275285,0.023283234500108583
-4.077,1.0170804722517455,-0.57012851618872795
-4.0765000000000002,1.8386839362925618,-1.2801032893343001
-4.0759999999999996,2.1694593568811023,-2.0748511697230527
-4.0754999999999999,1.7639927122895305,-2.678859558817047
-4.0750000000000002,1.3371857179822249,-2.0642545313173359
-4.0744999999999996,0.79300680024008008,-1.2906999277394675
-4.0739999999999998,0.43022085507920033,-0.5807251545938954
-4.0735000000000001,0.30217875678700862,-0.029699957525188878
-4.0730000000000004,0.19547700821027925,0.16103953376765145
-4.0724999999999998,0.14212613392176898,0.17163617217299235
-4.0720000000000001,0.15279630877945163,0.11865298014715518
-4.0715000000000003,0.15279630877945163,0.16103953376778637
-4.0709999999999997,0.1421261339217981,0.28819919462981486
-4.0705,0.17413665849481691,0.26700591781949923
-4.0700000000000003,0.20614718306783572,0.22461936419886805
-4.0694999999999997,0.22748753278314277,0.19282944898346213
-4.069,0.13145595906408636,0.34118238665567124
-4.0685000000000002,-0.5621054066852853,0.95578741415538238
-4.0679999999999996,-1.5330913187350947,1.4644260576029857
-4.0674999999999999,-2.2906737336298733,0.98757732937088472
-4.0670000000000002,-2.9095438753754665,-0.19924617200786782
-4.0664999999999996,-2.8988737005169396,-1.2165234589039609
-4.0659999999999998,-1.9705684878993939,-1.2377167357142764
-4.0655000000000001,-0.98891240099259115,-0.6972881770507372
-4.0650000000000004,-0.27401068552850416,-0.082683149551585067
-4.0644999999999998,0.15279630877945163,0.40476221708667587
-4.0640000000000001,0.34485945621773917,0.71206473083653143
-4.0635000000000003,0.39821033050610388,0.88161094531905615
-4.0629999999999997,0.37686998079075801,0.94519077575019561
-4.0625,0.34485945621773917,0.92399749893988004
-4.0620000000000003,0.32351910650239329,0.82862775329345983
-4.0614999999999997,0.31284893164470096,0.72266136924160251
-4.0609999999999999,0.32351910650237387,0.61669498519002452
-4.0605000000000002,0.63295417737517057,0.18223281057815977
-4.0599999999999996,1.2411541442634206,-0.60191843140503021
-4.0594999999999999,1.6146102642819735,-1.4814394190331273
-4.0590000000000002,1.3905365922706379,-2.456330152308531
-4.0585000000000004,1.1451225705441603,-2.096044446533166
-4.0579999999999998,0.73965592595199681,-1.3966663117917877
-4.0575000000000001,0.45156120479456557,-0.70788481545590454
-4.0570000000000004,0.36619980593318213,-0.13566634157738366
-4.0564999999999998,0.28083840707164331,0.10805634174198775
-4.056,0.19547700821018218,0.12924961855232261
-4.0555000000000003,0.17413665849483631,0.097459703336849224
-4.0549999999999997,0.17413665849476839,0.08686306493180708
-4.0545,0.12078578420640371,0.25640927941433178
-4.0540000000000003,0.13145595906407664,0.26700591781948957
-4.0534999999999997,0.17413665849485574,0.18223281057809229
-4.0529999999999999,0.21681735792554749,0.10805634174198775
-4.0525000000000002,0.22748753278323011,0.076266426526485451
-4.0519999999999996,-0.2420001609556989,0.30939247143990872
-4.0514999999999999,-1.2236562478616091,0.023283234500648287
-4.0510000000000002,-2.1199509359069508,-0.85623775312824868
-4.0505000000000004,-2.6534596787905977,-1.52382597265319
-4.0499999999999998,-2.9628947496638798,-2.0324646161018336
-4.0495000000000001,-2.5574281050719394,-1.9900780624811638
-4.0490000000000004,-1.5010807941623185,-1.216523458904645
-4.0484999999999998,-0.63679663068852999,-0.36879238648997814
-4.048,-0.049937013516518552,0.25640927941433178
-4.0475000000000003,0.25949805735599663,0.63788826200001247
-4.0469999999999997,0.37686998079080652,0.80743447648307687
-4.0465,0.3982103305061524,0.84982103010370802
-4.0460000000000003,0.36619980593313362,0.82862775329339244
-4.0454999999999997,0.33418928136005654,0.72266136924151581
-4.0449999999999999,0.33418928136005654,0.52132523954351762
-4.0445000000000002,0.3982103305061524,0.2246193641988295
-4.0439999999999996,0.59027347794505125,-0.19924617200848463
-4.0434999999999999,1.2624944939784462,-0.87743102993858346
-4.0430000000000001,1.7533225374318477,-1.6191957183003036
-4.0425000000000004,1.6359506139974456,-2.6046830899799787
-4.0419999999999998,1.6039400894242908,-2.6152797283860423
-4.0415000000000001,1.1557927454016199,-1.947691508860494
-4.0410000000000004,0.69697522652168353,-1.1423469900685017
-4.0404999999999998,0.47290155450977561,-0.40058230170567316
-4.04,0.30217875678700862,0.012686596095480854
-4.0395000000000003,0.18480683335260631,0.16103953376769004
-4.0389999999999997,0.15279630877946135,0.20342608738848503
-4.0385,0.16346648363713429,0.19282944898332721
-4.0380000000000003,0.14212613392178838,0.31998910984522078
-4.0374999999999996,0.13145595906411547,0.38356894027630251
-4.0369999999999999,0.16346648363713429,0.34118238665567124
-4.0365000000000002,0.19547700821018218,0.27760255622466667
-4.0359999999999996,0.19547700820989106,0.25640927941465946
-4.0354999999999999,-0.12462823752029703,0.61669498519002452
-4.0350000000000001,-0.94623170156186043,1.2842832047155728
-4.0345000000000004,-1.5757720181645638,1.6233756336806222
-4.0339999999999998,-1.9812386627570766,0.95578741415538238
-4.0335000000000001,-2.4187158319220647,-0.29461591765437467
-4.0330000000000004,-2.2373228593416252,-1.0681705212308938
-4.0324999999999998,-1.4157193952991884,-0.90922094515361351
-4.032,-0.63679663068906378,-0.38998566330088158
-4.0315000000000003,-0.081947538090071048,0.12924961855185035
-4.0309999999999997,0.22748753278334657,0.52132523954373933
-4.0305,0.35552963107542179,0.76504792286236856
-4.0300000000000002,0.37686998079076767,0.89220758372426212
-4.0294999999999996,0.35552963107540236,0.93459413734498964
-4.0289999999999999,0.33418928136005654,0.87101430691404291
-4.0285000000000002,0.33418928136005654,0.74385464605203377
-4.0279999999999996,0.33418928136006626,0.63788826200028237
-4.0274999999999999,0.34485945621773917,0.55311515475901996
-4.0270000000000001,0.6116138276598051,-0.061489872740691176
-4.0265000000000004,0.48357172936772996,-1.4390528654112047
-4.0259999999999998,0.71831557623663156,-2.1702209153690104
-4.0255000000000001,0.87836819910187125,-2.2232041073948472
-4.0250000000000004,0.7823366253828149,-1.619195718300853
-4.0244999999999997,0.66496470194806301,-0.73967473067083822
-4.024,0.49424190422529612,-0.11447306476652835
-4.0235000000000003,0.32351910650252913,0.15044289536241656
-4.0229999999999997,0.227487532783201,0.23521600260398731
-4.0225,0.19547700821018218,0.2246193641988295
-4.0220000000000002,0.19547700821018218,0.17163617217304053
-4.0214999999999996,0.18480683335247045,0.21402272579377773
-4.0209999999999999,0.15279630877945163,0.34118238665567124
-4.0205000000000002,0.18480683335249956,0.27760255622466667
-4.0199999999999996,0.2168173579255572,0.17163617217291524
-4.0194999999999999,0.22748753278323011,0.086863064931652884
-4.0190000000000001,0.13145595906408636,0.18223281057815977
-4.0185000000000004,-0.51942470725396284,0.7968378380773119
-4.0179999999999998,-1.4904106193036752,1.4538294191982519
-4.0175000000000001,-2.2479930341991428,1.2313000126897355
-4.0170000000000003,-2.7815017770827892,0.086863064932693801
-4.0164999999999997,-2.8882035256593053,-1.0257839676110816
-4.016,-2.0132491873301248,-1.1953301820936066
-4.0155000000000003,-1.0422632752818872,-0.72907809226666354
-4.0149999999999997,-0.30602121010050404,-0.13566634157642951
-4.0145,0.13145595906408636,0.34118238665567124
-4.0140000000000002,0.33418928135987214,0.6590815388104051
-4.0134999999999996,0.39821033050614268,0.83922439169861762
-4.0129999999999999,0.38754015564846972,0.92399749893988004
-4.0125000000000002,0.35552963107542179,0.89220758372437781
-4.0119999999999996,0.33418928136005654,0.81803111488808056
-4.0114999999999998,0.33418928136005654,0.68027481562102909
-4.0110000000000001,0.35552963107542179,0.51072860113835017
-4.0105000000000004,0.64362435223259107,0.065669788121722805
-4.0099999999999998,1.4118769419860033,-0.67609490024040231
-4.0095000000000001,1.6999716631434345,-1.7039688255416432
-4.0090000000000003,1.3905365922709194,-2.2549940226098482
-4.0084999999999997,1.0597611716820978,-1.7781452943771985
-4.008,0.64362435223285308,-1.0999604364470996
-4.0075000000000003,0.40888050536404852,-0.44296885532731634
-4.0069999999999997,0.31284893164459421,0.0020899576904387096
-4.0065,0.20614718306786484,0.13984625695749003
-4.0060000000000002,0.16346648363713429,0.16103953376782493
-4.0054999999999996,0.17413665849482662,0.13984625695749003
-4.0049999999999999,0.18480683335249956,0.13984625695749003
-4.0045000000000002,0.15279630877945163,0.28819919462983412
-4.0039999999999996,0.1634664836371634,0.28819919462977628
-4.0034999999999998,0.19547700821018218,0.2246193641988295
-4.0030000000000001,0.22748753278323011,0.16103953376782493
-4.0025000000000004,0.20614718306788424,0.17163617217298272
-4.0019999999999998,-0.29535103524321932,0.58490506997452218
-4.0015000000000001,-1.2129860730039266,0.50013196273318283
-4.0010000000000003,-1.991908837614051,-0.42177557851554548
-4.0004999999999997,-2.6748000285066618,-1.407262950197572
-4,-2.9095438753754665,-2.0854478081276708
-3.9994999999999998,-2.2479930341991428,-1.8205318479984851
-3.9990000000000001,-1.2129860730039266,-0.99399405239542526
-3.9984999999999999,-0.42339313353541097,-0.18864953360270037
-3.9980000000000002,0.067434909917990504,0.37297230187117358
-3.9975000000000001,0.31284893164469124,0.70146809243136399
-3.9969999999999999,0.3982103305061524,0.84982103010370802
-3.9965000000000002,0.38754015564846972,0.88161094531921036
-3.996,0.35552963107542179,0.82862775329337313
-3.9954999999999998,0.33418928136005654,0.70146809243136399
-3.9950000000000001,0.32351910650237387,0.5637117931641874
-3.9944999999999999,0.3768699807907871,0.31998910984533641
-3.9940000000000002,0.65429452709053582,-0.18864953360270037
-3.9935,1.1557927454016199,-1.0363806060160949
-3.9929999999999999,0.97439977282101498,-2.2973805762310193
-3.9925000000000002,1.1664629202593024,-2.7212461124377167
-3.992,1.0704313465401587,-2.2126074689896797
-3.9914999999999998,0.76099627566736228,-1.3966663117917877
-3.9910000000000001,0.5689331282290746,-0.59132179299906285
-3.9904999999999999,0.40888050536383502,-0.12506970317169577
-3.9900000000000002,0.24882788249859539,0.033879872905815719
-3.9895,0.18480683335249956,0.065669788121318018
-3.9889999999999999,0.18480683335249956,0.055073149716150585
-3.9885000000000002,0.19547700821018218,0.055073149716150585
-3.988,0.13145595906408636,0.24581264100916439
-3.9874999999999998,0.099445434491038431,0.35177902506083869
-3.9870000000000001,0.15279630877945163,0.33058574825050385
-3.9864999999999999,0.19547700821018218,0.27760255622466667
-3.9860000000000002,0.22748753278323011,0.24581264100916439
-3.9855,-0.017926488943470625,0.52132523954351762
-3.9849999999999999,-0.87154047755808195,1.1889134590690658
-3.9845000000000002,-1.8211860398918371,1.6763588257067679
-3.984,-2.3333544330606037,1.4220395039827496
-3.9834999999999998,-2.7174807279371791,0.34118238665567124
-3.9830000000000001,-2.5467579302142567,-0.66549826183523486
-3.9824999999999999,-1.5971123678805015,-0.73967473067140688
-3.9820000000000002,-0.73282820440820751,-0.34759910968021185
-3.9815,-0.12462823752029703,0.12924961855232261
-3.9809999999999999,0.21681735792554749,0.52132523954351762
-3.9805000000000001,0.36619980593310447,0.78624119967270345
-3.98,0.3982103305061524,0.94519077575021493
-3.9794999999999998,0.3768699807907871,1.0087706061812196
-3.9790000000000001,0.34485945621773917,0.98757732937088472
-3.9784999999999999,0.33418928136005654,0.87101430691404291
-3.9780000000000002,0.34485945621773917,0.73325800764686633
-3.9775,0.40888050536383502,0.54251851635385251
-3.9769999999999999,0.92104889853260175,-0.082683149551026042
-3.9765000000000001,1.4225471168436858,-0.84564111472308123
-3.976,1.5612593899935603,-1.6403889951106385
-3.9754999999999998,1.1771330951169852,-2.4033469602826938
-3.9750000000000001,0.88903837395955376,-1.8735150400243223
-3.9744999999999999,0.52625242879834411,-1.0787671596367647
-3.9740000000000002,0.29150858192932599,-0.42177557851638392
-3.9735,0.27016823221396069,0.076266426526485451
-3.9729999999999999,0.23815770764091276,0.25640927941433178
-3.9725000000000001,0.18480683335249956,0.2246193641988295
-3.972,0.18480683335249956,0.16103953376782493
-3.9714999999999998,0.14212613392176898,0.20342608738849466
-3.9710000000000001,0.067434909917990504,0.30939247144016896
-3.9704999999999999,0.099445434491038431,0.2246193641988295
-3.9700000000000002,0.15279630877945163,0.10805634174198775
-3.9695,0.20614718306786484,0.023283234500648287
-3.9689999999999999,0.078105084775673142,0.086863064931652884
-3.9685000000000001,-0.70081767983515975,0.48953532432801533
-3.968,-1.7038141164573279,0.19282944898332721
-3.9674999999999998,-2.3333544330606037,-0.75027136907657432
-3.9670000000000001,-2.8561930010870533,-1.6721789103261409
-3.9664999999999999,-2.7601614273679096,-2.1066410849380057
-3.9660000000000002,-1.7678351656034239,-1.5450192494641319
-3.9655,-0.83952995298503397,-0.6972881770507372
-3.9649999999999999,-0.17797911180871023,0.023283234500648287
-3.9645000000000001,0.19547700821018218,0.50013196273318283
-3.964,0.36619980593310447,0.76504792286236856
-3.9634999999999998,0.3982103305061524,0.87101430691404291
-3.9630000000000001,0.3768699807907871,0.88161094531921036
-3.9624999999999999,0.34485945621773917,0.81803111488820579
-3.9620000000000002,0.32351910650237387,0.70146809243136399
-3.9615,0.33418928136005654,0.51072860113835017
-3.9609999999999999,0.43022085507920033,0.15044289536265748
-3.9605000000000001,0.6863050516635838,-0.47475877054222104
-3.96,1.0490909968247935,-1.1953301820936066
-3.9594999999999998,1.1237822208285719,-1.9370948704553266
-3.9590000000000001,0.6863050516635838,-2.3185738530413542
-3.9584999999999999,0.51558225394066137,-1.5768091646796343
-3.9580000000000002,0.33418928136005654,-0.88802766834375091
-3.9575,0.28083840707164331,-0.31580919446470956
-3.9569999999999999,0.30217875678700862,0.065669788121318018
-3.9565000000000001,0.24882788249859539,0.18223281057815977
-3.956,0.21681735792554749,0.19282944898332721
-3.9554999999999998,0.20614718306786484,0.17163617217299235
-3.9550000000000001,0.21681735792554749,0.18223281057815977
-3.9544999999999999,0.19547700821018218,0.28819919462983412
-3.9540000000000002,0.20614718306786484,0.30939247144016896
-3.9535,0.23815770764091276,0.28819919462983412
-3.9529999999999998,0.24882788249859539,0.26700591781949923
-3.9525000000000001,0.19547700821018218,0.38356894027634103
-3.952,-0.35937208438931517,0.96638405256054982
-3.9514999999999998,-1.2663369472923398,1.6339722720860981
-3.9510000000000001,-2.0345895370454898,2.1108210003186327
-3.9504999999999999,-2.6961403782218136,1.7717285713532749
-3.9500000000000002,-2.7815017770832746,0.52132523954351762
-3.9495,-2.0772702364762203,-0.20984281041303524
-3.9489999999999998,-1.0742737998540521,-0.26282600243887239
-3.9485000000000001,-0.33803173467394987,-0.029699957525188878
-3.948,0.11011560934872107,0.26700591781949923
-3.9474999999999998,0.32351910650237387,0.52132523954351762
-3.9470000000000001,0.3982103305061524,0.71206473083653143
-3.9464999999999999,0.38754015564846972,0.83922439169854057
-3.9460000000000002,0.35552963107542179,0.89220758372437781
-3.9455,0.33418928136005654,0.86041766850887547
-3.9449999999999998,0.33418928136005654,0.775644561267536
-3.9445000000000001,-0.11395806266261441,0.097459703336820316
-3.944,-0.12462823752029703,-0.71848145386107198
-3.9434999999999998,0.75032610080967954,-1.4814394190331273
-3.9430000000000001,1.5079085157051471,-2.2020108305845123
-3.9424999999999999,1.9773962094431832,-2.3397671298516891
-3.9420000000000002,1.806673411720261,-1.5344226110589645
-3.9415,1.2731646688361289,-0.62311170821456507
-3.9409999999999998,0.76099627566736228,0.044476511310983152
-3.9405000000000001,0.43022085507920033,0.42595549389701071
-3.9399999999999999,0.24882788249859539,0.57430843156935485
-3.9394999999999998,0.19547700821018218,0.5637117931641874
-3.9390000000000001,0.19547700821018218,0.46834204751768049
-3.9384999999999999,0.21681735792554749,0.36237566346600614
-3.9380000000000002,0.19547700821018218,0.38356894027634103
-3.9375,0.18480683335249956,0.30939247144016896
-3.9369999999999998,0.19547700821018218,0.15044289536265748
-3.9365000000000001,0.21681735792554749,-0.0085066807148540119
-3.9359999999999999,0.22748753278323011,-0.10387642636136091
-3.9355000000000002,-0.071277363231883828,0.16103953376782493
-3.9350000000000001,-0.95690187641954316,0.42595549389701071
-3.9344999999999999,-1.8852070890379329,-0.24163272562853755
-3.9340000000000002,-2.4187158319220647,-0.64430498502489997
-3.9335,-2.8348526513716878,-0.050893234335523743
-3.9329999999999998,-2.5467579302142567,0.19282944898332721
-3.9325000000000001,-1.5330913187344057,0.18223281057815977
-3.9319999999999999,-0.66880715526211176,0.16103953376782493
-3.9315000000000002,-0.08194753808956648,0.17163617217299235
-3.931,0.24882788249859539,0.2246193641988295
-3.9304999999999999,0.3768699807907871,0.31998910984533641
-3.9300000000000002,0.3982103305061524,0.43655213230217815
-3.9295,0.3768699807907871,0.51072860113835017
-3.9289999999999998,0.34485945621773917,0.52132523954351762
-3.9285000000000001,0.34485945621773917,0.53192187794868506
-3.9279999999999999,0.36619980593310447,0.46834204751768049
-3.9275000000000002,0.6116138276598051,0.21402272579366208
