Class_2_Relax_eyes_open/Class_2_Relax_eyes_open_Suko_6.csv

#Digilent WaveForms Oscilloscope Acquisition
#Device Name: EExplorer
#Serial Number: SN:210151A2B84A
#Date Time: 2020-12-22 14:22:29.477
#Sample rate: 2000Hz
#Samples: 16384
#Trigger: Source: Channel 1 Type: Edge Condition: Rising Level: 0 V Hyst.: Auto HoldOff: 0 s
#Channel 1: Range: 1 V/div Offset: 0 V Attenuation: 1 X
#Channel 2: Range: 1 V/div Offset: 0 V Attenuation: 1 X
#Power Supplies: ON
#Fixed Supply: ON
#Voltage: 3.3 V Readback: 3.324 V
#Positive Supply: ON
#Voltage: 3.7 V Readback: 3.703 V
#Current: 40 mA Readback: 15 mA
#Negative Supply: ON
#Voltage: -3.7 V Readback: -4.1 V
#Current: -40 mA Readback: -8 mA
#Reference 1: ON
#Voltage: 0 V
#Reference 2: ON
#Voltage: 0 V

Time (s),Channel 1 (V),Channel 2 (V)
-4.096,0.1848068333524996,0.2352160026039969
-4.0955,0.1741366584948266,0.4577454091123107
-4.095,0.1848068333525675,0.6484849004055462
-4.0945,0.2594980573562781,0.6696781772158616
-4.094,0.7930068002399248,0.1822328105786031
-4.0935,1.102441871113003,-0.3899856633012285
-4.093,0.8783681991018712,-0.7714646458869092
-4.0925,0.9210488985325629,-0.9410108603694339
-4.092,0.878368199101386,-1.04697724442159
-4.0915,0.3448594562177392,-1.407262950196955
-4.091,0.1954770082101822,-0.9939940523954253
-4.0905,0.1421261339217399,-0.2840192792486387
-4.09,0.1101156093487211,0.3411823866556712
-4.0895,0.1848068333524996,0.8180311148882058
-4.089,0.2808384070715559,0.9345941373449415
-4.0885,0.291508581929326,0.7862411996727035
-4.088,0.2488278824985954,0.5849050699745222
-4.0875,0.2061471830679036,0.3517790250610507
-4.087,0.1741366584947393,0.118652980147001
-4.0865,0.08877525963335578,-0.05089323433552374
-4.086,-0.455403658107964,0.2564092794140523
-4.0855,-1.426389570158288,0.8498210301040935
-4.085,-2.205312334768412,1.273686566310405
-4.0845,-2.610778979359984,1.305476481525879
-4.084,-2.514747405640481,1.125333628637483
-4.0835,-1.714484291315011,0.4895353243280153
-4.083,-0.8715404775580819,-0.1462629799820306
-4.0825,-0.2633405106698511,-0.5595318777837147
-4.082,0.08877525963335578,-0.7290780922662394
-4.0815,0.2488278824985954,-0.6866915386455698
-4.081,0.2808384070716142,-0.5277419625682028
-4.0805,0.2594980573562781,-0.2946159176543747
-4.08,0.2274875327832301,-0.02969995752518888
-4.0795,0.2061471830678842,0.2246193641985982
-4.079,0.1954770082101822,0.478938685923031
-4.0785,0.1954770082101822,0.6802748156210291
-4.078,0.2915085819292387,0.7544512844571336
-4.0775,0.7823366253826499,0.3093924714396678
-4.077,0.6969752265212663,-0.2416327256285375
-4.0765,-0.1352984123772227,-0.6549016234296916
-4.076,-0.3593720843889852,-0.7184814538610045
-4.0755,0.00341386077189465,-0.6443049850249
-4.075,0.3982103305061524,-0.4217755785163839
-4.0745,0.6116138276598051,0.002089957690833851
-4.074,0.6116138276598051,0.5743084315693548
-4.0735,0.2808384070716433,0.7332580076468663
-4.073,-0.4233931335347705,0.2987958330353967
-4.0725,-0.3166913849585846,0.3941655786815084
-4.072,-0.124628237520297,0.3199891098453364
-4.0715,0.035424385344797,0.2776025562247052
-4.071,0.1954770082101919,0.2458126410089909
-4.0705,0.2061471830678648,0.05507314971615059
-4.07,0.1634664836371731,-0.1780528951973209
-4.0695,-0.09261771294797697,-0.02969995752465881
-4.069,-0.8928808272734472,0.55311515475902
-4.0685,-1.405049220442214,0.8710143069140429
-4.068,-1.607782542738563,0.6272916235951534
-4.0675,-2.023919362187807,0.5849050699745222
-4.067,-1.863866739322568,0.4047622170866759
-4.0665,-1.191645723287988,-0.04029659593072254
-4.066,-0.5621054066852853,-0.4429688553267188
-4.0655,-0.1139580626626144,-0.6549016234300674
-4.065,0.1421261339215361,-0.676094900240383
-4.0645,0.2488278824985954,-0.5595318777835605
-4.064,0.2701682322139607,-0.3475991096802118
-4.0635,0.2488278824986148,-0.09327978795642478
-4.063,0.2274875327831816,0.1610395337680177
-4.0625,0.1741366584948169,0.3729723018711736
-4.062,0.2061471830678357,0.6272916235949606
-4.0615,0.2488278824987604,0.7756445612672758
-4.061,0.4302208550792003,0.4895353243280153
-4.0605,0.7183155762366316,-0.1144730647665284
-4.06,0.4729015545095718,-0.6125150698094651
-4.0595,0.07810508477567314,-0.6866915386455698
-4.059,0.2168173579255475,-0.5489352393783931
-4.0585,0.4835717293673709,-0.347599109680395
-4.058,0.6116138276598051,0.04447651131098315
-4.0575,0.6116138276598051,0.5955017083796896
-4.057,0.5155822539407487,0.9345941373447391
-4.0565,0.3875401556484697,1.082947075017392
-4.056,0.291508581929326,1.061753798207057
-4.0555,0.02475421048750259,0.6696781772162183
-4.055,-0.6047861061159188,-0.156859618387227
-4.0545,-0.4980843575391895,-0.1886495336027004
-4.054,-0.3593720843894413,-0.2840192792491205
-4.0535,-0.199319461524027,-0.3793890248955888
-4.053,-0.1459685872356623,-0.2416327256285375
-4.0525,-0.839529952985034,0.3517790250608387
-4.052,-1.522421143877063,0.9769806909660739
-4.0515,-1.895877263895616,1.369056311956912
-4.051,-1.949228138184029,1.411442865577582
-4.0505,-1.469070269588747,0.8816109453196922
-4.05,-0.807519428411986,0.13984625695749
-4.0495,-0.274010685527854,-0.4217755785163839
-4.049,0.05676473506000707,-0.7184814538608022
-4.0485,0.2168173579255863,-0.7714646458868032
-4.048,0.2594980573562781,-0.6549016234300674
-4.0475,0.2594980573562781,-0.4429688553269115
-4.047,0.2381577076408934,-0.1674562567921149
-4.0465,0.2168173579255475,0.1080563417419877
-4.046,0.2061471830678746,0.3729723018709327
-4.0455,0.1954770082102016,0.627291623595375
-4.045,0.2168173579255475,0.8286277532933731
-4.0445,0.4835717293676135,0.6590815388106942
-4.044,1.027750647109263,0.02328323450017605
-4.0435,0.8463576745288233,-0.4959520473525559
-4.043,0.3661998059331045,-0.5913217929990628
-4.0425,0.3448594562177586,-0.4959520473526426
-4.042,0.5262524287983441,-0.326405832869877
-4.0415,0.6649647019482183,-0.02969995752518888
-4.041,0.6436243522328725,0.3835689402759652
-4.0405,0.5155822539405353,0.7862411996729733
-4.04,0.3768699807907871,1.082947075017392
-4.0395,0.2808384070717307,1.146526905448338
-4.039,0.2701682322139704,1.019367244586175
-4.0385,0.2808384070716433,0.7862411996727035
-4.038,0.2594980573562975,0.5001319627334431
-4.0375,0.2274875327830554,0.1928294489829224
-4.037,0.03542438534494258,-0.252229364033705
-4.0365,-0.5194247072545548,-1.01518732920576
-4.036,-0.7008176798353247,-1.110557074851698
-4.0355,-0.8822106524157645,-0.4853554089473885
-4.035,-1.458400094730627,0.383568940276341
-4.0345,-2.002579012471947,1.135930267042544
-4.034,-2.290673733629873,1.369056311956912
-4.0335,-1.799845690176472,0.7862411996727035
-4.033,-1.042263275281693,0.03387987290649996
-4.0325,-0.4127229586773596,-0.5065486857579451
-4.032,-0.007256314085787988,-0.7502713690765743
-4.0315,0.2061471830676707,-0.7502713690765743
-4.031,0.280838407071653,-0.5807251545936545
-4.0305,0.291508581929326,-0.3158091944647096
-4.03,0.2594980573563072,-0.01910331912029128
-4.0295,0.2274875327832107,0.2670059178197498
-4.029,0.2061471830678648,0.5425185163538525
-4.0285,0.1954770082101822,0.8074344764830383
-4.028,0.3341892813606485,0.8710143069135321
-4.0275,0.9850699476786977,0.309392471440169
-4.027,1.56125938999356,-0.252229364033705
-4.0265,1.219813794548026,-0.4429688553265453
-4.026,0.857027849386506,-0.6549016234300674
-4.0255,0.8783681991018712,-0.7608680074817418
-4.025,0.9423892482479088,-0.644304985025006
-4.0245,0.9103787236747737,-0.2628260024383134
-4.024,0.7503261008096795,0.3517790250608387
-4.0235,0.5582629533715668,0.807434476482624
-4.023,0.3982103305061039,0.9875773293708558
-4.0225,0.3448594562177392,0.9557874141553824
-4.022,0.5049120790828333,0.6590815388109641
-4.0215,0.5049120790828915,0.3941655786812771
-4.021,0.408880505363835,0.13984625695749
-4.0205,0.3021787567870086,-0.1038764263613609
-4.02,0.2168173579254019,-0.3475991096802697
-4.0195,0.05676473506030786,-0.4111789401112165
-4.019,-0.4874141826815069,0.01268659609548085
-4.0185,-1.148965023857229,0.214022725793479
-4.018,-2.03458953704549,-0.1992461720078678
-4.0175,-2.632119329075718,-0.09327978795619347
-4.017,-2.38670530734924,0.03387987290570006
-4.0165,-1.618452717595071,-0.3158091944649505
-4.016,-0.7434983792658902,-0.5807251545938954
-4.0155,-0.1459685872362058,-0.7184814538609468
-4.015,0.1207857842065105,-0.7714646458868032
-4.0145,0.2381577076409128,-0.6549016234300674
-4.014,0.2594980573562586,-0.421775578516596
-4.0135,0.2381577076408934,-0.1356663415765934
-4.013,0.2168173579255475,0.1610395337678249
-4.0125,0.2168173579255475,0.4683420475176805
-4.012,0.2168173579255669,0.7438546460522362
-4.0115,0.2381577076409128,0.9663840525605498
-4.011,0.3021787567870086,0.7332580076468663
-4.0105,0.1101156093488957,0.0126865960961362
-4.01,-0.5834457564006506,-0.6654982618352349
-4.0095,-1.020922925565639,-1.078767159636765
-4.009,-0.5407650569703568,-1.195330182093501
-4.0085,0.1421261339222154,-1.02578396761058
-4.008,0.6329541773751706,-0.6443049850249
-4.0075,0.7823366253825916,-0.04029659593090562
-4.007,0.7076454013787937,0.6060983467852137
-4.0065,0.5369226036560266,0.9981739677760521
-4.006,0.3875401556484697,1.114736990232894
-4.0055,0.3768699807907677,0.9769806909654764
-4.005,0.3555296310754218,0.7120647308365314
-4.0045,0.291508581929326,0.4047622170866759
-4.004,0.2381577076408739,0.0868630649313734
-4.0035,0.1954770082101822,-0.2204394488182027
-4.003,0.142126133921769,-0.4535654937318862
-4.0025,-0.2526703358121297,-0.2098428104132569
-4.002,-0.8928808272734472,0.3199891098453364
-4.0015,-1.415719395299897,0.6802748156210291
-4.001,-1.853196564464487,0.8498210301035538
-4.0005,-1.650463242168682,0.5849050699736066
-4,-1.394379045584531,-0.4217755785163839
-3.9995,-1.298347471865388,-1.460246142222792
-3.999,-0.7008176798351597,-1.566212526274467
-3.9985,-0.3380317346739499,-1.481439419033127
-3.998,-0.03926683865883591,-1.152943628472937
-3.9975,0.1848068333524996,-0.6972881770507372
-3.997,0.2381577076409128,-0.3370024712750445
-3.9965,0.2168173579255475,-0.008506680714854012
-3.996,0.2061471830678648,0.309392471440169
-3.9955,0.1954770082101822,0.6060983467848571
-3.995,0.2061471830678648,0.8816109453192104
-3.9945,0.3021787567870086,0.9345941373450475
-3.994,0.7823366253827275,0.4259554938970107
-3.9935,1.315845368266859,-0.3158091944647096
-3.993,1.443887466559051,-0.8880276683437509
-3.9925,1.539919040278195,-1.142346990067769
-3.992,1.51857869056283,-1.121153713257435
-3.9915,1.422547116843686,-0.9516074987747555
-3.991,1.230483969405398,-0.5595318777835605
-3.9905,0.9637295979633325,0.1292496185523226
-3.99,0.6649647019482183,0.6908714540261965
-3.9895,0.4302208550792003,0.9769806909657173
-3.989,0.3661998059331045,0.9981739677760521
-3.9885,0.3982103305061524,0.8180311148882058
-3.988,0.3555296310754218,0.55311515475902
-3.9875,0.2808384070716433,0.2352160026039969
-3.987,0.2274875327832301,-0.08268314955102604
-3.9865,0.1634664836371343,-0.3687923864905467
-3.986,-0.274010685527854,-0.1992461720078678
-3.9855,-1.084943974711735,0.3517790250608387
-3.985,-1.767835165603424,0.7862411996727035
-3.9845,-2.183971985053047,0.8392243916985406
-3.984,-1.970568487899394,0.6060983467848571
-3.9835,-1.234326422719292,-0.01910331912002144
-3.983,-0.572775581542968,-0.6019184314042303
-3.9825,-0.1139580626626144,-0.9410108603695881
-3.982,0.02475421048725994,-1.152943628472937
-3.9815,-0.4127229586777283,-1.587405803084801
-3.981,-0.4660738329661415,-1.439052865412457
-3.9805,-0.3166913849585846,-0.9728007755850904
-3.98,-0.1779791118087102,-0.4853554089473885
-3.9795,0.03542438534494258,0.06566978812131802
-3.979,0.1848068333524996,0.5213252395435176
-3.9785,0.1954770082101822,0.8074344764830383
-3.978,0.2488278824985954,0.9663840525605498
-3.9775,0.6969752265212663,0.4895353243280153
-3.977,1.19847344483235,-0.3052125560595421
-3.9765,0.8997085488172365,-0.9410108603695881
-3.976,0.6436243522328531,-1.269506650929778
-3.9755,0.8143471499557753,-1.301296566145281
-3.975,0.9957401225363802,-1.089363798041932
-3.9745,1.059761171682476,-0.6654982618352349
-3.974,0.9210488985326017,0.04447651131098315
-3.9735,0.6863050516635838,0.6484849004055269
-3.973,0.4729015545099309,1.00877060618122
-3.9725,0.3448594562177392,1.061753798207057
-3.972,0.3875401556484697,0.8180311148882058
-3.9715,0.3661998059331045,0.5319218779486851
-3.971,0.3021787567870086,0.2458126410091644
-3.9705,0.2381577076409128,-0.05089323433552374
-3.97,0.1954770082101822,-0.3475991096802118
-3.9695,0.00341386077189465,-0.3793890248957141
-3.969,-0.6367966306890638,0.1080563417419877
-3.9685,-1.46907026958831,0.6484849004055269
-3.968,-2.269333383914508,0.9875773293708847
-3.9675,-2.706810553079496,0.6166949851900245
-3.967,-2.151961460479999,-0.07208651114585861
-3.9665,-1.202315898146244,-0.4959520473525559
-3.966,-0.4874141826815069,-0.6549016234300674
-3.9655,-0.02859666380115328,-0.6443049850249
-3.965,0.2061471830678648,-0.5065486857577234
-3.9645,0.2808384070716433,-0.326405832869877
-3.964,0.2808384070716433,-0.1144730647665284
-3.9635,0.1954770082101822,0.03387987290581572
-3.963,-0.3273615598162672,-0.2416327256285375
-3.9625,-0.6047861061160158,-0.326405832869877
-3.962,-0.423393133535411,0.02328323450064829
-3.9615,-0.2313299860971235,0.2881991946298341
-3.961,0.4835717293676135,0.06566978812131802
-3.9605,1.251824319120764,-0.5171453241628908
-3.96,1.017080472251745,-1.078767159636765
-3.9595,0.4729015545099309,-1.576809164679634
-3.959,0.4835717293676135,-1.746355379162313
-3.9585,0.6863050516635838,-1.587405803084801
-3.958,0.8356874996711408,-1.163540266878104
-3.9575,0.825017324813458,-0.5383386009732256
-3.957,0.6649647019482183,0.1716361721729923
-3.9565,0.4942419042252961,0.6590815388106942
-3.956,0.3555296310754218,0.8816109453192104
-3.9555,0.408880505363835,0.8074344764830383
-3.955,0.4835717293676135,0.6166949851900245
-3.9545,0.4195506802215176,0.383568940276341
-3.954,0.3235191065023739,0.1504428953626575
-3.9535,0.2488278824985954,-0.08268314955102604
-3.953,0.1314559590640864,-0.2310360872233701
-3.9525,-0.4020527838200457,0.1610395337678249
-3.952,-1.234326422719292,0.775644561267536
-3.9515,-1.970568487899394,1.241896651094903
-3.951,-2.418715831922065,0.8816109453192104
-3.9505,-2.098610586191586,0.07626642652648545
-3.95,-1.30901764672307,-0.3475991096802118
-3.9495,-0.5941159312583333,-0.4641621321370536
-3.949,-0.1032878878049318,-0.4323722169215513
-3.9485,0.1527963087794516,-0.3052125560595421
-3.948,0.2594980573562781,-0.1674562567923655
-3.9475,0.2701682322139607,-0.02969995752518888
-3.947,0.2274875327832301,0.08686306493165288
-3.9465,0.2274875327832301,0.2458126410091644
-3.946,0.2061471830678648,0.3517790250608387
-3.9455,0.2061471830678648,0.4471487707073456
-3.945,0.2061471830678648,0.5319218779486851
-3.9445,0.2701682322139607,0.2776025562246667
-3.944,0.3128489316446912,-0.8244478379127463
-3.9435,0.1741366584948169,-1.460246142222792
-3.943,-0.3060212101009019,-1.767548655972648
-3.9425,-0.2206598112394408,-2.011271339291499
-3.942,0.3341892813600565,-1.926498232050159
-3.9415,0.7716664505250448,-1.661582271920973
-3.941,0.8783681991018712,-1.184733543688439
-3.9405,0.7716664505250448,-0.4853554089473885
-3.94,0.5902734779444399,0.1292496185523226
-3.9395,0.4195506802215176,0.5001319627331828
-3.939,0.3448594562177392,0.627291623595192
-3.9385,0.3768699807907871,0.5743084315693548
-3.938,0.3235191065023739,0.4365521323021782
-3.9375,0.291508581929326,0.2987958330350016
-3.937,0.2381577076409128,0.13984625695749
-3.9365,0.1954770082101822,-0.01910331912002144
-3.936,-0.02859666380115328,0.09745970333682032
-3.9355,-0.6794773301197943,0.6378882620003594
-3.935,-1.437059745015262,1.019367244586387
-3.9345,-2.098610586191586,1.061753798207057
-3.934,-2.226652684483777,0.8180311148882058
-3.9335,-1.618452717595867,0.3411823866556712
-3.933,-0.8715404775580819,-0.1038764263613609
-3.9325,-0.274010685527854,-0.3687923864905467
-3.932,0.0674349099179905,-0.4641621321370536
-3.9315,0.2381577076409128,-0.4111789401112165
-3.931,0.2808384070716433,-0.2734226408440398
-3.9305,0.2701682322139607,-0.08268314955102604
-3.93,0.2488278824985954,0.1186529801471552
-3.9295,0.2168173579255475,0.3199891098453364
-3.929,0.2168173579255475,0.4895353243280153
-3.9285,0.2061471830678648,0.6590815388106942
-3.928,0.3021787567870086,0.7120647308365314
-3.9275,0.8997085488172365,0.2776025562246667
-3.927,1.294505018551494,-0.3475991096802118
-3.9265,0.7289857510943143,-0.8138511995075789
-3.926,0.08877525963335578,-1.068170521231597
-3.9255,0.01408403562957729,-1.34368311976595
-3.925,-0.274010685527854,-1.862918401619155
-3.9245,0.0674349099179905,-1.417859588602123
-3.924,0.2274875327832301,-0.7396747306714069
-3.9235,0.3021787567870086,0.02328323450064829
-3.923,0.3768699807907871,0.6166949851900245
-3.9225,0.3448594562177392,0.8286277532933731
-3.922,0.3555296310754218,0.7544512844572011
-3.9215,0.3235191065023739,0.5743084315693548
-3.921,0.2701682322139607,0.3517790250608387
-3.9205,0.2274875327832301,0.1080563417419877
-3.92,0.1848068333524996,-0.1250697031716958
-3.9195,-0.04993701351651855,-0.08268314955102604
-3.919,-0.7114878546928423,0.4047622170866759
-3.9185,-1.127624674142465,0.6378882620003594
-3.918,-1.458400094730627,0.5107286011383502
-3.9175,-1.810515865034154,0.6060983467848571
-3.917,-1.927887788468663,0.701468092431364
-3.9165,-1.394379045584531,0.3199891098453364
-3.916,-0.7328282044082075,-0.1462629799820306
-3.9155,-0.2206598112394408,-0.4641621321370536
-3.915,0.08877525963335578,-0.570128516188728
-3.9145,0.2274875327832301,-0.5171453241628908
-3.914,0.2701682322139607,-0.3475991096802118
-3.9135,0.2594980573562781,-0.1144730647665284
-3.913,0.2381577076409128,0.13984625695749
-3.9125,0.2168173579255475,0.383568940276341
-3.912,0.2168173579255475,0.6166949851900245
-3.9115,0.2381577076409128,0.7862411996727035
-3.911,0.5902734779444399,0.5107286011383502
-3.9105,1.006410297394063,-0.07208651114585861
-3.91,0.7183155762366316,-0.5489352393783931
-3.9095,0.2168173579255475,-0.8350444763179138
-3.909,0.4622313796522482,-0.9622041371799229
-3.9085,0.857027849386506,-0.9410108603695881
-3.908,1.091771696255524,-0.8244478379127463
-3.9075,1.059761171682476,-0.5489352393783931
-3.907,0.3982103305061524,-0.5171453241628908
-3.9065,-0.09261771294724913,-0.2840192792492073
-3.906,-0.124628237520297,0.1928294489833272
-3.9055,-0.02859666380115328,0.383568940276341
-3.905,0.1741366584948169,0.4683420475176805
-3.9045,0.2701682322139607,0.4259554938970107
-3.904,0.2274875327832301,0.1928294489833272
-3.9035,0.1954770082101822,-0.05089323433552374
-3.903,0.142126133921769,-0.2734226408440398
-3.9025,-0.3060212101009019,-0.04029659593035631
-3.902,-1.298347471865388,0.5637117931641874
-3.9015,-1.821186039891837,0.8922075837243778
-3.901,-1.991908837614759,0.6590815388106942
-3.9005,-1.87453691418025,0.3941655786815084
-3.9,-1.255666772434657,-0.09327978795619347
-3.8995,-0.6047861061160158,-0.5277419625680583
-3.899,-0.1352984123779797,-0.7608680074817418
-3.8985,0.1314559590640864,-0.8032545611024114
-3.898,0.2488278824985954,-0.7078848154559045
-3.8975,0.2808384070716433,-0.5065486857577234
-3.897,0.2594980573562781,-0.2628260024388724
-3.8965,0.2381577076409128,0.002089957690313421
-3.896,0.2168173579255475,0.2564092794143318
-3.8955,0.2168173579255475,0.5001319627331828
-3.895,0.2488278824985954,0.6696781772158616
-3.8945,0.3235191065023739,0.7226613692416989
-3.894,0.7396559259519968,0.2881991946298341
-3.8935,0.7289857510943143,-0.3052125560595421
-3.893,0.01408403562957729,-0.7290780922662394
-3.8925,-0.2633405106701714,-0.9198175835592532
-3.892,0.0674349099179905,-0.8774310299385835
-3.8915,0.4729015545099309,-0.6866915386455698
-3.891,0.7183155762366316,-0.3158091944647096
-3.8905,0.7396559259519968,0.2881991946298341
-3.89,0.6116138276598051,0.7968378380778709
-3.8895,0.2274875327832301,0.7862411996727035
-3.889,-0.4874141826815069,0.2140227257936621
-3.8885,-0.3807124341046804,0.2352160026039969
-3.888,-0.274010685527854,0.1504428953626575
-3.8875,-0.1139580626626144,0.06566978812131802
-3.887,0.09944543449103843,0.002089957690313421
-3.8865,0.142126133921769,-0.1992461720078678
