Class_2_Relax_eyes_open/Class_2_Relax_eyes_open_Suko_1.csv

#Digilent WaveForms Oscilloscope Acquisition
#Device Name: EExplorer
#Serial Number: SN:210151A2B84A
#Date Time: 2020-10-20 13:25:44.117
#Sample rate: 2000Hz
#Samples: 16384
#Trigger: Source: Channel 1 Type: Edge Condition: Rising Level: 0 V Hyst.: Auto HoldOff: 0 s
#Channel 1: Range: 1 V/div Offset: 0 V
#Channel 2: Range: 1 V/div Offset: 0 V

Time (s),Channel 1 (V),Channel 2 (V)
-4.0960000000000001,0.3768699807907871,-0.38998566330088158
-4.0955000000000004,0.08877525963361782,-0.29461591765446138
-4.0949999999999998,-0.95690187641998958,-0.12506970317087657
-4.0945,-1.4477299198729445,0.775644561267536
-4.0940000000000003,-1.7785053404608056,1.5280058880337393
-4.0934999999999997,-1.9812386627565235,1.9094848706201621
-4.093,-1.373038695869166,1.5915857184654283
-4.0925000000000002,-0.65813698040507917,0.81803111488890934
-4.0919999999999996,-0.11395806266229416,0.15044289536235872
-4.0914999999999999,0.23815770764091276,-0.17805289519753292
-4.0910000000000002,0.40888050536383502,-0.24163272562853755
-4.0904999999999996,0.4835717293676135,-0.12506970317151267
-4.0899999999999999,0.4835717293676135,0.076266426526485451
-4.0895000000000001,0.55826295337139209,0.12924961855232261
-4.0890000000000004,0.62228400251742966,0.19282944898326937
-4.0884999999999998,0.59027347794443985,0.41535885549184332
-4.0880000000000001,0.52625242879834411,0.64848490040552687
-4.0875000000000004,0.47290155450997939,0.81803111488805158
-4.0869999999999997,0.46223137965243261,0.86041766850840318
-4.0865,0.66496470194821833,0.34118238665567124
-4.0860000000000003,0.899708548817023,-0.51714532416211023
-4.0854999999999997,0.7396559259512302,-1.0363806060155938
-4.085,-0.10328788780493176,-0.48535540894738849
-4.0845000000000002,-1.0422632752801502,0.40476221708586635
-4.0839999999999996,-1.127624674142087,0.62729162359495105
-4.0834999999999999,-0.71148785469284226,0.36237566346600614
-4.0830000000000002,-0.24200016095480609,-0.029699957525188878
-4.0824999999999996,0.11011560934891516,-0.36879238649074914
-4.0819999999999999,0.32351910650237387,-0.59132179299906285
-4.0815000000000001,0.41955068022151765,-0.70788481545590454
-4.0810000000000004,0.44089102993686352,-0.73967473067137801
-4.0804999999999998,0.41955068022151765,-0.6972881770507372
-4.0800000000000001,0.38754015564846972,-0.59132179299906285
-4.0795000000000003,0.3661998059331239,-0.45356549373201149
-4.0789999999999997,0.33418928135964898,-0.24163272562798821
-4.0785,-0.11395806266261441,0.36237566346600614
-4.0780000000000003,-0.90355100213041184,1.1041403518270521
-4.0774999999999997,-1.6611334170271701,1.66576218730135
-4.077,-2.2906737336298733,1.3902495887672472
-4.0765000000000002,-1.9065474387536474,0.78624119967325279
-4.0759999999999996,-1.0422632752804122,0.28819919462942933
-4.0754999999999999,-0.39138260896236304,-0.15685961838719809
-4.0750000000000002,0.099445434491038431,-0.30521255605954212
-4.0744999999999996,0.43022085507926827,-0.20984281041292921
-4.0739999999999998,0.50491207908297886,-0.093279787956193475
-4.0735000000000001,0.47290155450993088,0.076266426526485451
-4.0730000000000004,0.47290155450993088,0.22461936419869455
-4.0724999999999998,0.50491207908297886,0.28819919462983412
-4.0720000000000001,0.49424190422529612,0.47893868592284788
-4.0715000000000003,0.47290155450995031,0.71206473083631938
-4.0709999999999997,0.4622313796522482,0.9134008605347802
-4.0705,0.4622313796522482,0.98757732937088472
-4.0700000000000003,0.53692260365595867,0.41535885549236373
-4.0694999999999997,0.44089102993653356,-0.52774196256876182
-4.069,0.05676473506030786,-1.3012965661452807
-4.0685000000000002,-0.28468086038553664,-1.1741369052832717
-4.0679999999999996,-0.77550890383923909,-0.18864953360205466
-4.0674999999999999,-1.1062843244271001,0.52132523954351762
-4.0670000000000002,-0.81818960326966872,0.47893868592284788
-4.0664999999999996,-0.35937208438896578,0.12924961855196601
-4.0659999999999998,0.024754210487259936,-0.26282600243887239
-4.0655000000000001,0.28083840707164331,-0.55953187778356051
-4.0650000000000004,0.39821033050604565,-0.75027136907640091
-4.0644999999999998,0.44089102993688295,-0.84564111472308123
-4.0640000000000001,0.43022085507920033,-0.84564111472308123
-4.0635000000000003,0.40888050536385445,-0.77146464588697672
-4.0629999999999997,0.38754015564845029,-0.6760949002402481
-4.0625,0.36619980593310447,-0.50654868575772338
-4.0620000000000003,0.30217875678706685,-0.17805289519783168
-4.0614999999999997,0.2274875327831816,0.40476221708731197
-4.0609999999999999,0.17413665849481691,1.1041403518277266
-4.0605000000000002,0.099445434491038431,1.6445689104912655
-4.0599999999999996,0.14212613392187573,1.5703924416546116
-4.0594999999999999,0.25949805735627807,1.0405605213967219
-4.0590000000000002,0.35552963107542179,0.47893868592284788
-4.0585000000000004,-0.039266838658476855,-0.34759910967946012
-4.0579999999999998,-0.3700422592469978,-0.83504447631791379
-4.0575000000000001,-0.22065981123944084,-0.64430498502489997
-4.0570000000000004,-0.092617712947365594,-0.35819574808563953
-4.0564999999999998,0.12078578420640371,0.044476511310983152
-4.056,0.38754015564846972,0.42595549389701071
-4.0555000000000003,0.45156120479450734,0.64848490040532447
-4.0549999999999997,0.4302208550791809,0.78624119967279016
-4.0545,0.40888050536383502,0.88161094531921036
-4.0540000000000003,0.39821033050616211,0.92399749893984151
-4.0534999999999997,0.44089102993685386,0.45774540911163603
-4.0529999999999999,0.40888050536383502,-0.50654868575772338
-4.0525000000000002,0.035424385344942577,-1.4072629501969551
-4.0519999999999996,-0.76483872898214833,-2.0324646161017275
-4.0514999999999999,-1.7464948158880587,-1.9159015936449921
-4.0510000000000002,-2.1626316353376818,-0.95160749877475548
-4.0505000000000004,-1.6291228924540349,-0.31580919446528777
-4.0499999999999998,-0.83952995298503397,-0.082683149551026042
-4.0495000000000001,-0.18864928666639288,-0.11447306476652835
-4.0490000000000004,0.21681735792517873,-0.26282600243873744
-4.0484999999999998,0.41955068022156616,-0.45356549373205002
-4.048,0.47290155450993088,-0.63370834661973252
-4.0475000000000003,0.46223137965225791,-0.76086800748162609
-4.0469999999999997,0.43022085507917124,-0.81385119950758855
-4.0465,0.3982103305061524,-0.82444783791274634
-4.0460000000000003,0.37686998079080652,-0.78206128429211508
-4.0454999999999997,0.27016823221339781,-0.50654868575701983
-4.0449999999999999,-0.34870190953163249,0.26700591781949923
-4.0445000000000002,-1.2129860730039266,1.0935437134225592
-4.0439999999999996,-1.9065474387530652,1.6445689104911692
-4.0434999999999999,-1.6504632421689147,1.5386025264395911
-4.0430000000000001,-0.91422117698881245,0.94519077575021493
-4.0425000000000004,-0.26334051067076336,0.31998910984590512
-4.0419999999999998,0.17413665849481691,-0.082683149551026042
-4.0415000000000001,0.40888050536383502,-0.24163272562853755
-4.0410000000000004,0.49424190422521852,-0.19924617200790637
-4.0404999999999998,0.39821033050556043,-0.1462629799824065
-4.04,-0.25267033581248871,-0.55953187778356051
-4.0395000000000003,-0.18864928666645112,-0.53833860097324493
-4.0389999999999997,0.0034138607720111038,-0.34759910967988417
-4.0385,0.13145595906408636,0.012686596095480854
-4.0380000000000003,0.33418928135987214,0.48953532432758162
-4.0374999999999996,0.44089102993688295,0.82862775329319005
-4.0369999999999999,0.44089102993688295,0.62729162359519197
-4.0365000000000002,0.41955068022151765,-0.29461591765437467
-4.0359999999999996,0.28083840707133279,-1.2695066509304047
-4.0354999999999999,-0.06060718837420119,-1.9582881472656615
-4.0350000000000001,-0.91422117698881245,-2.3715570450671914
-4.0345000000000004,-1.6824737667412639,-2.4457335139032961
-4.0339999999999998,-1.4797404444459925,-1.7357587407571455
-4.0335000000000001,-0.8502001278427167,-0.83504447631791379
-4.0330000000000004,-0.26334051067070519,-0.20984281041360386
-4.0324999999999998,0.14212613392197276,0.076266426526504727
-4.032,0.36619980593310447,0.097459703336820316
-4.0315000000000003,0.46223137965216088,-0.050893234335388823
-4.0309999999999997,0.47290155450990179,-0.26282600243905552
-4.0305,0.44089102993688295,-0.4641621321370536
-4.0300000000000002,0.40888050536386411,-0.6443049850247361
-4.0294999999999996,0.38754015564844063,-0.75027136907661285
-4.0289999999999999,0.35552963107542179,-0.792657922697244
-4.0285000000000002,0.024754210487259936,-0.40058230170604903
-4.0279999999999996,-0.81818960327028012,0.33058574825105319
-4.0274999999999999,-1.4904106193036752,0.93459413734504748
-4.0270000000000001,-1.437059745015262,1.2313000126897355
-4.0265000000000004,-0.87154047755859632,0.88161094531952844
-4.0259999999999998,-0.26334051067017139,0.21402272579366208
-4.0255000000000001,0.17413665849481691,-0.3581957480853793
-4.0250000000000004,0.40888050536362153,-0.69728817705042878
-4.0244999999999997,0.49424190422530584,-0.77146464588681285
-4.024,0.50491207908297886,-0.66549826183523486
-4.0235000000000003,0.48357172936763293,-0.43237221692176331
-4.0229999999999997,0.48357172936766202,-0.20984281041288103
-4.0225,0.53692260365602662,-0.04029659593035631
-4.0220000000000002,0.15279630877980099,-0.11447306476646089
-4.0214999999999996,-0.3273615598161605,-0.24163272562815205
-4.0209999999999999,-0.20998963638175816,0.18223281057815977
-4.0205000000000002,-0.071277363231883828,0.45774540911251305
-4.0199999999999996,0.49424190422601427,0.16103953376724667
-4.0194999999999999,1.2838348436938116,-0.47475877054222104
-4.0190000000000001,1.5612593899935603,-1.0681705212315973
-4.0185000000000004,0.92104889853318406,-0.73967473067170564
-4.0179999999999998,-0.4554036581084589,0.2246193641988295
-4.0175000000000001,-1.1276246741424654,0.73325800764686633
-4.0170000000000003,-0.92489135184667959,0.58490506997465708
-4.0164999999999997,-0.46607383296575333,0.23521600260367889
-4.016,-0.039266838658835915,-0.11447306476652835
-4.0155000000000003,0.24882788249833337,-0.37938902489547321
-4.0149999999999997,0.38754015564851824,-0.53833860097330266
-4.0145,0.44089102993688295,-0.62311170821456507
-4.0140000000000002,0.44089102993688295,-0.60191843140424961
-4.0134999999999996,0.40888050536382531,-0.52774196256797157
-4.0129999999999999,0.3982103305061524,-0.43237221692155131
-4.0125000000000002,0.38754015564846972,-0.34759910968021185
-4.0119999999999996,0.32351910650223803,-0.072086511145222534
-4.0114999999999998,0.17413665849481691,0.62729162359519197
-4.0110000000000001,0.014084035629577295,1.3266697583362426
-4.0105000000000004,-0.16730893695086263,1.7505352945425545
-4.0099999999999998,-0.049937013516518552,1.5174092496292562
-4.0095000000000001,0.19547700821018218,0.93459413734504748
-4.0090000000000003,0.36619980593294921,0.38356894027684219
-4.0084999999999997,0.44089102993690238,0.033879872905680793
-4.008,0.4622313796522482,-0.11447306476652835
-4.0075000000000003,0.45156120479457529,-0.10387642636137054
-4.0069999999999997,0.43022085507919061,0.012686596095635055
-4.0065,0.41955068022151765,0.18223281057815977
-4.0060000000000002,0.47290155450993088,0.26700591781949923
-4.0054999999999996,0.47290155450992116,0.41535885549201679
-4.0049999999999999,0.4622313796522482,0.60609834678485708
-4.0045000000000002,0.43022085507920033,0.75445128445720111
-4.0039999999999996,0.29150858192876311,0.73325800764607607
-4.0034999999999998,-0.32736155981626724,-0.13566634157686319
-4.0030000000000001,-0.28468086038553664,-0.94101086036958814
-4.0025000000000004,-0.37004225924692014,-1.7145654639461072
-4.0019999999999998,-0.91422117698881245,-2.2549940226103495
-4.0015000000000001,-1.7038141164573279,-2.4669267907136985
-4.0010000000000003,-2.1092807610488999,-2.3821536834724362
-4.0004999999999997,-1.6504632421682355,-1.6297923567047001
-4,-0.90355100213112993,-0.78206128429207655
-3.9994999999999998,-0.25267033581248871,-0.18864953360270037
-3.9990000000000001,0.17413665849481691,0.065669788121318018
-3.9984999999999999,0.3982103305061524,0.076266426526485451
-3.9980000000000002,0.4835717293676135,-0.050893234335523743
-3.9975000000000001,0.49424190422529612,-0.24163272562853755
-3.9969999999999999,0.4622313796522482,-0.42177557851638392
-3.9965000000000002,0.40888050536383502,-0.5807251545938954
-3.996,0.3768699807907871,-0.70788481545590454
-3.9954999999999998,0.27016823221396069,-0.59132179299906285
-3.9950000000000001,-0.35937208438931517,0.033879872905815719
-3.9944999999999999,-1.3196878215807528,0.74385464605203377
-3.9940000000000002,-2.0132491873301248,1.2207033742845681
-3.9935,-1.6824737667419627,0.99817396777605205
-3.9929999999999999,-0.88221065241576446,0.38356894027634103
-3.9925000000000002,-0.20998963638175816,-0.22043944881820265
-3.992,0.21681735792554749,-0.60191843140423029
-3.9914999999999998,0.43022085507920033,-0.76086800748174177
-3.9910000000000001,0.50491207908297886,-0.71848145386107198
-3.9904999999999999,0.50491207908297886,-0.54893523937839306
-3.9900000000000002,0.4835717293676135,-0.30521255605954212
-3.9895,0.52625242879834411,-0.12506970317169577
-3.9889999999999999,0.54759277851370936,0.086863064931652884
-3.9885000000000002,0.51558225394066137,0.37297230187117358
-3.988,0.47290155450993088,0.66967817721586165
-3.9874999999999998,0.43022085507920033,0.9134008605347127
-3.9870000000000001,0.3982103305061524,0.96638405256054982
-3.9864999999999999,0.44089102993688295,0.51072860113835017
-3.9860000000000002,0.0034138607718946501,-0.52774196256805828
-3.9855,-0.39138260896236304,-0.87743102993858346
-3.9849999999999999,-0.77550890383893822,-0.65490162343006741
-3.9845000000000002,-1.5437614935920885,-0.24163272562853755
-3.984,-1.4797404444459925,0.36237566346600614
-3.9834999999999998,-0.8502001278427167,0.69087145402619654
-3.9830000000000001,-0.30602121010090194,0.66967817721586165
-3.9824999999999999,0.078105084775673142,0.48953532432801533
-3.9820000000000002,0.31284893164469124,0.25640927941433178
-3.9815,0.41955068022151765,0.023283234500648287
-3.9809999999999999,0.45156120479456557,-0.19924617200786782
-3.9805000000000001,0.44089102993688295,-0.37938902489571413
-3.98,0.41955068022151765,-0.50654868575772338
-3.9794999999999998,0.40888050536383502,-0.60191843140423029
-3.9790000000000001,0.3768699807907871,-0.64430498502489997
-3.9784999999999999,0.13145595906408636,-0.26282600243887239
-3.9780000000000002,-0.34870190953163249,0.43655213230217815
-3.9775,-0.67947733011979428,1.0405605213967219
-3.9769999999999999,-0.69014750497747701,1.4114428655775821
-3.9765000000000001,-0.33803173467394987,1.2313000126897355
-3.976,0.05676473506030786,0.59550170837968963
-3.9754999999999998,0.31284893164469124,-0.093279787956193475
-3.9750000000000001,0.44089102993688295,-0.54893523937839306
-3.9744999999999999,0.4835717293676135,-0.72907809226623943
-3.9740000000000002,0.47290155450993088,-0.6972881770507372
-3.9735,0.45156120479456557,-0.52774196256805828
-3.9729999999999999,0.4622313796522482,-0.32640583286987701
-3.9725000000000001,0.50491207908297886,-0.13566634157686319
-3.972,0.49424190422529612,0.13984625695749003
-3.9714999999999998,0.4622313796522482,0.43655213230217815
-3.9710000000000001,0.43022085507920033,0.66967817721586165
-3.9704999999999999,0.41955068022151765,0.80743447648303834
-3.9700000000000002,0.53692260365602662,0.47893868592284788
-3.9695,0.75032610080967954,-0.12506970317169577
-3.9689999999999999,0.62228400251748783,-0.63370834661973252
-3.9685000000000001,-0.34870190953163249,-1.2377167357142764
-3.968,-1.7998456901764717,-1.9688847856708289
-3.9674999999999998,-2.0559298867608553,-1.7145654639468106
-3.9670000000000001,-1.5651018433074537,-0.9304142219644207
-3.9664999999999999,-0.80751942841198598,-0.12506970317169577
-3.9660000000000002,-0.10328788780493176,0.46834204751768049
-3.9655,0.25949805735627807,0.63788826200035942
-3.9649999999999999,0.3982103305061524,0.52132523954351762
-3.9645000000000001,0.44089102993688295,0.29879583303500157
-3.964,0.44089102993688295,0.044476511310983152
-3.9634999999999998,0.41955068022151765,-0.18864953360270037
-3.9630000000000001,0.3982103305061524,-0.40058230170604903
-3.9624999999999999,0.38754015564846972,-0.53833860097322561
-3.9620000000000002,0.15279630877945163,-0.29461591765437467
-3.9615,-0.70081767983515975,0.33058574825050385
-3.9609999999999999,-1.6931439415996454,0.88161094531921036
-3.9605000000000001,-2.1306211107646336,0.95578741415538238
-3.96,-1.5117509690190405,0.31998910984533641
-3.9594999999999998,-0.67947733011979428,-0.32640583286987701
-3.9590000000000001,-0.039266838658835915,-0.792657922697244
-3.9584999999999999,0.33418928136005654,-1.01518732920576
-3.9580000000000002,0.50491207908297886,-1.0363806060160949
-3.9575,0.53692260365602662,-0.9092209451540858
-3.9569999999999999,0.51558225394066137,-0.70788481545590454
-3.9565000000000001,0.4835717293676135,-0.48535540894738849
-3.956,0.49424190422529612,-0.30521255605954212
-3.9554999999999998,0.4835717293676135,-0.072086511145858609
-3.9550000000000001,0.4622313796522482,0.20342608738849466
-3.9544999999999999,0.44089102993688295,0.46834204751768049
-3.9540000000000002,0.41955068022151765,0.68027481562102909
-3.9535,0.47290155450993088,0.47893868592284788
-3.9529999999999998,0.54759277851370936,-0.10387642636136091
-3.9525000000000001,0.3982103305061524,-0.64430498502489997
-3.952,-0.15663876209334496,-0.99399405239542526
-3.9514999999999998,-0.95690187641954316,-1.1529436284729369
-3.9510000000000001,-1.5117509690190405,-1.1741369052832717
-3.9504999999999999,-1.5971123678805015,-0.94101086036958814
-3.9500000000000002,-0.94623170156186043,-0.20984281041303524
-3.9495,-0.42339313353541097,0.24581264100916439
-3.9489999999999998,0.024754210487259936,0.52132523954351762
-3.9485000000000001,0.36619980593310447,0.62729162359519197
-3.948,0.45156120479456557,0.46834204751768049
-3.9474999999999998,0.44089102993688295,0.21402272579366208
-3.9470000000000001,0.40888050536383502,-0.04029659593035631
-3.9464999999999999,0.38754015564846972,-0.25222936403370499
-3.9460000000000002,0.3768699807907871,-0.42177557851638392
-3.9455,0.32351910650237387,-0.42177557851638392
-3.9449999999999998,-0.06060718837420119,0.097459703336820316
-3.9445000000000001,-0.63679663068906378,0.72266136924169888
-3.944,-0.97824222613490841,1.1253336286380615
-3.9434999999999998,-0.76483872898125549,0.88161094531921036
-3.9430000000000001,-0.33803173467394987,0.18223281057815977
-3.9424999999999999,0.046094560202625215,-0.52774196256805828
-3.9420000000000002,0.30217875678700862,-1.0257839676109275
-3.9415,0.43022085507920033,-1.227120097309109
-3.9409999999999998,0.47290155450993088,-1.2059268204987741
-3.9405000000000001,0.47290155450993088,-1.0469772444212624
-3.9399999999999999,0.4622313796522482,-0.792657922697244
-3.9394999999999998,0.51558225394066137,-0.65490162343006741
-3.9390000000000001,0.54759277851370936,-0.44296885532671876
-3.9384999999999999,0.52625242879834411,-0.11447306476652835
-3.9380000000000002,0.4835717293676135,0.24581264100916439
-3.9375,0.45156120479456557,0.57430843156935485
-3.9369999999999998,0.47290155450993088,0.54251851635385251
-3.9365000000000001,0.43022085507920033,0.033879872905815719
-3.9359999999999999,0.067434909917990504,-0.48535540894738849
-3.9355000000000002,-0.48741418268150688,-0.6972881770507372
-3.9350000000000001,-1.0315931004233216,-0.12506970317169577
-3.9344999999999999,-1.4584000947306273,0.64848490040552687
-3.9340000000000002,-1.1809755484308786,0.82862775329337313
-3.9335,-1.0209229255656389,0.20342608738849466
-3.9329999999999998,-0.91422117698881245,-0.48535540894738849
-3.9325000000000001,-0.44473348325077627,-0.5807251545938954
-3.9319999999999999,-0.13529841237797968,-0.60191843140423029
-3.9315000000000002,0.13145595906408636,-0.48535540894738849
-3.931,0.36619980593310447,-0.27342264084403983
-3.9304999999999999,0.43022085507920033,-0.15685961838719809
-3.9300000000000002,0.3982103305061524,-0.11447306476652835
-3.9295,0.3768699807907871,-0.061489872740691176
-3.9289999999999998,0.32351910650237387,0.065669788121318018
