Class_2_Relax_eyes_open/Class_2_Relax_Eyes_open_Turki_13.csv

#Digilent WaveForms Oscilloscope Acquisition
#Device Name: EExplorer
#Serial Number: SN:210151A2B84A
#Date Time: 2021-01-31 11:16:37.045
#Sample rate: 2000Hz
#Samples: 16384
#Trigger: Source: Channel 1 Type: Edge Condition: Rising Level: 0 V Hyst.: Auto HoldOff: 0 s
#Channel 1: Range: 1 V/div Offset: 0 V Attenuation: 1 X
#Channel 2: Range: 1 V/div Offset: 0 V Attenuation: 1 X
#Power Supplies: ON
#Fixed Supply: ON
#Voltage: 3.3 V Readback: 3.324 V
#Positive Supply: ON
#Voltage: 3.7 V Readback: 3.717 V
#Current: 40 mA Readback: 18 mA
#Negative Supply: ON
#Voltage: -3.7 V Readback: -3.343 V
#Current: -40 mA Readback: -8 mA
#Reference 1: ON
#Voltage: 0 V
#Reference 2: ON
#Voltage: 0 V

Time (s),Channel 1 (V),Channel 2 (V)
-4.096,0.2274875327832301,0.3517790250608387
-4.0955,0.2274875327832301,0.3517790250608387
-4.095,0.2168173579255281,0.3199891098453075
-4.0945,0.1954770082101822,0.2881991946298341
-4.094,0.1848068333525093,0.2670059178195185
-4.0935,0.1848068333524996,0.2776025562246859
-4.093,0.1848068333524996,0.2987958330350016
-4.0925,0.08877525963344313,0.171636172173108
-4.092,-0.3593720843896451,-0.4323722169221778
-4.0915,-0.722158029550525,-1.121153713257435
-4.091,-0.9995825758502737,-1.555615887869299
-4.0905,-0.700817679834626,-1.248313374118865
-4.09,-0.1139580626626144,-0.6125150698093976
-4.0895,0.3555296310754218,-0.02969995752518888
-4.089,0.5582629533712077,0.3623756634656495
-4.0885,0.5475927785137094,0.5743084315693548
-4.088,0.4515612047945656,0.6802748156210291
-4.0875,0.3448594562178362,0.7014680924313447
-4.087,0.3128489316448077,0.6802748156209713
-4.0865,0.4408910299368829,0.6166949851900245
-4.086,0.43022085507921,0.5849050699745511
-4.0855,0.3661998059330462,0.5637117931641874
-4.085,0.3021787567870086,0.5637117931641874
-4.0845,0.2488278824986439,0.5425185163538718
-4.084,-0.02859666380181318,0.2881991946291884
-4.0835,-0.754168554123573,-0.4217755785163839
-4.083,-1.298347471865388,-1.152943628472937
-4.0825,-1.490410619303423,-1.714565463946608
-4.082,-1.212986073003927,-1.492036057438295
-4.0815,-0.7114878546928423,-0.8350444763179138
-4.081,-0.2740106855282519,-0.2628260024393928
-4.0805,0.02475421048725994,0.1186529801471552
-4.08,0.1741366584948169,0.309392471440169
-4.0795,0.2274875327831816,0.3729723018711157
-4.079,0.2381577076408934,0.3517790250608002
-4.0785,0.2168173579255475,0.309392471440169
-4.078,0.2061471830678746,0.2670059178195378
-4.0775,0.1848068333524996,0.2352160026039873
-4.077,0.1848068333524996,0.2246193641988295
-4.0765,0.1848068333524996,0.2670059178194607
-4.076,0.184806833352189,0.2881991946296221
-4.0755,-0.156638762093345,0.05507314971615059
-4.075,-0.6154562809736985,-0.5807251545938954
-4.0745,-0.7648387289811099,-1.174136905283214
-4.074,-0.6047861061160158,-1.110557074852267
-4.0735,-0.09261771294724913,-0.6337083466197325
-4.073,0.3661998059326872,-0.1356663415773162
-4.0725,0.6009436528021226,0.2352160026039969
-4.072,0.6116138276598051,0.4895353243280153
-4.0715,0.5262524287984217,0.6166949851899088
-4.071,0.4088805053637477,0.6696781772158905
-4.0705,0.3128489316446912,0.701468092431364
-4.07,0.3768699807907289,0.7544512844571529
-4.0695,0.4088805053637865,0.796837838077842
-4.069,0.3555296310754218,0.7650479228623686
-4.0685,0.3021787567870086,0.701468092431364
-4.068,0.2594980573561519,0.6378882620003112
-4.0675,0.1207857842064037,0.5849050699745222
-4.067,-0.4874141826815069,0.1610395337678249
-4.0665,-0.9995825758503513,-0.6231117082151819
-4.066,-1.084943974711735,-1.301296566145281
-4.0655,-0.8288597781273515,-1.333086481360783
-4.065,-0.4447334832511257,-0.824447837913209
-4.0645,-0.124628237520297,-0.2734226408440398
-4.064,0.07810508477567314,0.1292496185523226
-4.0635,0.1848068333524025,0.3517790250606363
-4.063,0.2168173579255475,0.4365521323021878
-4.0625,0.2168173579255475,0.4471487707073456
-4.062,0.2061471830678746,0.42595549389703
-4.0615,0.1848068333524996,0.3835689402763121
-4.061,0.1848068333524996,0.3517790250608387
-4.0605,0.1741366584948169,0.3411823866556712
-4.06,0.1741366584948266,0.3305857482505135
-4.0595,0.1848068333524996,0.3411823866556712
-4.059,0.0674349099179905,0.1822328105781598
-4.0585,-0.3166913849582352,-0.4217755785158346
-4.058,-0.5621054066852853,-1.0999604364471
-4.0575,-0.7861790786966207,-1.566212526274467
-4.057,-0.4554036581087597,-1.364876396576469
-4.0565,0.1207857842064037,-0.7078848154559045
-4.056,0.5369226036560266,-0.08268314955102604
-4.0555,0.6649647019481019,0.3623756634656013
-4.055,0.6116138276596886,0.5849050699745897
-4.0545,0.4835717293676135,0.6590815388106942
-4.054,0.3555296310755383,0.6908714540261677
-4.0535,0.3448594562177489,0.7544512844572108
-4.053,0.3555296310754218,0.7650479228623686
-4.0525,0.3235191065023739,0.7120647308365314
-4.052,0.2701682322139219,0.6272916235951245
-4.0515,0.2274875327832301,0.55311515475902
-4.051,0.1634664836371343,0.5001319627331828
-4.0505,-0.2633405106697832,0.2458126410093957
-4.05,-0.8928808272734472,-0.4641621321370536
-4.0495,-1.277007122150022,-1.184733543688439
-4.049,-1.447729919872789,-1.703968825541171
-4.0485,-1.138294848999702,-1.470842780627362
-4.048,-0.6474668055467465,-0.8138511995075789
-4.0475,-0.2313299860975019,-0.241632725629058
-4.047,0.04609456020275137,0.1398462569576635
-4.0465,0.1848068333524996,0.3305857482505039
-4.046,0.2274875327831913,0.3941655786814506
-4.0455,0.2381577076408934,0.3835689402763025
-4.045,0.2168173579255475,0.3411823866556712
-4.0445,0.1954770082101822,0.2987958330350016
-4.044,0.1848068333524996,0.2670059178194992
-4.0435,0.1848068333524996,0.2670059178194992
-4.043,0.1954770082101822,0.2776025562246667
-4.0425,0.1527963087794905,0.256409279414351
-4.042,-0.2633405106701714,-0.2628260024388724
-4.0415,-0.5834457564006506,-0.9622041371799229
-4.041,-0.7434983792657447,-1.492036057437813
-4.0405,-0.5727755815424537,-1.439052865411899
-4.04,-0.007256314085787988,-0.8244478379127463
-4.0395,0.4515612047941483,-0.1780528951981208
-4.039,0.643624352232824,0.2987958330352521
-4.0385,0.6116138276598051,0.5743084315693548
-4.038,0.4942419042254029,0.7014680924312483
-4.0375,0.366199805933056,0.7544512844571915
-4.037,0.3128489316446912,0.7438546460520338
-4.0365,0.3555296310754218,0.7544512844572011
-4.036,0.3235191065023351,0.7332580076468085
-4.0355,0.2808384070716433,0.6696781772158616
-4.035,0.2488278824985954,0.6166949851900245
-4.0345,0.2274875327832495,0.54251851635392
-4.034,-0.1139580626626144,0.2140227257936621
-4.0335,-0.839529952985034,-0.5171453241628908
-4.033,-1.277007122149624,-1.237716735713621
-4.0325,-1.405049220441962,-1.788741932782771
-4.032,-1.127624674142465,-1.555615887869299
-4.0315,-0.6474668055471833,-0.8880276683443581
-4.031,-0.2313299860968809,-0.3158091944643626
-4.0305,0.03542438534494258,0.06566978812131802
-4.03,0.1741366584946908,0.2458126410090005
-4.0295,0.2274875327832398,0.2987958330349823
-4.029,0.2381577076409128,0.2776025562246667
-4.0285,0.2168173579255475,0.2246193641988295
-4.028,0.1954770082101725,0.1822328105781308
-4.0275,0.1848068333524996,0.1504428953626575
-4.027,0.1848068333524996,0.1504428953626575
-4.0265,0.1848068333524996,0.1716361721729731
-4.026,0.1954770082101822,0.2140227257936621
-4.0255,-0.09261771294724913,0.02328323450064829
-4.025,-0.5621054066848583,-0.5913217929985038
-4.0245,-0.7541685541236021,-1.195330182093732
-4.024,-0.7861790786966207,-1.333086481360783
-4.0235,-0.2740106855283199,-0.8562377531286824
-4.023,0.2808384070719345,-0.2416327256280846
-4.0225,0.6009436528021226,0.2564092794143318
-4.022,0.6542945270904873,0.563711793163908
-4.0215,0.5475927785135832,0.7226613692417567
-4.021,0.408880505363835,0.7862411996727035
-4.0205,0.3128489316446912,0.7862411996727035
-4.02,0.4622313796522967,0.6060983467848186
-4.0195,0.5155822539406614,0.5637117931641874
-4.019,0.4515612047945656,0.6484849004055269
-4.0185,0.3555296310755092,0.7438546460519471
-4.018,0.2701682322139607,0.7862411996727035
-4.0175,0.02475421048725994,0.6060983467848571
-4.017,-0.6474668055461351,-0.1038764263607153
-4.0165,-1.148965023857957,-0.9198175835598315
-4.016,-1.287677297007705,-1.555615887869299
-4.0155,-1.020922925565882,-1.492036057438352
-4.015,-0.5727755815426284,-0.9198175835587714
-4.0145,-0.1993194615240755,-0.3899856633008816
-4.014,0.05676473506007496,-0.05089323433583215
-4.0135,0.1848068333525384,0.108056341742007
-4.013,0.2274875327832301,0.1292496185523226
-4.0125,0.2274875327832301,0.08686306493165288
-4.012,0.2168173579255281,0.0232832345006001
-4.0115,0.1954770082101822,-0.02969995752518888
-4.011,0.1848068333524996,-0.06148987274069118
-4.0105,0.1848068333524996,-0.06148987274069118
-4.01,0.1848068333524996,-0.04029659593035631
-4.0095,0.1954770082101822,0.01268659609548085
-4.009,0.01408403562974228,-0.1038764263612549
-4.0085,-0.540765056970153,-0.6549016234305879
-4.008,-0.7968492535543035,-1.227120097309109
-4.0075,-0.7968492535543035,-1.555615887869001
-4.007,-0.3487019095311278,-1.174136905282616
-4.0065,0.2061471830678648,-0.4535654937318862
-4.006,0.5475927785137094,0.1928294489833272
-4.0055,0.6222840025174102,0.6060983467850595
-4.005,0.5369226036560266,0.8286277532933731
-4.0045,0.4195506802215176,0.9028042221295453
-4.004,0.3235191065024612,0.9134008605346742
-4.0035,0.4195506802215176,0.8710143069140429
-4.003,0.5262524287983441,0.775644561267536
-4.0025,0.4729015545099794,0.7544512844572204
-4.002,0.3768699807907871,0.7438546460520338
-4.0015,0.291508581929326,0.7226613692416989
-4.001,0.1741366584949237,0.6378882620004365
-4.0005,-0.252670335812809,0.1610395337671021
-4,-0.6047861061160158,-0.6337083466197325
-3.9995,-0.8288597781273515,-1.354279758171118
-3.999,-0.9248913518464952,-1.693372187136476
-3.9985,-0.6794773301197943,-1.248313374119443
-3.998,-0.3380317346739499,-0.6443049850249
-3.9975,-0.06060718837420119,-0.1886495336027004
-3.997,0.1101156093487211,0.07626642652648545
-3.9965,0.1954770082101822,0.1716361721729923
-3.996,0.2168173579255475,0.1716361721729923
-3.9955,0.2168173579255475,0.1292496185523226
-3.995,0.2061471830678648,0.07626642652648545
-3.9945,0.1848068333524996,0.03387987290581572
-3.994,0.1848068333524996,0.02328323450064829
-3.9935,0.1848068333524996,0.04447651131098315
-3.993,0.1848068333524996,0.08686306493165288
-3.9925,0.2168173579255475,0.1716361721729923
-3.992,-0.2313299860971235,-0.1992461720078678
-3.9915,-0.9995825758502737,-0.8456411147230812
-3.991,-1.46907026958831,-1.364876396576285
-3.9905,-1.202315898146244,-1.269506650929778
-3.99,-0.4127229586777283,-0.6443049850249
-3.9895,0.2594980573562781,0.02328323450064829
-3.989,0.5902734779444399,0.4895353243280153
-3.9885,0.6329541773751706,0.7438546460520338
-3.988,0.5262524287983441,0.849821030103708
-3.9875,0.3982103305061524,0.8816109453192104
-3.987,0.3768699807907871,0.8392243916985406
-3.9865,0.4622313796522482,0.6908714540261965
-3.986,0.4302208550792003,0.6590815388106942
-3.9855,0.3448594562177392,0.6802748156210291
-3.985,0.2808384070716433,0.701468092431364
-3.9845,0.2061471830678648,0.6908714540261965
-3.984,-0.1886492866663929,0.627291623595192
-3.9835,-0.7861790786966207,0.2670059178194992
-3.983,-0.9355615267041777,-0.4959520473525559
-3.9825,-0.9995825758502737,-1.163540266878104
-3.982,-0.9142211769888124,-1.258910012524611
-3.9815,-0.572775581542968,-0.8350444763179138
-3.981,-0.2313299860971235,-0.3581957480853793
-3.9805,0.01408403562957729,-0.01910331912002144
-3.98,0.1527963087794516,0.1716361721729923
-3.9795,0.2061471830678648,0.2246193641988295
-3.979,0.2168173579255475,0.2140227257936621
-3.9785,0.2168173579255475,0.1822328105781598
-3.978,0.1954770082101822,0.13984625695749
-3.9775,0.1954770082101822,0.1186529801471552
-3.977,0.1848068333524996,0.1186529801471552
-3.9765,0.1954770082101822,0.1928294489833272
-3.976,0.2061471830678648,0.2670059178194992
-3.9755,-0.03926683865883591,0.1080563417419877
-3.975,-0.391382608962363,-0.5171453241628908
-3.9745,-0.6047861061160158,-1.121153713257435
-3.974,-0.3807124341046804,-1.05757388282643
-3.9735,0.0674349099179905,-0.5489352393783931
-3.973,0.4302208550792003,0.002089957690313421
-3.9725,0.5582629533713921,0.383568940276341
-3.972,0.5155822539406614,0.5955017083796896
-3.9715,0.4195506802215176,0.7226613692416989
-3.971,0.3341892813600565,0.7650479228623686
-3.9705,0.291508581929326,0.775644561267536
-3.97,0.3875401556484697,0.8286277532933731
-3.9695,0.3982103305061524,0.8392243916985406
-3.969,0.3448594562177392,0.7968378380778709
-3.9685,0.291508581929326,0.7332580076468663
-3.968,0.2381577076409128,0.6802748156210291
-3.9675,-0.02859666380115328,0.5743084315693548
-3.967,-0.754168554123573,-0.05089323433552374
-3.9665,-1.319687821580753,-0.8456411147230812
-3.966,-1.575772018165136,-1.523825972653797
-3.9655,-1.373038695869166,-1.672178910326141
-3.965,-0.8608703027003992,-1.121153713257435
-3.9645,-0.3700422592469978,-0.5065486857577234
-3.964,-0.02859666380115328,-0.05089323433552374
-3.9635,0.1527963087794516,0.2034260873884947
-3.963,0.2274875327832301,0.309392471440169
-3.9625,0.2488278824985954,0.309392471440169
-3.962,0.2274875327832301,0.2776025562246667
-3.9615,0.2061471830678648,0.2352160026039969
-3.961,0.1954770082101822,0.1928294489833272
-3.9605,0.1848068333524996,0.1716361721729923
-3.96,0.1741366584948169,0.1716361721729923
-3.9595,0.1848068333524996,0.2034260873884947
-3.959,0.02475421048725994,0.2987958330350016
-3.9585,-0.3700422592469978,-0.1356663415768632
-3.958,-0.7008176798351597,-0.8138511995075789
-3.9575,-0.7861790786966207,-1.078767159636765
-3.957,-0.3273615598162672,-0.7396747306714069
-3.9565,0.1848068333524996,-0.252229364033705
-3.956,0.4835717293676135,0.1716361721729923
-3.9555,0.5582629533713921,0.4789386859228479
-3.955,0.5049120790829789,0.6696781772158616
-3.9545,0.3982103305061524,0.7650479228623686
-3.954,0.3128489316446912,0.7862411996727035
-3.9535,0.3768699807907871,0.8604176685088755
-3.953,0.4408910299368829,0.9028042221295453
-3.9525,0.3982103305061524,0.8286277532933731
-3.952,0.3235191065023739,0.7120647308365314
-3.9515,0.2488278824985954,0.6060983467848571
-3.951,0.1634664836371343,0.457745409112513
-3.9505,-0.3380317346739499,-0.1462629799820306
-3.95,-0.9355615267041777,-0.9092209451540858
-3.9495,-1.031593100423322,-1.534422611058964
-3.949,-1.084943974711735,-1.778145294377815
-3.9485,-0.8288597781273515,-1.290699927740113
-3.948,-0.4554036581084589,-0.6337083466197325
-3.9475,-0.124628237520297,-0.1250697031716958
-3.947,0.08877525963335578,0.1928294489833272
-3.9465,0.1848068333524996,0.3305857482505039
-3.946,0.2274875327832301,0.3517790250608387
-3.9455,0.2274875327832301,0.3199891098453364
-3.945,0.2168173579255475,0.2776025562246667
-3.9445,0.1954770082101822,0.2352160026039969
-3.944,0.1954770082101822,0.2140227257936621
-3.9435,0.1848068333524996,0.2140227257936621
-3.943,0.1848068333524996,0.2352160026039969
-3.9425,0.03542438534494258,0.1928294489833272
-3.942,-0.4660738329661415,-0.2946159176543747
-3.9415,-0.7755089038389382,-0.9516074987747555
-3.941,-0.9569018764195432,-1.417859588602123
-3.9405,-0.6688071552621118,-1.195330182093607
-3.94,-0.007256314085787988,-0.6019184314042303
-3.9395,0.5049120790829789,-0.02969995752518888
-3.939,0.707645401378949,0.3411823866556712
-3.9385,0.6756348768059011,0.5637117931641874
-3.938,0.5369226036560266,0.6378882620003594
-3.9375,0.3982103305061524,0.6696781772158616
-3.937,0.3875401556484697,0.627291623595192
-3.9365,0.4835717293676135,0.627291623595192
-3.936,0.4515612047945656,0.6802748156210291
-3.9355,0.3661998059331045,0.701468092431364
-3.935,0.3021787567870086,0.701468092431364
-3.9345,0.2061471830678648,0.6378882620003594
-3.934,-0.1352984123779797,0.5637117931641874
-3.9335,-0.7328282044082075,0.1822328105781598
-3.933,-1.212986073003927,-0.6019184314042303
-3.9325,-1.415719395299897,-1.280103289334946
-3.932,-1.159635198715513,-1.34368311976595
-3.9315,-0.6794773301197943,-0.8774310299385835
-3.931,-0.2526703358124887,-0.3793890248957141
-3.9305,0.02475421048725994,-0.02969995752518888
-3.93,0.1741366584948169,0.1610395337678249
-3.9295,0.2381577076409128,0.2246193641988295
-3.929,0.2381577076409128,0.2034260873884947
-3.9285,0.2274875327832301,0.1610395337678249
-3.928,0.2061471830678648,0.1186529801471552
-3.9275,0.1954770082101822,0.09745970333682032
-3.927,0.1954770082101822,0.09745970333682032
-3.9265,0.1954770082101822,0.1504428953626575
-3.926,0.1527963087794516,0.1716361721729923
-3.9255,-0.3593720843893152,-0.3475991096802118
-3.925,-0.722158029550525,-1.01518732920576
-3.9245,-0.9569018764195432,-1.439052865412457
-3.924,-0.6688071552621118,-1.142346990067769
-3.9235,-0.124628237520297,-0.5171453241628908
-3.923,0.291508581929326,0.06566978812131802
-3.9225,0.4835717293676135,0.4683420475176805
-3.922,0.4942419042252961,0.6696781772158616
-3.9215,0.4515612047945656,0.7332580076468663
-3.921,0.3768699807907871,0.7332580076468663
-3.9205,0.3341892813600565,0.6802748156210291
-3.92,0.4622313796522482,0.4471487707073456
-3.9195,0.4835717293676135,0.4047622170866759
-3.919,0.408880505363835,0.5001319627331828
-3.9185,0.3235191065023739,0.5849050699745222
-3.918,0.2488278824985954,0.6166949851900245
-3.9175,-0.07127736323188383,0.3199891098453364
-3.917,-0.690147504977477,-0.4429688553267188
-3.9165,-0.9889124009925911,-1.184733543688439
-3.916,-1.244996597576974,-1.788741932782983
-3.9155,-1.148965023857831,-1.682775548731308
-3.915,-0.722158029550525,-1.025783967610927
-3.9145,-0.3166913849585846,-0.4323722169215513
-3.914,-0.01792648894347063,-0.04029659593035631
-3.9135,0.1527963087794516,0.1610395337678249
-3.913,0.2274875327832301,0.2140227257936621
-3.9125,0.2381577076409128,0.1928294489833272
-3.912,0.2274875327832301,0.13984625695749
-3.9115,0.2061471830678648,0.09745970333682032
-3.911,0.1954770082101822,0.06566978812131802
-3.9105,0.1848068333524996,0.05507314971615059
-3.91,0.1848068333524996,0.07626642652648545
-3.9095,0.2061471830678648,0.13984625695749
-3.909,0.09944543449103843,0.1610395337678249
-3.9085,-0.3487019095316325,-0.3581957480853793
-3.908,-0.8502001278427167,-0.9939940523954253
-3.9075,-1.234326422719292,-1.38606967338662
-3.907,-0.754168554123573,-1.089363798041932
-3.9065,-0.04993701351651855,-0.4535654937318862
-3.906,0.4515612047945656,0.13984625695749
-3.9055,0.6222840025174878,0.55311515475902
-3.905,0.5902734779444399,0.775644561267536
-3.9045,0.4729015545099309,0.8710143069140429
-3.904,0.3555296310754218,0.8710143069140429
-3.9035,0.4408910299368829,0.7968378380778709
-3.903,0.5049120790829789,0.7226613692416989
-3.9025,0.4408910299368829,0.701468092431364
-3.902,0.3448594562177392,0.6802748156210291
-3.9015,0.2701682322139607,0.6590815388106942
-3.901,0.1101156093487211,0.55311515475902
-3.9005,-0.4874141826815069,-0.05089323433552374
-3.9,-0.9995825758502737,-0.8456411147230812
-3.8995,-1.170305373573196,-1.523825972653797
-3.899,-1.1062843244271,-1.746355379162313
-3.8985,-0.7328282044082075,-1.195330182093607
-3.898,-0.3273615598162672,-0.570128516188728
-3.8975,-0.02859666380115328,-0.1038764263613609
-3.897,0.142126133921769,0.1504428953626575
-3.8965,0.2168173579255475,0.2458126410091644
-3.896,0.2381577076409128,0.2458126410091644
-3.8955,0.2274875327832301,0.2034260873884947
-3.895,0.2168173579255475,0.1504428953626575
-3.8945,0.1954770082101822,0.1080563417419877
-3.894,0.1954770082101822,0.09745970333682032
-3.8935,0.1954770082101822,0.1080563417419877
-3.893,0.1954770082101822,0.1292496185523226
-3.8925,-0.03926683865883591,0.01268659609548085
-3.892,-0.5941159312583333,-0.570128516188728
-3.8915,-0.839529952985034,-1.174136905283272
-3.891,-0.8288597781273515,-1.42845622700729
-3.8905,-0.423393133535411,-0.9410108603695881
-3.89,0.1207857842064037,-0.3158091944647096
-3.8895,0.4729015545099309,0.1716361721729923
-3.889,0.5902734779444399,0.4683420475176805
-3.8885,0.5582629533713921,0.627291623595192
-3.888,0.4515612047945656,0.7332580076468663
-3.8875,0.3448594562177392,0.775644561267536
-3.887,0.3982103305061524,0.6590815388106942
-3.8865,0.5262524287983441,0.5319218779486851
