Class_2_Relax_eyes_open/Class_2_Relax_eyes_open_UZ_1.csv

#Digilent WaveForms Oscilloscope Acquisition
#Device Name: EExplorer
#Serial Number: SN:210151A2B84A
#Date Time: 2020-11-17 10:34:01.872
#Sample rate: 2000Hz
#Samples: 16384
#Trigger: Source: Channel 1 Type: Edge Condition: Rising Level: 0 V Hyst.: Auto HoldOff: 0 s
#Channel 1: Range: 1 V/div Offset: 0 V Attenuation: 1 X
#Channel 2: Range: 1 V/div Offset: 0 V Attenuation: 1 X
#Power Supplies: ON
#Fixed Supply: ON
#Voltage: 3.3 V Readback: 3.324 V
#Positive Supply: ON
#Voltage: 3.7 V Readback: 3.714 V
#Current: 40 mA Readback: 19 mA
#Negative Supply: ON
#Voltage: -3.7 V Readback: -3.376 V
#Current: -40 mA Readback: -7 mA
#Reference 1: ON
#Voltage: 0 V
#Reference 2: ON
#Voltage: 0 V

Time (s),Channel 1 (V),Channel 2 (V)
-4.096,0.5689331282290746,-1.333086481360783
-4.0955,0.4088805053639806,-0.7608680074822622
-4.095,0.2701682322138637,-0.1568596183868126
-4.0945,0.1634664836371343,0.2670059178194992
-4.094,0.09944543449109666,0.5107286011381285
-4.0935,0.05676473506030786,0.5955017083797282
-4.093,0.05676473506030786,0.6378882620003594
-4.0925,0.0674349099179808,0.6378882620003594
-4.092,0.0460945602025961,0.6272916235951823
-4.0915,0.01408403562957729,0.6166949851900245
-4.091,0.01408403562957729,0.5955017083796896
-4.0905,0.03542438534495228,0.5849050699745125
-4.09,0.04609456020262521,0.5743084315693548
-4.0895,-0.1779791118087102,0.309392471440169
-4.089,-0.7968492535537406,-0.3899856633002456
-4.0885,-1.426389570157579,-1.163540266878104
-4.088,-1.725154466172693,-1.640388995110639
-4.0875,-1.89587726389546,-1.862918401618952
-4.087,-1.56510184330691,-1.44964950381697
-4.0865,-0.9675720512772257,-0.7290780922662394
-4.086,-0.4447334832512518,-0.1356663415774029
-4.0855,-0.09261771294708415,0.2564092794144956
-4.085,0.08877525963335578,0.4365521323021782
-4.0845,0.1527963087793934,0.4789386859228093
-4.084,0.1634664836371149,0.4683420475176323
-4.0835,0.142126133921769,0.4153588554918433
-4.083,0.1314559590640864,0.383568940276341
-4.0825,0.1207857842064231,0.3517790250608676
-4.082,0.142126133921769,0.383568940276341
-4.0815,0.2488278824985954,0.4683420475176805
-4.081,0.5689331282287835,0.09745970333715764
-4.0805,0.825017324813458,-0.5489352393783931
-4.08,0.6542945270905358,-1.195330182093607
-4.0795,0.4088805053640582,-1.248313374119395
-4.079,0.2381577076408254,-0.6972881770502072
-4.0785,0.142126133921769,-0.1144730647665284
-4.078,0.0887752596334043,0.2987958330346257
-4.0775,0.07810508477565373,0.5319218779487718
-4.077,0.05676473506030786,0.627291623595192
-4.0765,0.0674349099179808,0.6696781772158231
-4.076,0.07810508477566344,0.6590815388107039
-4.0755,0.0674349099179905,0.6696781772158616
-4.075,-0.07127736323188383,0.92399749893988
-4.0745,-0.1246282375202582,0.9345941373449222
-4.074,-0.08194753808956648,0.7968378380778709
-4.0735,-0.01792648894347063,0.627291623595192
-4.073,-0.1139580626625271,0.3093924714404581
-4.0725,-0.6794773301197943,-0.4323722169215513
-4.072,-1.095614149569417,-1.152943628472937
-4.0715,-1.170305373573128,-1.725162102351458
-4.071,-1.383708870726791,-2.18081755377387
-4.0705,-1.319687821580753,-1.84172512480882
-4.07,-0.8928808272738353,-0.9833974139910384
-4.0695,-0.4447334832504851,-0.2734226408436061
-4.069,-0.124628237520297,0.2034260873884947
-4.0685,0.05676473506030786,0.4365521323021782
-4.068,0.1314559590641058,0.5213252395435176
-4.0675,0.1527963087794516,0.5213252395435176
-4.067,0.142126133921769,0.4789386859228479
-4.0665,0.120785784206394,0.4365521323021396
-4.066,0.1101156093487211,0.3941655786815084
-4.0655,0.1207857842064037,0.383568940276341
-4.065,0.1314559590640766,0.383568940276341
-4.0645,0.4302208550792003,0.1186529801471552
-4.064,1.081101521397841,-0.5489352393783931
-4.0635,1.262494493978281,-1.248313374118807
-4.063,1.113112045970666,-1.661582271920665
-4.0625,0.8676980242441885,-1.322489842955616
-4.062,0.5689331282293464,-0.6125150698100433
-4.0615,0.3235191065022283,-0.008506680714507059
-4.061,0.1634664836371343,0.3729723018711736
-4.0605,0.07810508477567314,0.5425185163538525
-4.06,0.04609456020263492,0.6272916235952016
-4.0595,0.05676473506030786,0.6378882620003594
-4.059,0.0674349099179905,0.627291623595192
-4.0585,-0.07127736323175768,0.4153588554920361
-4.058,-0.1352984123779797,0.2776025562246667
-4.0575,-0.09261771294724913,0.2987958330350016
-4.057,-0.02859666380121151,0.3623756634659483
-4.0565,-0.04993701351651855,0.3199891098453364
-4.056,-0.4874141826815069,-0.1780528951975329
-4.0555,-1.084943974711192,-0.9198175835585787
-4.055,-1.447729919873148,-1.56621252627492
-4.0545,-1.67180359188428,-2.064254531317336
-4.054,-1.67180359188428,-1.990078062481231
-4.0535,-1.170305373572701,-1.174136905282597
-4.053,-0.6261264558313813,-0.4323722169215513
-4.0525,-0.2099896363817582,0.08686306493165288
-4.052,0.02475421048736668,0.3517790250609447
-4.0515,0.142126133921769,0.4683420475176805
-4.051,0.1634664836371343,0.4683420475176805
-4.0505,0.1527963087794613,0.4153588554918915
-4.05,0.142126133921769,0.3729723018711736
-4.0495,0.1101156093487211,0.3199891098453364
-4.049,0.1101156093487211,0.3093924714401786
-4.0485,0.1314559590641543,0.3411823866556809
-4.048,0.2061471830678648,0.3517790250608387
-4.0475,0.5475927785133988,-0.1568596183867355
-4.047,0.8783681991018616,-0.8668343915339076
-4.0465,0.8676980242441885,-1.407262950196955
-4.046,0.7716664505251322,-1.492036057438218
-4.0455,0.5902734779442652,-0.9304142219638425
-4.045,0.3982103305061524,-0.2946159176543747
-4.0445,0.2381577076409128,0.2034260873884947
-4.044,0.1314559590640475,0.4895353243281503
-4.0435,0.08877525963335578,0.6378882620003594
-4.043,0.0674349099179905,0.6802748156210291
-4.0425,0.05676473506031757,0.6590815388107135
-4.042,0.02475421048725994,0.5955017083796896
-4.0415,-0.06060718837420119,0.4683420475176805
-4.041,-0.06060718837420119,0.4153588554918915
-4.0405,-0.00725631408574917,0.415358855491853
-4.04,0.03542438534494258,0.4259554938970107
-4.0395,-0.1352984123778244,0.2140227257938548
-4.039,-0.7648387289818669,-0.4323722169222259
-4.0385,-1.437059745015262,-1.174136905283272
-4.038,-1.735824641030104,-1.608599079894741
-4.0375,-1.895877263895412,-1.75695201756724
-4.037,-1.67180359188428,-1.492036057438295
-4.0365,-1.074273799854052,-0.8032545611024114
-4.036,-0.5194247072542152,-0.1992461720075112
-4.0355,-0.1459685872356623,0.1928294489833272
-4.035,0.07810508477567314,0.4047622170866759
-4.0345,0.1634664836370567,0.4683420475176227
-4.034,0.1741366584948169,0.457745409112513
-4.0335,0.1527963087794516,0.4047622170866759
-4.033,0.1421261339217787,0.3729723018712025
-4.0325,0.1314559590640864,0.3517790250608194
-4.032,0.1314559590640864,0.3305857482505039
-4.0315,0.1634664836371052,0.3093924714401882
-4.031,0.472901554510387,-0.1250697031723126
-4.0305,0.974399772821015,-0.8032545611024114
-4.03,0.9850699476786881,-1.322489842955143
-4.0295,0.7930068002402256,-1.523825972653354
-4.029,0.5902734779444399,-1.036380606016095
-4.0285,0.3768699807907871,-0.3793890248957141
-4.028,0.2061471830677872,0.1398462569577792
-4.0275,0.1207857842064037,0.457745409112513
-4.027,0.07810508477567314,0.6166949851900245
-4.0265,0.0674349099180002,0.6696781772158135
-4.026,0.0674349099179905,0.6696781772158616
-4.0255,0.05676473506030786,0.6378882620003594
-4.025,-0.0499370135164215,0.4895353243281503
-4.0245,-0.04993701351648944,0.4471487707073456
-4.024,-0.01792648894347063,0.4471487707073456
-4.0235,0.003413860771875242,0.4471487707073456
-4.023,-0.1139580626631676,0.298795833034404
-4.0225,-0.722158029550525,-0.3581957480853793
-4.022,-1.244996597576499,-1.078767159636109
-4.0215,-1.426389570157744,-1.640388995111005
-4.021,-1.607782542738184,-2.043061254507001
-4.0205,-1.415719395299897,-1.682775548731308
-4.02,-0.9142211769883758,-0.8986243067483305
-4.0195,-0.4340633083930936,-0.252229364033705
-4.019,-0.1139580626626144,0.1504428953626575
-4.0185,0.0887752596331714,0.3729723018709712
-4.018,0.1634664836371343,0.4365521323021782
-4.0175,0.1741366584948169,0.4047622170866759
-4.017,0.152796308779471,0.3517790250608869
-4.0165,0.1421261339217496,0.3199891098453075
-4.016,0.1207857842064037,0.2881991946298341
-4.0155,0.1207857842064037,0.2776025562246763
-4.015,0.1314559590643096,0.2881991946296221
-4.0145,0.3768699807907871,0.05507314971615059
-4.014,1.017080472251163,-0.5701285161881593
-4.0135,1.155792745401406,-1.227120097309369
-4.013,0.9210488985326017,-1.51322933424863
-4.0125,0.6222840025174878,-1.036380606016095
-4.012,0.3661998059329395,-0.4005823017055864
-4.0115,0.1848068333524996,0.1080563417419877
-4.011,0.07810508477567314,0.4153588554918433
-4.0105,0.0674349099180002,0.5955017083795258
-4.01,0.0674349099179905,0.6590815388106942
-4.0095,0.07810508477567314,0.6696781772158616
-4.009,0.0674349099180002,0.6484849004055462
-4.0085,-0.01792648894350944,0.6166949851899763
-4.008,-0.06060718837420119,0.5637117931641874
-4.0075,-0.04993701351652825,0.5319218779487139
-4.007,0.003413860771923764,0.5425185163538332
-4.0065,0.03542438534494258,0.5213252395435176
-4.006,-0.2526703358124887,0.4471487707073456
-4.0055,-0.8822106524161041,0.2140227257930742
-4.005,-1.255666772434657,-0.4323722169215513
-4.0045,-1.341028171296118,-1.025783967610927
-4.004,-1.373038695868826,-1.322489842955278
-4.0035,-0.9995825758502737,-0.9516074987747555
-4.003,-0.5514352318276028,-0.4111789401112165
-4.0025,-0.1886492866667229,0.04447651131056879
-4.002,0.03542438534494258,0.3305857482505039
-4.0015,0.142126133921769,0.457745409112513
-4.001,0.1634664836371149,0.4895353243279864
-4.0005,0.1634664836371052,0.468342047517642
-4,0.1314559590640864,0.4259554938970107
-3.9995,0.1314559590640864,0.4153588554918433
-3.999,0.1314559590640864,0.4047622170866759
-3.9985,0.1207857842064037,0.3941655786815084
-3.998,0.1527963087794516,0.3199891098453364
-3.9975,0.6009436528021226,-0.1780528951975329
-3.997,1.113112045970889,-0.8986243067489184
-3.9965,1.251824319120764,-1.460246142222792
-3.996,1.15579274540162,-1.481439419033127
-3.9955,0.8463576745288233,-0.8880276683437509
-3.995,0.5155822539406614,-0.2734226408440398
-3.9945,0.2808384070716433,0.1928294489833272
-3.994,0.1314559590640864,0.4683420475176805
-3.9935,0.07810508477567314,0.6060983467848571
-3.993,0.05676473506030786,0.6484849004055269
-3.9925,0.0674349099179905,0.6378882620003594
-3.992,0.02475421048725994,0.627291623595192
-3.9915,-0.02859666380115328,0.5955017083796896
-3.991,-0.01792648894347063,0.5637117931641874
-3.9905,0.01408403562957729,0.5319218779486851
-3.99,0.04609456020262521,0.5213252395435176
-3.9895,-0.04993701351651855,0.383568940276341
-3.989,-0.6261264558313813,-0.2098428104130352
-3.9885,-1.277007122150022,-0.9410108603695881
-3.988,-1.703814116457328,-1.534422611058964
-3.9875,-1.981238662757077,-1.947691508860494
-3.987,-1.693143941599645,-1.629792356705471
-3.9865,-1.052933450138687,-0.8668343915334161
-3.986,-0.4874141826815069,-0.2204394488182027
-3.9855,-0.1139580626626144,0.1928294489833272
-3.985,0.08877525963335578,0.3941655786815084
-3.9845,0.1741366584948169,0.4683420475176805
-3.984,0.1741366584948169,0.4471487707073456
-3.9835,0.1634664836371343,0.4047622170866759
-3.983,0.1314559590640864,0.3517790250608387
-3.9825,0.1314559590640864,0.3199891098453364
-3.982,0.1207857842064037,0.309392471440169
-3.9815,0.142126133921769,0.2776025562246667
-3.981,0.4729015545099309,-0.1250697031716958
-3.9805,0.9637295979633325,-0.8244478379127463
-3.98,1.027750647109428,-1.396666311791788
-3.9795,0.8890383739595538,-1.502632695843462
-3.979,0.6542945270905358,-0.9728007755850904
-3.9785,0.4195506802215176,-0.326405832869877
-3.978,0.2488278824985954,0.1822328105781598
-3.9775,0.1314559590640864,0.4789386859228479
-3.977,0.08877525963335578,0.627291623595192
-3.9765,0.0674349099179905,0.6696781772158616
-3.976,0.0674349099179905,0.6590815388106942
-3.9755,0.05676473506030786,0.6166949851900245
-3.975,-0.06060718837420119,0.4047622170866759
-3.9745,-0.09261771294724913,0.3517790250608387
-3.974,-0.04993701351651855,0.4047622170866759
-3.9735,0.00341386077189465,0.4683420475176805
-3.973,-0.03926683865883591,0.3941655786815084
-3.9725,-0.5621054066852853,-0.1356663415768632
-3.972,-1.116954499284783,-0.8350444763179138
-3.9715,-1.298347471865388,-1.460246142222792
-3.971,-1.533091318734406,-1.958288147265661
-3.9705,-1.394379045584531,-1.682775548731308
-3.97,-0.9142211769888124,-0.9198175835592532
-3.9695,-0.4340633083930936,-0.2734226408440398
-3.969,-0.1032878878049318,0.1504428953626575
-3.9685,0.07810508477567314,0.3623756634660061
-3.968,0.1634664836371343,0.4259554938970107
-3.9675,0.1634664836371343,0.4153588554918433
-3.967,0.1527963087794516,0.3623756634660061
-3.9665,0.142126133921769,0.3199891098453364
-3.966,0.1207857842064037,0.2881991946298341
-3.9655,0.1314559590640864,0.2987958330350016
-3.965,0.142126133921769,0.3199891098453364
-3.9645,0.3555296310754218,0.1610395337678249
-3.964,0.8676980242441885,-0.4641621321370536
-3.9635,0.942389248247967,-1.121153713257435
-3.963,0.7823366253827275,-1.364876396576285
-3.9625,0.5902734779444399,-0.8350444763179138
-3.962,0.3875401556484697,-0.2204394488182027
-3.9615,0.2381577076409128,0.2352160026039969
-3.961,0.142126133921769,0.5107286011383502
-3.9605,0.08877525963335578,0.627291623595192
-3.96,0.07810508477567314,0.6802748156210291
-3.9595,0.07810508477567314,0.6908714540261965
-3.959,0.0674349099179905,0.6696781772158616
-3.9585,0.02475421048725994,0.6060983467848571
-3.958,-0.01792648894347063,0.5319218779486851
-3.9575,0.00341386077189465,0.5213252395435176
-3.957,0.01408403562957729,0.5107286011383502
-3.9565,0.04609456020262521,0.5107286011383502
-3.956,-0.2633405106701714,0.1716361721729923
-3.9555,-0.9889124009925911,-0.4853554089473885
-3.955,-1.661133417026597,-1.195330182093607
-3.9545,-2.002579012472442,-1.703968825541643
-3.954,-2.109280761049269,-1.947691508860494
-3.9535,-1.533091318734406,-1.354279758171118
-3.953,-0.8502001278427167,-0.6125150698093976
-3.9525,-0.3273615598162672,-0.04029659593035631
-3.952,-0.01792648894347063,0.2776025562246667
-3.9515,0.142126133921769,0.4365521323021782
-3.951,0.1954770082101822,0.4683420475176805
-3.9505,0.1741366584948169,0.4153588554918433
-3.95,0.1634664836371343,0.3729723018711736
-3.9495,0.142126133921769,0.3411823866556712
-3.949,0.1314559590640864,0.309392471440169
-3.9485,0.142126133921769,0.309392471440169
-3.948,0.2808384070716433,0.2564092794143318
-3.9475,0.8783681991018712,-0.2416327256285375
-3.947,1.091771696255524,-0.8668343915334161
-3.9465,0.8356874996711408,-1.311893204550448
-3.946,0.5369226036560266,-1.248313374119443
-3.9455,0.3448594562177392,-0.6654982618352349
-3.945,0.1954770082101822,-0.09327978795619347
-3.9445,0.1314559590640864,0.3199891098453364
-3.944,0.09944543449103843,0.55311515475902
-3.9435,0.08877525963335578,0.6484849004055269
-3.943,0.08877525963335578,0.6696781772158616
-3.9425,0.08877525963335578,0.6590815388106942
-3.942,0.05676473506030786,0.5637117931641874
-3.9415,-0.1139580626626144,0.2352160026039969
-3.941,-0.1459685872356623,0.13984625695749
-3.9405,-0.09261771294724913,0.1928294489833272
-3.94,-0.01792648894347063,0.2881991946298341
-3.9395,-0.1673089369510276,0.04447651131098315
-3.939,-0.6047861061160158,-0.6019184314042303
-3.9385,-1.127624674142465,-1.280103289334946
-3.938,-1.383708870726849,-1.852321763213987
-3.9375,-1.575772018165136,-2.202010830584512
-3.937,-1.351698346153801,-1.661582271920973
-3.9365,-0.8502001278427167,-0.792657922697244
-3.936,-0.391382608962363,-0.1144730647665284
-3.9355,-0.06060718837420119,0.309392471440169
-3.935,0.09944543449103843,0.5213252395435176
-3.9345,0.1634664836371343,0.5637117931641874
-3.934,0.1741366584948169,0.55311515475902
-3.9335,0.1634664836371343,0.5001319627331828
-3.933,0.142126133921769,0.4365521323021782
-3.9325,0.1314559590640864,0.3941655786815084
-3.932,0.1314559590640864,0.3729723018711736
-3.9315,0.1741366584948169,0.3729723018711736
-3.931,0.5689331282290746,0.13984625695749
-3.9305,0.9850699476786977,-0.5277419625680583
-3.93,0.9850699476786977,-1.227120097309109
-3.9295,0.7609962756673623,-1.661582271920973
-3.929,0.5475927785137094,-1.258910012524611
-3.9285,0.3555296310754218,-0.5595318777835605
-3.928,0.2168173579255475,0.03387987290581572
-3.9275,0.142126133921769,0.4259554938970107
-3.927,0.07810508477567314,0.5955017083796896
-3.9265,0.07810508477567314,0.6802748156210291
-3.926,0.08877525963335578,0.6802748156210291
-3.9255,0.07810508477567314,0.6590815388106942
-3.925,-0.03926683865883591,0.5637117931641874
-3.9245,-0.07127736323188383,0.5107286011383502
-3.924,-0.03926683865883591,0.4683420475176805
-3.9235,0.02475421048725994,0.4683420475176805
-3.923,0.02475421048725994,0.4259554938970107
-3.9225,-0.4020527838200457,-0.06148987274069118
-3.922,-1.148965023857831,-0.8138511995075789
-3.9215,-1.682473766741963,-1.449649503817625
-3.921,-2.098610586191586,-2.000674700886331
-3.9205,-1.938557963326346,-1.88411167842949
-3.92,-1.244996597576974,-1.05757388282643
-3.9195,-0.6261264558313813,-0.3581957480853793
-3.919,-0.1673089369510276,0.13984625695749
-3.9185,0.07810508477567314,0.4047622170866759
-3.918,0.1848068333524996,0.5001319627331828
-3.9175,0.1954770082101822,0.4895353243280153
-3.917,0.1848068333524996,0.4471487707073456
-3.9165,0.1634664836371343,0.3941655786815084
-3.916,0.1314559590640864,0.3517790250608387
-3.9155,0.142126133921769,0.3411823866556712
-3.915,0.1741366584948169,0.3941655786815084
-3.9145,0.2594980573562781,0.1716361721729923
-3.914,0.4622313796522482,-0.4323722169215513
-3.9135,0.5155822539406614,-1.025783967610927
-3.913,0.4729015545099309,-1.502632695843462
-3.9125,0.4622313796522482,-1.407262950196955
-3.912,0.3768699807907871,-0.7820612842920766
-3.9115,0.2701682322139607,-0.1462629799820306
-3.911,0.1848068333524996,0.309392471440169
-3.9105,0.1314559590640864,0.5743084315693548
-3.91,0.1101156093487211,0.6908714540261965
-3.9095,0.1101156093487211,0.7120647308365314
-3.909,0.08877525963335578,0.6908714540261965
-3.9085,-0.02859666380115328,0.5107286011383502
-3.908,-0.124628237520297,0.3729723018711736
-3.9075,-0.08194753808956648,0.4047622170866759
-3.907,-0.02859666380115328,0.457745409112513
-3.9065,0.01408403562957729,0.4789386859228479
-3.906,-0.2633405106701714,0.08686306493165288
-3.9055,-0.839529952985034,-0.6443049850249
-3.905,-1.191645723288561,-1.333086481360783
-3.9045,-1.341028171296118,-1.788741932782983
-3.904,-1.458400094730627,-1.905304955239825
-3.9035,-1.095614149569417,-1.248313374119443
-3.903,-0.6047861061160158,-0.5277419625680583
-3.9025,-0.2099896363817582,0.002089957690313421
-3.902,0.02475421048725994,0.2881991946298341
-3.9015,0.142126133921769,0.4153588554918433
-3.901,0.1848068333524996,0.4365521323021782
-3.9005,0.1741366584948169,0.383568940276341
-3.9,0.1634664836371343,0.3411823866556712
-3.8995,0.1527963087794516,0.2987958330350016
-3.899,0.1314559590640864,0.2670059178194992
-3.8985,0.142126133921769,0.2881991946298341
-3.898,0.2168173579255475,0.2246193641988295
-3.8975,0.5155822539406614,-0.3052125560595421
-3.897,0.707645401378949,-0.9410108603695881
-3.8965,0.5902734779444399,-1.481439419033127
-3.896,0.4622313796522482,-1.523825972653797
-3.8955,0.3235191065023739,-0.9092209451540858
-3.895,0.2061471830678648,-0.2416327256285375
-3.8945,0.142126133921769,0.2670059178194992
-3.894,0.09944543449103843,0.55311515475902
-3.8935,0.09944543449103843,0.6908714540261965
-3.893,0.1101156093487211,0.7332580076468663
-3.8925,0.1101156093487211,0.7226613692416989
-3.892,0.0674349099179905,0.6484849004055269
-3.8915,-0.007256314085787988,0.5107286011383502
-3.891,0.00341386077189465,0.4789386859228479
-3.8905,0.03542438534494258,0.4789386859228479
-3.89,0.0674349099179905,0.4895353243280153
-3.8895,-0.1673089369510276,0.2140227257936621
-3.889,-0.8608703027003992,-0.5171453241628908
-3.8885,-1.330357996438436,-1.184733543688439
-3.888,-1.639793067311232,-1.746355379162313
-3.8875,-1.906547438753298,-2.127834361748341
-3.887,-1.597112367880501,-1.629792356705471
