Class_2_Relax_eyes_open/Class_2_Relax_eyes_open_AM_9.csv

#Digilent WaveForms Oscilloscope Acquisition
#Device Name: EExplorer
#Serial Number: SN:210151A2B84A
#Date Time: 2020-12-14 14:09:36.155
#Sample rate: 2000Hz
#Samples: 16384
#Trigger: Source: Channel 1 Type: Edge Condition: Rising Level: 0 V Hyst.: Auto HoldOff: 0 s
#Channel 1: Range: 1 V/div Offset: 0 V Attenuation: 1 X
#Channel 2: Range: 1 V/div Offset: 0 V Attenuation: 1 X
#Power Supplies: ON
#Fixed Supply: ON
#Voltage: 3.3 V Readback: 3.326 V
#Positive Supply: ON
#Voltage: 3.7 V Readback: 3.718 V
#Current: 40 mA Readback: 22 mA
#Negative Supply: ON
#Voltage: -3.7 V Readback: -3.347 V
#Current: -40 mA Readback: -9 mA
#Reference 1: ON
#Voltage: 0 V
#Reference 2: ON
#Voltage: 0 V

Time (s),Channel 1 (V),Channel 2 (V)
-4.096,-0.4447334832507763,0.3729723018711736
-4.0955,-0.9675720512767501,0.9557874141548524
-4.095,-1.191645723288377,1.422039503982586
-4.0945,-0.9889124009925911,1.241896651094903
-4.094,-0.1352984123787561,0.1186529801481768
-4.0935,0.6969752265217322,-1.078767159637545
-4.093,1.209143619690033,-1.937094870455327
-4.0925,1.358526067697454,-2.127834361748167
-4.092,1.177133095116675,-1.545019249463486
-4.0915,0.8356874996711408,-0.8350444763179138
-4.091,0.5689331282290746,-0.1780528951975329
-4.0905,0.4729015545098338,0.3623756634661507
-4.09,0.3661998059331045,0.5213252395435176
-4.0895,0.2594980573562781,0.4471487707073456
-4.089,0.1634664836372216,0.319989109845452
-4.0885,0.1101156093487211,0.2352160026039969
-4.088,-0.1886492866663929,0.3941655786815084
-4.0875,-0.8075194284114231,0.8392243916981358
-4.087,-1.202315898146428,1.263089927905431
-4.0865,-1.405049220442214,1.475022696008586
-4.086,-1.757164990745421,1.570392441655007
-4.0855,-1.959898313041265,1.496215972818372
-4.085,-1.46907026958831,0.8922075837243778
-4.0845,-0.8608703027009523,0.1398462569581742
-4.084,-0.3593720843890434,-0.4111789401114671
-4.0835,-0.06060718837420119,-0.6866915386455698
-4.083,0.08877525963335578,-0.7396747306714069
-4.0825,0.142126133921769,-0.6443049850247554
-4.082,0.142126133921769,-0.4853554089473885
-4.0815,0.1207857842064037,-0.3052125560595421
-4.081,0.1101156093487308,-0.156859618387333
-4.0805,0.09944543449103843,-0.05089323433552374
-4.08,0.09944543449103843,0.02328323450064829
-4.0795,-0.1032878878047474,0.2776025562244354
-4.079,-0.5300948821125284,0.5425185163542573
-4.0785,-0.8502001278427167,0.9875773293708847
-4.078,-0.7648387289813331,1.051157159801832
-4.0775,-0.1246282375196371,0.118652980146124
-4.077,0.6009436528021226,-1.01518732920576
-4.0765,1.113112045970423,-1.905304955239015
-4.076,1.315845368266753,-2.244397384204739
-4.0755,1.19847344483235,-1.75695201756748
-4.075,0.8997085488172365,-1.078767159636765
-4.0745,0.5902734779442943,-0.432372216921214
-4.074,0.4302208550792003,-0.06148987274069118
-4.0735,0.3128489316446912,0.13984625695749
-4.073,0.2061471830679619,0.2670059178193835
-4.0725,0.1314559590640864,0.3411823866556712
-4.072,0.08877525963335578,0.3623756634660061
-4.0715,-0.02859666380104653,0.4471487707072685
-4.071,-0.615456280974242,0.8074344764834046
-4.0705,-1.212986073003927,1.210106735879401
-4.07,-1.618452717595498,1.485619334413503
-4.0695,-2.109280761049346,1.623375633680892
-4.069,-2.19464215991073,1.580989080060261
-4.0685,-1.533091318734406,0.9981739677760521
-4.068,-0.8502001278422509,0.203426087387926
-4.0675,-0.3380317346739499,-0.4217755785163839
-4.067,-0.02859666380115328,-0.7714646458869092
-4.0665,0.1101156093487599,-0.8774310299385353
-4.066,0.1527963087794516,-0.8244478379127463
-4.0655,0.142126133921769,-0.6972881770507372
-4.065,0.1207857842064231,-0.5171453241630547
-4.0645,0.1101156093487211,-0.3687923864905467
-4.064,0.1101156093487211,-0.2416327256285375
-4.0635,0.1101156093487211,-0.1568596183872752
-4.063,0.1207857842064813,0.02328323450112053
-4.0625,0.2061471830678648,0.5425185163538525
-4.062,0.1314559590641543,1.0829470750169
-4.0615,-0.2420001609547091,1.411442865577033
-4.061,-0.1352984123779797,0.8074344764830383
-4.0605,0.5262524287983441,-0.400582301706049
-4.06,1.081101521398113,-1.46024614222339
-4.0595,1.379866417412955,-2.117237723343173
-4.059,1.35852606769759,-2.000674700886331
-4.0585,1.070431346540421,-1.33308648136139
-4.058,0.7289857510943143,-0.6337083466197325
-4.0575,0.4942419042252961,-0.08268314955102604
-4.057,0.3555296310755479,0.3093924714398123
-4.0565,0.2274875327832301,0.3941655786815084
-4.056,0.142126133921769,0.3517790250608387
-4.0555,0.0887752596334043,0.2564092794144185
-4.055,0.03542438534458351,0.2140227257939319
-4.0545,-0.3593720843893152,0.5107286011383502
-4.054,-0.7861790786962326,0.9769806909652932
-4.0535,-1.1703053735734,1.337266396741555
-4.053,-1.394379045584531,1.496215972818921
-4.0525,-1.693143941599645,1.549199164844759
-4.052,-1.469070269587825,1.167720182258027
-4.0515,-0.9355615267041777,0.3941655786815084
-4.051,-0.4554036581084589,-0.2734226408440398
-4.0505,-0.1246282375205978,-0.6866915386451939
-4.05,0.05676473506030786,-0.8350444763179138
-4.0495,0.1314559590640864,-0.8138511995075789
-4.049,0.1421261339217593,-0.6972881770508432
-4.0485,0.120785784206394,-0.5171453241627463
-4.048,0.1101156093487211,-0.3581957480853793
-4.0475,0.1101156093487211,-0.2310360872234858
-4.047,0.110115609348692,-0.1462629799819439
-4.0465,0.07810508477567314,-0.05089323433552374
-4.046,-0.3487019095312443,0.4153588554914193
-4.0455,-0.9142211769889871,0.9875773293712605
-4.045,-1.1062843244271,1.400846227172415
-4.0445,-0.7968492535543035,1.135930267043229
-4.044,0.035424385345651,0.002089957689253286
-4.0435,0.8143471499557753,-1.163540266878104
-4.043,1.283834843693812,-1.979481424075996
-4.0425,1.401206767128214,-2.159624276963679
-4.042,1.209143619690033,-1.587405803084801
-4.0415,0.857027849386506,-0.8986243067489184
-4.041,0.5689331282293366,-0.2310360872239773
-4.0405,0.355529631075286,0.2987958330351558
-4.04,0.2061471830678648,0.4683420475176805
-4.0395,0.1207857842064813,0.4365521323022071
-4.039,0.08877525963334608,0.3411823866555941
-4.0385,0.07810508477567314,0.2564092794143318
-4.038,-0.06060718837407504,0.3941655786813831
-4.0375,0.2915085819295395,0.8286277532937489
-4.037,0.5262524287983441,1.241896651094903
-4.0365,0.2061471830678648,1.443232780793084
-4.036,-0.5727755815436182,1.528005888034385
-4.0355,-1.287677297007705,1.485619334413754
-4.035,-1.255666772434657,0.9028042221295453
-4.0345,-0.8608703027007583,0.1398462569581839
-4.034,-0.4447334832507763,-0.4429688553267188
-4.0335,-0.1459685872356623,-0.7502713690765743
-4.033,0.0354243853447776,-0.8244478379126788
-4.0325,0.1101156093487308,-0.7608680074816069
-4.032,0.1207857842064037,-0.6125150698093976
-4.0315,0.1207857842064037,-0.442968855326873
-4.031,0.1101156093487211,-0.3052125560594554
-4.0305,0.1101156093487211,-0.2098428104130352
-4.03,0.120785784206394,-0.1462629799820885
-4.0295,-0.124628237520724,0.1822328105786802
-4.029,-0.5941159312583333,0.7544512844572011
-4.0285,-0.9355615267041777,1.263089927905238
-4.028,-1.138294848999585,1.379652950361232
-4.0275,-0.5194247072545548,0.4471487707073456
-4.027,0.3661998059331045,-0.7714646458869092
-4.0265,1.006410297393481,-1.650985633515006
-4.026,1.294505018551494,-1.88411167842949
-4.0255,1.241154144263081,-1.460246142222792
-4.025,0.9530594231059117,-0.856237753128798
-4.0245,0.6436243522326687,-0.2840192792487254
-4.024,0.4408910299368829,0.2458126410091644
-4.0235,0.259498057356443,0.4789386859226359
-4.023,0.1527963087793934,0.4577454091124263
-4.0225,0.08877525963335578,0.3623756634660061
-4.022,0.06743490991800991,0.2670059178195859
-4.0215,-0.1032878878053005,0.3517790250612049
-4.021,-0.5087545323968721,0.7544512844572011
-4.0205,-0.9569018764195432,1.199510097474233
-4.02,-1.298347471865727,1.496215972819056
-4.0195,-1.67180359188428,1.644568910491266
-4.019,-1.917217613610981,1.633972272086098
-4.0185,-1.501080794161736,1.114736990233366
-4.018,-0.8928808272734472,0.3305857482505039
-4.0175,-0.391382608962363,-0.2840192792492073
-4.017,-0.07127736323217498,-0.6337083466194144
-4.0165,0.0887752596334043,-0.739674730671349
-4.016,0.142126133921769,-0.6760949002404023
-4.0155,0.1527963087794419,-0.5383386009733508
-4.015,0.1314559590640766,-0.3687923864904215
-4.0145,0.1207857842064037,-0.2310360872233701
-4.014,0.1207857842064037,-0.1356663415769499
-4.0135,0.1314559590640766,-0.1038764263612742
-4.013,0.1207857842064037,-0.008506680714854012
-4.0125,0.0674349099179905,0.3941655786815084
-4.012,-0.1886492866667228,0.9345941373453848
-4.0115,-0.5514352318276028,1.305476481525908
-4.011,-0.3380317346739499,0.7226613692416989
-4.0105,0.3661998059324639,-0.4747587705411319
-4.01,0.9850699476786977,-1.534422611058964
-4.0095,1.337185717982225,-2.276187299420684
-4.009,1.369196242555244,-2.244397384205211
-4.0085,1.113112045970579,-1.566212526273792
-4.008,0.7716664505250448,-0.8244478379127463
-4.0075,0.408880505364165,-0.3370024712754878
-4.007,0.1848068333524025,-0.0508932343353599
-4.0065,0.07810508477567314,0.1292496185523226
-4.006,0.04609456020262521,0.2246193641988295
-4.0055,0.04609456020261551,0.2564092794143703
-4.005,0.03542438534494258,0.2987958330350016
-4.0045,-0.4020527838200457,0.6166949851900245
-4.004,-1.084943974712075,1.072350436612533
-4.0035,-1.458400094730627,1.411442865577582
-4.003,-1.810515865034154,1.602182356870596
-4.0025,-1.746494815888117,1.538602526439649
-4.002,-1.202315898146244,0.9345941373450475
-4.0015,-0.6367966306890638,0.13984625695749
-4.001,-0.2206598112398193,-0.474758770541662
-4.0005,0.02475421048734728,-0.8244478379128524
-4,0.1207857842064037,-0.9410108603695881
-3.9995,0.1527963087794516,-0.9092209451540858
-3.999,0.142126133921769,-0.7714646458869092
-3.9985,0.1207857842064037,-0.6125150698093976
-3.998,0.1101156093487211,-0.4535654937318862
-3.9975,0.09944543449103843,-0.3158091944647096
-3.997,0.09944543449103843,-0.2204394488182027
-3.9965,0.05676473506030786,-0.1250697031716958
-3.996,-0.4554036581084589,0.3199891098453364
-3.9955,-0.8822106524157645,0.9134008605347127
-3.995,-1.010252750707956,1.284283204715573
-3.9945,-0.6794773301197943,0.7968378380778709
-3.994,0.1101156093487211,-0.3475991096802118
-3.9935,0.8356874996711408,-1.42845622700729
-3.993,1.262494493978446,-2.159624276963843
-3.9925,1.35852606769759,-2.17022091536901
-3.992,1.145122570543937,-1.502632695843462
-3.9915,0.825017324813458,-0.7502713690765743
-3.991,0.5689331282290746,-0.1144730647665284
-3.9905,0.3341892813600565,0.4259554938970107
-3.99,0.1634664836371343,0.5425185163538525
-3.9895,0.08877525963335578,0.4471487707073456
-3.989,0.05676473506030786,0.2987958330350016
-3.9885,0.04609456020262521,0.1928294489833272
-3.988,-0.274010685527854,0.383568940276341
-3.9875,-0.9035510021311299,0.8392243916985406
-3.987,-1.298347471865388,1.263089927905238
-3.9865,-1.51175096901904,1.538602526439591
-3.986,-1.853196564464885,1.6657621873016
-3.9855,-1.799845690176472,1.506812611224089
-3.985,-1.223656247861609,0.8180311148882058
-3.9845,-0.6474668055467465,0.06566978812131802
-3.984,-0.2206598112394408,-0.4429688553267188
-3.9835,0.02475421048725994,-0.6760949002404023
-3.983,0.1314559590640864,-0.7078848154559045
-3.9825,0.1634664836371343,-0.6019184314042303
-3.982,0.1527963087794516,-0.4429688553267188
-3.9815,0.1314559590640864,-0.2734226408440398
-3.981,0.1207857842064037,-0.1356663415768632
-3.9805,0.1101156093487211,-0.05089323433552374
-3.98,0.1101156093487211,0.03387987290581572
-3.9795,0.2061471830678648,0.1716361721729923
-3.979,0.3128489316446912,0.3941655786815084
-3.9785,0.04609456020262521,0.8604176685088755
-3.978,-0.2846808603855366,1.104140351827727
-3.9775,0.04609456020262521,0.309392471440169
-3.977,0.6756348768059011,-0.8350444763179138
-3.9765,1.15579274540162,-1.778145294377815
-3.976,1.369196242555273,-2.286783937825852
-3.9755,1.283834843693812,-1.979481424075996
-3.975,0.9957401225363802,-1.301296566145281
-3.9745,0.6863050516635838,-0.6549016234300674
-3.974,0.5475927785137094,-0.06148987274069118
-3.9735,0.408880505363835,0.2352160026039969
-3.973,0.2701682322139607,0.2670059178194992
-3.9725,0.1741366584948169,0.2034260873884947
-3.972,0.1101156093487211,0.1186529801471552
-3.9715,-0.04993701351651855,0.1610395337678249
-3.971,-0.5834457564006506,0.55311515475902
-3.9705,-1.042263275281004,1.029963882991555
-3.97,-1.362368521011484,1.37965295036208
-3.9695,-1.799845690176472,1.559795803249926
-3.969,-2.03458953704549,1.570392441655093
-3.9685,-1.543761493592088,1.040560521396722
-3.968,-0.9035510021311299,0.2564092794143318
-3.9675,-0.3807124341046804,-0.3581957480853793
-3.967,-0.04993701351651855,-0.6972881770507372
-3.9665,0.1101156093487211,-0.8032545611024114
-3.966,0.1634664836371343,-0.7396747306714069
-3.9655,0.1527963087794516,-0.5913217929990628
-3.965,0.142126133921769,-0.4111789401112165
-3.9645,0.1207857842064037,-0.2628260024388724
-3.964,0.1101156093487211,-0.1462629799820306
-3.9635,0.1207857842064037,-0.07208651114585861
-3.963,-0.06060718837420119,0.1504428953626575
-3.9625,-0.6367966306890638,0.6802748156210291
-3.962,-0.9889124009925911,1.188913459069066
-3.9615,-1.138294849000148,1.37965295036208
-3.961,-0.6474668055467465,0.6590815388106942
-3.9605,0.2701682322139607,-0.5489352393783931
-3.96,0.9957401225363802,-1.555615887869299
-3.9595,1.379866417412955,-2.053657892912168
-3.959,1.390536592270638,-1.703968825541643
-3.9585,1.123782220828572,-1.089363798041932
-3.958,0.7503261008096795,-0.4959520473525559
-3.9575,0.5049120790829789,-0.01910331912002144
-3.957,0.3555296310754218,0.2670059178194992
-3.9565,0.2381577076409128,0.3517790250608387
-3.956,0.1527963087794516,0.3411823866556712
-3.9555,0.1101156093487211,0.309392471440169
-3.955,0.04609456020262521,0.3305857482505039
-3.9545,-0.4554036581084589,0.6378882620003594
-3.954,-1.074273799854052,1.072350436612224
-3.9535,-1.490410619303675,1.42203950398275
-3.953,-1.949228138184029,1.612778995275763
-3.9525,-1.981238662757077,1.559795803249926
-3.952,-1.362368521011484,0.9345941373450475
-3.9515,-0.7328282044082075,0.1504428953626575
-3.951,-0.2633405106701714,-0.4535654937318862
-3.9505,0.01408403562957729,-0.7820612842920766
-3.95,0.142126133921769,-0.8880276683437509
-3.9495,0.1741366584948169,-0.8350444763179138
-3.949,0.1634664836371343,-0.6972881770507372
-3.9485,0.142126133921769,-0.5383386009732256
-3.948,0.1207857842064037,-0.3899856633008816
-3.9475,0.1207857842064037,-0.2734226408440398
-3.947,0.1207857842064037,-0.1992461720078678
-3.9465,0.1207857842064037,-0.1144730647665284
-3.946,-0.2313299860971235,0.309392471440169
-3.9455,-0.722158029550525,0.8922075837243778
-3.945,-0.8715404775580819,1.29487984312074
-3.9445,-0.4767440078238243,0.8286277532933731
-3.944,0.2701682322139607,-0.3370024712750445
-3.9435,0.9210488985326017,-1.417859588602123
-3.943,1.305175193409177,-2.149027638558676
-3.9425,1.379866417412955,-2.180817553774178
-3.942,1.166462920259302,-1.555615887869299
-3.9415,0.8356874996711408,-0.8774310299385835
-3.941,0.5689331282290746,-0.3475991096802118
-3.9405,0.3875401556484697,0.02328323450064829
-3.94,0.2594980573562781,0.2564092794143318
-3.9395,0.1741366584948169,0.3517790250608387
-3.939,0.1207857842064037,0.383568940276341
-3.9385,0.08877525963335578,0.3729723018711736
-3.938,-0.1673089369510276,0.55311515475902
-3.9375,-0.4980843575391895,0.9345941373450475
-3.937,-0.7968492535543035,1.29487984312074
-3.9365,-0.9782422261349084,1.506812611224089
-3.936,-1.437059745015262,1.591585718465428
-3.9355,-1.67180359188428,1.475022696008586
-3.935,-1.287677297007705,0.7968378380778709
-3.9345,-0.7434983792658902,0.02328323450064829
-3.934,-0.3060212101009019,-0.5383386009732256
-3.9335,-0.01792648894347063,-0.8244478379127463
-3.933,0.1101156093487211,-0.8986243067489184
-3.9325,0.1527963087794516,-0.8244478379127463
-3.932,0.1527963087794516,-0.6760949002404023
-3.9315,0.142126133921769,-0.5171453241628908
-3.931,0.1314559590640864,-0.3687923864905467
-3.9305,0.1207857842064037,-0.2416327256285375
-3.93,0.1527963087794516,-0.1780528951975329
-3.9295,0.1634664836371343,-0.1250697031716958
-3.929,-0.1993194615240755,0.383568940276341
-3.9285,-0.5194247072545548,0.9663840525605498
-3.928,-0.4554036581084589,1.040560521396722
-3.9275,0.1314559590640864,0.1186529801471552
-3.927,0.8036769750980928,-1.025783967610927
-3.9265,1.262494493978446,-1.905304955239825
-3.926,1.443887466559051,-2.360960406662024
-3.9255,1.305175193409177,-1.894708316834657
-3.925,0.974399772821015,-1.131750351662602
-3.9245,0.6542945270905358,-0.4111789401112165
-3.924,0.3768699807907871,0.1186529801471552
-3.9235,0.1954770082101822,0.3517790250608387
-3.923,0.09944543449103843,0.383568940276341
-3.9225,0.07810508477567314,0.3517790250608387
-3.922,0.0674349099179905,0.2987958330350016
-3.9215,0.01408403562957729,0.3517790250608387
-3.921,-0.06060718837420119,0.7226613692416989
-3.9205,-0.3593720843893152,1.146526905448396
-3.92,-0.722158029550525,1.453829419198252
-3.9195,-1.255666772434657,1.580989080060261
-3.919,-1.554431668449771,1.528005888034424
-3.9185,-1.244996597576974,0.9134008605347127
-3.918,-0.7434983792658902,0.1292496185523226
-3.9175,-0.3166913849585846,-0.4535654937318862
-3.917,-0.03926683865883591,-0.7714646458869092
-3.9165,0.09944543449103843,-0.8668343915334161
-3.916,0.1527963087794516,-0.8032545611024114
-3.9155,0.1527963087794516,-0.6654982618352349
-3.915,0.142126133921769,-0.4959520473525559
-3.9145,0.1314559590640864,-0.3581957480853793
-3.914,0.1314559590640864,-0.252229364033705
-3.9135,0.142126133921769,-0.2098428104130352
-3.913,0.1101156093487211,-0.05089323433552374
-3.9125,-0.09261771294724913,0.3623756634660061
-3.912,-0.3487019095316325,0.9134008605347127
-3.9115,-0.3593720843893152,1.125333628638062
-3.911,0.03542438534494258,0.3729723018711736
-3.9105,0.6436243522328531,-0.792657922697244
-3.91,1.113112045970889,-1.75695201756748
-3.9095,1.347855892839907,-2.307977214636187
-3.909,1.283834843693812,-1.990078062481164
-3.9085,1.006410297394063,-1.311893204550448
-3.908,0.6863050516635838,-0.6866915386455698
-3.9075,0.5155822539406614,-0.1144730647665284
-3.907,0.4195506802215176,0.2776025562246667
-3.9065,0.291508581929326,0.3623756634660061
-3.906,0.1848068333524996,0.3305857482505039
-3.9055,0.1314559590640864,0.2670059178194992
-3.905,0.1101156093487211,0.2458126410091644
-3.9045,0.408880505363835,0.5319218779486851
-3.904,0.6969752265212663,0.9875773293708847
-3.9035,0.2808384070716433,1.369056311956912
-3.903,-0.5087545323968721,1.591585718465428
-3.9025,-1.223656247861609,1.655165548896433
-3.902,-1.255666772434657,1.231300012689736
-3.9015,-0.8822106524157645,0.4471487707073456
-3.901,-0.4660738329661415,-0.2204394488182027
-3.9005,-0.1459685872356623,-0.6337083466197325
-3.9,0.03542438534494258,-0.792657922697244
-3.8995,0.1207857842064037,-0.7714646458869092
-3.899,0.142126133921769,-0.6549016234300674
-3.8985,0.1314559590640864,-0.4959520473525559
-3.898,0.1207857842064037,-0.3581957480853793
-3.8975,0.1207857842064037,-0.2416327256285375
-3.897,0.1207857842064037,-0.1674562567923655
-3.8965,0.08877525963335578,-0.1038764263613609
-3.896,-0.391382608962363,0.2987958330350016
-3.8955,-0.8608703027003992,0.8604176685088755
-3.895,-1.298347471865388,1.326669758336243
-3.8945,-1.138294849000148,1.082947075017392
-3.894,-0.2206598112394408,-0.04029659593035631
-3.8935,0.6649647019482183,-1.205926820498774
-3.893,1.209143619690033,-1.968884785670829
-3.8925,1.379866417412955,-1.926498232050159
-3.892,1.19847344483235,-1.34368311976595
-3.8915,0.8676980242441885,-0.7078848154559045
-3.891,0.6116138276598051,-0.1038764263613609
-3.8905,0.4835717293676135,0.3941655786815084
-3.89,0.3448594562177392,0.5001319627331828
-3.8895,0.2274875327832301,0.4365521323021782
-3.889,0.1527963087794516,0.3199891098453364
-3.8885,0.1101156093487211,0.2352160026039969
-3.888,0.142126133921769,0.3729723018711736
-3.8875,0.3661998059331045,0.8074344764830383
-3.887,0.04609456020262521,1.231300012689736
-3.8865,-0.6367966306890638,1.517409249629256
-3.886,-1.287677297007705,1.644568910491266
