Class_2_Relax_eyes_open/Class_2_Relax_Eyes_open_Turki_15.csv

#Digilent WaveForms Oscilloscope Acquisition
#Device Name: EExplorer
#Serial Number: SN:210151A2B84A
#Date Time: 2021-02-04 11:22:32.070
#Sample rate: 2000Hz
#Samples: 16384
#Trigger: Source: Channel 1 Type: Edge Condition: Rising Level: 0 V Hyst.: Auto HoldOff: 0 s
#Channel 1: Range: 1 V/div Offset: 0 V Attenuation: 1 X
#Channel 2: Range: 1 V/div Offset: 0 V Attenuation: 1 X
#Power Supplies: ON
#Fixed Supply: ON
#Voltage: 3.3 V Readback: 3.327 V
#Positive Supply: ON
#Voltage: 3.7 V Readback: 3.715 V
#Current: 40 mA Readback: 14 mA
#Negative Supply: ON
#Voltage: -3.7 V Readback: -3.354 V
#Current: -40 mA Readback: -9 mA
#Reference 1: ON
#Voltage: 0 V
#Reference 2: ON
#Voltage: 0 V

Time (s),Channel 1 (V),Channel 2 (V)
-4.096,-0.8715404775580819,-0.4429688553267188
-4.0955,-0.4447334832511645,0.4153588554910627
-4.095,-0.1139580626624203,1.061753798207423
-4.0945,0.09944543449103843,1.464426057603419
-4.094,0.1954770082100948,1.665762187301417
-4.0935,0.2274875327832204,1.718745379327409
-4.093,0.2168173579255475,1.686955464111935
-4.0925,0.1954770082102016,1.623375633680988
-4.092,0.1741366584947975,1.528005888034298
-4.0915,0.1527963087794516,1.390249588767247
-4.091,0.142126133921769,1.199510097474233
-4.0905,-0.03926683865929202,0.743854646051205
-4.09,-0.5407650569699201,-0.1674562567923655
-4.0895,-1.084943974711735,-1.046977244421262
-4.089,-1.255666772434502,-1.619195718299783
-4.0885,-0.8928808272734472,-1.481439419033127
-4.088,-0.391382608962363,-1.068170521231597
-4.0875,0.01408403562920851,-0.7608680074820213
-4.087,0.2594980573563654,-0.7714646458869767
-4.0865,0.3555296310754218,-0.8456411147230812
-4.086,0.3555296310754218,-0.9198175835591857
-4.0855,0.3448594562178944,-1.004590690800612
-4.085,0.5155822539406614,-1.025783967610927
-4.0845,0.5796033030866992,-0.9198175835593496
-4.084,0.4942419042252476,-0.729078092266037
-4.0835,0.4408910299368829,-0.5065486857577234
-4.083,0.408880505363835,-0.2946159176543747
-4.0825,0.3128489316443613,-0.1780528951978221
-4.082,-0.04993701351651855,-0.4959520473525559
-4.0815,-0.5834457564006506,-1.036380606016095
-4.081,-1.170305373572662,-1.470842780627565
-4.0805,-1.799845690176472,-1.661582271920973
-4.08,-1.981238662757077,-1.449649503817625
-4.0795,-1.362368521012046,-0.6443049850256324
-4.079,-0.7114878546923958,0.2458126410098005
-4.0785,-0.2206598112394408,0.9451907757502149
-4.078,0.0781050847754014,1.379652950361685
-4.0775,0.2168173579255863,1.591585718465476
-4.077,0.2594980573562781,1.644568910491266
-4.0765,0.2488278824986051,1.602182356870634
-4.076,0.2168173579255184,1.51740924962915
-4.0755,0.1848068333524996,1.400846227172415
-4.075,0.1634664836371343,1.263089927905238
-4.0745,0.1527963087793449,1.093543713422289
-4.074,0.03542438534494258,0.7968378380778709
-4.0735,-0.4980843575391895,0.06566978812131802
-4.073,-0.924891351846107,-0.813851199506779
-4.0725,-1.138294849000148,-1.534422611058964
-4.072,-1.06360362499637,-1.725162102351978
-4.0715,-0.5941159312587603,-1.311893204550824
-4.071,-0.14596858723541,-0.9198175835590702
-4.0705,0.1314559590640864,-0.718481453861072
-4.07,0.2808384070715074,-0.665498261835283
-4.0695,0.3235191065023836,-0.7184814538611684
-4.069,0.3341892813600565,-0.8244478379127463
-4.0685,0.3555296310754218,-0.9304142219644207
-4.068,0.4088805053638156,-0.8880276683436739
-4.0675,0.3875401556484697,-0.8032545611024114
-4.067,0.3448594562177392,-0.718481453861072
-4.0665,0.2915085819292969,-0.591321792998928
-4.066,0.2594980573562781,-0.4429688553267188
-4.0655,0.1314559590640864,-0.5171453241628908
-4.065,-0.3593720843888688,-0.9622041371795181
-4.0645,-0.690147504977477,-1.396666311791788
-4.064,-0.9995825758502737,-1.650985633515806
-4.0635,-1.298347471865116,-1.587405803084859
-4.063,-1.074273799853644,-0.8774310299377547
-4.0625,-0.6261264558313813,0.03387987290581572
-4.062,-0.2206598112398096,0.8074344764823348
-4.0615,0.03542438534506873,1.326669758336512
-4.061,0.1741366584948169,1.623375633680931
-4.0605,0.2274875327832301,1.729342017732605
-4.06,0.2381577076408934,1.739938656137724
-4.0595,0.2168173579255475,1.686955464111935
-4.059,0.1954770082101822,1.602182356870596
-4.0585,0.1741366584948363,1.48561933441386
-4.058,0.1527963087794516,1.347863035146577
-4.0575,0.1207857842064037,1.125333628638062
-4.057,-0.3060212101005138,0.3835689402770157
-4.0565,-0.7755089038389382,-0.5807251545938954
-4.056,-1.042263275281004,-1.375473034981453
-4.0555,-1.277007122149809,-1.862918401618712
-4.055,-1.020922925565183,-1.555615887868856
-4.0545,-0.5194247072545548,-1.068170521231597
-4.054,-0.07127736323229139,-0.7820612842923368
-4.0535,0.216817357925664,-0.707884815455972
-4.053,0.3448594562177392,-0.7820612842920766
-4.0525,0.3875401556484697,-0.8986243067489184
-4.052,0.4195506802217409,-1.068170521231761
-4.0515,0.6649647019482183,-1.248313374119443
-4.051,0.6863050516635838,-1.089363798041932
-4.0505,0.5582629533715086,-0.782061284292356
-4.05,0.4195506802215176,-0.474758770542221
-4.0495,0.3235191065023739,-0.2416327256285375
-4.049,0.3661998059330657,-0.1356663415769596
-4.0485,0.7183155762363986,-0.5277419625685594
-4.048,0.4622313796522482,-1.078767159636765
-4.0475,-0.08194753808907157,-1.523825972653392
-4.047,-0.7968492535545558,-1.767548655972349
-4.0465,-1.074273799854052,-1.439052865412457
-4.046,-0.8181896032699016,-0.5913217929998339
-4.0455,-0.4340633083928025,0.2246193641993885
-4.045,-0.1139580626626144,0.8392243916985406
-4.0445,0.08877525963335578,1.199510097474233
-4.044,0.1954770082102113,1.369056311956951
-4.0435,0.2274875327832301,1.411442865577582
-4.043,0.2274875327832301,1.37965295036208
-4.0425,0.2061471830678842,1.316073119931133
-4.042,0.1741366584948169,1.241896651094903
-4.0415,0.1634664836371343,1.146526905448396
-4.041,0.1527963087794613,1.019367244586503
-4.0405,-0.06060718837468641,0.6166949851892343
-4.04,-0.5941159312583333,-0.252229364033705
-4.0395,-0.828859778127138,-1.078767159636013
-4.039,-0.8715404775578296,-1.566212526274245
-4.0385,-0.5941159312583333,-1.322489842955616
-4.038,-0.2099896363821075,-0.9304142219647773
-4.0375,0.0994454344911937,-0.6549016234299614
-4.037,0.2701682322139607,-0.5383386009732256
-4.0365,0.3341892813600565,-0.570128516188728
-4.036,0.3555296310754218,-0.6654982618352734
-4.0355,0.3555296310754218,-0.7078848154559045
-4.035,0.3661998059331045,-0.7714646458869092
-4.0345,0.3661998059331045,-0.7608680074817514
-4.034,0.3235191065023739,-0.6019184314042303
-4.0335,0.2808384070716433,-0.4111789401112165
-4.033,0.2488278824986245,-0.1992461720080606
-4.0325,0.2381577076410583,-0.02969995752498649
-4.032,0.3982103305061524,0.1928294489833272
-4.0315,0.3128489316447689,0.002089957690486893
-4.031,-0.1566387620939175,-0.6019184314047218
-4.0305,-0.7861790786966207,-1.142346990067769
-4.03,-1.330357996437941,-1.396666311791556
-4.0295,-1.212986073003509,-0.9516074987740231
-4.029,-0.754168554123573,-0.1462629799820306
-4.0285,-0.3166913849585846,0.5849050699745222
-4.028,-0.007256314085632716,1.082947075017652
-4.0275,0.1634664836371343,1.369056311956912
-4.027,0.2274875327832301,1.485619334413754
-4.0265,0.238157707640903,1.496215972818912
-4.026,0.2274875327832301,1.453829419198252
-4.0255,0.1954770082101822,1.37965295036208
-4.025,0.1741366584948363,1.28428320471566
-4.0245,0.152796308779374,1.178316820663715
-4.024,0.0674349099179905,0.9769806909657173
-4.0235,-0.4447334832503105,0.2776025562253027
-4.023,-0.8715404775582275,-0.6337083466203879
-4.0225,-1.031593100423322,-1.354279758171118
-4.022,-0.8608703027005544,-1.470842780627854
-4.0215,-0.4340633083927346,-1.089363798041643
-4.021,-0.03926683865883591,-0.7714646458869092
-4.0205,0.1954770082101822,-0.6125150698093976
-4.02,0.3021787567870377,-0.5913217929991303
-4.0195,0.3341892813600565,-0.6654982618352349
-4.019,0.3235191065023739,-0.7714646458869092
-4.0185,0.3875401556484115,-0.8774310299384871
-4.018,0.5369226036560266,-0.9728007755850904
-4.0175,0.5155822539406614,-0.8244478379127463
-4.017,0.419550680221605,-0.5913217929992749
-4.0165,0.334189281360008,-0.3475991096800191
-4.016,0.2808384070716433,-0.1356663415768632
-4.0155,0.3661998059330268,0.1822328105778707
-4.015,0.5902734779440517,0.4789386859223853
-4.0145,0.1634664836371343,-0.02969995752518888
-4.014,-0.4340633083925502,-0.69728817705013
-4.0135,-1.13829484900041,-1.184733543688459
-4.013,-1.426389570157579,-1.205926820498774
-4.0125,-1.074273799854052,-0.5489352393783931
-4.012,-0.5834457564002817,0.2564092794149197
-4.0115,-0.1779791118087102,0.9028042221295453
-4.011,0.07810508477567314,1.326669758336243
-4.0105,0.2061471830677484,1.538602526439398
-4.01,0.2488278824985954,1.612778995275763
-4.0095,0.2381577076409128,1.591585718465428
-4.009,0.2168173579255669,1.528005888034481
-4.0085,0.1848068333524802,1.453829419198156
-4.008,0.1634664836371343,1.347863035146577
-4.0075,0.1527963087794613,1.199510097474368
-4.007,-0.1032878878053005,0.6590815388098364
-4.0065,-0.5087545323968721,-0.2840192792492073
-4.006,-0.807519428411986,-1.131750351662602
-4.0055,-0.7328282044078581,-1.598002441489824
-4.005,-0.3487019095316325,-1.439052865412457
-4.0045,-0.007256314085787988,-1.089363798041932
-4.004,0.2274875327833369,-0.7714646458867935
-4.0035,0.3448594562177392,-0.6443049850249
-4.003,0.3768699807907871,-0.6549016234300674
-4.0025,0.3555296310754412,-0.7608680074816454
-4.002,0.3448594562177392,-0.8668343915334161
-4.0015,0.5582629533713921,-0.9833974139902578
-4.001,0.6116138276597566,-0.9304142219644689
-4.0005,0.5155822539405546,-0.7608680074815394
-4,0.3982103305061524,-0.5383386009732256
-3.9995,0.3128489316446912,-0.3158091944647096
-3.999,0.3235191065023739,-0.05089323433552374
-3.9985,0.5902734779444399,0.3517790250608387
-3.998,0.2808384070716433,0.05507314971615059
-3.9975,-0.3166913849585846,-0.5595318777835605
-3.997,-0.9889124009925911,-0.9622041371799229
-3.9965,-1.533091318734406,-1.152943628472937
-3.996,-1.351698346153801,-0.7078848154559045
-3.9955,-0.839529952985034,0.08686306493165288
-3.995,-0.3487019095316325,0.8074344764830383
-3.9945,-0.01792648894347063,1.305476481525908
-3.994,0.1634664836371343,1.591585718465428
-3.9935,0.2381577076409128,1.697552102517103
-3.993,0.2488278824985954,1.686955464111935
-3.9925,0.2274875327832301,1.633972272086098
-3.992,0.2061471830678648,1.528005888034424
-3.9915,0.1741366584948169,1.369056311956912
-3.991,0.1527963087794516,1.104140351827727
-3.9905,0.01408403562957729,0.6908714540261965
-3.99,-0.4874141826815069,-0.1674562567923655
-3.9895,-0.7328282044082075,-1.01518732920576
-3.989,-0.8181896032696687,-1.672178910326141
-3.9885,-1.020922925565639,-1.650985633515806
-3.988,-0.7968492535543035,-1.078767159636765
-3.9875,-0.4020527838200457,-0.718481453861072
-3.987,-0.06060718837420119,-0.5807251545938954
-3.9865,0.1634664836371343,-0.6231117082145651
-3.986,0.291508581929326,-0.7502713690765743
-3.9855,0.3555296310754218,-0.8774310299385835
-3.985,0.3341892813600565,-1.078767159636765
-3.9845,0.2381577076409128,-1.110557074852267
-3.984,0.2061471830678648,-0.8986243067489184
-3.9835,0.1954770082101822,-0.6231117082145651
-3.983,0.2061471830678648,-0.3793890248957141
-3.9825,0.2381577076409128,-0.1886495336027004
-3.982,0.1101156093487211,-0.3052125560595421
-3.9815,-0.274010685527854,-0.6972881770507372
-3.981,-0.8822106524157645,-1.184733543688439
-3.9805,-1.447729919872945,-1.534422611058964
-3.98,-1.895877263895616,-1.619195718300304
-3.9795,-1.565101843307454,-1.078767159636765
-3.979,-0.9248913518464952,-0.1886495336027004
-3.9785,-0.3807124341046804,0.6060983467848571
-3.978,-0.007256314085787988,1.146526905448396
-3.9775,0.1848068333524996,1.453829419198252
-3.977,0.2594980573562781,1.570392441655093
-3.9765,0.2701682322139607,1.570392441655093
-3.976,0.2488278824985954,1.506812611224089
-3.9755,0.2168173579255475,1.411442865577582
-3.975,0.1954770082101822,1.29487984312074
-3.9745,0.1741366584948169,1.167720182258731
-3.974,0.1207857842064037,0.92399749893988
-3.9735,-0.3166913849585846,0.1822328105781598
-3.973,-0.7755089038389382,-0.7290780922662394
-3.9725,-1.031593100423322,-1.439052865412457
-3.972,-0.9248913518464952,-1.598002441489969
-3.9715,-0.5087545323968721,-1.131750351662602
-3.971,-0.07127736323188383,-0.7396747306714069
-3.9705,0.2274875327832301,-0.6337083466197325
-3.97,0.3768699807907871,-0.6760949002404023
-3.9695,0.4195506802215176,-0.7714646458869092
-3.969,0.3982103305061524,-0.8244478379127463
-3.9685,0.4408910299368829,-0.8138511995075789
-3.968,0.6542945270905358,-0.8562377531282487
-3.9675,0.6329541773751706,-0.7502713690765743
-3.967,0.5155822539406614,-0.5383386009732256
-3.9665,0.3875401556484697,-0.326405832869877
-3.966,0.3128489316446912,-0.1568596183871981
-3.9655,0.2274875327832301,-0.06148987274069118
-3.965,0.0674349099179905,-0.4429688553267188
-3.9645,-0.3060212101009019,-0.9833974139902578
-3.964,-0.7328282044082075,-1.364876396576285
-3.9635,-1.138294849000148,-1.502632695843462
-3.963,-1.031593100423322,-0.9939940523954253
-3.9625,-0.6367966306890638,-0.1462629799820306
-3.962,-0.2420001609548061,0.627291623595192
-3.9615,0.02475421048725994,1.157123543853563
-3.961,0.1741366584948169,1.453829419198252
-3.9605,0.2381577076409128,1.580989080060261
-3.96,0.2488278824985954,1.580989080060261
-3.9595,0.2381577076409128,1.517409249629256
-3.959,0.2168173579255475,1.432636142387917
-3.9585,0.1954770082101822,1.326669758336243
-3.958,0.1741366584948169,1.199510097474233
-3.9575,0.1527963087794516,1.040560521396722
-3.957,-0.1459685872356623,0.5001319627331828
-3.9565,-0.7114878546928423,-0.400582301706049
-3.956,-1.127624674142465,-1.205926820498774
-3.9555,-1.255666772434657,-1.619195718300304
-3.955,-0.8502001278427167,-1.322489842955616
-3.9545,-0.3166913849585846,-0.9622041371799229
-3.954,0.1101156093487211,-0.7502713690765743
-3.9535,0.3341892813600565,-0.7078848154559045
-3.953,0.4195506802215176,-0.7608680074817418
-3.9525,0.4302208550792003,-0.792657922697244
-3.952,0.4195506802215176,-0.8456411147230812
-3.9515,0.3982103305061524,-0.7820612842920766
-3.951,0.3448594562177392,-0.6972881770507372
-3.9505,0.3021787567870086,-0.6231117082145651
-3.95,0.2701682322139607,-0.5171453241628908
-3.9495,0.2488278824985954,-0.3793890248957141
-3.949,0.2594980573562781,-0.1780528951975329
-3.9485,0.4942419042252961,0.2670059178194992
-3.948,0.3021787567870086,0.07626642652648545
-3.9475,-0.2206598112394408,-0.5277419625680583
-3.947,-0.8928808272734472,-1.036380606016095
-3.9465,-1.383708870726849,-1.195330182093607
-3.946,-1.180975548430879,-0.6443049850249
-3.9455,-0.7114878546928423,0.2034260873884947
-3.945,-0.274010685527854,0.9451907757502149
-3.9445,0.02475421048725994,1.464426057603419
-3.944,0.1954770082101822,1.75053529454294
-3.9435,0.2488278824985954,1.867098316999781
-3.943,0.2594980573562781,1.867098316999781
-3.9425,0.2381577076409128,1.814115124973944
-3.942,0.2168173579255475,1.729342017732605
-3.9415,0.1848068333524996,1.612778995275763
-3.941,0.1741366584948169,1.432636142387917
-3.9405,0.02475421048725994,1.040560521396722
-3.94,-0.5300948821122373,0.13984625695749
-3.9395,-0.8502001278427167,-0.8138511995075789
-3.939,-0.9355615267041777,-1.566212526274467
-3.9385,-1.074273799854052,-1.75695201756748
-3.938,-0.754168554123573,-1.195330182093607
-3.9375,-0.3060212101009019,-0.8350444763179138
-3.937,0.0674349099179905,-0.718481453861072
-3.9365,0.2808384070716433,-0.7396747306714069
-3.936,0.3661998059331045,-0.8032545611024114
-3.9355,0.3875401556484697,-0.8880276683437509
-3.935,0.4729015545099309,-1.025783967610927
-3.9345,0.6222840025174878,-1.0999604364471
-3.934,0.5689331282290746,-0.9410108603695881
-3.9335,0.4515612047945656,-0.6866915386455698
-3.933,0.3448594562177392,-0.4641621321370536
-3.9325,0.3021787567870086,-0.2628260024388724
-3.932,0.408880505363835,0.01268659609548085
-3.9315,0.3128489316446912,-0.09327978795619347
-3.931,-0.1886492866663929,-0.6654982618352349
-3.9305,-0.7648387289812555,-1.174136905283272
-3.93,-1.341028171296118,-1.47084278062796
-3.9295,-1.319687821580753,-1.142346990067769
-3.929,-0.8608703027003992,-0.3475991096802118
-3.9285,-0.391382608962363,0.4365521323021782
-3.928,-0.03926683865883591,1.00877060618122
-3.9275,0.1634664836371343,1.358459673551745
-3.927,0.2488278824985954,1.528005888034424
-3.9265,0.2701682322139607,1.559795803249926
-3.926,0.2488278824985954,1.538602526439591
-3.9255,0.2274875327832301,1.485619334413754
-3.925,0.1954770082101822,1.42203950398275
-3.9245,0.1848068333524996,1.316073119931075
-3.924,0.142126133921769,1.125333628638062
-3.9235,-0.2526703358124887,0.4683420475176805
-3.923,-0.658136980404429,-0.4641621321370536
-3.9225,-0.9035510021311299,-1.248313374119443
-3.922,-0.9142211769888124,-1.555615887869299
-3.9215,-0.572775581542968,-1.205926820498774
-3.921,-0.156638762093345,-0.8350444763179138
-3.9205,0.1207857842064037,-0.6443049850249
-3.92,0.291508581929326,-0.6125150698093976
-3.9195,0.3555296310754218,-0.718481453861072
-3.919,0.3555296310754218,-0.8880276683437509
-3.9185,0.3982103305061524,-1.004590690800593
-3.918,0.5902734779444399,-1.068170521231597
-3.9175,0.5902734779444399,-0.9092209451540858
-3.917,0.4835717293676135,-0.6549016234300674
-3.9165,0.3768699807907871,-0.4217755785163839
-3.916,0.3021787567870086,-0.2098428104130352
-3.9155,0.2488278824985954,-0.01910331912002144
-3.915,-0.1673089369510276,-0.2416327256285375
-3.9145,-0.690147504977477,-0.7820612842920766
-3.914,-1.020922925565639,-1.195330182093607
-3.9135,-1.437059745015262,-1.396666311791788
-3.913,-1.682473766741963,-1.322489842955616
-3.9125,-1.26633694729234,-0.6443049850249
-3.912,-0.690147504977477,0.1928294489833272
-3.9115,-0.2099896363817582,0.8710143069140429
-3.911,0.07810508477567314,1.305476481525908
-3.9105,0.2274875327832301,1.517409249629256
-3.91,0.2808384070716433,1.570392441655093
-3.9095,0.2701682322139607,1.528005888034424
-3.909,0.2488278824985954,1.453829419198252
-3.9085,0.2168173579255475,1.347863035146577
-3.908,0.1954770082101822,1.199510097474233
-3.9075,0.1848068333524996,1.029963882991555
-3.907,0.01408403562957729,0.627291623595192
-3.9065,-0.5087545323968721,-0.2204394488182027
-3.906,-0.9035510021311299,-1.046977244421262
-3.9055,-1.159635198715513,-1.693372187136476
-3.905,-1.148965023857831,-1.640388995110639
-3.9045,-0.7008176798351597,-1.0999604364471
-3.904,-0.2099896363817582,-0.6654982618352349
-3.9035,0.1207857842064037,-0.4217755785163839
-3.903,0.3021787567870086,-0.4323722169215513
-3.9025,0.3555296310754218,-0.5383386009732256
-3.902,0.3661998059331045,-0.6760949002404023
-3.9015,0.4729015545099309,-0.8562377531282487
-3.901,0.5262524287983441,-0.8668343915334161
-3.9005,0.4622313796522482,-0.7396747306714069
-3.9,0.3768699807907871,-0.570128516188728
-3.8995,0.3235191065023739,-0.3899856633008816
-3.899,0.3128489316446912,-0.2628260024388724
-3.8985,0.5582629533713921,-0.4111789401112165
-3.898,0.3128489316446912,-0.8880276683437509
-3.8975,-0.2633405106701714,-1.34368311976595
-3.897,-0.7968492535543035,-1.51322933424863
-3.8965,-1.383708870726849,-1.51322933424863
-3.896,-1.415719395299897,-1.036380606016095
-3.8955,-0.9462317015618604,-0.1674562567923655
-3.895,-0.4340633083930936,0.627291623595192
-3.8945,-0.06060718837420119,1.188913459069066
-3.894,0.1527963087794516,1.517409249629256
-3.8935,0.2594980573562781,1.655165548896433
-3.893,0.2808384070716433,1.6657621873016
-3.8925,0.2594980573562781,1.623375633680931
-3.892,0.2381577076409128,1.559795803249926
-3.8915,0.2061471830678648,1.475022696008586
-3.891,0.1848068333524996,1.326669758336243
-3.8905,0.09944543449103843,1.040560521396722
-3.89,-0.391382608962363,0.2458126410091644
-3.8895,-0.7968492535543035,-0.6866915386455698
-3.889,-1.159635198715513,-1.449649503817625
-3.8885,-1.298347471865388,-1.746355379162313
-3.888,-0.8715404775580819,-1.354279758171118
-3.8875,-0.3380317346739499,-0.9092209451540858
-3.887,0.07810508477567314,-0.6125150698093976
-3.8865,0.3128489316446912,-0.5065486857577234
-3.886,0.3982103305061524,-0.5383386009732256
