Class_2_Relax_eyes_open/Class_2_Relax_Eyes_open_Zakour_10.csv

#Digilent WaveForms Oscilloscope Acquisition
#Device Name: EExplorer
#Serial Number: SN:210151A2B84A
#Date Time: 2021-02-03 11:15:03.482
#Sample rate: 2000Hz
#Samples: 16384
#Trigger: Source: Channel 1 Type: Edge Condition: Rising Level: 0 V Hyst.: Auto HoldOff: 0 s
#Channel 1: Range: 1 V/div Offset: 0 V Attenuation: 1 X
#Channel 2: Range: 1 V/div Offset: 0 V Attenuation: 1 X
#Power Supplies: ON
#Fixed Supply: ON
#Voltage: 3.3 V Readback: 3.39 V
#Positive Supply: ON
#Voltage: 3.7 V Readback: 3.717 V
#Current: 40 mA Readback: 23 mA
#Negative Supply: ON
#Voltage: -3.7 V Readback: -3.348 V
#Current: -40 mA Readback: -17 mA
#Reference 1: ON
#Voltage: 0 V
#Reference 2: ON
#Voltage: 0 V

Time (s),Channel 1 (V),Channel 2 (V)
-4.096,-1.554431668449771,-1.417859588602123
-4.0955,-1.020922925566124,-0.7290780922668658
-4.095,-0.4554036581080707,0.1080563417425949
-4.0945,-0.02859666380115328,0.775644561267536
-4.094,0.2168173579253243,1.220703374284163
-4.0935,0.323519106502403,1.475022696008673
-4.093,0.3555296310754218,1.570392441655093
-4.0925,0.3448594562177489,1.580989080060251
-4.092,0.3235191065023544,1.570392441655074
-4.0915,0.3021787567870086,1.549199164844759
-4.091,0.291508581929326,1.517409249629256
-4.0905,0.2808384070714978,1.422039503982412
-4.09,0.1207857842064037,1.051157159801889
-4.0895,-0.4660738329661415,0.1504428953626575
-4.089,-0.9355615267037507,-0.803254561101544
-4.0885,-1.255666772434657,-1.460246142222792
-4.088,-1.052933450138687,-1.502632695843462
-4.0875,-0.3807124341052918,-1.121153713257781
-4.087,0.2274875327835504,-0.7396747306712141
-4.0865,0.5796033030867573,-0.5277419625680583
-4.086,0.6756348768058137,-0.4641621321371114
-4.0855,0.6329541773750735,-0.5277419625681643
-4.085,0.5262524287983441,-0.6443049850249
-4.0845,0.6116138276597275,-0.8350444763177403
-4.084,0.7396559259519483,-0.8880276683435967
-4.0835,0.6863050516635838,-0.718481453861072
-4.083,0.5689331282290746,-0.5171453241628908
-4.0825,0.4515612047945171,-0.347599109680048
-4.082,0.3982103305061524,-0.1674562567923655
-4.0815,0.4302208550792003,0.1822328105781598
-4.081,0.01408403562995575,0.1504428953626864
-4.0805,-0.690147504977477,-0.474758770542221
-4.08,-1.319687821580753,-1.046977244421262
-4.0795,-1.746494815887671,-1.375473034981154
-4.079,-1.394379045583968,-1.057573882825736
-4.0785,-0.7755089038389382,-0.2946159176543747
-4.078,-0.2526703358129642,0.4577454091118288
-4.0775,0.09944543449120341,0.9981739677763508
-4.077,0.2808384070716433,1.326669758336243
-4.0765,0.3448594562176809,1.485619334413609
-4.076,0.3555296310754024,1.528005888034424
-4.0755,0.3341892813600565,1.528005888034424
-4.075,0.3128489316446912,1.506812611224089
-4.0745,0.2915085819293163,1.485619334413686
-4.074,0.2808384070716433,1.411442865577582
-4.0735,0.1954770082101822,1.199510097474233
-4.073,-0.3380317346734646,0.4683420475183455
-4.0725,-0.8715404775580819,-0.4853554089473885
-4.072,-1.255666772434657,-1.269506650929778
-4.0715,-1.255666772434657,-1.534422611058724
-4.071,-0.6474668055461255,-1.174136905282944
-4.0705,0.03542438534494258,-0.8138511995075789
-4.07,0.4835717293672059,-0.601918431404423
-4.0695,0.6542945270905262,-0.5171453241629101
-4.069,0.6436243522328531,-0.5383386009732256
-4.0685,0.5582629533713921,-0.6019184314042303
-4.068,0.5369226036561722,-0.6972881770507757
-4.0675,0.6969752265212663,-0.7396747306714069
-4.067,0.6969752265212663,-0.6019184314042303
-4.0665,0.6009436528020256,-0.4535654937317417
-4.066,0.4942419042252961,-0.2946159176543747
-4.0655,0.4408910299368829,-0.1356663415768632
-4.065,0.4622313796522288,0.2246193641985018
-4.0645,0.1848068333524996,0.3411823866556712
-4.064,-0.4980843575391895,-0.252229364033705
-4.0635,-1.11695449928422,-0.9092209451534883
-4.063,-1.693143941599742,-1.301296566145281
-4.0625,-1.799845690176472,-1.301296566145281
-4.062,-1.202315898146787,-0.6231117082151819
-4.0615,-0.5621054066848487,0.2140227257942693
-4.061,-0.08194753808956648,0.8816109453192104
-4.0605,0.1954770082101822,1.326669758336243
-4.06,0.3235191065024127,1.559795803249993
-4.0595,0.3661998059331045,1.633972272086098
-4.059,0.3555296310754218,1.644568910491266
-4.0585,0.334189281360076,1.62337563368095
-4.058,0.3128489316446912,1.591585718465428
-4.0575,0.291508581929326,1.517409249629256
-4.057,0.2701682322139801,1.347863035146732
-4.0565,-0.07127736323188383,0.7650479228623686
-4.056,-0.658136980404429,-0.2098428104130352
-4.0555,-0.9995825758499631,-1.089363798041132
-4.055,-1.127624674142097,-1.587405803084724
-4.0545,-0.722158029550525,-1.502632695843462
-4.054,-0.08194753809014876,-1.174136905283571
-4.0535,0.3982103305063562,-0.8562377531280752
-4.053,0.6222840025174878,-0.6654982618352349
-4.0525,0.6329541773751706,-0.5913217929990628
-4.052,0.5796033030867088,-0.5807251545939436
-4.0515,0.5262524287983441,-0.6337083466197325
-4.051,0.6436243522328531,-0.7290780922662394
-4.0505,0.675634876805872,-0.6760949002404505
-4.05,0.6009436528021226,-0.5807251545938954
-4.0495,0.4942419042252961,-0.474758770542221
-4.049,0.4302208550792586,-0.3370024712751697
-4.0485,0.3875401556483339,-0.1568596183869668
-4.048,0.2381577076409128,0.09745970333682032
-4.0475,-0.2740106855273882,-0.2628260024385447
-4.047,-0.8502001278431922,-0.8774310299389401
-4.0465,-1.373038695869166,-1.269506650929778
-4.046,-1.767835165603065,-1.439052865412303
-4.0455,-1.415719395299324,-0.9622041371791615
-4.045,-0.7861790786966207,-0.1250697031716958
-4.0445,-0.2526703358124887,0.6484849004055269
-4.044,0.09944543449121311,1.188913459069365
-4.0435,0.291508581929326,1.517409249629256
-4.043,0.3555296310754218,1.655165548896433
-4.0425,0.3555296310754218,1.686955464111906
-4.042,0.3341892813600565,1.676358825706768
-4.0415,0.3128489316446912,1.644568910491266
-4.041,0.3021787567870183,1.602182356870634
-4.0405,0.280838407071488,1.496215972818632
-4.04,0.1101156093487211,1.178316820663898
-4.0395,-0.5407650569693281,0.2881991946306437
-4.039,-1.170305373573536,-0.6972881770513926
-4.0385,-1.543761493592088,-1.417859588602123
-4.038,-1.266336947292592,-1.502632695843385
-4.0375,-0.5514352318270012,-1.110557074851939
-4.037,0.1101156093487211,-0.7502713690765743
-4.0365,0.4942419042252961,-0.5595318777835605
-4.036,0.6222840025174684,-0.5065486857577909
-4.0355,0.6009436528021226,-0.5807251545938954
-4.035,0.5262524287983441,-0.7290780922662394
-4.0345,0.5902734779443817,-0.8880276683436064
-4.034,0.6756348768059011,-0.8456411147230812
-4.0335,0.6329541773751706,-0.6760949002404023
-4.033,0.536922603656114,-0.5065486857578776
-4.0325,0.4515612047945268,-0.3687923864904311
-4.032,0.408880505363835,-0.2416327256285375
-4.0315,0.2701682322140868,0.07626642652619636
-4.031,-0.3807124341053112,-0.04029659593090566
-4.0305,-1.074273799854052,-0.6443049850249
-4.03,-1.586442193022353,-1.121153713257001
-4.0295,-2.055929886760564,-1.354279758170896
-4.029,-1.735824641030376,-1.110557074852267
-4.0285,-0.9995825758502737,-0.326405832869877
-4.028,-0.3700422592466193,0.4895353243285743
-4.0275,0.04609456020262521,1.104140351827727
-4.027,0.2808384070716433,1.496215972818921
-4.0265,0.3661998059330268,1.686955464111762
-4.026,0.3768699807907871,1.739938656137773
-4.0255,0.3555296310754218,1.739938656137773
-4.025,0.334189281360076,1.729342017732615
-4.0245,0.3128489316446718,1.676358825706671
-4.024,0.291508581929326,1.570392441655093
-4.0235,0.2488278824986342,1.34786303514678
-4.023,-0.2206598112399649,0.595501708378774
-4.0225,-0.7968492535543035,-0.4111789401112165
-4.022,-1.095614149569146,-1.248313374118682
-4.0215,-1.042263275280509,-1.576809164679345
-4.021,-0.4980843575391895,-1.258910012524611
-4.0205,0.09944543449103843,-0.8668343915334161
-4.02,0.4942419042254417,-0.5913217929989761
-4.0195,0.6542945270905358,-0.4959520473525559
-4.019,0.6329541773751706,-0.5913217929990628
-4.0185,0.547592778513787,-0.739674730671272
-4.018,0.4622313796522482,-0.8562377531282487
-4.0175,0.3235191065023739,-0.8774310299385835
-4.017,0.2808384070716821,-0.7184814538612165
-4.0165,0.2915085819293357,-0.5595318777834353
-4.016,0.3021787567870086,-0.4217755785163839
-4.0155,0.3128489316446815,-0.2840192792493326
-4.015,0.3875401556484406,-0.1674562567922788
-4.0145,0.3555296310754218,-0.07208651114585861
-4.014,-0.2633405106696085,-0.4959520473521704
-4.0135,-0.9782422261355004,-1.068170521231963
-4.013,-1.629122892453549,-1.47084278062796
-4.0125,-1.703814116457328,-1.42845622700729
-4.012,-1.127624674141902,-0.7078848154551431
-4.0115,-0.5087545323968721,0.1292496185523226
-4.011,-0.04993701351651855,0.8180311148882058
-4.0105,0.2168173579253048,1.263089927904833
-4.01,0.3448594562177392,1.506812611224089
-4.0095,0.3661998059331045,1.602182356870596
-4.009,0.3555296310754315,1.602182356870596
-4.0085,0.3341892813600371,1.59158571846539
-4.008,0.3128489316446912,1.549199164844759
-4.0075,0.3021787567870183,1.496215972818969
-4.007,0.2808384070713328,1.379652950361646
-4.0065,-0.06060718837420119,0.9028042221295453
-4.006,-0.6794773301197943,-0.04029659593035631
-4.0055,-1.095614149569534,-0.9516074987752084
-4.005,-1.223656247861609,-1.449649503817625
-4.0045,-0.7861790786966207,-1.237716735714276
-4.004,-0.1779791118082832,-0.8880276683435292
-4.0035,0.291508581929326,-0.6443049850249
-4.003,0.5262524287983441,-0.5595318777835605
-4.0025,0.5796033030867088,-0.6231117082145072
-4.002,0.5475927785137094,-0.7290780922662394
-4.0015,0.5049120790829789,-0.8350444763179138
-4.001,0.5902734779443622,-0.8986243067488605
-4.0005,0.6222840025174393,-0.7290780922660564
-4,0.5689331282290746,-0.5277419625680583
-3.9995,0.4942419042252961,-0.3581957480853793
-3.999,0.4515612047945656,-0.1886495336027004
-3.9985,0.4835717293676135,-0.02969995752518888
-3.998,0.6649647019482183,0.2670059178194992
-3.9975,0.1954770082101822,-0.06148987274069118
-3.997,-0.5407650569699201,-0.7396747306714069
-3.9965,-1.277007122150022,-1.290699927740113
-3.996,-1.639793067311232,-1.481439419033127
-3.9955,-1.234326422719292,-0.9198175835592532
-3.995,-0.6474668055467465,-0.06148987274069118
-3.9945,-0.1673089369510276,0.6908714540261965
-3.994,0.1527963087794516,1.210106735879401
-3.9935,0.3021787567870086,1.517409249629256
-3.993,0.3661998059331045,1.655165548896433
-3.9925,0.3555296310754218,1.676358825706768
-3.992,0.3341892813600565,1.6657621873016
-3.9915,0.3235191065023739,1.633972272086098
-3.991,0.3021787567870086,1.602182356870596
-3.9905,0.291508581929326,1.506812611224089
-3.99,0.2061471830678648,1.199510097474233
-3.9895,-0.3273615598162672,0.3411823866556712
-3.989,-0.9248913518464952,-0.6125150698093976
-3.9885,-1.341028171296118,-1.322489842955616
-3.988,-1.223656247861609,-1.375473034981453
-3.9875,-0.5407650569699201,-0.9833974139902578
-3.987,0.1207857842064037,-0.6125150698093976
-3.9865,0.5369226036560266,-0.400582301706049
-3.986,0.6863050516635838,-0.3581957480853793
-3.9855,0.6649647019482183,-0.4217755785163839
-3.985,0.5689331282290746,-0.5489352393783931
-3.9845,0.4408910299368829,-0.7502713690765743
-3.984,0.3341892813600565,-0.8880276683437509
-3.9835,0.3021787567870086,-0.8138511995075789
-3.983,0.3021787567870086,-0.6443049850249
-3.9825,0.3128489316446912,-0.4959520473525559
-3.982,0.3235191065023739,-0.3793890248957141
-3.9815,0.1954770082101822,-0.08268314955102604
-3.981,-0.423393133535411,-0.1038764263613609
-3.9805,-1.074273799854052,-0.6549016234300674
-3.98,-1.575772018165136,-1.163540266878104
-3.9795,-2.066600061618538,-1.460246142222792
-3.979,-1.87453691418025,-1.364876396576285
-3.9785,-1.127624674142465,-0.6760949002404023
-3.978,-0.4660738329661415,0.13984625695749
-3.9775,0.00341386077189465,0.8074344764830383
-3.977,0.2594980573562781,1.241896651094903
-3.9765,0.3661998059331045,1.475022696008586
-3.976,0.3875401556484697,1.549199164844759
-3.9755,0.3661998059331045,1.570392441655093
-3.975,0.3448594562177392,1.580989080060261
-3.9745,0.3235191065023739,1.570392441655093
-3.974,0.3128489316446912,1.496215972818921
-3.9735,0.2701682322139607,1.33726639674141
-3.973,-0.1673089369510276,0.7544512844572011
-3.9725,-0.7755089038389382,-0.2098428104130352
-3.972,-1.116954499284783,-1.068170521231597
-3.9715,-1.138294849000148,-1.407262950196955
-3.971,-0.6367966306890638,-1.089363798041932
-3.9705,-0.01792648894347063,-0.6231117082145651
-3.97,0.408880505363835,-0.3687923864905467
-3.9695,0.5902734779444399,-0.3052125560595421
-3.969,0.6116138276598051,-0.3581957480853793
-3.9685,0.5582629533713921,-0.4959520473525559
-3.968,0.5475927785137094,-0.6654982618352349
-3.9675,0.7503261008096795,-0.8668343915334161
-3.967,0.7823366253827275,-0.792657922697244
-3.9665,0.6756348768059011,-0.6231117082145651
-3.966,0.5582629533713921,-0.4535654937318862
-3.9655,0.5049120790829789,-0.3052125560595421
-3.965,0.5049120790829789,-0.1568596183871981
-3.9645,0.4408910299368829,0.002089957690313421
-3.964,-0.1886492866663929,-0.4429688553267188
-3.9635,-0.8502001278427167,-1.05757388282643
-3.963,-1.351698346153801,-1.481439419033127
-3.9625,-1.234326422719292,-1.248313374119443
-3.962,-0.7434983792658902,-0.474758770542221
-3.9615,-0.2633405106701714,0.3305857482505039
-3.961,0.07810508477567314,0.9345941373450475
-3.9605,0.2701682322139607,1.326669758336243
-3.96,0.3448594562177392,1.538602526439591
-3.9595,0.3661998059331045,1.612778995275763
-3.959,0.3448594562177392,1.623375633680931
-3.9585,0.3235191065023739,1.612778995275763
-3.958,0.3128489316446912,1.591585718465428
-3.9575,0.3021787567870086,1.559795803249926
-3.957,0.3021787567870086,1.464426057603419
-3.9565,0.04609456020262521,1.104140351827727
-3.956,-0.6154562809736985,0.2246193641988295
-3.9555,-1.127624674142465,-0.718481453861072
-3.955,-1.341028171296118,-1.311893204550448
-3.9545,-0.9782422261349084,-1.237716735714276
-3.954,-0.2953510352432193,-0.8350444763179138
-3.9535,0.2701682322139607,-0.5171453241628908
-3.953,0.5475927785137094,-0.3687923864905467
-3.9525,0.6116138276598051,-0.3581957480853793
-3.952,0.5689331282290746,-0.4535654937318862
-3.9515,0.5155822539406614,-0.6019184314042303
-3.951,0.5155822539406614,-0.792657922697244
-3.9505,0.5049120790829789,-0.7502713690765743
-3.95,0.4622313796522482,-0.6231117082145651
-3.9495,0.4195506802215176,-0.5065486857577234
-3.949,0.408880505363835,-0.3899856633008816
-3.9485,0.4302208550792003,-0.252229364033705
-3.948,0.142126133921769,0.02328323450064829
-3.9475,-0.5834457564006506,-0.1568596183871981
-3.947,-1.170305373573196,-0.7608680074817418
-3.9465,-1.597112367880501,-1.322489842955616
-3.946,-1.757164990745741,-1.545019249464132
-3.9455,-1.223656247861609,-0.9728007755850904
-3.945,-0.5941159312583333,-0.1356663415768632
-3.9445,-0.1139580626626144,0.5955017083796896
-3.944,0.1954770082101822,1.104140351827727
-3.9435,0.3341892813600565,1.411442865577582
-3.943,0.3768699807907871,1.549199164844759
-3.9425,0.3661998059331045,1.580989080060261
-3.942,0.3448594562177392,1.591585718465428
-3.9415,0.3235191065023739,1.602182356870596
-3.941,0.3128489316446912,1.570392441655093
-3.9405,0.3021787567870086,1.475022696008586
-3.94,0.142126133921769,1.199510097474233
-3.9395,-0.4340633083930936,0.3623756634660061
-3.939,-0.9142211769888124,-0.5913217929990628
-3.9385,-1.202315898146244,-1.364876396576285
-3.938,-1.234326422719292,-1.587405803084801
-3.9375,-0.5834457564006506,-1.184733543688439
-3.937,0.1314559590640864,-0.7608680074817418
-3.9365,0.6116138276598051,-0.4959520473525559
-3.936,0.8036769750980928,-0.3899856633008816
-3.9355,0.7716664505250448,-0.4111789401112165
-3.935,0.6542945270905358,-0.5277419625680583
-3.9345,0.6116138276598051,-0.6549016234300674
-3.934,0.6863050516635838,-0.7502713690765743
-3.9335,0.6329541773751706,-0.6549016234300674
-3.933,0.5582629533713921,-0.4853554089473885
-3.9325,0.5155822539406614,-0.326405832869877
-3.932,0.5049120790829789,-0.1886495336027004
-3.9315,0.4302208550792003,-0.08268314955102604
-3.931,-0.06060718837420119,-0.1356663415768632
-3.9305,-0.7328282044082075,-0.6760949002404023
-3.93,-1.191645723288561,-1.258910012524611
-3.9295,-1.212986073003927,-1.42845622700729
-3.929,-0.7968492535543035,-0.8456411147230812
-3.9285,-0.3273615598162672,-0.06148987274069118
-3.928,0.03542438534494258,0.6166949851900245
-3.9275,0.2381577076409128,1.093543713422559
-3.927,0.3341892813600565,1.37965295036208
-3.9265,0.3555296310754218,1.517409249629256
-3.926,0.3555296310754218,1.570392441655093
-3.9255,0.3341892813600565,1.570392441655093
-3.925,0.3128489316446912,1.570392441655093
-3.9245,0.3021787567870086,1.549199164844759
-3.924,0.3021787567870086,1.517409249629256
-3.9235,0.2701682322139607,1.400846227172415
-3.923,-0.1352984123779797,0.9028042221295453
-3.9225,-0.7861790786966207,-0.05089323433552374
-3.922,-1.244996597576974,-0.9410108603695881
-3.9215,-1.341028171296118,-1.396666311791788
-3.921,-0.7968492535543035,-1.205926820498774
-3.9205,-0.08194753808956648,-0.792657922697244
-3.92,0.4408910299368829,-0.4959520473525559
-3.9195,0.6756348768059011,-0.3475991096802118
-3.919,0.6863050516635838,-0.3687923864905467
-3.9185,0.6009436528021226,-0.4641621321370536
-3.918,0.5155822539406614,-0.6125150698093976
-3.9175,0.5689331282290746,-0.718481453861072
-3.917,0.5689331282290746,-0.6337083466197325
-3.9165,0.5262524287983441,-0.5277419625680583
-3.916,0.4729015545099309,-0.4217755785163839
-3.9155,0.4195506802215176,-0.326405832869877
-3.915,0.4302208550792003,-0.1780528951975329
-3.9145,0.4302208550792003,0.02328323450064829
-3.914,-0.1352984123779797,-0.4111789401112165
-3.9135,-0.722158029550525,-1.004590690800593
-3.913,-1.287677297007705,-1.364876396576285
-3.9125,-1.693143941599645,-1.481439419033127
-3.912,-1.330357996438436,-0.9304142219644207
-3.9115,-0.7328282044082075,-0.08268314955102604
-3.911,-0.2099896363817582,0.6696781772158616
-3.9105,0.1314559590640864,1.188913459069066
-3.91,0.3021787567870086,1.485619334413754
-3.9095,0.3661998059331045,1.623375633680931
-3.909,0.3768699807907871,1.655165548896433
-3.9085,0.3555296310754218,1.655165548896433
-3.908,0.3341892813600565,1.623375633680931
-3.9075,0.3128489316446912,1.559795803249926
-3.907,0.3021787567870086,1.443232780793084
-3.9065,0.1207857842064037,1.040560521396722
-3.906,-0.4447334832507763,0.1292496185523226
-3.9055,-0.8715404775580819,-0.8032545611024114
-3.905,-1.052933450138687,-1.407262950196955
-3.9045,-0.754168554123573,-1.290699927740113
-3.904,-0.1779791118087102,-0.9198175835592532
-3.9035,0.3021787567870086,-0.570128516188728
-3.903,0.5475927785137094,-0.400582301706049
-3.9025,0.6009436528021226,-0.3793890248957141
-3.902,0.5582629533713921,-0.4429688553267188
-3.9015,0.4942419042252961,-0.5489352393783931
-3.901,0.6009436528021226,-0.6972881770507372
-3.9005,0.7396559259519968,-0.718481453861072
-3.9,0.7183155762366316,-0.570128516188728
-3.8995,0.6222840025174878,-0.4111789401112165
-3.899,0.5475927785137094,-0.252229364033705
-3.8985,0.5262524287983441,-0.1038764263613609
-3.898,0.3128489316446912,0.13984625695749
-3.8975,-0.3273615598162672,-0.01910331912002144
-3.897,-0.9782422261349084,-0.6549016234300674
-3.8965,-1.46907026958831,-1.131750351662602
-3.896,-1.863866739322568,-1.38606967338662
-3.8955,-1.501080794161358,-1.025783967610927
-3.895,-0.839529952985034,-0.2310360872233701
-3.8945,-0.2633405106701714,0.5319218779486851
-3.894,0.1101156093487211,1.093543713422559
-3.8935,0.3021787567870086,1.432636142387917
-3.893,0.3768699807907871,1.602182356870596
-3.8925,0.3768699807907871,1.644568910491266
-3.892,0.3555296310754218,1.644568910491266
-3.8915,0.3341892813600565,1.623375633680931
-3.891,0.3128489316446912,1.602182356870596
-3.8905,0.3021787567870086,1.517409249629256
-3.89,0.2168173579255475,1.305476481525908
-3.8895,-0.3487019095316325,0.5637117931641874
-3.889,-0.9355615267041777,-0.4323722169215513
-3.8885,-1.30901764672307,-1.237716735714276
-3.888,-1.351698346153801,-1.460246142222792
-3.8875,-0.754168554123573,-1.163540266878104
-3.887,-0.04993701351651855,-0.8562377531282487
-3.8865,0.4408910299368829,-0.6760949002404023
-3.886,0.6542945270905358,-0.6337083466197325
