Class_2_Relax_eyes_open/Class_2_Relax_Eyes_open_Turki_8.csv

#Digilent WaveForms Oscilloscope Acquisition
#Device Name: EExplorer
#Serial Number: SN:210151A2B84A
#Date Time: 2020-12-13 12:39:30.513
#Sample rate: 2000Hz
#Samples: 16384
#Trigger: Source: Channel 1 Type: Edge Condition: Rising Level: 0 V Hyst.: Auto HoldOff: 0 s
#Channel 1: Range: 1 V/div Offset: 0 V Attenuation: 1 X
#Channel 2: Range: 1 V/div Offset: 0 V Attenuation: 1 X
#Power Supplies: ON
#Fixed Supply: ON
#Voltage: 3.3 V Readback: 3.326 V
#Positive Supply: ON
#Voltage: 3.7 V Readback: 3.715 V
#Current: 40 mA Readback: 19 mA
#Negative Supply: ON
#Voltage: -3.7 V Readback: -3.357 V
#Current: -40 mA Readback: -8 mA
#Reference 1: ON
#Voltage: 0 V
#Reference 2: ON
#Voltage: 0 V

Time (s),Channel 1 (V),Channel 2 (V)
-4.096,-0.3380317346739499,-0.008506680714854012
-4.0955,-0.9462317015613073,-0.888027668342951
-4.095,-1.298347471865679,-1.42845622700756
-4.0945,-1.618452717595867,-1.725162102351978
-4.094,-1.490410619303792,-1.502632695843665
-4.0935,-0.7755089038383074,-0.9304142219640544
-4.093,-0.08194753808956648,-0.5277419625680583
-4.0925,0.3875401556480428,-0.379389024895849
-4.092,0.643624352232921,-0.4747587705423174
-4.0915,0.7183155762366316,-0.5807251545938954
-4.091,0.7823366253827275,-0.6654982618352349
-4.0905,0.825017324813361,-0.379389024895531
-4.09,0.7183155762366316,-0.1780528951975329
-4.0895,0.5796033030867573,-0.1144730647665284
-4.089,0.4622313796523549,-0.09327978795621275
-4.0885,0.3875401556484697,-0.05089323433552374
-4.088,0.408880505363835,0.1080563417419877
-4.0875,0.3341892813601245,0.1186529801471455
-4.087,-0.3273615598168883,-0.3899856633012478
-4.0865,-1.010252750707956,-0.792657922697244
-4.086,-1.27700712214978,-1.036380606015873
-4.0855,-0.935561526703741,-1.004590690800284
-4.085,-0.4554036581084589,-0.6654982618352349
-4.0845,-0.04993701351688729,-0.008506680715451576
-4.084,0.2061471830679813,0.7650479228629372
-4.0835,0.3341892813600565,1.390249588767247
-4.083,0.3768699807907871,1.771728571353275
-4.0825,0.376869980790758,1.941274785835963
-4.082,0.3448594562177392,1.951871424241121
-4.0815,0.3235191065023739,1.877694955404949
-4.081,0.312848931644701,1.803518486568845
-4.0805,0.3128489316446912,1.845905040189447
-4.08,0.2381577076409128,1.644568910491266
-4.0795,-0.2099896363813506,0.9134008605353777
-4.079,-0.7541685541239709,-0.01910331912081173
-4.0785,-1.191645723288561,-0.8880276683437509
-4.078,-1.58644219302246,-1.555615887868692
-4.0775,-1.853196564464361,-1.841725124808261
-4.077,-1.277007122150022,-1.227120097309109
-4.0765,-0.4874141826822249,-0.7078848154563768
-4.076,0.1421261339221281,-0.495952047352633
-4.0755,0.5369226036560266,-0.5807251545938954
-4.075,0.6863050516635838,-0.6866915386455698
-4.0745,0.7289857510944017,-0.7926579226971958
-4.074,0.825017324813458,-0.7396747306714069
-4.0735,0.7396559259519968,-0.4535654937318862
-4.073,0.6009436528022487,-0.2310360872235725
-4.0725,0.4835717293676135,-0.09327978795619347
-4.072,0.3982103305061524,-0.008506680714854012
-4.0715,0.3875401556484794,0.2987958330347221
-4.071,0.504912079082513,0.5849050699740499
-4.0705,-0.007256314085787988,0.06566978812131802
-4.07,-0.7221580295498748,-0.548935239377834
-4.0695,-1.277007122149916,-0.9410108603697905
-4.069,-1.159635198715513,-1.163540266878104
-4.0685,-0.690147504977477,-1.152943628472937
-4.068,-0.22065981123914,-0.909220945153604
-4.0675,0.1101156093487211,-0.3793890248957141
-4.067,0.291508581929326,0.4047622170866759
-4.0665,0.3661998059331142,1.135930267043672
-4.066,0.3768699807907871,1.623375633680931
-4.0655,0.3661998059331045,1.824711763379112
-4.065,0.3341892813600856,1.867098316999743
-4.0645,0.3235191065023739,1.877694955404949
-4.064,0.3128489316446912,1.803518486568777
-4.0635,0.3021787567870183,1.422039503983096
-4.063,-0.01792648894398496,0.7332580076462977
-4.0625,-0.5834457564006506,0.1080563417419877
-4.062,-1.042263275280587,-0.6549016234293735
-4.0615,-1.447729919873177,-1.142346990067933
-4.061,-1.703814116457328,-1.322489842955616
-4.0605,-1.26633694729234,-0.9833974139902578
-4.06,-0.5087545323962704,-0.6443049850247747
-4.0595,0.1527963087794516,-0.5065486857577234
-4.059,0.5369226036560266,-0.5277419625680583
-4.0585,0.7076454013787938,-0.6337083466196362
-4.058,0.7503261008096795,-0.7714646458869092
-4.0575,0.8143471499557753,-0.7820612842920766
-4.057,0.8036769750981024,-0.2734226408445024
-4.0565,0.6863050516635838,0.1080563417419877
-4.056,0.5475927785137094,0.2140227257936621
-4.0555,0.44089102993698,0.2140227257936621
-4.055,0.2701682322139122,0.1504428953627057
-4.0545,0.2168173579255475,0.2034260873884947
-4.054,0.1634664836371828,0.1186529801472323
-4.0535,-0.3913826089629162,-0.4005823017063864
-4.053,-0.9995825758502737,-0.7714646458869092
-4.0525,-1.042263275281004,-1.025783967610927
-4.052,-0.6688071552617236,-1.036380606015844
-4.0515,-0.2420001609548061,-0.7608680074817418
-4.051,0.07810508477567314,-0.1356663415768632
-4.0505,0.2594980573561131,0.6484849004048137
-4.05,0.3448594562177392,1.29487984312074
-4.0495,0.3768699807907871,1.70814874092227
-4.049,0.3661998059331142,1.888291593809952
-4.0485,0.3341892813600371,1.888291593810107
-4.048,0.3128489316446912,1.877694955404949
-4.0475,0.3128489316446912,1.835308401784318
-4.047,0.3128489316444972,1.633972272085722
-4.0465,0.09944543449103843,1.220703374284568
-4.046,-0.4340633083926084,0.7332580076473096
-4.0455,-0.8395299529853445,-0.1144730647672126
-4.045,-1.180975548430879,-0.8668343915334161
-4.0445,-1.458400094730627,-1.227120097309109
-4.044,-1.170305373572585,-1.025783967610677
-4.0435,-0.4980843575391895,-0.7502713690765743
-4.043,0.1314559590640864,-0.6549016234300674
-4.0425,0.515582253940312,-0.6866915386455409
-4.042,0.6863050516635838,-0.7714646458869092
-4.0415,0.7183155762366316,-0.8138511995075789
-4.041,0.7716664505249963,-0.9092209451539991
-4.0405,0.793006800240313,-0.8244478379125151
-4.04,0.6863050516635838,-0.570128516188728
-4.0395,0.5475927785138355,-0.2946159176546252
-4.039,0.4408910299368247,-0.0826831495508622
-4.0385,0.3768699807907871,0.09745970333682032
-4.038,0.4088805053638059,0.4683420475173432
-4.0375,0.3982103305055992,0.5001319627326238
-4.037,-0.2099896363817582,-0.1144730647665284
-4.0365,-0.9889124009925911,-0.5913217929990628
-4.036,-1.287677297007404,-0.888027668343828
-4.0355,-0.9569018764195432,-0.9728007755850904
-4.035,-0.4554036581084589,-0.7820612842920766
-4.0345,-0.04993701351688729,-0.2840192792496603
-4.034,0.2061471830678648,0.4683420475176805
-4.0335,0.3341892813600565,1.199510097474233
-4.033,0.3768699807907483,1.69755210251665
-4.0325,0.376869980790758,1.962468062646327
-4.032,0.3448594562177392,2.004854616266958
-4.0315,0.3235191065023933,2.004854616266958
-4.031,0.3128489316446815,1.973064701051379
-4.0305,0.3021787567870086,1.888291593810116
-4.03,0.2488278824986439,1.602182356870856
-4.0295,-0.1993194615245414,0.7120647308355773
-4.029,-0.7114878546928423,-0.3370024712750445
-4.0285,-1.084943974711735,-1.152943628472937
-4.028,-1.405049220442098,-1.68277554873126
-4.0275,-1.277007122150022,-1.629792356705471
-4.027,-0.5514352318276028,-1.174136905283272
-4.0265,0.1421261339211382,-0.8562377531285378
-4.026,0.5475927785137094,-0.7290780922662394
-4.0255,0.7289857510943143,-0.7608680074817418
-4.025,0.7396559259519871,-0.8244478379126885
-4.0245,0.7289857510944017,-0.9304142219644304
-4.024,0.825017324813458,-0.9410108603695881
-4.0235,0.7609962756674205,-0.6019184314045387
-4.023,0.6222840025173714,-0.305212556059359
-4.0225,0.4942419042252961,-0.1038764263613609
-4.022,0.4088805053639126,0.03387987290569044
-4.0215,0.4835717293679435,0.2881991946301907
-4.021,0.8463576745288233,0.6802748156210291
-4.0205,0.4195506802215176,0.2881991946298341
-4.02,-0.4340633083937439,-0.0826831495513248
-4.0195,-1.148965023857831,-0.4111789401112165
-4.019,-1.202315898146244,-0.7608680074817418
-4.0185,-0.7755089038393264,-0.7608680074817418
-4.018,-0.3060212101009019,-0.3158091944647096
-4.0175,0.04609456020262521,0.383568940276341
-4.017,0.259498057356084,1.019367244585809
-4.0165,0.3448594562177683,1.46442605760366
-4.016,0.3768699807907871,1.729342017732605
-4.0155,0.3555296310754412,1.845905040189341
-4.015,0.3341892813600468,1.856501678594633
-4.0145,0.3235191065023739,1.877694955404949
-4.014,0.312848931644701,1.888291593810107
-4.0135,0.3021787567871154,1.718745379327254
-4.013,0.4195506802215176,1.517409249629256
-4.0125,0.4942419042252961,0.9981739677760521
-4.012,0.04609456020200413,0.002089957689494226
-4.0115,-0.6367966306890638,-0.8986243067489184
-4.011,-1.212986073003927,-1.439052865412457
-4.0105,-1.052933450138833,-1.205926820498986
-4.01,-0.4127229586777283,-0.8562377531282487
-4.0095,0.1634664836371343,-0.6866915386455698
-4.009,0.5049120790826683,-0.6125150698094651
-4.0085,0.6329541773751997,-0.6443049850250157
-4.008,0.6649647019482183,-0.7714646458869092
-4.0075,0.8036769750979667,-0.8032545611023826
-4.007,0.8143471499556492,-0.5489352393782388
-4.0065,0.6756348768059011,-0.3793890248957141
-4.006,0.5369226036560266,-0.2840192792492073
-4.0055,0.4302208550791809,-0.1886495336025173
-4.005,0.408880505363835,0.01268659609548085
-4.0045,0.7396559259519968,0.5849050699745222
-4.004,0.4942419042245489,0.4153588554912458
-4.0035,-0.3273615598162672,-0.2416327256285375
-4.003,-1.127624674142465,-0.7078848154559045
-4.0025,-1.469070269587999,-1.01518732920548
-4.002,-1.1062843244271,-1.036380606016095
-4.0015,-0.5621054066852853,-0.7502713690765743
-4.001,-0.103287887805349,-0.1250697031722644
-4.0005,0.1741366584949528,0.6696781772164592
-4,0.3235191065023739,1.326669758336243
-3.9995,0.3768699807907871,1.761131932948107
-3.999,0.3661998059331045,1.941274785835954
-3.9985,0.3448594562177392,1.962468062646288
-3.998,0.3128489316446912,1.951871424241121
-3.9975,0.3021787567870086,1.898888232215284
-3.997,0.291508581929326,1.75053529454294
-3.9965,0.08877525963335578,1.241896651094903
-3.996,-0.4660738329661415,0.4259554938970107
-3.9955,-0.8288597781273515,-0.4959520473525559
-3.995,-1.095614149569417,-1.227120097309109
-3.9945,-1.405049220442214,-1.746355379162313
-3.994,-1.202315898146244,-1.650985633515806
-3.9935,-0.4554036581084589,-1.216523458903942
-3.993,0.1848068333524996,-0.8456411147230812
-3.9925,0.5796033030867573,-0.6760949002404023
-3.992,0.7503261008096795,-0.6019184314042303
-3.9915,0.7609962756673623,-0.5595318777835605
-3.991,0.8143471499557753,-0.6654982618352349
-3.9905,0.8890383739595538,-0.7396747306714069
-3.99,0.7716664505250448,-0.6019184314042303
-3.9895,0.6009436528021226,-0.4323722169215513
-3.989,0.4622313796522482,-0.2734226408440398
-3.9885,0.3661998059331045,-0.1038764263613609
-3.988,0.3555296310754218,0.3941655786815084
-3.9875,0.3448594562177392,0.5213252395435176
-3.987,-0.2526703358124887,-0.09327978795619347
-3.9865,-0.9142211769888124,-0.5913217929990628
-3.986,-1.458400094730627,-0.9410108603695881
-3.9855,-1.341028171296118,-1.05757388282643
-3.985,-0.807519428411986,-0.8244478379127463
-3.9845,-0.2953510352432193,-0.2310360872233701
-3.984,0.0674349099179905,0.55311515475902
-3.9835,0.2808384070716433,1.220703374284568
-3.983,0.3555296310754218,1.644568910491266
-3.9825,0.3768699807907871,1.856501678594614
-3.982,0.3555296310754218,1.877694955404949
-3.9815,0.3341892813600565,1.898888232215284
-3.981,0.3128489316446912,1.909484870620451
-3.9805,0.3128489316446912,1.79292184816361
-3.98,0.2061471830678648,1.633972272086098
-3.9795,-0.391382608962363,1.549199164844759
-3.979,-0.8502001278427167,0.7332580076468663
-3.9785,-1.031593100423322,-0.2946159176543747
-3.978,-1.26633694729234,-1.004590690800593
-3.9775,-1.1062843244271,-1.174136905283272
-3.977,-0.4447334832507763,-0.8774310299385835
-3.9765,0.1741366584948169,-0.6231117082145651
-3.976,0.5475927785137094,-0.5383386009732256
-3.9755,0.6969752265212663,-0.6337083466197325
-3.975,0.707645401378949,-0.7608680074817418
-3.9745,0.6969752265212663,-0.8244478379127463
-3.974,0.79300680024041,-0.7608680074817418
-3.9735,0.8143471499557753,-0.4853554089473885
-3.973,0.7183155762366316,-0.2840192792492073
-3.9725,0.5796033030867573,-0.1356663415768632
-3.972,0.4622313796522482,-0.02969995752518888
-3.9715,0.5582629533713921,0.2034260873884947
-3.971,1.230483969405398,0.8816109453192104
-3.9705,1.603940089424291,1.167720182258731
-3.97,0.9103787236749192,0.4789386859228479
-3.9695,-0.07127736323188383,-0.3899856633008816
-3.969,-0.572775581542968,-0.9728007755850904
-3.9685,-0.5194247072545548,-1.110557074852267
-3.968,-0.2633405106701714,-0.7608680074817418
-3.9675,0.00341386077189465,0.02328323450064829
-3.967,0.1848068333524996,0.8604176685088755
-3.9665,0.2808384070716433,1.517409249629256
-3.966,0.3235191065023739,1.920081509025619
-3.9655,0.3341892813600565,2.100224361913465
-3.965,0.3235191065023739,2.174400830749637
-3.9645,0.3128489316446912,2.174400830749637
-3.964,0.3021787567870086,2.100224361913465
-3.9635,0.2701682322139607,1.867098316999781
-3.963,-0.124628237520297,1.443232780793084
-3.9625,-0.6794773301197943,0.8816109453192104
-3.962,-0.9995825758502737,-0.06148987274069118
-3.9615,-1.234326422719292,-0.8880276683437509
-3.961,-1.405049220442214,-1.42845622700729
-3.9605,-0.9142211769888124,-1.396666311791788
-3.96,-0.2633405106701714,-1.078767159636765
-3.9595,0.2594980573562781,-0.8138511995075789
-3.959,0.5369226036560266,-0.7502713690765743
-3.9585,0.6222840025174878,-0.792657922697244
-3.958,0.6329541773751706,-0.8668343915334161
-3.9575,0.7183155762366316,-0.9516074987747555
-3.957,0.6969752265212663,-0.7820612842920766
-3.9565,0.5902734779444399,-0.5383386009732256
-3.956,0.4942419042252961,-0.3475991096802118
-3.9555,0.408880505363835,-0.2098428104130352
-3.955,0.3875401556484697,-0.008506680714854012
-3.9545,0.6756348768059011,0.5001319627331828
-3.954,0.408880505363835,0.2670059178194992
-3.9535,-0.274010685527854,-0.400582301706049
-3.953,-0.9675720512772257,-0.8986243067489184
-3.9525,-1.212986073003927,-1.184733543688439
-3.952,-0.8928808272734472,-1.163540266878104
-3.9515,-0.4340633083930936,-0.8456411147230812
-3.951,-0.04993701351651855,-0.2098428104130352
-3.9505,0.1954770082101822,0.6060983467848571
-3.95,0.3128489316446912,1.29487984312074
-3.9495,0.3555296310754218,1.739938656137773
-3.949,0.3448594562177392,1.920081509025619
-3.9485,0.3235191065023739,1.909484870620451
-3.948,0.3021787567870086,1.867098316999781
-3.9475,0.291508581929326,1.612778995275763
-3.947,0.291508581929326,1.37965295036208
-3.9465,0.1527963087794516,0.8604176685088755
-3.946,-0.4660738329661415,-0.08268314955102604
-3.9455,-0.9995825758502737,-0.9410108603695881
-3.945,-1.341028171296118,-1.439052865412457
-3.9445,-1.714484291315011,-1.534422611058964
-3.944,-1.415719395299897,-1.142346990067769
-3.9435,-0.5194247072545548,-0.718481453861072
-3.943,0.2061471830678648,-0.570128516188728
-3.9425,0.6116138276598051,-0.5913217929990628
-3.942,0.7503261008096795,-0.7290780922662394
-3.9415,0.7716664505250448,-0.8562377531282487
-3.941,0.8356874996711408,-1.004590690800593
-3.9405,1.006410297394063,-1.131750351662602
-3.94,0.9210488985326017,-0.8456411147230812
-3.9395,0.7289857510943143,-0.4641621321370536
-3.939,0.5475927785137094,-0.1462629799820306
-3.9385,0.4195506802215176,0.09745970333682032
-3.938,0.4835717293676135,0.4153588554918433
-3.9375,0.4622313796522482,0.4047622170866759
-3.937,-0.124628237520297,-0.2204394488182027
-3.9365,-0.807519428411986,-0.7608680074817418
-3.936,-1.138294849000148,-1.110557074852267
-3.9355,-0.8822106524157645,-1.142346990067769
-3.935,-0.4447334832507763,-0.8138511995075789
-3.9345,-0.07127736323188383,-0.1674562567923655
-3.934,0.1741366584948169,0.5637117931641874
-3.9335,0.3021787567870086,1.125333628638062
-3.933,0.3448594562177392,1.464426057603419
-3.9325,0.3448594562177392,1.612778995275763
-3.932,0.3235191065023739,1.612778995275763
-3.9315,0.3021787567870086,1.612778995275763
-3.931,0.291508581929326,1.591585718465428
-3.9305,0.291508581929326,1.210106735879401
-3.93,0.2808384070716433,0.8710143069140429
-3.9295,0.4195506802215176,0.6908714540261965
-3.929,0.3235191065023739,0.1716361721729923
-3.9285,-0.2420001609548061,-0.5489352393783931
-3.928,-0.9995825758502737,-0.9622041371799229
-3.9275,-1.341028171296118,-1.163540266878104
-3.927,-0.8822106524157645,-0.9728007755850904
-3.9265,-0.2313299860971235,-0.7078848154559045
-3.926,0.2594980573562781,-0.6019184314042303
-3.9255,0.5262524287983441,-0.6337083466197325
-3.925,0.6116138276598051,-0.6972881770507372
-3.9245,0.6863050516635838,-0.8668343915334161
-3.924,0.9103787236749192,-0.9939940523954253
-3.9235,0.8783681991018712,-0.7608680074817418
-3.923,0.707645401378949,-0.474758770542221
-3.9225,0.5369226036560266,-0.2098428104130352
-3.922,0.408880505363835,-0.02969995752518888
-3.9215,0.5475927785137094,0.2987958330350016
-3.921,1.091771696255524,0.8710143069140429
-3.9205,0.8036769750980928,0.5637117931641874
-3.92,-0.04993701351651855,-0.08268314955102604
-3.9195,-0.8822106524157645,-0.5595318777835605
-3.919,-1.116954499284783,-0.8668343915334161
-3.9185,-0.7968492535543035,-0.792657922697244
-3.918,-0.3700422592469978,-0.2946159176543747
-3.9175,-0.01792648894347063,0.457745409112513
-3.917,0.1954770082101822,1.125333628638062
-3.9165,0.3021787567870086,1.591585718465428
-3.916,0.3341892813600565,1.845905040189447
-3.9155,0.3341892813600565,1.898888232215284
-3.915,0.3128489316446912,1.877694955404949
-3.9145,0.291508581929326,1.856501678594614
-3.914,0.291508581929326,1.761131932948107
-3.9135,0.2594980573562781,1.580989080060261
-3.913,-0.1352984123779797,1.199510097474233
-3.9125,-0.7114878546928423,0.5743084315693548
-3.912,-1.116954499284783,-0.3370024712750445
-3.9115,-1.447729919872945,-1.131750351662602
-3.911,-1.757164990745741,-1.629792356705471
-3.9105,-1.351698346153801,-1.290699927740113
-3.91,-0.6261264558313813,-0.792657922697244
-3.9095,0.02475421048725994,-0.474758770542221
-3.909,0.4408910299368829,-0.3793890248957141
-3.9085,0.6756348768059011,-0.4853554089473885
-3.908,0.7289857510943143,-0.6337083466197325
-3.9075,0.7503261008096795,-0.8986243067489184
-3.907,0.6863050516635838,-0.8986243067489184
-3.9065,0.5582629533713921,-0.6337083466197325
-3.906,0.4408910299368829,-0.3581957480853793
-3.9055,0.3661998059331045,-0.1568596183871981
-3.905,0.3982103305061524,0.05507314971615059
-3.9045,0.8463576745288233,0.5743084315693548
-3.904,0.6756348768059011,0.4153588554918433
-3.9035,0.07810508477567314,-0.2946159176543747
-3.903,-0.4554036581084589,-0.9728007755850904
-3.9025,-0.4874141826815069,-1.396666311791788
-3.902,-0.274010685527854,-1.492036057438295
-3.9015,-0.03926683865883591,-1.237716735714276
-3.901,0.1527963087794516,-0.6549016234300674
-3.9005,0.2488278824985954,0.1504428953626575
-3.9,0.3021787567870086,0.8710143069140429
-3.8995,0.3128489316446912,1.358459673551745
-3.899,0.3128489316446912,1.602182356870596
-3.8985,0.291508581929326,1.676358825706768
-3.898,0.291508581929326,1.697552102517103
-3.8975,0.291508581929326,1.676358825706768
-3.897,0.2808384070716433,1.580989080060261
-3.8965,0.1101156093487211,1.157123543853563
-3.896,-0.4767440078238243,0.5319218779486851
-3.8955,-0.9995825758502737,-0.2840192792492073
-3.895,-1.319687821580753,-1.046977244421262
-3.8945,-1.629122892453549,-1.608599079895136
-3.894,-1.30901764672307,-1.481439419033127
-3.8935,-0.5407650569699201,-0.9833974139902578
-3.893,0.1207857842064037,-0.5913217929990628
-3.8925,0.4942419042252961,-0.4853554089473885
-3.892,0.6436243522328531,-0.5065486857577234
-3.8915,0.6649647019482183,-0.6019184314042303
-3.891,0.7609962756673623,-0.7820612842920766
-3.8905,0.8783681991018712,-0.8562377531282487
-3.89,0.7823366253827275,-0.6337083466197325
-3.8895,0.6222840025174878,-0.3370024712750445
-3.889,0.4729015545099309,-0.1144730647665284
-3.8885,0.3875401556484697,0.05507314971615059
-3.888,0.6863050516635838,0.4895353243280153
-3.8875,1.166462920259302,0.8074344764830383
-3.887,0.857027849386506,0.2352160026039969
-3.8865,0.1314559590640864,-0.4323722169215513
