Class_2_Relax_eyes_open/Class_2_Relax_Eyes_open_Turki_3.csv

#Digilent WaveForms Oscilloscope Acquisition
#Device Name: EExplorer
#Serial Number: SN:210151A2B84A
#Date Time: 2020-11-04 11:25:45.366
#Sample rate: 2000Hz
#Samples: 16384
#Trigger: Source: Channel 1 Type: Edge Condition: Rising Level: 0 V Hyst.: Auto HoldOff: 0 s
#Channel 1: Range: 1 V/div Offset: 0 V Attenuation: 1 X
#Channel 2: Range: 1 V/div Offset: 0 V Attenuation: 1 X
#Power Supplies: ON
#Fixed Supply: ON
#Voltage: 3.3 V Readback: 3.319 V
#Positive Supply: ON
#Voltage: 3.7 V Readback: 3.715 V
#Current: 500 mA Readback: 20 mA
#Negative Supply: ON
#Voltage: -3.7 V Readback: -3.703 V
#Current: -500 mA Readback: -9 mA
#Reference 1: ON
#Voltage: 0 V
#Reference 2: ON
#Voltage: 0 V

Time (s),Channel 1 (V),Channel 2 (V)
-4.096,-1.682473766741963,-1.88411167842949
-4.0955,-1.714484291314982,-1.915901593644963
-4.095,-1.010252750707209,-1.269506650929181
-4.0945,-0.1886492866663929,-0.6125150698093976
-4.094,0.3982103305056186,-0.2734226408443483
-4.0935,0.686305051663642,-0.08268314955097786
-4.093,0.7503261008096795,-0.02969995752518888
-4.0925,0.7183155762366606,-0.04029659593034667
-4.092,0.6436243522328434,-0.1038764263614862
-4.0915,0.6329541773751706,-0.2416327256285375
-4.091,0.707645401378949,-0.1886495336027004
-4.0905,0.7076454013788909,-0.02969995752500576
-4.09,0.6436243522328531,0.1716361721729923
-4.0895,0.5582629533713921,0.4047622170866759
-4.089,0.6329541773751026,0.3835689402763603
-4.0885,0.9957401225363802,-0.1674562567923655
-4.088,0.4195506802215176,-0.8350444763179138
-4.0875,-0.6154562809727573,-1.269506650929383
-4.087,-1.511750969019341,-1.364876396576131
-4.0865,-1.842526389607202,-1.195330182093607
-4.086,-1.36236852101192,-0.909220945154346
-4.0855,-0.6794773301192897,-0.6125150698091277
-4.085,-0.124628237520297,-0.3158091944647096
-4.0845,0.216817357925237,0.1186529801467601
-4.084,0.3875401556485182,0.8604176685095887
-4.0835,0.4408910299368829,1.644568910491266
-4.083,0.4302208550792003,2.026047893077293
-4.0825,0.3982103305061233,1.898888232214783
-4.082,0.3661998059331045,1.347863035146577
-4.0815,0.3448594562177392,0.5107286011383502
-4.081,0.3128489316447204,-0.1992461720072222
-4.0805,-0.1673089369510276,-0.6231117082145651
-4.08,-0.9995825758502737,-1.089363798041932
-4.0795,-1.714484291314361,-1.566212526274033
-4.079,-2.25866320905669,-1.905304955239593
-4.0785,-2.109280761049269,-1.650985633515806
-4.078,-1.148965023858704,-0.9304142219650761
-4.0775,-0.2633405106696182,-0.4429688553264874
-4.077,0.3448594562177392,-0.1886495336027004
-4.0765,0.6436243522325813,-0.1250697031717536
-4.076,0.7183155762366121,-0.1250697031717729
-4.0755,0.6969752265212663,-0.2098428104130352
-4.075,0.6649647019482183,-0.3158091944647096
-4.0745,0.7930068002404004,-0.3475991096799805
-4.074,0.7823366253827275,-0.09327978795619347
-4.0735,0.707645401378949,0.2246193641988295
-4.073,0.6116138276598925,0.8074344764825083
-4.0725,0.5902734779444399,0.9875773293708847
-4.072,0.974399772821015,0.457745409112513
-4.0715,0.6329541773754811,-0.4005823017052684
-4.071,-0.4020527838209482,-1.068170521231906
-4.0705,-1.394379045584531,-1.407262950196955
-4.07,-1.735824641030066,-1.38606967338664
-4.0695,-1.27700712214944,-1.131750351662303
-4.069,-0.6367966306890638,-0.8032545611024114
-4.0685,-0.1032878878049318,-0.3370024712750445
-4.068,0.2381577076410583,0.3941655786823276
-4.0675,0.3982103305061524,1.29487984312074
-4.067,0.4515612047945656,1.994257977861791
-4.0665,0.4408910299368539,2.333350406827043
-4.066,0.408880505363835,2.216787384370307
-4.0655,0.3768699807907871,1.697552102517103
-4.065,0.3661998059331142,1.337266396741738
-4.0645,0.3555296310754218,0.92399749893988
-4.064,0.1207857842064037,0.2776025562246667
-4.0635,-0.5834457564000101,-0.5595318777827991
-4.063,-1.341028171296652,-1.258910012525083
-4.0625,-1.927887788468663,-1.778145294377815
-4.062,-2.162631635337468,-1.841725124808762
-4.0615,-1.458400094729802,-1.184733543687861
-4.061,-0.5514352318276028,-0.5489352393783931
-4.0605,0.1527963087794516,-0.1356663415768632
-4.06,0.5369226036561431,-0.05089323433554302
-4.0595,0.6649647019482183,-0.07208651114585861
-4.059,0.6756348768059011,-0.02969995752518888
-4.0585,0.6329541773752094,-0.1356663415767668
-4.058,0.7183155762366316,-0.3158091944647096
-4.0575,0.825017324813458,-0.1780528951975329
-4.057,0.7609962756674205,0.02328323450046518
-4.0565,0.6542945270905358,0.1610395337678249
-4.056,0.5902734779444399,0.2458126410091644
-4.0555,0.8570278493862633,0.04447651131116626
-4.055,1.017080472250959,-0.5489352393789135
-4.0545,0.1527963087794516,-1.121153713257435
-4.054,-0.8928808272724963,-1.375473034981221
-4.0535,-1.746494815888185,-1.322489842955404
-4.053,-1.885207089037933,-1.089363798041932
-4.0525,-1.255666772434657,-0.8032545611024114
-4.052,-0.5621054066848,-0.4959520473521319
-4.0515,-0.02859666380115328,-0.02969995752518888
-4.051,0.2808384070716433,0.7226613692416989
-4.0505,0.4195506802213915,1.559795803249165
-4.05,0.4622313796522482,2.142610915534135
-4.0495,0.4302208550792003,2.174400830749637
-4.049,0.3875401556485085,1.845905040189745
-4.0485,0.3341892813600468,1.125333628637252
-4.048,0.3235191065023739,0.2352160026039969
-4.0475,0.2915085819293551,-0.538338600972522
-4.047,-0.1673089369517846,-1.152943628473409
-4.0465,-0.9995825758502737,-1.672178910326141
-4.046,-1.650463242168323,-1.968884785670559
-4.0455,-1.693143941599053,-1.915901593644443
-4.045,-1.042263275281004,-1.311893204550448
-4.0445,-0.2420001609548061,-0.6760949002404023
-4.044,0.3341892813603186,-0.252229364033599
-4.0435,0.6222840025174878,-0.1356663415768632
-4.043,0.7183155762366316,-0.1038764263613609
-4.0425,0.6969752265212857,-0.1780528951974655
-4.042,0.6329541773751706,-0.2310360872233701
-4.0415,0.6436243522328531,-0.326405832869877
-4.041,0.7716664505249283,-0.273422640844088
-4.0405,0.7716664505249672,-0.08268314955083329
-4.04,0.6863050516635838,0.1292496185523226
-4.0395,0.5689331282291814,0.5319218779483188
-4.039,0.6329541773754326,0.6378882619998389
-4.0385,0.9210488985326017,0.06566978812131802
-4.038,0.2594980573568797,-0.6760949002397276
-4.0375,-0.7008176798357906,-1.174136905283407
-4.037,-1.394379045584531,-1.322489842955616
-4.0365,-1.447729919872945,-1.174136905283272
-4.036,-0.9355615267036537,-0.8986243067485618
-4.0355,-0.3593720843893152,-0.5065486857577234
-4.035,0.05676473506030786,0.1080563417419877
-4.0345,0.3021787567867854,1.0087706061804
-4.034,0.4195506802215176,1.824711763379112
-4.0335,0.4408910299368829,2.365140322042651
-4.033,0.4195506802215371,2.481703344499387
-4.0325,0.3875401556484406,2.280367214800965
-4.032,0.3555296310754218,1.898888232215284
-4.0315,0.334189281360076,0.9875773293717135
-4.031,0.3235191065021021,0.09745970333621315
-4.0305,0.02475421048725994,-0.570128516188728
-4.03,-0.7328282044075185,-1.18473354368788
-4.0295,-1.46907026958865,-1.703968825541884
-4.029,-1.842526389607202,-1.968884785670829
-4.0285,-1.565101843307454,-1.682775548731308
-4.028,-0.7328282044075185,-0.9833974139898723
-4.0275,0.02475421048725994,-0.5595318777835605
-4.027,0.4942419042252961,-0.3687923864905467
-4.0265,0.6969752265210819,-0.3370024712750734
-4.026,0.7183155762366316,-0.2946159176543747
-4.0255,0.6756348768059011,-0.4111789401112165
-4.025,0.6329541773752094,-0.5807251545937412
-4.0245,0.7716664505251613,-0.6125150698092049
-4.024,0.8997085488172365,-0.400582301706049
-4.0235,0.8356874996711989,-0.1568596183874197
-4.023,0.7076454013788811,0.03387987290596992
-4.0225,0.6329541773751706,0.2034260873884947
-4.022,0.9637295979630316,-0.05089323433529241
-4.0215,0.664964701947277,-0.65490162343053
-4.021,-0.3700422592469978,-1.163540266878104
-4.0205,-1.373038695869166,-1.396666311791788
-4.02,-1.810515865033795,-1.30129656614504
-4.0195,-1.415719395299897,-1.036380606016095
-4.019,-0.7434983792658902,-0.718481453861072
-4.0185,-0.1779791118092245,-0.4323722169218115
-4.018,0.1954770082101822,-0.1674562567923655
-4.0175,0.3768699807907871,0.1716361721729923
-4.017,0.4515612047944976,0.7014680924308822
-4.0165,0.4408910299368441,1.252493289500032
-4.016,0.3982103305061524,1.210106735879401
-4.0155,0.3448594562177877,0.8180311148885624
-4.015,0.3128489316446718,0.5849050699742234
-4.0145,0.291508581929326,0.2564092794143318
-4.014,0.1954770082102695,-0.3793890248951359
-4.0135,-0.3700422592475995,-1.025783967611429
-4.013,-1.031593100423322,-1.576809164679634
-4.0125,-1.554431668449771,-1.926498232050159
-4.012,-1.629122892452919,-1.862918401618529
-4.0115,-0.9355615267041777,-1.174136905283272
-4.011,-0.156638762093345,-0.5595318777835605
-4.0105,0.3555296310749559,-0.2204394488185111
-4.01,0.6116138276598051,-0.08268314955102604
-4.0095,0.6863050516635838,-0.1356663415768632
-4.009,0.6756348768059107,-0.2628260024387568
-4.0085,0.6329541773752482,-0.3158091944647674
-4.008,0.7183155762366316,-0.3793890248957141
-4.0075,0.7823366253826693,0.07626642652607107
-4.007,0.6969752265211498,0.6590815388108099
-4.0065,0.5689331282290746,0.7862411996727035
-4.006,0.4835717293676135,0.8392243916985406
-4.0055,0.7076454013790558,0.4895353243273214
-4.005,0.825017324813458,-0.2734226408440398
-4.0045,0.1634664836371343,-0.9516074987747555
-4.004,-0.754168554124262,-1.280103289334955
-4.0035,-1.51175096901904,-1.290699927740113
-4.003,-1.533091318734406,-1.089363798041932
-4.0025,-0.978242226135413,-0.8138511995078295
-4.002,-0.3807124341046804,-0.4535654937318862
-4.0015,0.05676473506030786,0.1822328105781598
-4.001,0.3128489316444583,1.082947075016572
-4.0005,0.4195506802215371,1.835308401784674
-4,0.4408910299368829,2.269770576396144
-3.9995,0.4195506802215176,2.248577299585809
-3.999,0.3768699807907871,1.877694955404949
-3.9985,0.3448594562177392,1.019367244586387
-3.998,0.3235191065023739,0.07626642652648545
-3.9975,0.2381577076409128,-0.718481453861072
-3.997,-0.3487019095316325,-1.333086481360783
-3.9965,-1.127624674142465,-1.820531847998485
-3.996,-1.799845690176472,-1.979481424075996
-3.9955,-2.130621110764634,-1.958288147265661
-3.995,-1.490410619303675,-1.523825972653797
-3.9945,-0.5407650569699201,-0.8032545611024114
-3.994,0.1634664836371343,-0.326405832869877
-3.9935,0.5582629533713921,-0.07208651114585861
-3.993,0.7183155762366316,0.02328323450064829
-3.9925,0.7183155762366316,0.01268659609548085
-3.992,0.6649647019482183,-0.09327978795619347
-3.9915,0.6649647019482183,-0.2734226408440398
-3.991,0.7609962756673623,-0.2946159176543747
-3.9905,0.7289857510943143,-0.1038764263613609
-3.99,0.6329541773751706,0.13984625695749
-3.9895,0.5369226036560266,0.4683420475176805
-3.989,0.6116138276598051,0.4895353243280153
-3.9885,1.070431346540159,-0.02969995752518888
-3.988,0.5796033030867573,-0.7290780922662394
-3.9875,-0.4767440078238243,-1.216523458903942
-3.987,-1.447729919872945,-1.375473034981453
-3.9865,-1.917217613610981,-1.258910012524611
-3.986,-1.479740444445993,-0.9939940523954253
-3.9855,-0.7755089038389382,-0.6972881770507372
-3.985,-0.1779791118087102,-0.3793890248957141
-3.9845,0.1954770082101822,0.1186529801471552
-3.984,0.3875401556484697,0.8604176685088755
-3.9835,0.4515612047945656,1.633972272086098
-3.983,0.4408910299368829,2.015451254672126
-3.9825,0.3982103305061524,1.697552102517103
-3.982,0.3555296310754218,1.241896651094903
-3.9815,0.3235191065023739,0.7862411996727035
-3.981,0.3128489316446912,0.1504428953626575
-3.9805,0.03542438534494258,-0.5277419625680583
-3.98,-0.7008176798351597,-1.142346990067769
-3.9795,-1.447729919872945,-1.661582271920973
-3.979,-1.639793067311232,-1.88411167842949
-3.9785,-0.9355615267041777,-1.523825972653797
-3.978,-0.03926683865883591,-1.01518732920576
-3.9775,0.5369226036560266,-0.6231117082145651
-3.977,0.79300680024041,-0.4217755785163839
-3.9765,0.8143471499557753,-0.326405832869877
-3.976,0.7396559259519968,-0.3052125560595421
-3.9755,0.6436243522328531,-0.3158091944647096
-3.975,0.5902734779444399,-0.4323722169215513
-3.9745,0.6649647019482183,-0.4535654937318862
-3.974,0.6756348768059011,-0.1992461720078678
-3.9735,0.5902734779444399,0.04447651131098315
-3.973,0.5262524287983441,0.06566978812131802
-3.9725,0.5369226036560266,0.04447651131098315
-3.972,0.9530594231056497,-0.1674562567923655
-3.9715,0.8036769750980928,-0.7078848154559045
-3.971,-0.1993194615240755,-1.152943628472937
-3.9705,-1.244996597576974,-1.322489842955616
-3.97,-1.682473766741963,-1.184733543688439
-3.9695,-1.30901764672307,-0.8880276683437509
-3.969,-0.6794773301197943,-0.5489352393783931
-3.9685,-0.1352984123779797,-0.1568596183871981
-3.968,0.2061471830678648,0.4365521323021782
-3.9675,0.3875401556484697,1.29487984312074
-3.967,0.4408910299368829,2.068434446697963
-3.9665,0.4408910299368829,2.545283174930498
-3.966,0.408880505363835,2.502896621309828
-3.9655,0.3661998059331045,1.803518486568777
-3.965,0.3448594562177392,0.8604176685088755
-3.9645,0.3448594562177392,0.03387987290581572
-3.964,0.2061471830678648,-0.3687923864905467
-3.9635,-0.4447334832507763,-0.8350444763179138
-3.963,-1.234326422719292,-1.322489842955616
-3.9625,-1.778505340461106,-1.640388995110639
-3.962,-1.789175515318789,-1.545019249464132
-3.9615,-1.031593100423322,-1.004590690800593
-3.961,-0.1886492866663929,-0.474758770542221
-3.9605,0.3768699807907871,-0.1780528951975329
-3.96,0.6329541773751706,-0.07208651114585861
-3.9595,0.707645401378949,-0.1356663415768632
-3.959,0.6863050516635838,-0.2310360872233701
-3.9585,0.6222840025174878,-0.252229364033705
-3.958,0.707645401378949,-0.400582301706049
-3.9575,0.79300680024041,-0.326405832869877
-3.957,0.7503261008096795,-0.04029659593035631
-3.9565,0.6649647019482183,0.2246193641988295
-3.956,0.5689331282290746,0.4895353243280153
-3.9555,0.79300680024041,0.4471487707073456
-3.955,0.8676980242441885,-0.1780528951975329
-3.9545,-0.02859666380115328,-0.8350444763179138
-3.954,-1.052933450138687,-1.163540266878104
-3.9535,-1.87453691418025,-1.163540266878104
-3.953,-2.013249187330125,-1.004590690800593
-3.9525,-1.362368521011484,-0.7714646458869092
-3.952,-0.6154562809736985,-0.5171453241628908
-3.9515,-0.06060718837420119,-0.2098428104130352
-3.951,0.2701682322139607,0.2987958330350016
-3.9505,0.4195506802215176,1.051157159801889
-3.95,0.4622313796522482,1.75053529454294
-3.9495,0.4302208550792003,1.877694955404949
-3.949,0.3875401556484697,1.697552102517103
-3.9485,0.3555296310754218,1.475022696008586
-3.948,0.3128489316446912,1.051157159801889
-3.9475,0.2488278824985954,0.2140227257936621
-3.947,-0.2526703358124887,-0.6337083466197325
-3.9465,-1.042263275281004,-1.311893204550448
-3.946,-1.693143941599645,-1.809935209593318
-3.9455,-2.19464215991073,-1.862918401619155
-3.945,-1.821186039891837,-1.354279758171118
-3.9445,-0.8502001278427167,-0.6866915386455698
-3.944,-0.03926683865883591,-0.2098428104130352
-3.9435,0.4729015545099309,-0.07208651114585861
-3.943,0.6863050516635838,-0.1038764263613609
-3.9425,0.7183155762366316,-0.07208651114585861
-3.942,0.6756348768059011,-0.1250697031716958
-3.9415,0.6863050516635838,-0.2946159176543747
-3.941,0.825017324813458,-0.3052125560595421
-3.9405,0.8143471499557753,-0.02969995752518888
-3.94,0.7289857510943143,0.2458126410091644
-3.9395,0.6116138276598051,0.3411823866556712
-3.939,0.6436243522328531,0.2987958330350016
-3.9385,0.9850699476786977,-0.2098428104130352
-3.938,0.408880505363835,-0.8244478379127463
-3.9375,-0.6474668055467465,-1.227120097309109
-3.937,-1.543761493592088,-1.311893204550448
-3.9365,-1.586442193022819,-1.142346990067769
-3.936,-1.031593100423322,-0.8562377531282487
-3.9355,-0.4127229586777283,-0.5595318777835605
-3.935,0.04609456020262521,-0.2098428104130352
-3.9345,0.3021787567870086,0.383568940276341
-3.934,0.4195506802215176,1.199510097474233
-3.9335,0.4515612047945656,1.898888232215284
-3.933,0.4302208550792003,2.216787384370307
-3.9325,0.3982103305061524,2.142610915534135
-3.932,0.3661998059331045,2.004854616266958
-3.9315,0.3448594562177392,1.443232780793084
-3.931,0.3341892813600565,0.4365521323021782
-3.9305,0.01408403562957729,-0.5171453241628908
-3.93,-0.7434983792658902,-1.258910012524611
-3.9295,-1.46907026958831,-1.809935209593318
-3.929,-1.981238662757077,-1.947691508860494
-3.9285,-1.778505340461106,-1.862918401619155
-3.928,-0.807519428411986,-1.248313374119443
-3.9275,0.02475421048725994,-0.5595318777835605
-3.927,0.5262524287983441,-0.1462629799820306
-3.9265,0.7289857510943143,0.03387987290581572
-3.926,0.7503261008096795,0.04447651131098315
-3.9255,0.707645401378949,-0.06148987274069118
-3.925,0.6649647019482183,-0.2204394488182027
-3.9245,0.7716664505250448,-0.2734226408440398
-3.924,0.7823366253827275,-0.1462629799820306
-3.9235,0.6969752265212663,0.03387987290581572
-3.923,0.5902734779444399,0.2564092794143318
-3.9225,0.5475927785137094,0.4047622170866759
-3.922,0.8890383739595538,0.08686306493165288
-3.9215,0.6436243522328531,-0.5595318777835605
-3.921,-0.3273615598162672,-1.089363798041932
-3.9205,-1.244996597576974,-1.258910012524611
-3.92,-1.810515865034154,-1.163540266878104
-3.9195,-1.51175096901904,-0.9198175835592532
-3.919,-0.8502001278427167,-0.6443049850249
-3.9185,-0.2420001609548061,-0.3370024712750445
-3.918,0.1527963087794516,0.1080563417419877
-3.9175,0.3661998059331045,0.8074344764830383
-3.917,0.4515612047945656,1.602182356870596
-3.9165,0.4515612047945656,2.110821000318633
-3.916,0.4195506802215176,1.920081509025619
-3.9155,0.3661998059331045,1.443232780793084
-3.915,0.3341892813600565,1.051157159801889
-3.9145,0.3235191065023739,0.4789386859228479
-3.914,0.2061471830678648,-0.2204394488182027
-3.9135,-0.4340633083930936,-0.8986243067489184
-3.913,-1.255666772434657,-1.47084278062796
-3.9125,-1.906547438753298,-1.862918401619155
-3.912,-2.205312334768412,-1.84172512480882
-3.9115,-1.490410619303675,-1.163540266878104
-3.911,-0.5514352318276028,-0.5489352393783931
-3.9105,0.1634664836371343,-0.252229364033705
-3.91,0.5475927785137094,-0.1886495336027004
-3.9095,0.707645401378949,-0.2098428104130352
-3.909,0.707645401378949,-0.3158091944647096
-3.9085,0.6649647019482183,-0.3687923864905467
-3.908,0.7609962756673623,-0.4429688553267188
-3.9075,0.8783681991018712,-0.1992461720078678
-3.907,0.8143471499557753,0.1186529801471552
-3.9065,0.6863050516635838,0.3411823866556712
-3.906,0.6009436528021226,0.627291623595192
-3.9055,0.8143471499557753,0.6802748156210291
-3.905,0.8783681991018712,0.03387987290581572
-3.9045,-0.007256314085787988,-0.6760949002404023
-3.904,-0.9995825758502737,-1.025783967610927
-3.9035,-1.746494815888059,-1.05757388282643
-3.903,-1.682473766741963,-0.9304142219644207
-3.9025,-1.052933450138687,-0.7078848154559045
-3.902,-0.4020527838200457,-0.3793890248957141
-3.9015,0.0674349099179905,0.1716361721729923
-3.901,0.3235191065023739,0.9981739677760521
-3.9005,0.4408910299368829,1.771728571353275
-3.9,0.4622313796522482,2.269770576396144
-3.8995,0.4195506802215176,2.227384022775475
-3.899,0.3448594562177392,1.475022696008586
-3.8985,0.3235191065023739,0.6166949851900245
-3.898,0.3235191065023739,-0.09327978795619347
-3.8975,0.3128489316446912,-0.5489352393783931
-3.897,-0.1139580626626144,-0.9833974139902578
-3.8965,-0.9248913518464952,-1.42845622700729
-3.896,-1.639793067311232,-1.79933857118815
-3.8955,-1.970568487899394,-1.894708316834657
-3.895,-1.51175096901904,-1.460246142222792
-3.8945,-0.6474668055467465,-0.7078848154559045
-3.894,0.0674349099179905,-0.2310360872233701
-3.8935,0.4942419042252961,-0.04029659593035631
-3.893,0.6863050516635838,-0.04029659593035631
-3.8925,0.7183155762366316,-0.1356663415768632
-3.892,0.6863050516635838,-0.2204394488182027
-3.8915,0.6863050516635838,-0.3158091944647096
-3.891,0.79300680024041,-0.3475991096802118
-3.8905,0.7503261008096795,-0.1886495336027004
-3.89,0.6542945270905358,0.04447651131098315
-3.8895,0.5582629533713921,0.2881991946298341
-3.889,0.6116138276598051,0.309392471440169
-3.8885,0.9637295979633325,-0.1886495336027004
-3.888,0.3555296310754218,-0.8244478379127463
-3.8875,-0.7008176798351597,-1.269506650929778
-3.887,-1.575772018165136,-1.38606967338662
-3.8865,-1.87453691418025,-1.248313374119443
