Class_2_Relax_eyes_open/Class_2_Relax_Eyes_open_Turki_2.csv

#Digilent WaveForms Oscilloscope Acquisition
#Device Name: EExplorer
#Serial Number: SN:210151A2B84A
#Date Time: 2020-10-27 13:49:36.828
#Sample rate: 2000Hz
#Samples: 16384
#Trigger: Source: Channel 1 Type: Edge Condition: Rising Level: 0 V Hyst.: Auto HoldOff: 0 s
#Channel 1: Range: 1 V/div Offset: 0 V Attenuation: 1 X
#Channel 2: Range: 1 V/div Offset: 0 V Attenuation: 1 X
#Power Supplies: ON
#Fixed Supply: ON
#Voltage: 3.3 V Readback: 3.328 V
#Positive Supply: ON
#Voltage: 3.7 V Readback: 3.71 V
#Current: 500 mA Readback: 20 mA
#Negative Supply: ON
#Voltage: -3.7 V Readback: -3.71 V
#Current: -500 mA Readback: -10 mA
#Reference 1: ON
#Voltage: 0 V
#Reference 2: ON
#Voltage: 0 V

Time (s),Channel 1 (V),Channel 2 (V)
-4.096,-0.4447334832507763,-1.05757388282643
-4.0955,0.2061471830672728,-0.591321792999487
-4.095,0.5796033030868641,-0.3475991096800384
-4.0945,0.6969752265212663,-0.1568596183871981
-4.094,0.7076454013789394,-0.07208651114593571
-4.0935,0.6756348768058816,-0.1250697031718692
-4.093,0.6542945270905358,-0.3158091944647096
-4.0925,0.7289857510942463,-0.4005823017059719
-4.092,0.7289857510942658,-0.1780528951973113
-4.0915,0.6756348768059011,0.06566978812131802
-4.091,0.6116138276598051,0.1822328105781598
-4.0905,0.5582629533716541,0.2881991946296799
-4.09,0.8463576745288233,0.1186529801471552
-4.0895,1.454557641416734,-0.4641621321370536
-4.089,1.123782220828873,-1.004590690800101
-4.0885,-0.007256314085787988,-1.280103289334946
-4.088,-1.148965023857831,-1.237716735714276
-4.0875,-2.066600061617703,-0.9833974139904891
-4.087,-2.301343908486838,-0.6549016234295084
-4.0865,-1.51175096901904,-0.04029659593035631
-4.086,-0.6581369804052054,0.8816109453183719
-4.0855,-0.01792648894312127,1.771728571353824
-4.085,0.3661998059331045,2.375736960447818
-4.0845,0.5475927785135444,2.661846197387079
-4.084,0.5796033030867282,2.566476451740582
-4.0835,0.5475927785137094,2.290963853206479
-4.083,0.4835717293676135,1.920081509025619
-4.0825,0.4195506802213721,1.305476481525156
-4.082,0.2594980573562781,0.4789386859228479
-4.0815,-0.4340633083930936,-0.4323722169215513
-4.081,-1.309017646722274,-1.184733543687755
-4.0805,-2.03458953704549,-1.75695201756748
-4.08,-2.183971985053047,-1.937094870455327
-4.0795,-1.341028171296885,-1.492036057438699
-4.079,-0.4233931335347996,-0.8986243067485232
-4.0785,0.2488278824985954,-0.4641621321370536
-4.078,0.6116138276594751,-0.2628260024390555
-4.0775,0.7396559259519968,-0.2098428104130738
-4.077,0.7396559259519968,-0.252229364033705
-4.0765,0.6969752265213052,-0.3793890248955984
-4.076,0.8890383739598158,-0.6443049850250157
-4.0755,1.177133095116985,-0.7714646458869092
-4.075,1.102441871113207,-0.4429688553267188
-4.0745,0.9103787236747446,0.08686306493197092
-4.074,0.7183155762366316,0.4365521323021782
-4.0735,0.7183155762366316,0.4683420475176805
-4.073,1.251824319120278,-0.08268314955052491
-4.0725,1.369196242555273,-0.7608680074817418
-4.072,0.7289857510943143,-1.216523458903942
-4.0715,-0.2633405106692689,-1.375473034981308
-4.071,-1.287677297008181,-1.269506650929537
-4.0705,-1.810515865034154,-1.004590690800593
-4.07,-1.415719395300256,-0.315809194465336
-4.0695,-0.7114878546922891,0.6908714540269868
-4.069,-0.1032878878049318,1.559795803249926
-4.0685,0.291508581929326,2.1214176387238
-4.068,0.4942419042253544,2.375736960447732
-4.0675,0.5582629533713921,2.280367214801311
-4.067,0.5475927785137094,1.973064701051456
-4.0665,0.5049120790829303,1.750535294542728
-4.066,0.4515612047945656,1.517409249629256
-4.0655,0.3661998059331045,0.9134008605347127
-4.065,-0.1459685872351965,0.02328323450145786
-4.0645,-1.010252750707956,-0.8032545611024114
-4.064,-1.810515865034154,-1.460246142222792
-4.0635,-2.19464215991038,-1.862918401618789
-4.063,-1.575772018164302,-1.481439419032539
-4.0625,-0.658136980404429,-0.8350444763179138
-4.062,0.07810508477500355,-0.3264058328703396
-4.0615,0.5049120790831535,-0.09327978795616457
-4.061,0.6969752265212663,-0.06148987274069118
-4.0605,0.7396559259519968,-0.1038764263613609
-4.06,0.7396559259520357,-0.2204394488183858
-4.0595,0.7823366253827275,-0.4217755785163839
-4.059,1.145122570543937,-0.7714646458869092
-4.0585,1.177133095116956,-0.6549016234301734
-4.058,1.006410297394063,-0.2734226408440398
-4.0575,0.8036769750980928,0.1504428953626575
-4.057,0.6969752265213633,0.3729723018709712
-4.0565,1.091771696255524,0.03387987290581572
-4.056,1.305175193409177,-0.6231117082145651
-4.0555,0.5475927785143984,-1.121153713256982
-4.055,-0.4340633083939671,-1.248313374119395
-4.0545,-1.394379045584531,-1.195330182093607
-4.054,-2.183971985052329,-1.015187329205924
-4.0535,-2.344024607917539,-0.7820612842916814
-4.053,-1.522421143876723,-0.3475991096802118
-4.0525,-0.658136980404429,0.4259554938970107
-4.052,-0.007256314085438626,1.273686566310974
-4.0515,0.3768699807907871,1.898888232215284
-4.051,0.5369226036560266,2.195594107559972
-4.0505,0.5796033030867185,2.153207553939341
-4.05,0.5262524287983441,1.485619334413754
-4.0495,0.4729015545099309,0.7968378380778709
-4.049,0.4195506802215662,0.3411823866560856
-4.0485,0.1527963087787238,-0.3370024712756516
-4.048,-0.6474668055467465,-1.004590690800593
-4.0475,-1.501080794160581,-1.566212526273956
-4.047,-1.949228138183447,-1.905304955239593
-4.0465,-1.30901764672307,-1.650985633515806
-4.046,-0.4233931335362164,-0.9410108603702338
-4.0455,0.2701682322143004,-0.368792386490248
-4.045,0.6436243522328531,-0.04029659593035631
-4.0445,0.7823366253827275,0.04447651131098315
-4.044,0.782336625382679,-0.00850668071494075
-4.0435,0.7289857510943143,-0.1038764263613609
-4.043,0.6863050516635838,-0.2946159176543747
-4.0425,0.803676975097986,-0.4959520473523729
-4.042,0.8036769750980928,-0.2946159176543747
-4.0415,0.7289857510943143,0.02328323450064829
-4.041,0.6329541773752579,0.3729723018708556
-4.0405,0.5689331282293075,0.4789386859226455
-4.04,0.825017324813458,0.2564092794143318
-4.0395,1.347855892839432,-0.368792386489978
-4.039,1.219813794547104,-0.9728007755852928
-4.0385,0.5475927785137094,-1.195330182093607
-4.038,-0.5087545323959113,-1.13175035166266
-4.0375,-1.490410619304005,-0.951607498774476
-4.037,-1.853196564464885,-0.6443049850249
-4.0365,-1.319687821580753,0.07626642652648545
-4.036,-0.604786106115482,1.072350436612976
-4.0355,-0.01792648894347063,1.898888232215284
-4.035,0.3341892813600565,2.418123514068488
-4.0345,0.5049120790828237,2.619459643766486
-4.034,0.5582629533713921,2.53468653652533
-4.0335,0.5369226036560266,2.322753768421981
-4.033,0.483571729367662,1.898888232215669
-4.0325,0.4408910299367665,1.294879843120056
-4.032,0.3128489316446912,0.5425185163538525
-4.0315,-0.3380317346733578,-0.3370024712742445
-4.031,-1.223656247862259,-1.09996043644763
-4.0305,-1.938557963326346,-1.682775548731308
-4.03,-1.650463242169177,-1.937094870455095
-4.0295,-0.7008176798344417,-1.566212526273889
-4.029,0.08877525963335578,-0.9304142219644207
-4.0285,0.5796033030867573,-0.4853554089473885
-4.028,0.7823366253827566,-0.2628260024388049
-4.0275,0.8143471499557753,-0.1886495336027004
-4.027,0.7609962756673623,-0.1886495336027004
-4.0265,0.7076454013789976,-0.3370024712749096
-4.026,0.7289857510943143,-0.400582301706049
-4.0255,0.7396559259519968,-0.1356663415768632
-4.025,0.6756348768059592,0.0762664265262927
-4.0245,0.6116138276597566,0.2352160026041415
-4.024,0.5582629533713921,0.3941655786815084
-4.0235,0.6969752265211402,0.3093924714402461
-4.023,1.358526067697765,-0.2734226408445988
-4.0225,1.550589215135878,-0.8880276683437509
-4.022,0.7823366253834263,-1.174136905283012
-4.0215,-0.3166913849595453,-1.08936379804173
-4.021,-1.373038695869166,-0.8668343915334161
-4.0205,-2.19464215991073,-0.5807251545938954
-4.02,-2.258663209056069,-0.2840192792488314
-4.0195,-1.426389570157579,0.1292496185523226
-4.019,-0.5834457564006506,0.7968378380778709
-4.0185,0.02475421048670678,1.623375633680179
-4.018,0.3875401556484697,2.259173937990977
-4.0175,0.5262524287983441,2.354543683637484
-4.017,0.536922603656017,1.920081509026014
-4.0165,0.5049120790829207,1.06175379820643
-4.016,0.4408910299368829,0.3729723018711736
-4.0155,0.3555296310754994,-0.326405832869241
-4.015,-0.156638762094131,-0.9939940523959361
-4.0145,-1.020922925565639,-1.555615887869299
-4.014,-1.821186039891109,-1.926498232049822
-4.0135,-2.013249187329436,-1.958288147265257
-4.013,-1.255666772434657,-1.51322933424863
-4.0125,-0.3807124341046804,-0.8986243067489184
-4.012,0.2594980573565983,-0.5065486857575403
-4.0115,0.6116138276598051,-0.3052125560595421
-4.011,0.7396559259519968,-0.2840192792492073
-4.0105,0.7503261008096699,-0.3687923864904696
-4.01,0.707645401378949,-0.474758770542221
-4.0095,0.7289857510943143,-0.570128516188728
-4.009,0.8676980242440624,-0.6866915386454637
-4.0085,0.8356874996710437,-0.5065486857573379
-4.008,0.7289857510943143,-0.08268314955102604
-4.0075,0.6222840025175849,0.2987958330346546
-4.007,0.6009436528025205,0.5107286011380321
-4.0065,1.038420821967111,0.1610395337678249
-4.006,1.454557641416734,-0.5171453241628908
-4.0055,0.782336625381825,-1.015187329205808
-4.005,-0.2099896363817582,-1.068170521231597
-4.0045,-1.223656247861609,-0.9728007755850904
-4.004,-2.013249187330105,-0.8032545611021705
-4.0035,-1.991908837614759,-0.5383386009732256
-4.003,-1.234326422719292,0.09745970333682032
-4.0025,-0.4660738329668404,1.008770606180391
-4.002,0.08877525963335578,1.803518486568777
-4.0015,0.408880505363835,2.290963853206479
-4.001,0.5369226036559102,2.449913429283846
-4.0005,0.536922603655949,2.322753768421634
-4,0.4515612047945656,1.941274785835954
-3.9995,0.3875401556484697,1.42203950398275
-3.999,0.3341892813600565,0.7544512844572011
-3.9985,0.08877525963335578,-0.1568596183871981
-3.998,-0.6794773301197943,-0.9728007755850904
-3.9975,-1.522421143876723,-1.598002441489969
-3.997,-1.970568487899394,-1.947691508860494
-3.9965,-1.362368521011484,-1.788741932782983
-3.996,-0.5087545323968721,-1.121153713257435
-3.9955,0.1848068333524996,-0.5171453241628908
-3.995,0.5796033030867573,-0.1780528951975329
-3.9945,0.6969752265212663,-0.04029659593035631
-3.994,0.707645401378949,-0.02969995752518888
-3.9935,0.6649647019482183,-0.05089323433552374
-3.993,0.6436243522328531,-0.1886495336027004
-3.9925,0.8143471499557753,-0.3899856633008816
-3.992,0.8463576745288233,-0.1462629799820306
-3.9915,0.7609962756673623,0.2140227257936621
-3.991,0.6436243522328531,0.4153588554918433
-3.9905,0.5689331282290746,0.457745409112513
-3.99,0.8356874996711408,0.13984625695749
-3.9895,1.241154144263081,-0.5171453241628908
-3.989,0.5582629533713921,-1.078767159636765
-3.9885,-0.3593720843893152,-1.195330182093607
-3.988,-1.244996597576974,-1.078767159636765
-3.9875,-2.013249187330125,-0.8668343915334161
-3.987,-2.290673733629873,-0.6231117082145651
-3.9865,-1.586442193022819,-0.1674562567923655
-3.986,-0.7434983792658902,0.6590815388106942
-3.9855,-0.08194753808956648,1.538602526439591
-3.985,0.3235191065023739,2.174400830749637
-3.9845,0.5155822539406614,2.481703344499493
-3.984,0.5582629533713921,2.439316790878823
-3.9835,0.5369226036560266,2.248577299585809
-3.983,0.4835717293676135,1.983661339456623
-3.9825,0.4195506802215176,1.443232780793084
-3.982,0.2594980573562781,0.55311515475902
-3.9815,-0.4447334832507763,-0.400582301706049
-3.981,-1.30901764672307,-1.174136905283272
-3.9805,-2.013249187330125,-1.75695201756748
-3.98,-1.67180359188428,-1.926498232050159
-3.9795,-0.7755089038389382,-1.481439419033127
-3.979,0.00341386077189465,-0.8668343915334161
-3.9785,0.4942419042252961,-0.4535654937318862
-3.978,0.707645401378949,-0.2204394488182027
-3.9775,0.7503261008096795,-0.1462629799820306
-3.977,0.7396559259519968,-0.1886495336027004
-3.9765,0.6969752265212663,-0.2098428104130352
-3.976,0.7183155762366316,-0.2734226408440398
-3.9755,0.7609962756673623,-0.01910331912002144
-3.975,0.7183155762366316,0.2776025562246667
-3.9745,0.6542945270905358,0.3941655786815084
-3.974,0.6009436528021226,0.383568940276341
-3.9735,0.7396559259519968,0.1610395337678249
-3.973,1.369196242555273,-0.4429688553267188
-3.9725,1.411876941986003,-1.036380606016095
-3.972,0.5262524287983441,-1.290699927740113
-3.9715,-0.5407650569699201,-1.152943628472937
-3.971,-1.522421143876723,-0.9198175835592532
-3.9705,-2.301343908487556,-0.6549016234300674
-3.97,-2.365364957633652,-0.3793890248957141
-3.9695,-1.51175096901904,0.03387987290581572
-3.969,-0.6474668055467465,0.7120647308365314
-3.9685,-0.007256314085787988,1.528005888034424
-3.968,0.3768699807907871,2.153207553939303
-3.9675,0.5262524287983441,2.312157130016814
-3.967,0.5582629533713921,2.026047893077293
-3.9665,0.5155822539406614,1.485619334413754
-3.966,0.4622313796522482,0.849821030103708
-3.9655,0.3768699807907871,0.13984625695749
-3.965,-0.1673089369510276,-0.5489352393783931
-3.9645,-1.042263275281004,-1.152943628472937
-3.964,-1.842526389607202,-1.672178910326141
-3.9635,-1.853196564464885,-1.862918401619155
-3.963,-1.031593100423322,-1.460246142222792
-3.9625,-0.2420001609548061,-0.9410108603695881
-3.962,0.3128489316446912,-0.6443049850249
-3.9615,0.6116138276598051,-0.570128516188728
-3.961,0.7183155762366316,-0.5383386009732256
-3.9605,0.7183155762366316,-0.5595318777835605
-3.96,0.6863050516635838,-0.570128516188728
-3.9595,0.707645401378949,-0.6443049850249
-3.959,0.8356874996711408,-0.6125150698093976
-3.9585,0.8036769750980928,-0.3687923864905467
-3.958,0.6969752265212663,-0.1462629799820306
-3.9575,0.6009436528021226,0.1080563417419877
-3.957,0.5796033030867573,0.2140227257936621
-3.9565,1.006410297394063,-0.1992461720078678
-3.956,1.337185717982225,-0.8138511995075789
-3.9555,0.5689331282290746,-1.248313374119443
-3.955,-0.5194247072545548,-1.34368311976595
-3.9545,-1.51175096901904,-1.184733543688439
-3.954,-2.141291285622316,-0.9092209451540858
-3.9535,-1.821186039891837,-0.5171453241628908
-3.953,-1.010252750707956,0.2034260873884947
-3.9525,-0.2953510352432193,1.146526905448396
-3.952,0.1954770082101822,1.941274785835954
-3.9515,0.4515612047945656,2.428720152473656
-3.951,0.5582629533713921,2.630056282171837
-3.9505,0.5582629533713921,2.53468653652533
-3.95,0.5155822539406614,2.100224361913465
-3.9495,0.4515612047945656,1.146526905448396
-3.949,0.408880505363835,0.2564092794143318
-3.9485,0.2061471830678648,-0.474758770542221
-3.948,-0.5194247072545548,-1.142346990067769
-3.9475,-1.383708870726849,-1.682775548731308
-3.947,-1.981238662757077,-1.947691508860494
-3.9465,-1.575772018165136,-1.746355379162313
-3.946,-0.722158029550525,-1.078767159636765
-3.9455,0.02475421048725994,-0.5383386009732256
-3.945,0.5049120790829789,-0.1886495336027004
-3.9445,0.7289857510943143,-0.08268314955102604
-3.944,0.7716664505250448,-0.06148987274069118
-3.9435,0.7396559259519968,-0.1144730647665284
-3.943,0.707645401378949,-0.2840192792492073
-3.9425,0.8783681991018712,-0.5595318777835605
-3.942,0.974399772821015,-0.4323722169215513
-3.9415,0.8783681991018712,0.01268659609548085
-3.941,0.7289857510943143,0.4365521323021782
-3.9405,0.6116138276598051,0.701468092431364
-3.94,0.6756348768059011,0.4471487707073456
-3.9395,1.283834843693812,-0.252229364033705
-3.939,1.742652362574165,-0.9198175835592532
-3.9385,1.390536592270638,-1.301296566145281
-3.938,0.2594980573562781,-1.375473034981453
-3.9375,-0.9782422261349084,-1.216523458903942
-3.937,-1.735824641030376,-0.9516074987747555
-3.9365,-1.554431668449771,-0.5065486857577234
-3.936,-0.8928808272734472,0.3411823866556712
-3.9355,-0.2526703358124887,1.241896651094903
-3.935,0.1848068333524996,1.898888232215284
-3.9345,0.4302208550792003,2.237980661180642
-3.934,0.5262524287983441,2.290963853206479
-3.9335,0.5155822539406614,2.015451254672126
-3.933,0.4942419042252961,1.633972272086098
-3.9325,0.4515612047945656,1.33726639674141
-3.932,0.3021787567870086,0.8922075837243778
-3.9315,-0.4020527838200457,0.06566978812131802
-3.931,-1.287677297007705,-0.7502713690765743
-3.9305,-2.002579012472442,-1.396666311791788
-3.93,-1.778505340461106,-1.661582271920973
-3.9295,-0.9035510021311299,-1.248313374119443
-3.929,-0.08194753808956648,-0.7502713690765743
-3.9285,0.4515612047945656,-0.3899856633008816
-3.928,0.6969752265212663,-0.1568596183871981
-3.9275,0.7396559259519968,-0.05089323433552374
-3.927,0.707645401378949,-0.05089323433552374
-3.9265,0.6436243522328531,-0.1038764263613609
-3.926,0.6863050516635838,-0.3052125560595421
-3.9255,0.7396559259519968,-0.2628260024388724
-3.925,0.6969752265212663,-0.06148987274069118
-3.9245,0.6222840025174878,0.1504428953626575
-3.924,0.5475927785137094,0.3517790250608387
-3.9235,0.6116138276598051,0.2246193641988295
-3.923,1.017080472251745,-0.3581957480853793
-3.9225,0.8463576745288233,-0.9622041371799229
-3.922,-0.08194753808956648,-1.322489842955616
-3.9215,-1.06360362499637,-1.333086481360783
-3.921,-1.917217613610981,-1.0999604364471
-3.9205,-2.504077230783526,-0.7820612842920766
-3.92,-2.162631635337682,-0.4111789401112165
-3.9195,-1.212986073003927,0.2564092794143318
-3.919,-0.4020527838200457,1.157123543853563
-3.9185,0.142126133921769,1.973064701051456
-3.918,0.4408910299368829,2.481703344499493
-3.9175,0.5475927785137094,2.630056282171837
-3.917,0.5475927785137094,2.53468653652533
-3.9165,0.5155822539406614,2.343947045232316
-3.916,0.4302208550792003,1.962468062646288
-3.9155,0.2808384070716433,1.157123543853563
-3.915,-0.08194753808956648,0.07626642652648545
-3.9145,-0.8715404775580819,-0.8456411147230812
-3.914,-1.661133417026597,-1.545019249464132
-3.9135,-2.109280761049269,-1.937094870455327
-3.913,-1.46907026958831,-1.746355379162313
-3.9125,-0.6047861061160158,-1.068170521231597
-3.912,0.09944543449103843,-0.5807251545938954
-3.9115,0.5369226036560266,-0.3581957480853793
-3.911,0.7183155762366316,-0.2310360872233701
-3.9105,0.7396559259519968,-0.1462629799820306
-3.91,0.6863050516635838,-0.1250697031716958
-3.9095,0.6756348768059011,-0.2946159176543747
-3.909,0.9317190733902845,-0.5277419625680583
-3.9085,0.9637295979633325,-0.2946159176543747
-3.908,0.857027849386506,0.07626642652648545
-3.9075,0.7396559259519968,0.383568940276341
-3.907,0.6542945270905358,0.5849050699745222
-3.9065,0.9850699476786977,0.1822328105781598
-3.906,1.070431346540159,-0.5277419625680583
-3.9055,0.2168173579255475,-1.078767159636765
-3.905,-0.5834457564006506,-1.195330182093607
-3.9045,-1.394379045584531,-1.131750351662602
-3.904,-2.130621110764634,-0.9728007755850904
-3.9035,-2.354694782775969,-0.7714646458869092
-3.903,-1.597112367880501,-0.4535654937318862
-3.9025,-0.7328282044082075,0.06566978812131802
-3.902,-0.07127736323188383,0.7862411996727035
-3.9015,0.3341892813600565,1.506812611224089
-3.901,0.5155822539406614,1.962468062646288
-3.9005,0.5689331282290746,2.132014277128968
-3.9,0.5475927785137094,2.1214176387238
-3.8995,0.5049120790829789,1.951871424241121
-3.899,0.408880505363835,1.305476481525908
-3.8985,0.1101156093487211,0.2458126410091644
-3.898,-0.6154562809736985,-0.7290780922662394
-3.8975,-1.437059745015262,-1.460246142222792
-3.897,-1.991908837614759,-1.915901593644992
-3.8965,-1.650463242168915,-1.809935209593318
-3.896,-0.7968492535543035,-1.184733543688439
-3.8955,-0.02859666380115328,-0.6019184314042303
-3.895,0.4515612047945656,-0.2098428104130352
-3.8945,0.6756348768059011,-0.08268314955102604
-3.894,0.7396559259519968,-0.09327978795619347
-3.8935,0.7396559259519968,-0.08268314955102604
-3.893,0.6969752265212663,-0.1250697031716958
-3.8925,0.7396559259519968,-0.2204394488182027
-3.892,0.7609962756673623,0.05507314971615059
-3.8915,0.6969752265212663,0.3199891098453364
-3.891,0.6222840025174878,0.5425185163538525
-3.8905,0.5689331282290746,0.7332580076468663
-3.89,0.8463576745288233,0.4789386859228479
-3.8895,1.486568165989782,-0.252229364033705
-3.889,1.465227816274416,-0.8986243067489184
-3.8885,1.006410297394063,-1.227120097309109
-3.888,-0.01792648894347063,-1.258910012524611
-3.8875,-1.084943974711735,-1.068170521231597
-3.887,-1.405049220442214,-0.6337083466197325
-3.8865,-0.9889124009925911,0.2987958330350016
-3.886,-0.4127229586777283,1.284283204715573
-3.8855,0.05676473506030786,1.994257977861791
