Class_2_Relax_eyes_open/Class_2_Relax_eyes_open_Suko_5.csv

#Digilent WaveForms Oscilloscope Acquisition
#Device Name: EExplorer
#Serial Number: SN:210151A2B84A
#Date Time: 2020-12-21 15:32:41.178
#Sample rate: 2000Hz
#Samples: 16384
#Trigger: Source: Channel 1 Type: Edge Condition: Rising Level: 0 V Hyst.: Auto HoldOff: 0 s
#Channel 1: Range: 1 V/div Offset: 0 V
#Channel 2: Range: 1 V/div Offset: 0 V

Time (s),Channel 1 (V),Channel 2 (V)
-4.0960000000000001,-1.0315931004233216,1.1359302670432285
-4.0955000000000004,-1.1382948490000511,0.52132523954407661
-4.0949999999999998,-0.76483872898073146,-0.40058230170673331
-4.0945,-0.18864928666639288,-1.1529436284729369
-4.0940000000000003,0.31284893164423511,-1.6297923567050374
-4.0934999999999997,0.6116138276599119,-1.8947083168347247
-4.093,0.72898575109431429,-1.9688847856708289
-4.0925000000000002,0.86769802424406239,-1.7357587407573576
-4.0919999999999996,1.0170804722516678,-1.3118932045503806
-4.0914999999999999,0.93171907339028448,-1.2377167357142764
-4.0910000000000002,0.77166645052504479,-1.1953301820936066
-4.0904999999999996,0.65429452709050673,-1.1105570748521032
-4.0899999999999999,0.62228400251748783,-0.9304142219644207
-4.0895000000000001,0.8997085488172365,-0.4641621321370536
-4.0890000000000004,1.0064102973939659,0.23521600260336095
-4.0884999999999998,0.29150858192932599,0.82862775329337313
-4.0880000000000001,-0.63679663068906378,1.2207033742845681
-4.0875000000000004,-1.490410619302899,1.4326361423877243
-4.0869999999999997,-1.6077825427376795,1.2736865663098464
-4.0865,-1.0529334501386869,0.6590815388106942
-4.0860000000000003,-0.41272295867831066,0.07626642652701543
-4.0854999999999997,0.078105084775935169,-0.26282600243895915
-4.085,0.36619980593310447,-0.3581957480853793
-4.0845000000000002,0.50491207908285274,-0.26282600243895915
-4.0839999999999996,0.53692260365598776,-0.093279787955962173
-4.0834999999999999,0.49424190422529612,0.16103953376782493
-4.0830000000000002,0.38754015564846972,0.4471487707073456
-4.0824999999999996,0.31284893164466215,0.65908153881084841
-4.0819999999999999,0.28083840707164331,0.82862775329337313
-4.0815000000000001,0.15279630877945163,0.98757732937088472
-4.0810000000000004,0.099445434491086948,1.1571235438534093
-4.0804999999999998,0.035424385344942577,1.2948798431207402
-4.0800000000000001,-0.42339313353541097,1.3690563119569124
-4.0795000000000003,-1.0422632752804413,1.3584596735517545
-4.0789999999999997,-1.4263895701574532,0.81803111488734803
-4.0785,-1.2876772970077051,-0.12506970317169577
-4.0780000000000003,-0.764838728981731,-0.89862430674821481
-4.0774999999999997,-0.1673089369506103,-1.4496495038179045
-4.077,0.29150858192932599,-1.7569520175674804
-4.0765000000000002,0.56893312822882236,-1.8311284864035851
-4.0759999999999996,0.73965592595218121,-1.7039688255413155
-4.0754999999999999,0.94238924824796699,-1.3436831197659505
-4.0750000000000002,0.94238924824796699,-1.1635402668781043
-4.0744999999999996,0.82501732481334156,-1.0681705212315105
-4.0739999999999998,0.69697522652126631,-0.97280077558509037
-4.0735000000000001,0.63295417737517057,-0.83504447631791379
-4.0730000000000004,0.54759277851378696,-0.54893523937865329
-4.0724999999999998,0.47290155450993088,0.055073149716150585
-4.0720000000000001,0.22748753278323011,0.66967817721586165
-4.0715000000000003,-0.5087545323962025,1.1147369902324893
-4.0709999999999997,-1.3410281712965453,1.3690563119569412
-4.0705,-1.8105158650341544,1.4008462271724147
-4.0700000000000003,-1.4157193953002558,0.90280422212999822
-4.0694999999999997,-0.72215802954998154,0.2458126410087596
-4.069,-0.12462823752029703,-0.19924617200786782
-4.0685000000000002,0.25949805735627807,-0.37938902489571413
-4.0679999999999996,0.46223137965231614,-0.35819574808524435
-4.0674999999999999,0.53692260365602662,-0.20984281041303524
-4.0670000000000002,0.52625242879834411,0.0020899576903134209
-4.0664999999999996,0.45156120479448791,0.25640927941455344
-4.0659999999999998,0.36619980593310447,0.50013196273318283
-4.0655000000000001,0.30217875678700862,0.70146809243136399
-4.0650000000000004,0.27016823221398978,0.82862775329325744
-4.0644999999999998,0.046094560202625215,0.95578741415538238
-4.0640000000000001,-0.46607383296614152,1.1359302670432285
-4.0635000000000003,-0.9355615267037507,1.2842832047154378
-4.0629999999999997,-1.3196878215809371,1.2736865663101258
-4.0625,-1.522421143876723,0.96638405256054982
-4.0620000000000003,-1.2343264227195538,0.11865298014792625
-4.0614999999999997,-0.65813698040392443,-0.76086800748230077
-4.0609999999999999,-0.10328788780493176,-1.3754730349814528
-4.0605000000000002,0.30217875678700862,-1.6827755487313083
-4.0599999999999996,0.54759277851383548,-1.7887419327829828
-4.0594999999999999,0.6863050516635838,-1.7887419327829828
-4.0590000000000002,0.82501732481345802,-1.650985633515806
-4.0585000000000004,0.82501732481345802,-1.4814394190332814
-4.0579999999999998,0.76099627566736228,-1.2906999277401132
-4.0575000000000001,0.67563487680590106,-1.0787671596367647
-4.0570000000000004,0.60094365280219053,-0.86683439153360886
-4.0564999999999998,0.60094365280212259,-0.63370834661973252
-4.056,1.0277506471094282,-0.14626297998203064
-4.0555000000000003,0.91037872367502604,0.48953532432743707
-4.0549999999999997,0.12078578420550119,0.98757732937116416
-4.0545,-0.87154047755808195,1.2948798431207402
-4.0540000000000003,-1.5117509690184581,1.4008462271723183
-4.0534999999999997,-1.2770071221494885,0.9663840525599523
-4.0529999999999999,-0.69014750497747701,0.30939247144016896
-4.0525000000000002,-0.14596858723566233,-0.17805289519753292
-4.0519999999999996,0.23815770764109714,-0.41117894011121647
-4.0514999999999999,0.44089102993688295,-0.41117894011121647
-4.0510000000000002,0.51558225394066137,-0.29461591765437467
-4.0505000000000004,0.52625242879833445,-0.10387642636153438
-4.0499999999999998,0.4835717293676135,0.13984625695749003
-4.0495000000000001,0.44089102993688295,0.34118238665567124
-4.0490000000000004,0.37686998079084533,0.51072860113819596
-4.0484999999999998,0.312848931644371,0.68027481562120262
-4.048,-0.039266838658835915,0.87101430691404291
-4.0475000000000003,-0.14596858723556527,1.1041403518275146
-4.0469999999999997,0.12078578420610286,1.2736865663104728
-4.0465,-0.20998963638175816,1.3478630351465775
-4.0460000000000003,-0.9035510021304991,1.316073119931104
-4.0454999999999997,-1.2770071221498283,0.73325800764602789
-4.0449999999999999,-1.0636036249963696,-0.18864953360270037
-4.0445000000000002,-0.50875453239687207,-0.97280077558509037
-4.0439999999999996,0.088775259633743955,-1.5132293342487935
-4.0434999999999999,0.51558225394066137,-1.6933721871364757
-4.0430000000000001,0.73965592595199681,-1.5980024414899687
-4.0425000000000004,0.91037872367476402,-1.5874058030848108
-4.0419999999999998,1.1131120459708892,-1.6933721871364757
-4.0415000000000001,1.0277506471094282,-1.5132293342486296
-4.0410000000000004,0.82501732481364243,-1.2271200973093692
-4.0404999999999998,0.65429452709045821,-0.91981758355899301
-4.04,0.5689331282290746,-0.63370834661973252
-4.0395000000000003,0.83568749967089806,-0.17805289519794731
-4.0389999999999997,1.2945050185511933,0.42595549389748294
-4.0385,0.96372959796333246,0.94519077575021493
-4.0380000000000003,0.22748753278389966,1.2630899279049488
-4.0374999999999996,-0.7861790786970283,1.4326361423877532
-4.0369999999999999,-1.2343264227192918,1.2524932895000704
-4.0365000000000002,-0.93556152670417769,0.59550170837968963
-4.0359999999999996,-0.42339313353501307,-0.050893234335880333
-4.0354999999999999,0.014084035629577295,-0.44296885532671876
-4.0350000000000001,0.30217875678700862,-0.5807251545938954
-4.0345000000000004,0.45156120479442974,-0.53833860097326414
-4.0339999999999998,0.50491207908297886,-0.38998566330088158
-4.0335000000000001,0.4835717293676135,-0.17805289519753292
-4.0330000000000004,0.40888050536390297,0.055073149715938546
-4.0324999999999998,0.33418928136000803,0.2670059178196727
-4.032,0.28083840707164331,0.45774540911251305
-4.0315000000000003,0.078105084775857508,0.70146809243114228
-4.0309999999999997,-0.60478610611663686,0.97698069096592932
-4.0305,-1.2876772970077051,1.2101067358794007
-4.0300000000000002,-1.7891755153183331,1.3372663967412943
-4.0294999999999996,-1.9385579633260355,1.1783168206632912
-4.0289999999999999,-1.5971123678805015,0.51072860113835017
-4.0285000000000002,-0.88221065241576446,-0.33700247127504446
-4.0279999999999996,-0.19931946152360003,-0.99399405239583971
-4.0274999999999999,0.32351910650237387,-1.4496495038176249
-4.0270000000000001,0.63295417737517057,-1.746355379162313
-4.0265000000000004,0.77166645052491867,-1.7781452943777865
-4.0259999999999998,0.83568749967114075,-1.6191957183003036
-4.0255000000000001,1.1237822208285719,-1.3966663117917877
-4.0250000000000004,1.1878032699746095,-1.3436831197659986
-4.0244999999999997,1.0170804722515707,-1.2695066509296049
-4.024,0.82501732481345802,-1.0787671596367647
-4.0235000000000003,0.67563487680603695,-0.85623775312845107
-4.0229999999999997,0.73965592595257912,-0.51714532416248604
-4.0225,1.3798664174129553,-0.072086511145858609
-4.0220000000000002,1.9987365591579855,-0.44296885532638142
-4.0214999999999996,1.4758979911309442,-0.3581957480848878
-4.0209999999999999,0.20614718306786484,0.18223281057815977
-4.0205000000000002,-0.90355100213112993,0.69087145402619654
-4.0199999999999996,-1.0636036249960299,0.59550170837928484
-4.0194999999999999,-0.69014750497747701,0.15044289536265748
-4.0190000000000001,-0.22065981123944084,-0.24163272562853755
-4.0185000000000004,0.14212613392143902,-0.44296885532653563
-4.0179999999999998,0.36619980593310447,-0.47475877054222104
-4.0175000000000001,0.4622313796522482,-0.37938902489571413
-4.0170000000000003,0.48357172936759407,-0.23103608722350502
-4.0164999999999997,0.44089102993680529,-0.040296595930163562
-4.016,0.35552963107542179,0.17163617217299235
-4.0155000000000003,0.28083840707171126,0.36237566346583266
-4.0149999999999997,0.20614718306755431,0.59550170837992089
-4.0145,-0.13529841237797968,0.84982103010370802
-4.0140000000000002,-0.60478610611558881,1.1041403518274953
-4.0134999999999996,-0.97824222613507339,1.294879843120798
-4.0129999999999999,-1.1596351987155133,1.3584596735517449
-4.0125000000000002,-1.3410281712961183,1.0829470750173917
-4.0119999999999996,-1.1382948489996434,0.19282944898257548
-4.0114999999999998,-0.58344575640065055,-0.63370834661973252
-4.0110000000000001,-0.039266838658835915,-1.2059268204987741
-4.0105000000000004,0.36619980593273571,-1.5026326958431924
-4.0099999999999998,0.59027347794443985,-1.6403889951106385
-4.0095000000000001,0.69697522652126631,-1.6933721871364757
-4.0090000000000003,0.85702784938636045,-1.7569520175674227
-4.0084999999999997,0.92104889853252414,-1.5980024414897085
-4.008,0.83568749967114075,-1.3118932045504481
-4.0075000000000003,0.70764540137906551,-0.99399405239571437
-4.0069999999999997,0.59027347794443019,-0.71848145386080209
-4.0065,0.57960330308675734,-0.42177557851638392
-4.0060000000000002,1.0277506471094282,0.11865298014715518
-4.0054999999999996,1.0917716962548059,0.70146809243174946
-4.0049999999999999,0.30217875678700862,1.1253336286380615
-4.0045000000000002,-0.63679663068906378,1.3690563119569124
-4.0039999999999996,-1.501080794161445,1.4856193344135034
-4.0034999999999998,-1.5971123678805015,1.2101067358794007
-4.0030000000000001,-1.0422632752810042,0.53192187794868506
-4.0025000000000004,-0.41272295867830089,-0.072086511145309284
-4.0019999999999998,0.067434909917990504,-0.41117894011121647
-4.0015000000000001,0.34485945621773917,-0.50654868575772338
-4.0010000000000003,0.47290155450981441,-0.42177557851646102
-4.0004999999999997,0.50491207908294,-0.26282600243867965
-4,0.4622313796522482,-0.050893234335523743
-3.9994999999999998,0.3982103305061524,0.13984625695749003
-3.9990000000000001,0.32351910650237387,0.39416557868150842
-3.9984999999999999,0.27016823221396069,0.71206473083653143
-3.9980000000000002,-0.017926488943470625,0.97698069096571727
-3.9975000000000001,-0.76483872898125549,1.1995100974742332
-3.9969999999999999,-1.2983474718653876,1.3584596735517449
-3.9965000000000002,-1.5651018433074537,1.3478630351465775
-3.996,-1.3943790455845313,0.78624119967270345
-3.9954999999999998,-0.96757205127722568,-0.13566634157686319
-3.9950000000000001,-0.3700422592469978,-0.9092209451540858
-3.9944999999999999,0.15279630877945163,-1.3648763965762853
-3.9940000000000002,0.50491207908297886,-1.5450192494641319
-3.9935,0.69697522652126631,-1.5450192494641319
-3.9929999999999999,0.76099627566736228,-1.4602461422227924
-3.9925000000000002,0.84635767452882327,-1.42845622700729
-3.992,0.93171907339028448,-1.3860696733866202
-3.9914999999999998,0.87836819910187125,-1.2695066509297783
-3.9910000000000001,0.76099627566736228,-1.0787671596367647
-3.9904999999999999,0.64362435223285308,-0.86683439153341613
-3.9900000000000002,0.55826295337139209,-0.65490162343006741
-3.9895,0.78233662538272752,-0.27342264084403983
-3.9889999999999999,1.0704313465401587,0.33058574825050385
-3.9885000000000002,0.41955068022151765,0.88161094531921036
-3.988,-0.48741418268150688,1.1889134590690658
-3.9874999999999998,-1.3623685210114835,1.3478630351465775
-3.9870000000000001,-1.8531965644648849,1.33726639674141
-3.9864999999999999,-1.437059745015262,0.80743447648303834
-3.9860000000000002,-0.73282820440820751,0.17163617217299235
-3.9855,-0.14596858723566233,-0.26282600243887239
-3.9849999999999999,0.23815770764091276,-0.44296885532671876
-3.9845000000000002,0.44089102993688295,-0.42177557851638392
-3.984,0.50491207908297886,-0.28401927924920728
-3.9834999999999998,0.49424190422529612,-0.072086511145858609
-3.9830000000000001,0.3982103305061524,0.18223281057815977
-3.9824999999999999,0.31284893164469124,0.40476221708667587
-3.9820000000000002,0.27016823221396069,0.58490506997452218
-3.9815,0.18480683335249956,0.81803111488820579
-3.9809999999999999,-0.15663876209334496,1.0299638829915545
-3.9805000000000001,-0.73282820440820751,1.2207033742845681
-3.98,-1.2343264227192918,1.3584596735517449
-3.9794999999999998,-1.5757720181651362,1.4008462271724147
-3.9790000000000001,-1.7144842913150107,1.0087706061812196
-3.9784999999999999,-1.2983474718653876,0.12924961855232261
-3.9780000000000002,-0.61545628097369853,-0.66549826183523486
-3.9775,0.0034138607718946501,-1.1847335436884392
-3.9769999999999999,0.45156120479456557,-1.4708427806279598
-3.9765000000000001,0.70764540137894905,-1.6403889951106385
-3.976,0.84635767452882327,-1.6403889951106385
-3.9754999999999998,1.1344523956862547,-1.4072629501969551
-3.9750000000000001,1.1557927454016199,-1.131750351662602
-3.9744999999999999,0.97439977282101498,-0.94101086036958814
-3.9740000000000002,0.76099627566736228,-0.78206128429207655
-3.9735,0.6116138276598051,-0.62311170821456507
-3.9729999999999999,0.62228400251748783,-0.3581957480853793
-3.9725000000000001,1.0597611716824762,0.19282944898332721
-3.972,1.6466207888550213,0.76504792286236856
-3.9714999999999998,1.1878032699746677,1.146526905448396
-3.9710000000000001,-0.0072563140857879876,1.3690563119569124
-3.9704999999999999,-1.0422632752810042,1.4008462271724147
-3.9700000000000002,-1.1489650238578306,0.90280422212954525
-3.9695,-0.72215802955052499,0.23521600260399694
-3.9689999999999999,-0.23132998609712346,-0.26282600243887239
-3.9685000000000001,0.14212613392176898,-0.48535540894738849
-3.968,0.35552963107542179,-0.48535540894738849
-3.9674999999999998,0.4622313796522482,-0.36879238649054674
-3.9670000000000001,0.4835717293676135,-0.17805289519753292
-3.9664999999999999,0.44089102993688295,0.055073149716150585
-3.9660000000000002,0.38754015564846972,0.28819919462983412
-3.9655,0.31284893164469124,0.47893868592284788
-3.9649999999999999,0.11011560934872107,0.71206473083653143
-3.9645000000000001,-0.46607383296614152,0.96638405256054982
-3.964,-1.1382948490001481,1.1995100974742332
-3.9634999999999998,-1.5010807941613578,1.3478630351465775
-3.9630000000000001,-1.7144842913150107,1.4220395039827496
-3.9624999999999999,-1.9598983130417114,1.33726639674141
-3.9620000000000002,-1.7891755153187892,0.64848490040552687
-3.9615,-1.1809755484308786,-0.28401927924920728
-3.9609999999999999,-0.46607383296614152,-1.0469772444212624
-3.9605000000000001,0.13145595906408636,-1.4920360574382947
-3.96,0.52625242879834411,-1.5874058030848013
-3.9594999999999998,0.72898575109431429,-1.4920360574382947
-3.9590000000000001,0.95305942310564973,-1.3224898429556156
-3.9584999999999999,1.006410297394063,-1.1529436284729369
-3.9580000000000002,0.88903837395955376,-1.0787671596367647
-3.9575,0.73965592595199681,-0.9304142219644207
-3.9569999999999999,0.6116138276598051,-0.70788481545590454
-3.9565000000000001,0.54759277851370936,-0.43237221692155131
-3.956,0.18480683335249956,0.086863064931652884
-3.9554999999999998,-0.5621054066852853,0.66967817721586165
-3.9550000000000001,-1.1916457232885611,1.0829470750173917
-3.9544999999999999,-1.6611334170265974,1.2630899279052379
-3.9540000000000002,-2.1199509359069508,1.3584596735517449
-3.9535,-1.9065474387532981,1.1359302670432285
-3.9529999999999998,-1.1276246741424654,0.48953532432801533
-3.9525000000000001,-0.40205278382004572,-0.11447306476652835
-3.952,0.11011560934872107,-0.4641621321370536
-3.9514999999999998,0.3982103305061524,-0.57012851618872795
-3.9510000000000001,0.50491207908297886,-0.50654868575772338
-3.9504999999999999,0.52625242879834411,-0.34759910968021185
-3.9500000000000002,0.4622313796522482,-0.019103319120021445
-3.9495,0.36619980593310447,0.28819919462983412
-3.9489999999999998,0.27016823221396069,0.53192187794868506
-3.9485000000000001,0.20614718306786484,0.74385464605203377
-3.948,0.035424385344942577,0.94519077575021493
-3.9474999999999998,-0.63679663068906378,1.146526905448396
-3.9470000000000001,-1.3196878215807528,1.3054764815259077
-3.9464999999999999,-1.618452717595867,1.3054764815259077
-3.9460000000000002,-1.5651018433074537,0.84982103010370802
-3.9455,-1.2023158981462438,-0.082683149551026042
-3.9449999999999998,-0.63679663068906378,-0.88802766834375091
-3.9445000000000001,-0.039266838658835915,-1.3860696733866202
-3.944,0.41955068022151765,-1.6933721871364757
-3.9434999999999998,0.66496470194821833,-1.7357587407571455
-3.9430000000000001,0.77166645052504479,-1.6085990798951362
-3.9424999999999999,0.88903837395955376,-1.3648763965762853
-3.9420000000000002,1.1131120459708892,-1.0893637980419322
-3.9415,1.0384208219671107,-1.2165234589039415
-3.9409999999999998,0.86769802424418851,-1.227120097309109
-3.9405000000000001,0.71831557623663156,-1.1105570748522671
-3.9399999999999999,0.6116138276598051,-0.9092209451540858
-3.9394999999999998,0.81434714995577528,-0.44296885532671876
-3.9390000000000001,1.2731646688361289,0.24581264100916439
-3.9384999999999999,1.1771330951169852,0.83922439169854057
-3.9380000000000002,0.45156120479456557,1.2101067358794007
-3.9375,-0.63679663068906378,1.4114428655775821
-3.9369999999999998,-1.3303579964384356,1.3584596735517449
-3.9365000000000001,-1.1276246741424654,0.7968378380778709
-3.9359999999999999,-0.6047861061160158,0.17163617217299235
-3.9355000000000002,-0.11395806266261441,-0.22043944881820265
-3.9350000000000001,0.22748753278323011,-0.3581957480853793
-3.9344999999999999,0.40888050536383502,-0.29461591765437467
-3.9340000000000002,0.4835717293676135,-0.13566634157686319
-3.9335,0.4835717293676135,0.097459703336820316
-3.9329999999999998,0.44089102993688295,0.35177902506083869
-3.9325000000000001,0.3768699807907871,0.58490506997452218
-3.9319999999999999,0.31284893164469124,0.7968378380778709
-3.9315000000000002,0.19547700821018218,0.98757732937088472
-3.931,-0.23132998609712346,1.1253336286380615
-3.9304999999999999,-0.66880715526211176,1.2630899279052379
-3.9300000000000002,-0.88221065241576446,1.3690563119569124
-3.9295,-1.3410281712961183,1.4008462271724147
-3.9289999999999998,-1.618452717595867,1.0405605213967219
-3.9285000000000001,-1.3196878215807528,0.15044289536265748
-3.9279999999999999,-0.64746680554674652,-0.71848145386107198
-3.9275000000000002,0.046094560202625215,-1.3012965661452807
