Class_2_Relax_eyes_open/Class_2_Relax_Eyes_open_Zakour_5.csv

#Digilent WaveForms Oscilloscope Acquisition
#Device Name: EExplorer
#Serial Number: SN:210151A2B84A
#Date Time: 2020-11-26 10:46:04.031
#Sample rate: 2000Hz
#Samples: 16384
#Trigger: Source: Channel 1 Type: Edge Condition: Rising Level: 0 V Hyst.: Auto HoldOff: 0 s
#Channel 1: Range: 1 V/div Offset: 0 V Attenuation: 1 X
#Channel 2: Range: 1 V/div Offset: 0 V Attenuation: 1 X
#Power Supplies: ON
#Fixed Supply: ON
#Voltage: 3.3 V Readback: 3.313 V
#Positive Supply: ON
#Voltage: 3.7 V Readback: 3.719 V
#Current: 500 mA Readback: 21 mA
#Negative Supply: ON
#Voltage: -3.7 V Readback: -3.709 V
#Current: -500 mA Readback: -6 mA
#Reference 1: ON
#Voltage: 0 V
#Reference 2: ON
#Voltage: 0 V

Time (s),Channel 1 (V),Channel 2 (V)
-4.096,0.5902734779444399,-0.252229364033705
-4.0955,0.3021787567872706,-0.1568596183872848
-4.095,-0.444733483251213,0.3199891098457894
-4.0945,-0.9248913518464952,0.8180311148882058
-4.094,-1.063603624996244,1.008770606181046
-4.0935,-0.562105406684538,0.3941655786807278
-4.093,0.2594980573562781,-0.4641621321370536
-4.0925,0.8890383739589812,-1.110557074851679
-4.092,1.19847344483237,-1.428456227007358
-4.0915,1.219813794547716,-1.502632695843462
-4.091,1.081101521397841,-1.407262950196955
-4.0905,0.9210488985325532,-1.237716735714219
-4.09,0.8676980242441885,-1.174136905283272
-4.0895,0.8463576745288233,-1.184733543688439
-4.089,0.7396559259520938,-0.9516074987749675
-4.0885,0.6329541773751706,-0.6337083466197325
-4.088,0.5475927785137094,-0.3370024712750445
-4.0875,0.4942419042253446,-0.09327978795641512
-4.087,0.0567647350595218,0.3093924714406027
-4.0865,-0.807519428411986,0.7862411996727035
-4.086,-1.575772018164437,1.157123543853226
-4.0855,-2.130621110764964,1.040560521396173
-4.085,-2.493407055925843,0.4365521323021782
-4.0845,-2.536087755356535,0.4471487707073359
-4.084,-2.536087755356554,0.7544512844574902
-4.0835,-2.514747405641209,1.072350436612224
-4.083,-2.023919362187807,1.040560521396722
-4.0825,-1.020922925564921,0.7014680924309399
-4.082,-0.2313299860971235,0.2352160026039969
-4.0815,0.2808384070716433,-0.252229364033705
-4.081,0.5369226036557937,-0.5171453241626499
-4.0805,0.6222840025174878,-0.5065486857577234
-4.08,0.6329541773751706,-0.3581957480853793
-4.0795,0.6116138276598245,-0.2416327256286436
-4.079,0.5049120790823772,-0.2840192792489182
-4.0785,-0.156638762093345,0.03387987290581572
-4.078,-0.7648387289807024,0.5637117931637056
-4.0775,-1.15963519871528,0.9557874141550354
-4.077,-0.9035510021311299,0.5743084315693548
-4.0765,-0.09261771294798671,-0.1992461720071643
-4.076,0.6542945270909434,-0.8668343915338016
-4.0755,1.102441871113207,-1.290699927740113
-4.075,1.230483969405398,-1.47084278062796
-4.0745,1.145122570543792,-1.48143941903304
-4.074,0.9850699476786977,-1.38606967338662
-4.0735,0.8997085488172365,-1.258910012524611
-4.073,0.9530594231056012,-1.174136905283349
-4.0725,0.8676980242441885,-0.9728007755850904
-4.072,0.7289857510943143,-0.7078848154559045
-4.0715,0.6116138276599119,-0.4429688553269597
-4.071,0.5369226036559781,-0.2098428104127461
-4.0705,0.4835717293676135,0.1080563417419877
-4.07,0.2915085819295007,0.5955017083792463
-4.0695,-0.444733483251407,1.02996388299169
-4.069,-1.138294849000148,1.178316820663898
-4.0685,-1.789175515318789,1.019367244586387
-4.068,-2.37603513249147,1.082947075017527
-4.0675,-2.525417580498891,1.231300012689736
-4.067,-2.525417580498891,1.358459673551745
-4.0665,-2.280003558771298,1.369056311956652
-4.066,-1.298347471865388,1.082947075017392
-4.0655,-0.423393133535411,0.5955017083796896
-4.065,0.1634664836366005,0.03387987290632655
-4.0645,0.4835717293676135,-0.4111789401112165
-4.064,0.6116138276598051,-0.4959520473525559
-4.0635,0.6329541773751511,-0.3687923864906624
-4.063,0.6222840025174393,-0.1992461720078967
-4.0625,0.5689331282290746,-0.2310360872233701
-4.062,0.02475421048775484,-0.01910331912021421
-4.0615,-0.7755089038393846,0.4789386859232623
-4.061,-1.26633694729234,0.9345941373450475
-4.0605,-1.148965023857831,0.8180311148882058
-4.06,-0.3380317346731832,0.1080563417413517
-4.0595,0.5049120790829789,-0.5913217929990628
-4.059,1.059761171682476,-1.0999604364471
-4.0585,1.251824319120589,-1.364876396576044
-4.058,1.19847344483235,-1.460246142222792
-4.0575,1.038420821967111,-1.407262950196955
-4.057,0.8890383739596897,-1.301296566145377
-4.0565,0.8356874996711408,-1.354279758171118
-4.056,0.7503261008096795,-1.258910012524611
-4.0555,0.6436243522329501,-0.9939940523956662
-4.055,0.5689331282290261,-0.6866915386453192
-4.0545,0.5155822539406614,-0.4111789401112165
-4.054,0.419550680221605,-0.1356663415771138
-4.0535,-0.1993194615247355,0.3517790250612917
-4.053,-0.9248913518464952,0.849821030103708
-4.0525,-1.351698346153801,1.167720182258731
-4.052,-1.767835165603851,0.8498210301036405
-4.0515,-2.23732285934146,0.775644561267536
-4.051,-2.493407055925843,0.9557874141553824
-4.0505,-2.514747405641189,1.178316820663696
-4.05,-2.3973754822067,1.326669758336243
-4.0495,-1.533091318734406,1.178316820663898
-4.049,-0.6154562809745331,0.7226613692421133
-4.0485,0.04609456020297457,0.1928294489829321
-4.048,0.4302208550792003,-0.2416327256285375
-4.0475,0.6009436528019674,-0.3687923864904311
-4.047,0.6436243522328434,-0.273422640843876
-4.0465,0.6329541773751706,-0.09327978795619347
-4.046,0.6116138276598245,-0.0402965959304045
-4.0455,0.2594980573555308,0.04447651131136866
-4.045,-0.5621054066852853,0.4683420475176805
-4.0445,-1.148965023857831,0.9028042221295453
-4.044,-1.255666772434075,1.019367244585818
-4.0435,-0.6154562809736985,0.3941655786815084
-4.043,0.2701682322139607,-0.3581957480853793
-4.0425,0.9423892482473556,-0.9410108603690581
-4.042,1.262494493978446,-1.290699927740113
-4.0415,1.251824319120764,-1.42845622700729
-4.041,1.102441871113343,-1.470842780627921
-4.0405,0.9317190733902941,-1.36487639657616
-4.04,0.942389248247967,-1.227120097309109
-4.0395,0.9743997728209859,-1.163540266878162
-4.039,0.8676980242440526,-0.9728007755848591
-4.0385,0.7183155762366316,-0.718481453861072
-4.038,0.6009436528022294,-0.4535654937321271
-4.0375,0.5155822539402635,-0.199246172007492
-4.037,0.07810508477567314,0.2140227257936621
-4.0365,-0.7861790786966207,0.7332580076468663
-4.036,-1.586442193023362,1.135930267043209
-4.0355,-2.183971985053047,1.114736990232894
-4.035,-2.493407055925843,1.082947075017392
-4.0345,-2.514747405641189,1.188913459068969
-4.034,-2.514747405641209,1.316073119931075
-4.0335,-2.482736881068161,1.411442865577582
-4.033,-1.810515865034766,1.305476481526004
-4.0325,-0.8395299529843546,0.9239974989394174
-4.032,-0.09261771294724913,0.4153588554918433
-4.0315,0.3661998059326872,-0.1462629799815199
-4.031,0.5796033030868253,-0.4111789401111779
-4.0305,0.6542945270905358,-0.3687923864905467
-4.03,0.6436243522328627,-0.1780528951977064
-4.0295,0.6222840025173229,-0.1144730647665669
-4.029,0.4408910299368829,-0.1568596183871981
-4.0285,-0.3166913849585846,0.2140227257936621
-4.028,-0.946231701562103,0.7120647308368302
-4.0275,-1.212986073003927,1.040560521396722
-4.027,-0.9569018764195432,0.5637117931641874
-4.0265,-0.113958062663381,-0.2310360872226472
-4.026,0.6863050516635838,-0.8880276683437509
-4.0255,1.166462920259302,-1.311893204550448
-4.025,1.283834843693705,-1.502632695843289
-4.0245,1.17713309511682,-1.545019249464113
-4.024,0.9957401225363802,-1.523825972653797
-4.0235,0.8890383739596508,-1.428456227007377
-4.023,0.8890383739594762,-1.34368311976571
-4.0225,0.8036769750980928,-1.078767159636765
-4.022,0.6969752265213633,-0.7290780922665574
-4.0215,0.6116138276597566,-0.4111789401109659
-4.021,0.5582629533713921,-0.1356663415768632
-4.0205,0.4515612047945656,0.1928294489833272
-4.02,-0.02859666380175496,0.6696781772162279
-4.0195,-0.690147504977477,1.072350436612224
-4.019,-1.191645723288561,1.135930267043229
-4.0185,-1.746494815887554,0.7332580076472326
-4.018,-2.290673733629873,0.7544512844572011
-4.0175,-2.493407055925843,0.9769806909657173
-4.017,-2.493407055925843,1.210106735879189
-4.0165,-2.119950935906039,1.273686566310164
-4.016,-1.116954499284783,1.00877060618122
-4.0155,-0.2953510352439667,0.5213252395439609
-4.015,0.2488278824988574,-0.05089323433589961
-4.0145,0.5369226036560266,-0.4641621321370536
-4.014,0.643624352232756,-0.5383386009731581
-4.0135,0.6542945270905164,-0.4111789401110912
-4.013,0.6329541773751706,-0.2734226408440398
-4.0125,0.5902734779444399,-0.2946159176543747
-4.012,0.06743490991735972,-0.06148987274021894
-4.0115,-0.6261264558313813,0.457745409112513
-4.011,-1.010252750707956,0.92399749893988
-4.0105,-0.8608703027005351,0.8180311148883022
-4.01,-0.1139580626626144,0.09745970333682032
-4.0095,0.6542945270905358,-0.6337083466197325
-4.009,1.145122570543491,-1.121153713256991
-4.0085,1.315845368266791,-1.354279758171176
-4.008,1.241154144263081,-1.417859588602123
-4.0075,1.070431346540314,-1.33308648136086
-4.007,0.9210488985325823,-1.174136905283262
-4.0065,0.8997085488172365,-1.163540266878104
-4.006,0.825017324813458,-1.046977244421262
-4.0055,0.7076454013788617,-0.7926579226969934
-4.005,0.6116138276598051,-0.5171453241628908
-4.0045,0.5475927785137094,-0.2734226408440398
-4.004,0.419550680220916,-0.01910331911959739
-4.0035,-0.2420001609548061,0.4471487707073456
-4.003,-1.042263275281004,0.9134008605347127
-4.0025,-1.554431668449305,1.199510097473973
-4.002,-1.991908837614759,1.104140351827727
-4.0015,-2.408045657064382,1.135930267043229
-4.001,-2.482736881068093,1.252493289499965
-4.0005,-2.493407055925717,1.369056311956951
-4,-2.354694782775969,1.411442865577582
-3.9995,-1.447729919872945,1.178316820663898
-3.999,-0.5514352318276028,0.7226613692416989
-3.9985,0.09944543449103843,0.1822328105781598
-3.998,0.4729015545099309,-0.3052125560595421
-3.9975,0.6222840025174878,-0.4641621321370536
-3.997,0.6649647019482183,-0.3793890248957141
-3.9965,0.6542945270905358,-0.2310360872233701
-3.996,0.6329541773751706,-0.2310360872233701
-3.9955,0.3021787567870086,-0.1462629799820306
-3.995,-0.4660738329661415,0.3199891098453364
-3.9945,-0.9675720512772257,0.8286277532933731
-3.994,-1.095614149569417,0.9981739677760521
-3.9935,-0.5300948821122373,0.383568940276341
-3.993,0.3128489316446912,-0.4111789401112165
-3.9925,0.9530594231056497,-1.025783967610927
-3.992,1.262494493978446,-1.396666311791788
-3.9915,1.251824319120764,-1.51322933424863
-3.991,1.081101521397841,-1.439052865412457
-3.9905,0.9210488985326017,-1.258910012524611
-3.99,0.8890383739595538,-1.195330182093607
-3.9895,0.8356874996711408,-1.163540266878104
-3.989,0.7289857510943143,-0.9092209451540858
-3.9885,0.6436243522328531,-0.6019184314042303
-3.988,0.5796033030867573,-0.3158091944647096
-3.9875,0.5262524287983441,-0.07208651114585861
-3.987,0.0674349099179905,0.3305857482505039
-3.9865,-0.7328282044082075,0.8074344764830383
-3.986,-1.287677297007705,1.167720182258731
-3.9855,-1.693143941599645,1.220703374284568
-3.985,-2.162631635337682,1.231300012689736
-3.9845,-2.450726356495113,1.316073119931075
-3.984,-2.482736881068161,1.400846227172415
-3.9835,-2.376035132491334,1.443232780793084
-3.983,-1.533091318734406,1.25249328950007
-3.9825,-0.6154562809736985,0.7968378380778709
-3.982,0.05676473506030786,0.2670059178194992
-3.9815,0.4515612047945656,-0.2098428104130352
-3.981,0.6222840025174878,-0.4111789401112165
-3.9805,0.6756348768059011,-0.3793890248957141
-3.98,0.6649647019482183,-0.2310360872233701
-3.9795,0.6436243522328531,-0.1462629799820306
-3.979,0.4835717293676135,-0.1780528951975329
-3.9785,-0.2313299860971235,0.1504428953626575
-3.978,-0.8928808272734472,0.6590815388106942
-3.9775,-1.277007122150022,0.9875773293708847
-3.977,-0.9462317015618604,0.5849050699745222
-3.9765,-0.06060718837420119,-0.1674562567923655
-3.976,0.7289857510943143,-0.8350444763179138
-3.9755,1.187803269974668,-1.237716735714276
-3.975,1.294505018551494,-1.417859588602123
-3.9745,1.177133095116985,-1.439052865412457
-3.974,1.006410297394063,-1.364876396576285
-3.9735,0.8890383739595538,-1.269506650929778
-3.973,0.79300680024041,-1.375473034981453
-3.9725,0.6863050516635838,-1.174136905283272
-3.972,0.6009436528021226,-0.8350444763179138
-3.9715,0.5582629533713921,-0.4959520473525559
-3.971,0.5475927785137094,-0.2204394488182027
-3.9705,0.2274875327832301,0.1504428953626575
-3.97,-0.6154562809736985,0.6590815388106942
-3.9695,-1.46907026958831,1.082947075017392
-3.969,-2.119950935906951,1.146526905448396
-3.9685,-2.44005618163743,0.9028042221295453
-3.968,-2.472066706210478,0.9663840525605498
-3.9675,-2.472066706210478,1.135930267043229
-3.967,-2.461396531352796,1.29487984312074
-3.9665,-1.981238662757077,1.263089927905238
-3.966,-0.9782422261349084,0.8710143069140429
-3.9655,-0.1886492866663929,0.309392471440169
-3.965,0.3235191065023739,-0.1462629799820306
-3.9645,0.5796033030867573,-0.3581957480853793
-3.964,0.6756348768059011,-0.3581957480853793
-3.9635,0.6863050516635838,-0.2310360872233701
-3.963,0.6542945270905358,-0.1250697031716958
-3.9625,0.5689331282290746,-0.1674562567923655
-3.962,-0.06060718837420119,0.1080563417419877
-3.9615,-0.9248913518464952,0.5955017083796896
-3.961,-1.426389570157579,1.00877060618122
-3.9605,-1.212986073003927,0.8286277532933731
-3.96,-0.3487019095316325,0.08686306493165288
-3.9595,0.5155822539406614,-0.6443049850249
-3.959,1.059761171682476,-1.163540266878104
-3.9585,1.273164668836129,-1.417859588602123
-3.958,1.230483969405398,-1.481439419033127
-3.9575,1.091771696255524,-1.407262950196955
-3.957,0.974399772821015,-1.248313374119443
-3.9565,1.027750647109428,-1.290699927740113
-3.956,0.9637295979633325,-1.163540266878104
-3.9555,0.8143471499557753,-0.8668343915334161
-3.955,0.6863050516635838,-0.5489352393783931
-3.9545,0.6009436528021226,-0.2734226408440398
-3.954,0.4622313796522482,0.002089957690313421
-3.9535,-0.156638762093345,0.4683420475176805
-3.953,-0.8608703027003992,0.9345941373450475
-3.9525,-1.255666772434657,1.241896651094903
-3.952,-1.693143941599645,1.33726639674141
-3.9515,-2.183971985053047,1.400846227172415
-3.951,-2.450726356495113,1.453829419198252
-3.9505,-2.461396531352796,1.485619334413754
-3.95,-2.19464215991073,1.42203950398275
-3.9495,-1.223656247861609,1.093543713422559
-3.949,-0.3593720843893152,0.5743084315693548
-3.9485,0.2168173579255475,0.02328323450064829
-3.948,0.5369226036560266,-0.4111789401112165
-3.9475,0.6649647019482183,-0.5065486857577234
-3.947,0.6863050516635838,-0.3899856633008816
-3.9465,0.6756348768059011,-0.2098428104130352
-3.946,0.6436243522328531,-0.1780528951975329
-3.9455,0.2488278824985954,-0.1038764263613609
-3.945,-0.4660738329661415,0.3517790250608387
-3.9445,-0.9142211769888124,0.8392243916985406
-3.944,-1.031593100423322,0.8816109453192104
-3.9435,-0.391382608962363,0.1928294489833272
-3.943,0.4515612047945656,-0.5489352393783931
-3.9425,1.049090996824793,-1.078767159636765
-3.942,1.305175193409177,-1.375473034981453
-3.9415,1.262494493978446,-1.449649503817625
-3.941,1.102441871113207,-1.364876396576285
-3.9405,0.942389248247967,-1.195330182093607
-3.94,0.857027849386506,-1.121153713257435
-3.9395,0.79300680024041,-1.025783967610927
-3.939,0.6969752265212663,-0.8032545611024114
-3.9385,0.6116138276598051,-0.5383386009732256
-3.938,0.5689331282290746,-0.326405832869877
-3.9375,0.5155822539406614,-0.1568596183871981
-3.937,0.01408403562957729,0.2458126410091644
-3.9365,-0.8181896032696687,0.7438546460520338
-3.936,-1.479740444445993,1.114736990232894
-3.9355,-1.970568487899394,0.9134008605347127
-3.935,-2.386705307349017,0.7862411996727035
-3.9345,-2.450726356495113,0.9451907757502149
-3.934,-2.461396531352796,1.157123543853563
-3.9335,-2.386705307349017,1.316073119931075
-3.933,-1.597112367880501,1.199510097474233
-3.9325,-0.658136980404429,0.7650479228623686
-3.932,0.03542438534494258,0.2246193641988295
-3.9315,0.4515612047945656,-0.2734226408440398
-3.931,0.6436243522328531,-0.4959520473525559
-3.9305,0.6969752265212663,-0.4641621321370536
-3.93,0.6863050516635838,-0.2946159176543747
-3.9295,0.6649647019482183,-0.1780528951975329
-3.929,0.4515612047945656,-0.1038764263613609
-3.9285,-0.274010685527854,0.3199891098453364
-3.928,-0.8502001278427167,0.8074344764830383
-3.9275,-1.127624674142465,1.051157159801889
-3.927,-0.7008176798351597,0.5107286011383502
-3.9265,0.1527963087794516,-0.2840192792492073
-3.926,0.857027849386506,-0.9198175835592532
-3.9255,1.241154144263081,-1.301296566145281
-3.925,1.305175193409177,-1.449649503817625
-3.9245,1.177133095116985,-1.407262950196955
-3.924,1.006410297394063,-1.290699927740113
-3.9235,0.9637295979633325,-1.227120097309109
-3.923,0.9957401225363802,-1.184733543688439
-3.9225,0.8997085488172365,-0.9410108603695881
-3.922,0.7609962756673623,-0.6443049850249
-3.9215,0.6542945270905358,-0.3687923864905467
-3.921,0.5902734779444399,-0.1356663415768632
-3.9205,0.4302208550792003,0.2034260873884947
-3.92,-0.156638762093345,0.6908714540261965
-3.9195,-0.9889124009925911,1.093543713422559
-3.919,-1.618452717595867,1.220703374284568
-3.9185,-2.130621110764634,1.220703374284568
-3.918,-2.429386006779747,1.284283204715573
-3.9175,-2.450726356495113,1.37965295036208
-3.917,-2.418715831922065,1.432636142387917
-3.9165,-1.778505340461106,1.273686566310405
-3.916,-0.7968492535543035,0.7968378380778709
-3.9155,-0.04993701351651855,0.1928294489833272
-3.915,0.408880505363835,-0.2416327256285375
-3.9145,0.6329541773751706,-0.4323722169215513
-3.914,0.6969752265212663,-0.4111789401112165
-3.9135,0.6969752265212663,-0.2734226408440398
-3.913,0.6649647019482183,-0.1462629799820306
-3.9125,0.5902734779444399,-0.2416327256285375
-3.912,-0.02859666380115328,-0.06148987274069118
-3.9115,-0.7114878546928423,0.4471487707073456
-3.911,-1.084943974711735,0.9028042221295453
-3.9105,-0.9142211769888124,0.6908714540261965
-3.91,-0.1139580626626144,-0.08268314955102604
-3.9095,0.6863050516635838,-0.9092209451540858
-3.909,1.177133095116985,-1.417859588602123
-3.9085,1.326515543124542,-1.619195718300304
-3.908,1.251824319120764,-1.640388995110639
-3.9075,1.070431346540159,-1.523825972653797
-3.907,0.9210488985326017,-1.396666311791788
-3.9065,0.8036769750980928,-1.481439419033127
-3.906,0.6863050516635838,-1.290699927740113
-3.9055,0.6116138276598051,-0.9198175835592532
-3.905,0.5689331282290746,-0.5277419625680583
-3.9045,0.5475927785137094,-0.2098428104130352
-3.904,0.4195506802215176,0.1080563417419877
-3.9035,-0.2206598112394408,0.5849050699745222
-3.903,-1.06360362499637,1.00877060618122
-3.9025,-1.767835165603424,1.199510097474233
-3.902,-2.312014083345239,0.8180311148882058
-3.9015,-2.44005618163743,0.775644561267536
-3.901,-2.450726356495113,0.9663840525605498
-3.9005,-2.44005618163743,1.188913459069066
-3.9,-2.247993034199143,1.29487984312074
-3.8995,-1.298347471865388,1.061753798207057
-3.899,-0.4127229586777283,0.5743084315693548
-3.8985,0.2061471830678648,0.01268659609548085
-3.898,0.5369226036560266,-0.474758770542221
-3.8975,0.6863050516635838,-0.5807251545938954
-3.897,0.707645401378949,-0.474758770542221
-3.8965,0.6969752265212663,-0.2734226408440398
-3.896,0.6649647019482183,-0.1780528951975329
-3.8955,0.2168173579255475,0.05507314971615059
-3.895,-0.5300948821122373,0.5425185163538525
-3.8945,-0.9248913518464952,0.9875773293708847
-3.894,-0.9248913518464952,0.9769806909657173
-3.8935,-0.2526703358124887,0.2881991946298341
-3.893,0.5582629533713921,-0.474758770542221
-3.8925,1.102441871113207,-1.025783967610927
-3.892,1.326515543124542,-1.333086481360783
-3.8915,1.273164668836129,-1.42845622700729
-3.891,1.113112045970889,-1.364876396576285
-3.8905,0.9637295979633325,-1.227120097309109
-3.89,0.9637295979633325,-1.354279758171118
-3.8895,0.9103787236749192,-1.375473034981453
-3.889,0.79300680024041,-1.068170521231597
-3.8885,0.6863050516635838,-0.6866915386455698
-3.888,0.6222840025174878,-0.3581957480853793
-3.8875,0.5369226036560266,-0.06148987274069118
-3.887,-0.03926683865883591,0.383568940276341
-3.8865,-0.7968492535543035,0.8604176685088755
-3.886,-1.202315898146244,1.188913459069066
-3.8855,-1.522421143876723,0.9451907757502149
-3.885,-1.959898313041711,0.7968378380778709
