Class_2_Relax_eyes_open/Class_2_Relax_eyes_open_UZ_10.csv

#Digilent WaveForms Oscilloscope Acquisition
#Device Name: EExplorer
#Serial Number: SN:210151A2B84A
#Date Time: 2020-12-23 13:06:37.699
#Sample rate: 2000Hz
#Samples: 16384
#Trigger: Source: Channel 1 Type: Edge Condition: Rising Level: 0 V Hyst.: Auto HoldOff: 0 s
#Channel 1: Range: 1 V/div Offset: 0 V Attenuation: 1 X
#Channel 2: Range: 1 V/div Offset: 0 V Attenuation: 1 X
#Power Supplies: ON
#Fixed Supply: ON
#Voltage: 3.3 V Readback: 3.326 V
#Positive Supply: ON
#Voltage: 3.7 V Readback: 3.689 V
#Current: 40 mA Readback: 20 mA
#Negative Supply: ON
#Voltage: -3.7 V Readback: -4.118 V
#Current: -40 mA Readback: -8 mA
#Reference 1: ON
#Voltage: 0 V
#Reference 2: ON
#Voltage: 0 V

Time (s),Channel 1 (V),Channel 2 (V)
-4.096,-0.4554036581084589,0.2458126410091644
-4.0955,-0.4340633083931131,0.2034260873885332
-4.095,-0.1993194615238329,0.3729723018712892
-4.0945,0.0674349099179905,0.5001319627331828
-4.094,0.835687499670442,0.6378882620002342
-4.0935,1.411876941985188,0.1822328105772056
-4.093,0.5155822539406614,-0.8668343915334161
-4.0925,-0.5300948821112863,-1.110557074852045
-4.092,-0.572775581542609,-0.5913217929986484
-4.0915,-0.1779791118087102,-0.1356663415768632
-4.091,0.1954770082101822,0.1716361721729923
-4.0905,0.3768699807908259,0.3305857482505713
-4.09,0.4195506802215176,0.4047622170866759
-4.0895,0.3875401556484697,0.4153588554918433
-4.089,0.3341892813601051,0.3941655786815277
-4.0885,0.3128489316446912,0.4047622170866759
-4.088,0.2808384070716433,0.4047622170866759
-4.0875,0.2488278824986245,0.4047622170866759
-4.087,0.227487532783201,0.4153588554918722
-4.0865,0.1954770082101822,0.4471487707073456
-4.086,-0.007256314085603621,0.5319218779486079
-4.0855,-0.754168554124194,0.6590815388103279
-4.085,-1.437059745015262,0.2564092794143318
-4.0845,-1.629122892453375,-0.5595318777828184
-4.084,-1.84252638960695,-1.258910012524582
-4.0835,-1.565101843307454,-1.227120097309109
-4.083,-0.9355615267041777,-0.5913217929990628
-4.0825,-0.3700422592466484,0.09745970333727329
-4.082,0.01408403562957729,0.5955017083796896
-4.0815,0.2168173579255475,0.8922075837243778
-4.081,0.291508581929258,1.019367244586271
-4.0805,0.3021787567870086,1.051157159801889
-4.08,0.2808384070716433,1.019367244586387
-4.0795,0.2594980573562975,0.9769806909657558
-4.079,0.2594980573562878,0.9134008605346452
-4.0785,0.2701682322139607,0.8392243916985406
-4.078,0.3448594562176712,0.7650479228624361
-4.0775,0.4835717293677882,0.5107286011377623
-4.077,0.6756348768059011,-0.1356663415768632
-4.0765,0.2808384070720024,-0.7608680074811731
-4.076,-0.5194247072545645,-1.407262950197061
-4.0755,-0.5300948821122373,-1.523825972653797
-4.075,-0.08194753808956648,-1.036380606016095
-4.0745,0.3128489316448756,-0.4853554089470126
-4.074,0.5155822539406614,-0.07208651114585861
-4.0735,0.5262524287983441,0.2034260873884947
-4.073,0.4515612047946335,0.3199891098452304
-4.0725,0.2274875327832301,0.2140227257936621
-4.072,0.3021787567870086,0.309392471440169
-4.0715,-0.3487019095310405,-0.3052125560589831
-4.071,-0.5087545323967362,-0.4323722169213875
-4.0705,-0.3593720843893152,-0.252229364033705
-4.07,-0.209989636381894,-0.07208651114602246
-4.0695,-0.02859666380133766,0.1610395337680562
-4.069,-0.2313299860971235,0.4153588554918433
-4.0685,-1.127624674142465,0.2140227257936621
-4.068,-1.863866739323121,-0.6972881770516625
-4.0675,-2.472066706210478,-1.714565463946811
-4.067,-2.493407055925843,-2.074851169722503
-4.0665,-1.7358246410296,-1.396666311790949
-4.066,-0.8822106524157645,-0.474758770542221
-4.0655,-0.2420001609548061,0.2881991946298341
-4.065,0.1421261339214196,0.7650479228619349
-4.0645,0.3128489316446912,1.00877060618122
-4.064,0.3448594562177392,1.093543713422559
-4.0635,0.3341892813600663,1.082947075017401
-4.063,0.3021787567869989,1.029963882991497
-4.0625,0.291508581929326,0.9663840525605498
-4.062,0.291508581929326,0.8922075837244453
-4.0615,0.3021787567872513,0.8286277532932479
-4.061,0.5689331282290746,0.6908714540261965
-4.0605,1.230483969405398,0.309392471440169
-4.06,1.177133095116034,-0.4959520473533269
-4.0595,0.1314559590640864,-1.34368311976595
-4.059,-0.3060212101009019,-1.947691508860494
-4.0585,-0.007256314086059701,-1.703968825541865
-4.058,0.3555296310754218,-1.01518732920576
-4.0575,0.5475927785137094,-0.3899856633008816
-4.057,0.5582629533713824,0.06566978812090363
-4.0565,0.4835717293676135,0.309392471440169
-4.056,0.3875401556484697,0.3941655786815084
-4.0555,0.344859456217778,0.3729723018711928
-4.055,0.3661998059330657,0.2881991946298052
-4.0545,0.3235191065023739,0.2564092794143318
-4.054,0.2808384070716821,0.2670059178194896
-4.0535,0.2381577076408739,0.2881991946298726
-4.053,0.1954770082101822,0.3305857482505039
-4.0525,-0.1352984123779797,0.6166949851900245
-4.052,-0.8395299529857133,1.061753798206768
-4.0515,-1.586442193022819,0.7438546460520338
-4.051,-1.863866739322568,0.05507314971615059
-4.0505,-2.173301810195083,-0.7714646458861575
-4.05,-2.312014083345239,-1.42845622700729
-4.0495,-1.362368521011484,-0.7608680074817418
-4.049,-0.6261264558320508,-0.1568596183877474
-4.0485,-0.1032878878046212,0.3517790250611953
-4.048,0.2381577076409128,0.7438546460520338
-4.0475,0.3128489316446233,0.8922075837242429
-4.047,0.3128489316446718,0.9451907757502342
-4.0465,0.291508581929326,0.9663840525605498
-4.046,0.2701682322139801,0.9663840525605498
-4.0455,0.2701682322139704,0.9557874141553631
-4.045,0.2808384070716433,0.9345941373450475
-4.0445,0.3982103305061524,0.8922075837243778
-4.044,0.9317190733905465,0.4895353243271865
-4.0435,1.219813794547716,-0.4217755785163839
-4.043,0.3982103305061524,-1.364876396576285
-4.0425,-0.1246282375198215,-1.290699927740181
-4.042,0.0674349099179905,-0.474758770542221
-4.0415,0.3768699807907871,0.07626642652648545
-4.041,0.5475927785135541,0.3517790250605881
-4.0405,0.5689331282290164,0.4259554938969914
-4.04,0.5049120790829789,0.4047622170866759
-4.0395,0.4195506802215953,0.3517790250608869
-4.039,0.3341892813600177,0.2776025562245896
-4.0385,0.291508581929326,0.1928294489833272
-4.038,0.2701682322139801,0.203426087388485
-4.0375,0.238157707640903,0.2564092794143992
-4.037,0.2274875327832301,0.3305857482505039
-4.0365,0.2168173579255475,0.4047622170866759
-4.036,0.1207857842060446,0.4047622170864446
-4.0355,-0.274010685527854,0.1504428953626575
-4.035,-0.9355615267041777,-0.4323722169215513
-4.0345,-1.426389570157133,-1.057573882825861
-4.034,-1.789175515318789,-1.47084278062796
-4.0335,-1.46907026958831,-1.131750351662602
-4.033,-0.8608703027009523,-0.4005823017067141
-4.0325,-0.3166913849583226,0.2670059178198462
-4.032,-0.02859666380115328,0.6484849004055269
-4.0315,0.1527963087792867,0.8816109453189983
-4.031,0.2381577076403014,0.9875773293702679
-4.0305,-0.4340633083930936,0.309392471440169
-4.03,-0.2953510352433455,0.4259554938969047
-4.0295,-0.1139580626624494,0.5637117931642838
-4.029,0.0674349099179905,0.6696781772158616
-4.0285,0.2594980573562781,0.775644561267536
-4.028,0.3341892813604447,0.7226613692415254
-4.0275,0.7609962756673623,0.5319218779486851
-4.027,1.379866417412955,-0.06148987274069118
-4.0265,1.102441871113459,-1.078767159635839
-4.026,0.2701682322139607,-1.979481424075996
-4.0255,0.1954770082101822,-2.371557045067191
-4.025,0.4622313796520056,-1.735758740757724
-4.0245,0.6649647019482378,-0.8668343915327511
-4.024,0.6863050516635838,-0.1356663415768632
-4.0235,0.6009436528022002,0.3093924714397642
-4.023,0.5049120790828818,0.4789386859228382
-4.0225,0.3982103305061524,0.4683420475176805
-4.022,0.3661998059331336,0.4259554938970492
-4.0215,0.3341892813600177,0.3729723018711351
-4.021,0.291508581929326,0.3305857482505039
-4.0205,0.2488278824985954,0.2987958330350016
-4.02,0.2274875327831719,0.2987958330350016
-4.0195,0.1634664836371343,0.2987958330350016
-4.019,-0.3273615598162672,0.2881991946298341
-4.0185,-1.0636036249957,0.03387987290604705
-4.018,-1.597112367880501,-0.6549016234300674
-4.0175,-1.970568487899394,-1.34368311976595
-4.017,-1.885207089038011,-1.513229334248475
-4.0165,-1.23432642271869,-0.9092209451534208
-4.016,-0.572775581542968,-0.1780528951975329
-4.0155,-0.1032878878053587,0.3941655786809879
-4.015,0.1741366584949237,0.7544512844573746
-4.0145,0.291508581929326,0.9451907757502149
-4.014,0.3235191065023447,1.008770606181162
-4.0135,0.3021787567869892,1.008770606181191
-4.013,0.2808384070716433,0.9769806909657173
-4.0125,0.2701682322139607,0.92399749893988
-4.012,0.1314559590641931,0.7332580076469145
-4.0115,0.2488278824985954,0.7862411996727035
-4.011,-0.3166913849585846,-0.1780528951975329
-4.0105,0.4408910299361939,-0.7396747306708962
-4.01,0.4195506802215176,-1.566212526274467
-4.0095,-0.1779791118087102,-2.043061254507001
-4.009,0.04609456020242142,-1.121153713258273
-4.0085,0.4729015545101347,-0.2098428104126979
-4.008,0.6969752265212663,0.1610395337678249
-4.0075,0.7289857510942852,0.2670059178194029
-4.007,0.654294527090429,0.2458126410091066
-4.0065,0.5369226036560266,0.1822328105781598
-4.006,0.4195506802215176,0.1822328105781598
-4.0055,0.3555296310754121,0.07626642652636016
-4.005,0.3448594562177392,-0.06148987274069118
-4.0045,0.3021787567870086,0.06566978812131802
-4.004,0.259498057356249,0.2776025562248401
-4.0035,0.2274875327832301,0.4683420475176805
-4.003,0.2061471830678648,0.6060983467848571
-4.0025,-0.07127736323163153,0.871014306913802
-4.002,-0.8502001278427167,1.305476481525908
-4.0015,-1.490410619303675,1.135930267043229
-4.001,-1.970568487898957,0.1716361721738693
-4.0005,-2.162631635337168,-0.7078848154558949
-4,-1.597112367880501,-0.6972881770507372
-3.9995,-0.8608703027003992,-0.2310360872233701
-3.999,-0.274010685527854,0.2458126410091644
-3.9985,0.09944543449103843,0.5849050699745222
-3.998,0.2701682322139607,0.775644561267536
-3.9975,0.3235191065023739,0.8392243916985406
-3.997,0.3235191065023739,0.8392243916985406
-3.9965,0.291508581929326,0.7968378380778709
-3.996,0.2808384070716433,0.7332580076468663
-3.9955,0.2701682322139607,0.6590815388106942
-3.995,0.2808384070716433,0.6060983467848571
-3.9945,0.4515612047945656,0.4895353243280153
-3.994,1.102441871113207,-0.07208651114585861
-3.9935,1.241154144263081,-0.8244478379127463
-3.993,0.408880505363835,-1.375473034981453
-3.9925,0.04609456020262521,-1.121153713257435
-3.992,0.2594980573562781,-0.5277419625680583
-3.9915,0.5262524287983441,-0.008506680714854012
-3.991,-0.1993194615240755,-0.5595318777835605
-3.9905,-0.1032878878049318,-0.2946159176543747
-3.99,0.00341386077189465,-0.07208651114585861
-3.9895,0.08877525963335578,0.07626642652648545
-3.989,0.2488278824985954,0.2881991946298341
-3.9885,0.3875401556484697,0.3941655786815084
-3.988,0.3875401556484697,0.4047622170866759
-3.9875,0.3341892813600565,0.4153588554918433
-3.987,0.2701682322139607,0.4259554938970107
-3.9865,0.2274875327832301,0.4471487707073456
-3.986,-0.03926683865883591,0.5213252395435176
-3.9855,-0.8181896032696687,0.6060983467848571
-3.985,-1.330357996438436,0.08686306493165288
-3.9845,-1.714484291315011,-0.8986243067489184
-3.984,-2.183971985053047,-1.735758740757146
-3.9835,-1.981238662757077,-1.714565463946811
-3.983,-1.255666772434657,-0.9622041371799229
-3.9825,-0.5621054066852853,-0.1674562567923655
-3.982,-0.07127736323188383,0.4259554938970107
-3.9815,0.1954770082101822,0.7650479228623686
-3.981,0.3128489316446912,0.9134008605347127
-3.9805,0.3341892813600565,0.9557874141553824
-3.98,0.3128489316446912,0.92399749893988
-3.9795,0.291508581929326,0.8710143069140429
-3.979,0.2808384070716433,0.8180311148882058
-3.9785,0.2808384070716433,0.7544512844572011
-3.978,0.3235191065023739,0.6908714540261965
-3.9775,0.4622313796522482,0.4895353243280153
-3.977,0.8997085488172365,-0.1250697031716958
-3.9765,1.539919040278195,-0.9092209451540858
-3.976,2.12677865745074,-1.449649503817625
-3.9755,2.137448832308423,-1.195330182093607
-3.975,1.785333062004896,-0.5913217929990628
-3.9745,1.326515543124542,-0.02969995752518888
-3.974,0.8890383739595538,0.3199891098453364
-3.9735,0.5475927785137094,0.4153588554918433
-3.973,0.291508581929326,0.3517790250608387
-3.9725,0.1314559590640864,0.2564092794143318
-3.972,0.3448594562177392,0.2881991946298341
-3.9715,-0.06060718837420119,-0.2204394488182027
-3.971,-0.2099896363817582,-0.3370024712750445
-3.9705,-0.07127736323188383,-0.1038764263613609
-3.97,0.02475421048725994,0.09745970333682032
-3.9695,0.1207857842064037,0.3305857482505039
-3.969,-0.2313299860971235,0.5107286011383502
-3.9685,-1.223656247861609,0.2776025562246667
-3.968,-2.119950935906951,-0.5489352393783931
-3.9675,-2.717480727937179,-0.6866915386455698
-3.967,-2.877533350802418,0.01268659609548085
-3.9665,-2.07727023647622,0.4047622170866759
-3.966,-1.116954499284783,0.4895353243280153
-3.9655,-0.3700422592469978,0.4683420475176805
-3.965,0.07810508477567314,0.457745409112513
-3.9645,0.2808384070716433,0.4789386859228479
-3.964,0.3555296310754218,0.5425185163538525
-3.9635,0.3448594562177392,0.627291623595192
-3.963,0.3128489316446912,0.7332580076468663
-3.9625,0.291508581929326,0.849821030103708
-3.962,0.291508581929326,0.9451907757502149
-3.9615,0.3128489316446912,1.019367244586387
-3.961,0.6329541773751706,0.9134008605347127
-3.9605,1.337185717982225,0.2881991946298341
-3.96,1.19847344483235,-0.5065486857577234
-3.9595,0.2808384070716433,-1.004590690800593
-3.959,0.04609456020262521,-0.6549016234300674
-3.9585,0.2488278824985954,0.01268659609548085
-3.958,0.4729015545099309,0.5425185163538525
-3.9575,0.5689331282290746,0.849821030103708
-3.957,0.5262524287983441,0.9875773293708847
-3.9565,0.4302208550792003,0.9663840525605498
-3.956,0.3448594562177392,0.8710143069140429
-3.9555,0.3768699807907871,0.7332580076468663
-3.955,0.5155822539406614,0.5637117931641874
-3.9545,0.4835717293676135,0.4259554938970107
-3.954,0.3982103305061524,0.3199891098453364
-3.9535,0.2808384070716433,0.2034260873884947
-3.953,0.08877525963335578,0.05507314971615059
-3.9525,-0.3487019095316325,0.2881991946298341
-3.952,-1.575772018165136,0.03387987290581572
-3.9515,-2.482736881068161,-0.5913217929990628
-3.951,-2.717480727937179,-1.258910012524611
-3.9505,-2.845522826229371,-1.937094870455327
-3.95,-2.130621110764634,-1.661582271920973
-3.9495,-1.170305373573196,-0.9092209451540858
-3.949,-0.4447334832507763,-0.2310360872233701
-3.9485,0.01408403562957729,0.2670059178194992
-3.948,0.2488278824985954,0.5637117931641874
-3.9475,0.3235191065023739,0.7120647308365314
-3.947,0.3341892813600565,0.775644561267536
-3.9465,0.3128489316446912,0.7968378380778709
-3.946,0.291508581929326,0.7968378380778709
-3.9455,0.2808384070716433,0.775644561267536
-3.945,0.291508581929326,0.7650479228623686
-3.9445,0.3982103305061524,0.701468092431364
-3.944,0.942389248247967,0.309392471440169
-3.9435,1.283834843693812,-0.5171453241628908
-3.943,0.5369226036560266,-1.354279758171118
-3.9425,0.07810508477567314,-1.195330182093607
-3.942,0.2168173579255475,-0.5065486857577234
-3.9415,0.4835717293676135,-0.02969995752518888
-3.941,0.6222840025174878,0.2564092794143318
-3.9405,0.6116138276598051,0.4047622170866759
-3.94,0.5369226036560266,0.457745409112513
-3.9395,0.4302208550792003,0.4365521323021782
-3.939,0.3661998059331045,0.383568940276341
-3.9385,0.408880505363835,0.3729723018711736
-3.938,0.3768699807907871,0.383568940276341
-3.9375,0.3235191065023739,0.3941655786815084
-3.937,0.2701682322139607,0.4047622170866759
-3.9365,0.2168173579255475,0.4365521323021782
-3.936,-0.007256314085787988,0.5743084315693548
-3.9355,-0.690147504977477,0.7544512844572011
-3.935,-1.426389570157579,0.3941655786815084
-3.9345,-2.162631635337682,-0.3793890248957141
-3.934,-2.60010880450267,-1.142346990067769
-3.9335,-2.055929886760855,-1.110557074852267
-3.933,-1.597112367880501,-0.9516074987747555
-3.9325,-1.180975548430879,-0.6019184314042303
-3.932,-0.4767440078238243,0.1186529801471552
-3.9315,-0.06060718837420119,0.5743084315693548
-3.931,0.2274875327832301,0.8922075837243778
-3.9305,0.3235191065023739,1.00877060618122
-3.93,0.3021787567870086,0.9769806909657173
-3.9295,0.2808384070716433,0.9134008605347127
-3.929,0.2701682322139607,0.8392243916985406
-3.9285,0.3021787567870086,0.7650479228623686
-3.928,0.3875401556484697,0.6908714540261965
-3.9275,0.8997085488172365,0.4895353243280153
-3.927,1.401206767128321,-0.1992461720078678
-3.9265,0.857027849386506,-1.184733543688439
-3.926,-0.08194753808956648,-1.990078062481164
-3.9255,-0.1459685872356623,-1.968884785670829
-3.925,0.1741366584948169,-1.195330182093607
-3.9245,0.4622313796522482,-0.4853554089473885
-3.924,0.5796033030867573,0.05507314971615059
-3.9235,0.5582629533713921,0.3199891098453364
-3.923,0.4729015545099309,0.3517790250608387
-3.9225,0.3875401556484697,0.2987958330350016
-3.922,0.6116138276598051,0.5213252395435176
-3.9215,0.7183155762366316,0.6590815388106942
-3.921,0.6116138276598051,0.55311515475902
-3.9205,0.4622313796522482,0.4047622170866759
-3.92,0.3341892813600565,0.2987958330350016
-3.9195,0.1634664836371343,0.309392471440169
-3.919,-0.4340633083930936,0.5849050699745222
-3.9185,-1.180975548430879,0.5637117931641874
-3.918,-1.490410619303675,-0.08268314955102604
-3.9175,-1.693143941599645,-0.8456411147230812
-3.917,-1.522421143876723,-1.046977244421262
-3.9165,-0.9569018764195432,-0.570128516188728
-3.916,-0.4020527838200457,0.04447651131098315
-3.9155,-0.03926683865883591,0.5213252395435176
-3.915,0.08877525963335578,0.7650479228623686
-3.9145,-0.007256314085787988,0.7650479228623686
-3.914,-0.5194247072545548,0.2987958330350016
-3.9135,-0.2633405106701714,0.5849050699745222
-3.913,-0.09261771294724913,0.7332580076468663
-3.9125,0.09944543449103843,0.8922075837243778
-3.912,0.2808384070716433,0.9769806909657173
-3.9115,0.3555296310754218,0.9134008605347127
-3.911,0.4942419042252961,0.7120647308365314
-3.9105,0.8356874996711408,-0.02969995752518888
-3.91,0.5262524287983441,-1.121153713257435
-3.9095,-0.1139580626626144,-1.862918401619155
-3.909,-0.07127736323188383,-1.703968825541643
-3.9085,0.2274875327832301,-0.9728007755850904
-3.908,0.4835717293676135,-0.252229364033705
-3.9075,0.5902734779444399,0.1504428953626575
-3.907,0.5475927785137094,0.2352160026039969
-3.9065,0.4622313796522482,0.2140227257936621
-3.906,0.3768699807907871,0.1504428953626575
-3.9055,0.3448594562177392,0.1504428953626575
-3.905,0.3555296310754218,0.1822328105781598
-3.9045,0.3235191065023739,0.1610395337678249
-3.904,0.2808384070716433,0.1504428953626575
-3.9035,0.2488278824985954,0.1610395337678249
-3.903,0.1527963087794516,0.2034260873884947
-3.9025,-0.4660738329661415,0.2246193641988295
-3.902,-1.223656247861609,-0.2204394488182027
-3.9015,-1.682473766741963,-0.9410108603695881
-3.901,-2.045259711903173,-1.184733543688439
-3.9005,-2.109280761049269,-0.474758770542221
-3.9,-1.458400094730627,0.1504428953626575
-3.8995,-0.7434983792658902,0.4895353243280153
-3.899,-0.1993194615240755,0.6696781772158616
-3.8985,0.1314559590640864,0.7544512844572011
-3.898,0.2808384070716433,0.8074344764830383
-3.8975,0.3235191065023739,0.849821030103708
-3.897,0.3235191065023739,0.8816109453192104
-3.8965,0.291508581929326,0.92399749893988
-3.896,0.2808384070716433,0.9557874141553824
-3.8955,0.1527963087794516,0.849821030103708
-3.895,0.2701682322139607,0.9451907757502149
-3.8945,-0.007256314085787988,0.55311515475902
-3.894,-0.1673089369510276,-0.3370024712750445
-3.8935,-0.1779791118087102,-1.01518732920576
-3.893,-0.8288597781273515,-1.735758740757146
-3.8925,-1.010252750707956,-1.788741932782983
-3.892,-0.4767440078238243,-1.110557074852267
-3.8915,0.0674349099179905,-0.4111789401112165
-3.891,0.3982103305061524,0.1292496185523226
-3.8905,0.5049120790829789,0.4789386859228479
-3.89,0.4835717293676135,0.5955017083796896
-3.8895,0.408880505363835,0.5425185163538525
-3.889,0.291508581929326,0.3411823866556712
-3.8885,0.07810508477567314,-0.05089323433552374
-3.888,0.03542438534494258,-0.1250697031716958
-3.8875,0.0674349099179905,-0.04029659593035631
-3.887,0.1207857842064037,0.07626642652648545
-3.8865,0.1634664836371343,0.1610395337678249
-3.886,0.07810508477567314,0.2881991946298341
