Class_2_Relax_eyes_open/Class_2_Relax_eyes_open_SH_2.csv

#Digilent WaveForms Oscilloscope Acquisition
#Device Name: EExplorer
#Serial Number: SN:210151A2B84A
#Date Time: 2020-11-25 11:34:45.768
#Sample rate: 2000Hz
#Samples: 16384
#Trigger: Source: Channel 1 Type: Edge Condition: Rising Level: 0 V Hyst.: Auto HoldOff: 0 s
#Channel 1: Range: 1 V/div Offset: 0 V Attenuation: 1 X
#Channel 2: Range: 1 V/div Offset: 0 V Attenuation: 1 X
#Power Supplies: ON
#Fixed Supply: ON
#Voltage: 3.3 V Readback: 3.332 V
#Positive Supply: ON
#Voltage: 3.7 V Readback: 3.714 V
#Current: 40 mA Readback: 18 mA
#Negative Supply: ON
#Voltage: -3.7 V Readback: -3.356 V
#Current: -40 mA Readback: -7 mA
#Reference 1: ON
#Voltage: 0 V
#Reference 2: ON
#Voltage: 0 V

Time (s),Channel 1 (V),Channel 2 (V)
-4.096,0.4195506802215176,1.814115124973944
-4.0955,0.3982103305061718,1.771728571353314
-4.095,0.3661998059330754,1.697552102516968
-4.0945,0.3341892813600565,1.549199164844759
-4.094,0.2915085819293648,1.358459673551918
-4.0935,0.2274875327827449,1.188913459068468
-4.093,-0.3060212101009019,0.5319218779486851
-4.0925,-0.9995825758496428,-0.4323722169206743
-4.092,-1.522421143877092,-1.25891001252516
-4.0915,-1.927887788468663,-1.862918401619155
-4.091,-1.799845690176472,-1.608599079895136
-4.0905,-1.14896502385718,-1.046977244420993
-4.09,-0.4340633083930936,-0.7502713690765743
-4.0895,0.142126133921769,-0.6760949002404023
-4.089,0.483571729367303,-0.7608680074816647
-4.0885,0.6542945270905358,-0.8562377531282487
-4.088,0.707645401378949,-0.9198175835592532
-4.0875,0.7823366253826596,-0.9939940523953578
-4.087,0.7609962756672847,-0.888027668343587
-4.0865,0.6756348768059011,-0.7078848154559045
-4.086,0.5689331282291716,-0.5065486857579065
-4.0855,0.4835717293675844,-0.305212556059465
-4.085,0.4515612047945656,-0.2204394488182027
-4.0845,0.6116138276596595,-0.5489352393780943
-4.084,0.3661998059325416,-1.046977244421571
-4.0835,-0.2526703358124887,-1.38606967338662
-4.083,-0.8288597781273515,-1.396666311791788
-4.0825,-0.7861790786963004,-0.7290780922654299
-4.082,-0.4340633083930936,0.1610395337678249
-4.0815,-0.07127736323188383,0.9028042221295453
-4.081,0.2061471830676125,1.411442865577119
-4.0805,0.3555296310754218,1.686955464111935
-4.08,0.408880505363835,1.79292184816361
-4.0795,0.4302208550791809,1.79292184816361
-4.079,0.4088805053637865,1.718745379327332
-4.0785,0.3555296310754218,1.602182356870596
-4.078,0.3448594562177489,1.475022696008702
-4.0775,0.312848931644633,1.252493289499801
-4.077,0.2488278824985954,0.9557874141553824
-4.0765,-0.1139580626622844,0.3623756634665458
-4.076,-0.7648387289817504,-0.5277419625687618
-4.0755,-1.30901764672307,-1.301296566145281
-4.075,-1.703814116457328,-1.714565463946811
-4.0745,-1.575772018164641,-1.428456227006856
-4.074,-1.031593100423322,-0.9516074987747555
-4.0735,-0.4340633083930936,-0.6443049850249
-4.073,0.06743490991753437,-0.5595318777836376
-4.0725,0.408880505363835,-0.6019184314042303
-4.072,0.5902734779444399,-0.7396747306714069
-4.0715,0.6542945270904776,-0.8774310299384582
-4.071,0.7609962756674011,-0.9939940523953867
-4.0705,0.8036769750980928,-0.9516074987747555
-4.07,0.7289857510943822,-0.8032545611025463
-4.0695,0.6222840025174297,-0.580725154593693
-4.069,0.5582629533713921,-0.3581957480853793
-4.0685,0.5689331282290746,-0.1992461720078678
-4.068,0.9637295979630995,-0.2628260024391326
-4.0675,0.707645401378949,-0.5489352393783931
-4.067,-0.2099896363817582,-0.9833974139902578
-4.0665,-0.9782422261349084,-1.184733543688006
-4.066,-0.9782422261349084,-0.7078848154559045
-4.0655,-0.5834457564006506,0.1292496185523226
-4.065,-0.1673089369514061,0.9028042221288417
-4.0645,0.1527963087794516,1.453829419198252
-4.064,0.3341892813600565,1.782325209758442
-4.0635,0.4088805053637671,1.930678147430651
-4.063,0.4302208550791906,1.951871424241073
-4.0625,0.4195506802215176,1.898888232215284
-4.062,0.3982103305061718,1.792921848163706
-4.0615,0.3768699807907677,1.665762187301456
-4.061,0.3555296310754218,1.506812611224089
-4.0605,0.3341892813600565,1.305476481525908
-4.06,0.1101156093482844,0.998173967775975
-4.0595,-0.3700422592469978,0.9134008605347127
-4.059,-0.7434983792658902,0.2352160026039969
-4.0585,-1.10628432442677,-0.6337083466189424
-4.058,-1.095614149569417,-1.036380606016095
-4.0575,-0.7114878546928423,-1.025783967610927
-4.057,-0.1993194615245414,-0.9304142219645074
-4.0565,0.2274875327832301,-0.8456411147230812
-4.056,0.4835717293676135,-0.8350444763179138
-4.0555,0.6009436528020158,-0.930414221964334
-4.055,0.6436243522329113,-0.9939940523955505
-4.0545,0.707645401378949,-1.131750351662602
-4.054,0.8143471499556783,-1.110557074852286
-4.0535,0.7823366253826401,-0.8456411147227921
-4.053,0.6863050516635838,-0.5277419625680583
-4.0525,0.6009436528021226,-0.1992461720078678
-4.052,0.579603303087029,0.1186529801476178
-4.0515,0.8783681991018712,0.627291623595192
-4.051,0.857027849386506,0.8074344764830383
-4.0505,0.1207857842070733,0.1504428953632551
-4.05,-0.5834457564006506,-0.6019184314042303
-4.0495,-1.010252750707956,-0.9198175835592532
-4.049,-0.8181896032698435,-0.464162132137468
-4.0485,-0.3913826089620234,0.2670059178200775
-4.048,-0.01792648894347063,0.9028042221295453
-4.0475,0.2274875327830069,1.358459673551331
-4.047,0.366199805933153,1.623375633681037
-4.0465,0.4195506802215176,1.739938656137773
-4.046,0.4195506802215176,1.75053529454293
-4.0455,0.398210330506133,1.686955464111858
-4.045,0.3768699807907871,1.602182356870596
-4.0445,0.3661998059331045,1.506812611224089
-4.044,0.3341892813599983,1.347863035146288
-4.0435,0.2701682322139607,1.029963882991555
-4.043,-0.2099896363817582,0.2246193641988295
-4.0425,-0.8395299529844614,-0.7184814538602142
-4.042,-1.362368521011484,-1.439052865412457
-4.0415,-1.693143941599645,-1.566212526274467
-4.041,-1.522421143876878,-1.16354026687847
-4.0405,-0.9782422261343746,-0.7608680074815682
-4.04,-0.391382608962363,-0.570128516188728
-4.0395,0.06743490991757323,-0.5595318777835702
-4.039,0.3875401556486638,-0.7184814538612647
-4.0385,0.6009436528021226,-0.9304142219644207
-4.038,0.6542945270904873,-1.07876715963663
-4.0375,0.5689331282290164,-1.184733543688246
-4.037,0.5049120790829789,-0.9728007755850904
-4.0365,0.4622313796522482,-0.6654982618352349
-4.036,0.4408910299368927,-0.3370024712747939
-4.0355,0.4515612047945656,-0.06148987274069118
-4.035,0.6329541773751706,0.3199891098453364
-4.0345,1.070431346539761,0.8498210301032263
-4.034,0.5582629533713921,0.457745409112513
-4.0335,-0.3807124341046804,-0.3581957480853793
-4.033,-0.9355615267036732,-0.83504447631748
-4.0325,-0.7861790786962713,-0.5171453241623126
-4.032,-0.4020527838200457,0.1186529801471552
-4.0315,-0.02859666380149295,0.7226613692411495
-4.031,0.2168173579256736,1.167720182258981
-4.0305,0.3555296310754218,1.443232780793084
-4.03,0.4088805053637865,1.591585718465293
-4.0295,0.4195506802215079,1.644568910491246
-4.029,0.408880505363835,1.623375633680931
-4.0285,0.3875401556484697,1.570392441655093
-4.028,0.3768699807907483,1.496215972818844
-4.0275,0.3341892813600565,1.411442865577582
-4.027,0.291508581929326,1.273686566310405
-4.0265,-0.049937013516208,0.7544512844576734
-4.026,-0.7008176798351597,-0.1886495336027004
-4.0255,-1.116954499284783,-1.068170521231597
-4.025,-1.479740444445663,-1.746355379161696
-4.0245,-1.511750969018604,-1.650985633515276
-4.024,-1.031593100423322,-1.068170521231597
-4.0235,-0.4554036581089829,-0.6231117082149699
-4.023,0.03542438534525312,-0.4217755785164707
-4.0225,0.3768699807907871,-0.5171453241628908
-4.022,0.5689331282288999,-0.7184814538608889
-4.0215,0.6542945270906038,-0.8456411147230619
-4.021,0.7289857510943143,-0.8244478379127463
-4.0205,0.7396559259519968,-0.7396747306714069
-4.02,0.6756348768058331,-0.6866915386455119
-4.0195,0.6009436528021226,-0.6231117082145651
-4.019,0.6009436528021226,-0.5277419625680583
-4.0185,0.5369226036560848,-0.4959520473525849
-4.018,0.3235191065023739,-0.7714646458869092
-4.0175,-0.02859666380115328,-1.142346990067769
-4.017,-0.6367966306885107,-1.449649503817345
-4.0165,-1.010252750707782,-1.354279758170424
-4.016,-0.8181896032696687,-0.5913217929990628
-4.0155,-0.4020527838204242,0.3305857482496655
-4.015,-0.02859666380091067,1.082947075017864
-4.0145,0.2381577076409128,1.602182356870596
-4.014,0.366199805932988,1.888291593809856
-4.0135,0.4088805053638447,2.015451254672145
-4.013,0.4195506802215176,2.036644531482461
-4.0125,0.3982103305061524,1.962468062646288
-4.012,0.366199805933085,1.856501678594489
-4.0115,0.3448594562177392,1.718745379327438
-4.011,0.3341892813600565,1.549199164844759
-4.0105,0.2701682322140189,1.273686566310656
-4.01,-0.07127736323188383,0.8286277532933731
-4.0095,-0.7328282044082075,-0.01910331912002144
-4.009,-1.298347471864873,-0.9092209451532762
-4.0085,-1.650463242168905,-1.523825972653855
-4.008,-1.639793067311232,-1.587405803084801
-4.0075,-1.202315898146642,-1.248313374119752
-4.007,-0.6047861061155305,-0.9410108603694629
-4.0065,-0.07127736323188383,-0.8032545611024114
-4.006,0.3448594562177392,-0.8986243067489184
-4.0055,0.611613827659873,-1.025783967610976
-4.005,0.6863050516635838,-1.078767159636765
-4.0045,0.7289857510943143,-1.01518732920576
-4.004,0.8143471499557268,-0.8244478379126693
-4.0035,0.7609962756673623,-0.7396747306714069
-4.003,0.6863050516635838,-0.6760949002404023
-4.0025,0.5902734779445272,-0.5701285161888243
-4.002,0.5369226036560266,-0.3899856633008816
-4.0015,0.8463576745288233,0.002089957690313421
-4.001,0.8570278493864963,0.2670059178192583
-4.0005,0.04609456020187797,-0.2098428104134978
-4,-0.7755089038389382,-0.718481453861072
-3.9995,-0.9782422261349084,-0.6443049850249
-3.999,-0.6688071552621118,0.002089957690313421
-3.9985,-0.2526703358124887,0.7438546460520338
-3.998,0.07810508477567314,1.358459673551745
-3.9975,0.291508581929326,1.771728571353275
-3.997,0.3875401556484697,2.015451254672126
-3.9965,0.4195506802215176,2.132014277128968
-3.996,0.4195506802215176,2.153207553939303
-3.9955,0.3661998059331045,2.089627723508298
-3.995,0.3128489316446912,1.994257977861791
-3.9945,0.3021787567870086,1.856501678594614
-3.994,0.3021787567870086,1.6657621873016
-3.9935,0.2381577076409128,1.358459673551745
-3.993,-0.2420001609548061,0.5319218779486851
-3.9925,-0.690147504977477,-0.474758770542221
-3.992,-1.127624674142465,-1.301296566145281
-3.9915,-1.244996597576974,-1.650985633515806
-3.991,-0.8715404775580819,-1.396666311791788
-3.9905,-0.3380317346739499,-1.05757388282643
-3.99,0.09944543449103843,-0.8562377531282487
-3.9895,0.3875401556484697,-0.8138511995075789
-3.989,0.5689331282290746,-0.8880276683437509
-3.9885,0.6436243522328531,-1.025783967610927
-3.988,0.6969752265212663,-1.174136905283272
-3.9875,0.8890383739595538,-1.205926820498774
-3.987,0.8997085488172365,-1.05757388282643
-3.9865,0.79300680024041,-0.8350444763179138
-3.986,0.6863050516635838,-0.5913217929990628
-3.9855,0.6329541773751706,-0.3581957480853793
-3.985,0.7823366253827275,0.07626642652648545
-3.9845,0.9530594231056497,0.5743084315693548
-3.984,0.2061471830678648,0.1610395337678249
-3.9835,-0.6688071552621118,-0.4641621321370536
-3.983,-1.191645723288561,-0.8138511995075789
-3.9825,-1.042263275281004,-0.4853554089473885
-3.982,-0.5834457564006506,0.2140227257936621
-3.9815,-0.1352984123779797,0.8922075837243778
-3.981,0.1741366584948169,1.400846227172415
-3.9805,0.3448594562177392,1.729342017732605
-3.98,0.408880505363835,1.898888232215284
-3.9795,0.4195506802215176,1.951871424241121
-3.979,0.3982103305061524,1.920081509025619
-3.9785,0.3768699807907871,1.845905040189447
-3.978,0.3448594562177392,1.739938656137773
-3.9775,0.291508581929326,1.559795803249926
-3.977,0.2274875327832301,1.273686566310405
-3.9765,0.1101156093487211,0.92399749893988
-3.976,0.00341386077189465,0.5107286011383502
-3.9755,-0.4447334832507763,-0.326405832869877
-3.975,-1.052933450138687,-1.0999604364471
-3.9745,-1.405049220442214,-1.227120097309109
-3.974,-1.223656247861609,-0.9092209451540858
-3.9735,-0.7008176798351597,-0.6549016234300674
-3.973,-0.1779791118087102,-0.6125150698093976
-3.9725,0.2168173579255475,-0.7502713690765743
-3.972,0.4942419042252961,-0.9304142219644207
-3.9715,0.6329541773751706,-1.004590690800593
-3.971,0.6116138276598051,-1.089363798041932
-3.9705,0.5796033030867573,-0.9939940523954253
-3.97,0.5689331282290746,-0.7820612842920766
-3.9695,0.5582629533713921,-0.6231117082145651
-3.969,0.6329541773751706,-0.5489352393783931
-3.9685,0.6756348768059011,-0.4641621321370536
-3.968,0.9530594231056497,-0.4641621321370536
-3.9675,0.7823366253827275,-0.5913217929990628
-3.967,-0.06060718837420119,-0.9833974139902578
-3.9665,-0.8608703027003992,-1.227120097309109
-3.966,-0.9462317015618604,-0.8244478379127463
-3.9655,-0.6047861061160158,-0.04029659593035631
-3.965,-0.1993194615240755,0.701468092431364
-3.9645,0.1207857842064037,1.231300012689736
-3.964,0.3021787567870086,1.549199164844759
-3.9635,0.3875401556484697,1.70814874092227
-3.963,0.408880505363835,1.739938656137773
-3.9625,0.3875401556484697,1.697552102517103
-3.962,0.3555296310754218,1.612778995275763
-3.9615,0.3341892813600565,1.496215972818921
-3.961,0.3128489316446912,1.358459673551745
-3.9605,0.2808384070716433,1.188913459069066
-3.96,-0.06060718837420119,0.8710143069140429
-3.9595,-0.7648387289812555,0.01268659609548085
-3.959,-1.394379045584531,-0.8986243067489184
-3.9585,-1.949228138184029,-1.629792356705471
-3.958,-2.23732285934146,-1.873515040024322
-3.9575,-1.789175515318789,-1.34368311976595
-3.957,-1.031593100423322,-0.8350444763179138
-3.9565,-0.3807124341046804,-0.5913217929990628
-3.956,0.07810508477567314,-0.5913217929990628
-3.9555,0.3875401556484697,-0.6972881770507372
-3.955,0.5369226036560266,-0.8562377531282487
-3.9545,0.6542945270905358,-1.036380606016095
-3.954,0.7183155762366316,-1.025783967610927
-3.9535,0.6756348768059011,-0.8562377531282487
-3.953,0.6436243522328531,-0.6337083466197325
-3.9525,0.5902734779444399,-0.4111789401112165
-3.952,0.5475927785137094,-0.1674562567923655
-3.9515,0.7289857510943143,0.4047622170866759
-3.951,0.6116138276598051,0.5637117931641874
-3.9505,-0.1352984123779797,-0.07208651114585861
-3.95,-0.8715404775580819,-0.7078848154559045
-3.9495,-1.06360362499637,-0.7714646458869092
-3.949,-0.7328282044082075,-0.2098428104130352
-3.9485,-0.2953510352432193,0.4789386859228479
-3.948,0.0674349099179905,1.072350436612224
-3.9475,0.2808384070716433,1.464426057603419
-3.947,0.3768699807907871,1.697552102517103
-3.9465,0.4195506802215176,1.79292184816361
-3.946,0.408880505363835,1.814115124973944
-3.9455,0.3875401556484697,1.75053529454294
-3.945,0.3555296310754218,1.686955464111935
-3.9445,0.3128489316446912,1.602182356870596
-3.944,0.291508581929326,1.443232780793084
-3.9435,0.2061471830678648,1.135930267043229
-3.943,-0.2526703358124887,0.3623756634660061
-3.9425,-0.8715404775580819,-0.6125150698093976
-3.942,-1.405049220442214,-1.354279758171118
-3.9415,-1.437059745015262,-1.407262950196955
-3.941,-0.9355615267041777,-1.046977244421262
-3.9405,-0.3166913849585846,-0.7820612842920766
-3.94,0.1527963087794516,-0.7078848154559045
-3.9395,0.4408910299368829,-0.7714646458869092
-3.939,0.5582629533713921,-0.9092209451540858
-3.9385,0.6116138276598051,-1.068170521231597
-3.938,0.6436243522328531,-1.152943628472937
-3.9375,0.7289857510943143,-1.0999604364471
-3.937,0.707645401378949,-0.9198175835592532
-3.9365,0.6436243522328531,-0.7078848154559045
-3.936,0.5796033030867573,-0.4853554089473885
-3.9355,0.5155822539406614,-0.2628260024388724
-3.935,0.5902734779444399,-0.07208651114585861
-3.9345,0.79300680024041,0.1504428953626575
-3.934,0.1527963087794516,-0.252229364033705
-3.9335,-0.6261264558313813,-0.6972881770507372
-3.933,-0.8608703027003992,-0.6019184314042303
-3.9325,-0.6047861061160158,0.02328323450064829
-3.932,-0.2313299860971235,0.7226613692416989
-3.9315,0.07810508477567314,1.29487984312074
-3.931,0.2808384070716433,1.676358825706768
-3.9305,0.3661998059331045,1.888291593810116
-3.93,0.408880505363835,1.973064701051456
-3.9295,0.3982103305061524,1.973064701051456
-3.929,0.3768699807907871,1.888291593810116
-3.9285,0.3555296310754218,1.79292184816361
-3.928,0.3448594562177392,1.655165548896433
-3.9275,0.3235191065023739,1.475022696008586
-3.927,0.2274875327832301,1.199510097474233
-3.9265,-0.3060212101009019,0.5001319627331828
-3.926,-0.9889124009925911,-0.4853554089473885
-3.9255,-1.46907026958831,-1.301296566145281
-3.925,-1.735824641030376,-1.75695201756748
-3.9245,-1.533091318734406,-1.555615887869299
-3.924,-0.9569018764195432,-1.046977244421262
-3.9235,-0.3593720843893152,-0.6972881770507372
-3.923,0.1314559590640864,-0.6019184314042303
-3.9225,0.4408910299368829,-0.6866915386455698
-3.922,0.6009436528021226,-0.8668343915334161
-3.9215,0.6649647019482183,-1.025783967610927
-3.921,0.8676980242441885,-1.163540266878104
-3.9205,0.9103787236749192,-1.05757388282643
-3.92,0.79300680024041,-0.8138511995075789
-3.9195,0.6649647019482183,-0.5383386009732256
-3.919,0.5689331282290746,-0.2734226408440398
-3.9185,0.5049120790829789,-0.1250697031716958
-3.918,-0.01792648894347063,-0.4641621321370536
-3.9175,-0.722158029550525,-1.01518732920576
-3.917,-1.223656247861609,-1.449649503817625
-3.9165,-1.554431668449771,-1.566212526274467
-3.916,-1.244996597576974,-0.9410108603695881
-3.9155,-0.658136980404429,-0.04029659593035631
-3.915,-0.156638762093345,0.7226613692416989
-3.9145,0.1848068333524996,1.25249328950007
-3.914,0.3555296310754218,1.538602526439591
-3.9135,0.4195506802215176,1.6657621873016
-3.913,0.4302208550792003,1.6657621873016
-3.9125,0.408880505363835,1.612778995275763
-3.912,0.3875401556484697,1.496215972818921
-3.9115,0.3661998059331045,1.37965295036208
-3.911,0.3555296310754218,1.25249328950007
-3.9105,0.3235191065023739,1.072350436612224
-3.91,0.05676473506030786,0.5425185163538525
-3.9095,-0.6154562809736985,-0.3581957480853793
-3.909,-1.255666772434657,-1.195330182093607
-3.9085,-1.597112367880501,-1.703968825541643
-3.908,-1.437059745015262,-1.47084278062796
-3.9075,-0.9035510021311299,-1.05757388282643
-3.907,-0.3700422592469978,-0.8244478379127463
-3.9065,0.08877525963335578,-0.718481453861072
-3.906,0.3982103305061524,-0.7502713690765743
-3.9055,0.5902734779444399,-0.8350444763179138
-3.905,0.6649647019482183,-0.9833974139902578
-3.9045,0.7503261008096795,-1.0999604364471
-3.904,0.8036769750980928,-1.046977244421262
-3.9035,0.7289857510943143,-0.8350444763179138
-3.903,0.6222840025174878,-0.570128516188728
-3.9025,0.5155822539406614,-0.3052125560595421
-3.902,0.4942419042252961,-0.02969995752518888
-3.9015,0.8676980242441885,0.5213252395435176
-3.901,0.7503261008096795,0.6166949851900245
-3.9005,-0.02859666380115328,-0.04029659593035631
-3.9,-0.754168554123573,-0.6654982618352349
-3.8995,-0.9355615267041777,-0.6760949002404023
-3.899,-0.6367966306890638,-0.09327978795619347
-3.8985,-0.2420001609548061,0.5955017083796896
-3.898,0.08877525963335578,1.157123543853563
-3.8975,0.2808384070716433,1.528005888034424
-3.897,0.3768699807907871,1.729342017732605
-3.8965,0.408880505363835,1.814115124973944
-3.896,0.3982103305061524,1.803518486568777
-3.8955,0.3768699807907871,1.739938656137773
-3.895,0.3555296310754218,1.644568910491266
-3.8945,0.3448594562177392,1.528005888034424
-3.894,0.2808384070716433,1.29487984312074
-3.8935,0.142126133921769,0.9451907757502149
-3.893,-0.423393133535411,0.1080563417419877
-3.8925,-1.052933450138687,-0.8138511995075789
-3.892,-1.575772018165136,-1.545019249464132
-3.8915,-1.917217613610981,-1.820531847998485
-3.891,-1.565101843307454,-1.354279758171118
-3.8905,-0.9142211769888124,-0.8562377531282487
-3.89,-0.3060212101009019,-0.5807251545938954
-3.8895,0.1527963087794516,-0.5913217929990628
-3.889,0.4302208550792003,-0.7502713690765743
-3.8885,0.5902734779444399,-0.8880276683437509
-3.888,0.6756348768059011,-0.9092209451540858
-3.8875,0.7823366253827275,-0.8562377531282487
-3.887,0.7289857510943143,-0.7714646458869092
-3.8865,0.6329541773751706,-0.6443049850249
-3.886,0.5475927785137094,-0.5277419625680583
-3.8855,0.4942419042252961,-0.3793890248957141
