Class_2_Relax_eyes_open/Class_2_Relax_eyes_open_Basim_10.csv

#Digilent WaveForms Oscilloscope Acquisition
#Device Name: EExplorer
#Serial Number: SN:210151A2B84A
#Date Time: 2021-01-28 09:21:42.584
#Sample rate: 2000Hz
#Samples: 16384
#Trigger: Source: Channel 1 Type: Edge Condition: Rising Level: 0 V Hyst.: Auto HoldOff: 0 s
#Channel 1: Range: 1 V/div Offset: 0 V Attenuation: 1 X
#Channel 2: Range: 1 V/div Offset: 0 V Attenuation: 1 X
#Channel 4: Range: 1 V/div Offset: 0 V Attenuation: 1 X
#Power Supplies: ON
#Fixed Supply: ON
#Voltage: 3.3 V Readback: 3.324 V
#Positive Supply: ON
#Voltage: 3.7 V Readback: 3.711 V
#Current: 40 mA Readback: 20 mA
#Negative Supply: ON
#Voltage: -3.7 V Readback: -3.346 V
#Current: -40 mA Readback: -9 mA
#Reference 1: ON
#Voltage: 0 V
#Reference 2: ON
#Voltage: 0 V

Time (s),Channel 1 (V),Channel 2 (V),Channel 4 (V)
-4.096,-0.3166913849585846,0.4789386859228479,-0.01087107241842888
-4.0955,-1.116954499284055,0.6696781772156881,-0.03203722724010788
-4.095,-1.682473766742118,-0.008506680715278065,-0.04262030465097626
-4.0945,-1.853196564464885,-0.474758770542221,-0.04262030465097626
-4.094,-1.447729919873313,-0.474758770542221,-0.02145414982929725
-4.0935,-0.807519428411491,-0.2734226408438085,-0.021454149829278
-4.093,-0.2633405106701714,-0.01910331912002144,-0.021454149829278
-4.0925,0.09944543449070847,0.1928294489831344,-0.021454149829278
-4.092,0.2808384070717113,0.3517790250609351,-0.03203722724012713
-4.0915,0.3555296310754218,0.457745409112513,-0.03203722724012713
-4.091,0.3555296310754218,0.5319218779486851,-0.03203722724012713
-4.0905,0.3341892813600371,0.5849050699745511,-0.05320338206186388
-4.09,0.3128489316446912,0.6166949851900245,-0.09553569170522189
-4.0895,0.291508581929326,0.6484849004055269,-0.09553569170522189
-4.089,0.280838407071653,0.6590815388106845,-0.09553569170522189
-4.0885,0.2808384070716433,0.6590815388106942,-0.07436953688352363
-4.088,0.4408910299368829,0.4895353243280153,-0.0637864594726745
-4.0875,1.081101521397259,-0.1780528951969257,-0.053203382061835
-4.087,1.091771696254748,-0.9304142219648737,-0.05320338206180612
-4.0865,0.2381577076409128,-1.42845622700729,-0.03203722724012713
-4.086,-0.1993194615236776,-1.089363798042241,-0.01087107241844813
-4.0855,-0.2099896363816223,-0.5277419625675956,-0.01087107241842888
-4.085,-0.06060718837420119,-0.01910331912002144,-0.01087107241842888
-4.0845,0.1101156093485658,0.3093924714398702,-0.01087107241842888
-4.084,0.2168173579256057,0.457745409112542,-0.0108710724184385
-4.0835,0.2808384070716433,0.4895353243280153,-0.021454149829278
-4.083,0.2808384070716433,0.4259554938970107,-0.021454149829278
-4.0825,0.2701682322140577,0.3517790250608676,-0.000287995007541251
-4.082,0.3768699807907871,0.383568940276341,0.04204431463581675
-4.0815,0.3982103305061524,0.2670059178194992,0.04204431463581675
-4.081,0.3661998059331336,0.1186529801472901,0.03146123722497725
-4.0805,0.3235191065023739,0.002089957690313421,0.0208781598141185
-4.08,0.2701682322139607,-0.06148987274069118,0.01029508240326937
-4.0795,-0.0712773632315733,0.2246193641985693,-0.000287995007570126
-4.079,-0.8502001278432407,0.3517790250602604,-0.03203722724013675
-4.0785,-1.426389570157579,-0.2840192792492073,-0.04262030465097626
-4.078,-1.618452717595692,-1.057573882825726,-0.04262030465097626
-4.0775,-1.426389570157075,-1.301296566144905,-0.02145414982926837
-4.077,-0.8715404775580819,-0.8880276683437509,-0.01087107241842888
-4.0765,-0.3380317346744351,-0.3370024712755456,-0.01087107241842888
-4.076,0.03542438534513666,0.1186529801474347,-0.021454149829278
-4.0755,0.2488278824985954,0.4259554938970107,-0.021454149829278
-4.075,0.3341892813600565,0.5849050699745222,-0.03203722724012713
-4.0745,0.3555296310754024,0.6590815388107039,-0.03203722724012713
-4.074,0.3341892813600565,0.6696781772158616,-0.03203722724012713
-4.0735,0.3128489316446912,0.6590815388106942,-0.08495261429437276
-4.073,0.2915085819293454,0.6272916235952208,-0.09553569170521226
-4.0725,0.2808384070716433,0.5955017083796896,-0.09553569170522189
-4.072,0.2701682322139607,0.5637117931641874,-0.08495261429437276
-4.0715,0.3341892813599983,0.4471487707074516,-0.06378645947269375
-4.071,0.9210488985329996,-0.1568596183879306,-0.04262030465097626
-4.0705,1.35852606769759,-0.9622041371799229,-0.04262030465097626
-4.07,0.6329541773758305,-1.629792356704864,-0.03203722724013675
-4.0695,-0.08194753808971204,-1.598002441489429,-0.01087107241842888
-4.069,-0.2420001609548061,-1.004590690800593,-0.01087107241842888
-4.0685,-0.1352984123779797,-0.4323722169215513,-0.01087107241842888
-4.068,0.03542438534505903,-0.01910331911982869,-0.01087107241842888
-4.0675,0.1634664836371343,0.1928294489833272,-0.01087107241842888
-4.067,0.2274875327832301,0.2776025562246667,-0.021454149829278
-4.0665,0.238157707640903,0.2881991946297956,-0.01087107241842888
-4.066,0.2274875327832301,0.2458126410091644,-0.01087107241842888
-4.0655,0.1954770082101822,0.2987958330350016,0.03146123722496762
-4.065,0.1634664836371634,0.2987958330350016,0.04204431463580712
-4.0645,0.1848068333524996,0.2034260873884947,0.03146123722496762
-4.064,0.2168173579255475,0.09745970333682032,0.03146123722496762
-4.0635,0.2274875327832204,0.03387987290587355,0.01029508240328863
-4.063,0.07810508477506176,0.1716361721733682,-0.0002879950075990025
-4.0625,-0.5941159312583333,0.5849050699745222,-0.021454149829278
-4.062,-1.351698346153112,0.1716361721733682,-0.04262030465095701
-4.0615,-1.735824641030366,-0.665498261835736,-0.05320338206181575
-4.061,-1.725154466172693,-1.216523458903942,-0.04262030465097626
-4.0605,-1.159635198715513,-1.01518732920576,-0.021454149829278
-4.06,-0.5407650569695027,-0.495952047352103,-0.0108710724184385
-4.0595,-0.08194753808956648,0.002089957690313421,-0.021454149829278
-4.059,0.1954770082101822,0.3517790250608387,-0.03203722724012713
-4.0585,0.3128489316445845,0.5637117931639947,-0.03203722724012713
-4.058,0.3555296310754218,0.6696781772158616,-0.03203722724012713
-4.0575,0.3448594562177392,0.701468092431364,-0.03203722724012713
-4.057,0.3235191065023933,0.701468092431364,-0.07436953688348513
-4.0565,0.3021787567870086,0.6802748156210291,-0.09553569170522189
-4.056,0.2808384070716433,0.6484849004055269,-0.09553569170522189
-4.0555,0.2808384070716433,0.6166949851900534,-0.08495261429438239
-4.055,0.2808384070719733,0.5531151547586441,-0.07436953688350438
-4.0545,0.6436243522328531,0.13984625695749,-0.05320338206182537
-4.054,1.35852606769694,-0.6549016234293445,-0.04262030465098588
-4.0535,1.177133095116228,-1.407262950197244,-0.04262030465095701
-4.053,0.3448594562177392,-1.725162102351978,-0.021454149829278
-4.0525,-0.01792648894347063,-1.216523458903942,-0.01087107241842888
-4.052,-0.06060718837411385,-0.5913217929986292,-0.01087107241842888
-4.0515,0.03542438534494258,-0.1144730647665284,-0.01087107241842888
-4.051,0.142126133921769,0.1716361721729923,-0.01087107241842888
-4.0505,0.2168173579254796,0.2987958330348859,-0.02145414982926837
-4.05,0.2701682322139607,0.3199891098453364,-0.021454149829278
-4.0495,0.2701682322139607,0.2881991946298341,-0.021454149829278
-4.049,0.2808384070716336,0.2246193641988873,0.02087815981408
-4.0485,0.3128489316446815,0.1292496185522359,0.04204431463580712
-4.048,0.3021787567870086,0.03387987290581572,0.03146123722496762
-4.0475,0.2915085819293357,-0.02969995752513105,0.03146123722496762
-4.047,0.2701682322139122,-0.05089323433548519,0.01029508240325975
-4.0465,0.2168173579255475,-0.008506680714854012,-0.000287995007579752
-4.046,-0.2740106855274076,0.4365521323017734,-0.01087107241841925
-4.0455,-1.052933450139182,0.563711793163561,-0.03203722724013675
-4.045,-1.597112367880501,-0.1250697031716958,-0.04262030465097626
-4.0445,-1.767835165603424,-0.8668343915334161,-0.04262030465097626
-4.044,-1.405049220441651,-0.993994052395088,-0.021454149829278
-4.0435,-0.7861790786966207,-0.6231117082145651,-0.021454149829278
-4.043,-0.2526703358124887,-0.1568596183871981,-0.021454149829278
-4.0425,0.09944543449071819,0.2246193641984826,-0.021454149829278
-4.042,0.2808384070716433,0.4683420475176805,-0.03203722724012713
-4.0415,0.3448594562177392,0.6166949851900245,-0.03203722724012713
-4.041,0.3448594562177392,0.6802748156209713,-0.03203722724012713
-4.0405,0.3235191065023544,0.6908714540261965,-0.05320338206186388
-4.04,0.3021787567870086,0.6908714540261965,-0.09553569170522189
-4.0395,0.2915085819293357,0.669678177215881,-0.09553569170522189
-4.039,0.2808384070716336,0.6484849004054883,-0.09553569170520264
-4.0385,0.2701682322139607,0.6060983467848571,-0.07436953688352363
-4.038,0.4088805053637089,0.404762217086859,-0.06378645947268413
-4.0375,0.6116138276592907,-0.3052125560602649,-0.05320338206182537
-4.037,0.04609456020262521,-1.0999604364471,-0.05320338206182537
-4.0365,-0.7968492535543035,-1.693372187136476,-0.03203722724012713
-4.036,-0.9889124009923097,-1.502632695842922,-0.01087107241842888
-4.0355,-0.6794773301197943,-0.9092209451540858,-0.01087107241842888
-4.035,-0.274010685527854,-0.326405832869877,-0.01087107241842888
-4.0345,0.05676473506000707,0.07626642652611926,-0.01087107241842888
-4.034,0.2488278824985954,0.2776025562246667,-0.01087107241842888
-4.0335,0.3341892813600565,0.3305857482505039,-0.021454149829278
-4.033,0.3341892813600565,0.2987958330350305,-0.021454149829278
-4.0325,0.3235191065023836,0.2776025562247727,-0.000287995007541251
-4.032,0.3341892813600565,0.3941655786815084,0.04204431463581675
-4.0315,0.3128489316447107,0.3305857482505617,0.04204431463581675
-4.031,0.3021787567869892,0.1822328105780345,0.031461237224958
-4.0305,0.2808384070716433,0.04447651131098315,0.0208781598141185
-4.03,0.2594980573562975,-0.01910331911996362,0.010295082403279
-4.0295,-0.07127736323257285,0.2458126410095884,-0.0002879950075990025
-4.029,-0.8288597781273515,0.7120647308365314,-0.021454149829278
-4.0285,-1.46907026958831,0.2564092794143318,-0.04262030465097626
-4.028,-1.661133417026462,-0.3370024712749192,-0.04262030465096663
-4.0275,-1.51175096901904,-0.1992461720078678,-0.03203722724012713
-4.027,-0.9462317015618604,-0.04029659593035631,-0.021454149829278
-4.0265,-0.3913826089628677,0.07626642652637944,-0.021454149829278
-4.026,0.00341386077189465,0.1822328105781598,-0.03203722724012713
-4.0255,0.2274875327832301,0.2776025562246667,-0.03203722724012713
-4.025,0.3235191065022865,0.3729723018710869,-0.03203722724012713
-4.0245,0.3555296310754024,0.4577454091125902,-0.03203722724012713
-4.024,0.3341892813600565,0.5425185163538525,-0.03203722724012713
-4.0235,0.3128489316447107,0.6272916235951149,-0.08495261429432463
-4.023,0.2915085819293163,0.6908714540262447,-0.09553569170522189
-4.0225,0.2808384070716433,0.7438546460520338,-0.09553569170522189
-4.022,0.2808384070716433,0.7756445612675071,-0.08495261429438239
-4.0215,0.3341892813605903,0.7332580076463845,-0.06378645947265525
-4.021,0.9210488985326017,0.2034260873884947,-0.04262030465097626
-4.0205,1.305175193409177,-0.5489352393783931,-0.04262030465097626
-4.02,0.6756348768053382,-1.152943628472946,-0.03203722724010788
-4.0195,0.05676473506030786,-1.163540266878104,-0.01087107241842888
-4.019,-0.1032878878049318,-0.6549016234300674,-0.01087107241842888
-4.0185,-0.03926683865889415,-0.103876426361862,-0.01087107241842888
-4.018,0.08877525963335578,0.309392471440169,-0.01087107241842888
-4.0175,0.1954770082101822,0.5213252395435176,-0.01087107241842888
-4.017,0.2701682322138927,0.5637117931641489,-0.02145414982926837
-4.0165,0.2915085819293066,0.5107286011382538,-0.01087107241842888
-4.016,0.2701682322139607,0.4047622170866759,-0.01087107241842888
-4.0155,0.2381577076409419,0.2987958330350979,0.03146123722492912
-4.015,0.2168173579255572,0.1610395337676996,0.04204431463581675
-4.0145,0.2274875327832301,0.02328323450064829,0.04204431463581675
-4.014,0.238157707640903,-0.08268314955092966,0.03146123722497725
-4.0135,0.2488278824984401,-0.1568596183870632,0.01029508240325975
-4.013,0.07810508477567314,-0.008506680714854012,-0.000287995007579752
-4.0125,-0.6047861061160158,0.5849050699745222,-0.01087107241842888
-4.012,-1.373038695869574,0.4471487707066131,-0.03203722724013675
-4.0115,-1.821186039891837,-0.3581957480853793,-0.04262030465097626
-4.011,-1.810515865034154,-1.01518732920576,-0.04262030465097626
-4.0105,-1.21298607300447,-0.9304142219644977,-0.02145414982929725
-4.01,-0.5834457564006506,-0.5171453241628908,-0.01087107241842888
-4.0095,-0.1032878878049318,-0.09327978795619347,-0.021454149829278
-4.009,0.1848068333522375,0.2352160026036982,-0.021454149829278
-4.0085,0.323519106502403,0.4259554938971071,-0.03203722724013675
-4.008,0.3555296310754218,0.5319218779486851,-0.04262030465097626
-4.0075,0.3448594562177489,0.5743084315693163,-0.04262030465097626
-4.007,0.3235191065023544,0.5849050699745125,-0.07436953688355251
-4.0065,0.3021787567870086,0.5743084315693548,-0.106118769116071
-4.006,0.2808384070716433,0.5637117931641874,-0.09553569170522189
-4.0055,0.2808384070716433,0.5319218779486562,-0.08495261429436313
-4.005,0.2808384070716433,0.5001319627331828,-0.07436953688352363
-4.0045,0.5796033030867573,0.1186529801471552,-0.05320338206182537
-4.004,0.9743997728204715,-0.6549016234307421,-0.04262030465097626
-4.0035,0.3768699807907871,-1.396666311791788,-0.04262030465097626
-4.003,-0.423393133535411,-1.714565463946811,-0.021454149829278
-4.0025,-0.5621054066851592,-1.205926820499237,-0.0108710724184385
-4.002,-0.3487019095316325,-0.5913217929990628,-0.01087107241842888
-4.0015,-0.08194753808956648,-0.1144730647665284,-0.01087107241842888
-4.001,0.1314559590638923,0.1822328105778899,-0.01087107241842888
-4.0005,0.2488278824986342,0.3305857482505424,-0.021454149829278
-4,0.291508581929326,0.3729723018711736,-0.021454149829278
-3.9995,0.2808384070716433,0.3411823866556712,-0.021454149829278
-3.999,0.2701682322139607,0.3623756634660061,0.0208781598141185
-3.9985,0.2594980573562781,0.4259554938970107,0.04204431463581675
-3.998,0.2488278824985954,0.3199891098453364,0.04204431463581675
-3.9975,0.2594980573562781,0.1822328105781598,0.03146123722496762
-3.997,0.2594980573562781,0.07626642652648545,0.0208781598141185
-3.9965,0.2168173579255475,0.06566978812131802,-0.000287995007579752
-3.996,-0.2846808603855366,0.4895353243280153,-0.01087107241842888
-3.9955,-1.052933450138687,0.457745409112513,-0.03203722724012713
-3.995,-1.51175096901904,-0.2946159176543747,-0.04262030465097626
-3.9945,-1.650463242168915,-0.6019184314042303,-0.03203722724012713
-3.994,-1.330357996438436,-0.3581957480853793,-0.021454149829278
-3.9935,-0.7434983792658902,-0.1356663415768632,-0.021454149829278
-3.993,-0.2420001609548061,0.04447651131098315,-0.021454149829278
-3.9925,0.09944543449103843,0.1822328105781598,-0.021454149829278
-3.992,0.2808384070716433,0.2776025562246667,-0.03203722724012713
-3.9915,0.3448594562177392,0.3623756634660061,-0.03203722724012713
-3.991,0.3448594562177392,0.4365521323021782,-0.021454149829278
-3.9905,0.3341892813600565,0.5001319627331828,-0.04262030465097626
-3.99,0.3128489316446912,0.5637117931641874,-0.08495261429437276
-3.9895,0.291508581929326,0.6166949851900245,-0.09553569170522189
-3.989,0.2808384070716433,0.6484849004055269,-0.09553569170522189
-3.9885,0.2808384070716433,0.6802748156210291,-0.07436953688352363
-3.988,0.4302208550792003,0.5213252395435176,-0.0637864594726745
-3.9875,0.8890383739595538,-0.1250697031716958,-0.04262030465097626
-3.987,0.5155822539406614,-0.8562377531282487,-0.04262030465097626
-3.9865,-0.3807124341046804,-1.333086481360783,-0.03203722724012713
-3.986,-0.6794773301197943,-1.068170521231597,-0.01087107241842888
-3.9855,-0.4980843575391895,-0.4641621321370536,-0.01087107241842888
-3.985,-0.1886492866663929,0.05507314971615059,-0.01087107241842888
-3.9845,0.0674349099179905,0.3941655786815084,-0.01087107241842888
-3.984,0.2168173579255475,0.5319218779486851,-0.01087107241842888
-3.9835,0.291508581929326,0.55311515475902,-0.021454149829278
-3.983,0.2808384070716433,0.4789386859228479,-0.021454149829278
-3.9825,0.2594980573562781,0.3623756634660061,-0.000287995007579752
-3.982,0.2381577076409128,0.2352160026039969,0.03146123722496762
-3.9815,0.2274875327832301,0.09745970333682032,0.04204431463581675
-3.981,0.2381577076409128,-0.008506680714854012,0.03146123722496762
-3.9805,0.2488278824985954,-0.08268314955102604,0.0208781598141185
-3.98,0.2488278824985954,-0.1144730647665284,0.01029508240326937
-3.9795,-0.02859666380115328,0.1504428953626575,-0.000287995007579752
-3.979,-0.7755089038389382,0.5743084315693548,-0.021454149829278
-3.9785,-1.426389570157579,0.09745970333682032,-0.04262030465097626
-3.978,-1.682473766741963,-0.5489352393783931,-0.04262030465097626
-3.9775,-1.554431668449771,-0.6019184314042303,-0.03203722724012713
-3.977,-0.9782422261349084,-0.400582301706049,-0.021454149829278
-3.9765,-0.4127229586777283,-0.1568596183871981,-0.021454149829278
-3.976,0.00341386077189465,0.06566978812131802,-0.021454149829278
-3.9755,0.2381577076409128,0.2140227257936621,-0.03203722724012713
-3.975,0.3341892813600565,0.3305857482505039,-0.03203722724012713
-3.9745,0.3555296310754218,0.3941655786815084,-0.03203722724012713
-3.974,0.3448594562177392,0.457745409112513,-0.03203722724012713
-3.9735,0.3235191065023739,0.5001319627331828,-0.08495261429437276
-3.973,0.3021787567870086,0.5319218779486851,-0.09553569170522189
-3.9725,0.2808384070716433,0.55311515475902,-0.09553569170522189
-3.972,0.2808384070716433,0.5743084315693548,-0.08495261429437276
-3.9715,0.3341892813600565,0.5319218779486851,-0.0637864594726745
-3.971,0.8890383739595538,0.002089957690313421,-0.05320338206182537
-3.9705,1.166462920259302,-0.7396747306714069,-0.04262030465097626
-3.97,0.3661998059331045,-1.364876396576285,-0.03203722724012713
-3.9695,-0.3166913849585846,-1.34368311976595,-0.021454149829278
-3.969,-0.391382608962363,-0.7820612842920766,-0.01087107241842888
-3.9685,-0.1993194615240755,-0.2310360872233701,-0.01087107241842888
-3.968,0.01408403562957729,0.1716361721729923,-0.021454149829278
-3.9675,0.1741366584948169,0.4153588554918433,-0.021454149829278
-3.967,0.2488278824985954,0.5107286011383502,-0.021454149829278
-3.9665,0.2701682322139607,0.4895353243280153,-0.021454149829278
-3.966,0.2701682322139607,0.4047622170866759,-0.01087107241842888
-3.9655,0.2274875327832301,0.4153588554918433,0.03146123722496762
-3.965,0.1954770082101822,0.3517790250608387,0.04204431463581675
-3.9645,0.2061471830678648,0.2034260873884947,0.03146123722496762
-3.964,0.2274875327832301,0.05507314971615059,0.03146123722496762
-3.9635,0.2488278824985954,-0.04029659593035631,0.01029508240326937
-3.963,0.1314559590640864,0.01268659609548085,-0.000287995007579752
-3.9625,-0.4980843575391895,0.3411823866556712,-0.021454149829278
-3.962,-1.212986073003927,-0.06148987274069118,-0.04262030465097626
-3.9615,-1.522421143876723,-0.8244478379127463,-0.04262030465097626
-3.961,-1.565101843307454,-1.354279758171118,-0.04262030465097626
-3.9605,-1.1062843244271,-1.131750351662602,-0.021454149829278
-3.96,-0.5407650569699201,-0.5913217929990628,-0.01087107241842888
-3.9595,-0.09261771294724913,-0.1038764263613609,-0.021454149829278
-3.959,0.1848068333524996,0.2564092794143318,-0.021454149829278
-3.9585,0.3128489316446912,0.457745409112513,-0.03203722724012713
-3.958,0.3448594562177392,0.55311515475902,-0.03203722724012713
-3.9575,0.3448594562177392,0.5743084315693548,-0.03203722724012713
-3.957,0.3235191065023739,0.5743084315693548,-0.07436953688352363
-3.9565,0.3021787567870086,0.55311515475902,-0.09553569170522189
-3.956,0.291508581929326,0.5213252395435176,-0.09553569170522189
-3.9555,0.2808384070716433,0.4895353243280153,-0.08495261429437276
-3.955,0.2808384070716433,0.457745409112513,-0.07436953688352363
-3.9545,0.6116138276598051,0.09745970333682032,-0.05320338206182537
-3.954,1.230483969405398,-0.6654982618352349,-0.04262030465097626
-3.9535,0.79300680024041,-1.407262950196955,-0.04262030465097626
-3.953,-0.08194753808956648,-1.746355379162313,-0.021454149829278
-3.9525,-0.3487019095316325,-1.248313374119443,-0.01087107241842888
-3.952,-0.2526703358124887,-0.6231117082145651,-0.01087107241842888
