Class_2_Relax_eyes_open/Class_2_Relax_eyes_open_UZ_2.csv

#Digilent WaveForms Oscilloscope Acquisition
#Device Name: EExplorer
#Serial Number: SN:210151A2B84A
#Date Time: 2020-11-24 12:45:54.169
#Sample rate: 2000Hz
#Samples: 16384
#Trigger: Source: Channel 1 Type: Edge Condition: Rising Level: 0 V Hyst.: Auto HoldOff: 0 s
#Channel 1: Range: 1 V/div Offset: 0 V Attenuation: 1 X
#Channel 2: Range: 1 V/div Offset: 0 V Attenuation: 1 X
#Power Supplies: ON
#Fixed Supply: ON
#Voltage: 3.3 V Readback: 3.331 V
#Positive Supply: ON
#Voltage: 3.7 V Readback: 3.71 V
#Current: 40 mA Readback: 21 mA
#Negative Supply: ON
#Voltage: -3.7 V Readback: -3.45 V
#Current: -40 mA Readback: -4 mA
#Reference 1: ON
#Voltage: 0 V
#Reference 2: ON
#Voltage: 0 V

Time (s),Channel 1 (V),Channel 2 (V)
-4.096,1.56125938999356,-0.8244478379127463
-4.0955,1.294505018551737,-0.6231117082147482
-4.095,0.8783681991015122,-0.601918431404317
-4.0945,0.4835717293676135,-0.6972881770507372
-4.094,0.2168173579257901,-0.7608680074816839
-4.0935,-0.08194753808979939,-0.8350444763178656
-4.093,-0.3380317346739499,-0.7820612842920766
-4.0925,-0.3380317346739499,-0.5277419625682895
-4.092,-0.274010685527757,-0.2416327256283641
-4.0915,-0.1673089369510276,-0.05089323433552374
-4.091,-0.1032878878049318,0.1080563417419877
-4.0905,-0.4127229586782718,0.2987958330350401
-4.09,-1.010252750707956,0.3411823866556712
-4.0895,-1.351698346153801,-0.2098428104130352
-4.089,-1.319687821580782,-0.6443049850245048
-4.0885,-1.607782542738184,-0.9198175835592532
-4.088,-2.07727023647622,-1.046977244421262
-4.0875,-2.045259711903202,-0.9622041371800001
-4.087,-1.383708870726257,-0.4959520473518235
-4.0865,-0.7328282044082075,0.309392471440169
-4.086,-0.2740106855282713,1.093543713421846
-4.0855,0.003413860772011104,1.655165548896645
-4.085,0.1314559590640864,1.888291593810116
-4.0845,0.184806833352451,1.951871424241063
-4.084,0.2381577076408934,1.973064701051388
-4.0835,0.2168173579255475,1.898888232215284
-4.083,0.2274875327832301,1.79292184816361
-4.0825,0.3448594562181079,1.400846227171624
-4.082,0.7503261008096795,0.5319218779486851
-4.0815,1.102441871113207,-0.4217755785163839
-4.081,1.315845368266665,-1.142346990067114
-4.0805,1.539919040278195,-1.42845622700729
-4.08,1.678631313428069,-1.121153713257435
-4.0795,1.667961138570396,-0.7184814538614381
-4.079,1.454557641416365,-0.5277419625680198
-4.0785,1.049090996824793,-0.4853554089473885
-4.078,0.6436243522332219,-0.5383386009731774
-4.0775,0.3235191065021409,-0.6019184314042785
-4.077,0.0674349099179905,-0.6549016234300674
-4.0765,-0.3060212101005623,-0.7396747306713298
-4.076,-0.412722958677641,-0.5913217929989086
-4.0755,-0.3166913849585846,-0.4217755785163839
-4.075,-0.2099896363817582,-0.2204394488182027
-4.0745,-0.1352984123781253,-0.04029659593023102
-4.074,-0.2953510352432193,0.09745970333682032
-4.0735,-0.9569018764195432,0.6484849004055269
-4.073,-1.533091318733882,0.9663840525602607
-4.0725,-1.906547438753298,0.4683420475176805
-4.072,-2.408045657064382,-0.2098428104130352
-4.0715,-2.568098279929476,-0.792657922696714
-4.071,-2.568098279929166,-1.068170521231578
-4.0705,-2.066600061618538,-1.046977244421262
-4.07,-1.148965023858665,-0.6654982618355818
-4.0695,-0.4980843575388207,0.08686306493241425
-4.069,-0.09261771294724913,0.92399749893988
-4.0685,0.1101156093487211,1.580989080060261
-4.068,0.1741366584948363,1.994257977861984
-4.0675,0.1954770082101822,2.20619074596514
-4.067,0.2381577076409128,2.20619074596514
-4.0665,0.3235191065024127,2.015451254671615
-4.066,0.3661998059331045,1.453829419198252
-4.0655,0.6222840025174878,1.072350436612224
-4.065,0.9957401225360405,0.5425185163543343
-4.0645,1.294505018551494,-0.2840192792492073
-4.064,1.443887466559051,-0.9939940523954253
-4.0635,1.721312012858548,-1.481439419032684
-4.063,1.870694460866231,-1.322489842955249
-4.0625,1.731982187716482,-0.9198175835592532
-4.062,1.326515543124911,-0.6337083466199928
-4.0615,0.8250173248130892,-0.4959520473524981
-4.061,0.4195506802215176,-0.4323722169215513
-4.0605,0.1741366584948169,-0.4641621321370536
-4.06,-0.1673089369511732,-0.6549016234300385
-4.0595,-0.3273615598162672,-0.6231117082145651
-4.059,-0.2953510352432193,-0.3793890248957141
-4.0585,-0.1993194615241629,-0.1250697031719271
-4.058,-0.124628237520297,0.07626642652648545
-4.0575,-0.1032878878049318,0.2564092794143318
-4.057,-0.5087545323965033,0.6378882620000125
-4.0565,-1.010252750707956,0.3941655786815084
-4.056,-1.319687821580753,-0.2416327256285375
-4.0555,-1.629122892453268,-0.686691538645165
-4.055,-2.141291285622685,-1.015187329205895
-4.0545,-2.546757930214257,-1.163540266878104
-4.054,-2.173301810195704,-1.015187329205895
-4.0535,-1.309017646722459,-0.3687923864897854
-4.053,-0.6367966306890638,0.4683420475176805
-4.0525,-0.1779791118087102,1.157123543853563
-4.052,0.06743490991807785,1.602182356870769
-4.0515,0.1634664836371343,1.79292184816361
-4.051,0.2168173579255475,1.898888232215284
-4.0505,0.2381577076408934,1.930678147430757
-4.05,0.2168173579255475,1.856501678594614
-4.0495,0.2061471830678648,1.761131932948107
-4.049,0.4195506802213236,1.50681261122432
-4.0485,0.9530594231058341,0.7544512844563048
-4.048,1.15579274540162,-0.2310360872233701
-4.0475,1.262494493978349,-0.8668343915328379
-4.047,1.667961138570619,-1.004590690800448
-4.0465,1.92404533515477,-0.8456411147230812
-4.046,1.881364635724078,-0.6337083466199253
-4.0455,1.529248865420056,-0.5277419625680294
-4.045,1.027750647109428,-0.4959520473525559
-4.0445,0.5689331282290746,-0.5807251545938954
-4.044,0.259498057356084,-0.6972881770508239
-4.0435,0.04609456020262521,-0.792657922697244
-4.043,-0.07127736323188383,-0.7078848154559045
-4.0425,-0.1032878878049026,-0.4959520473527487
-4.042,-0.09261771294724913,-0.252229364033705
-4.0415,-0.08194753808956648,-0.06148987274069118
-4.041,-0.08194753808956648,0.1080563417418335
-4.0405,-0.3700422592475218,0.5743084315695284
-4.04,-0.9462317015618604,0.7650479228623686
-4.0395,-1.23432642271903,0.171636172173532
-4.039,-1.490410619304122,-0.5489352393788267
-4.0385,-1.981238662757077,-1.025783967610927
-4.038,-2.482736881067705,-1.184733543688295
-4.0375,-2.312014083344453,-1.099960436446801
-4.037,-1.447729919872945,-0.7714646458869092
-4.0365,-0.7328282044082075,-0.1356663415768632
-4.036,-0.2420001609545538,0.701468092432
-4.0355,0.03542438534494258,1.400846227172415
-4.035,0.1527963087794516,1.835308401784279
-4.0345,0.2061471830678163,2.079031085102909
-4.034,0.2381577076409128,2.227384022775475
-4.0335,0.2274875327832301,2.20619074596514
-4.033,0.2274875327832301,2.057837808292931
-4.0325,0.3235191065027426,1.633972272085269
-4.032,0.7289857510943143,0.7226613692416989
-4.0315,1.134452395685886,-0.2946159176534494
-4.031,1.209143619690198,-1.110557074852836
-4.0305,1.390536592270638,-1.735758740757146
-4.03,1.657290963712461,-1.788741932782935
-4.0295,1.721312012858586,-1.311893204550111
-4.029,1.486568165989782,-0.9410108603695881
-4.0285,1.059761171682476,-0.7290780922662394
-4.028,0.6009436528018217,-0.6549016234301156
-4.0275,0.2701682322139607,-0.7078848154559045
-4.027,0.04609456020262521,-0.7502713690765743
-4.0265,-0.2846808603852358,-0.8244478379126788
-4.026,-0.3487019095316325,-0.7078848154559045
-4.0255,-0.274010685527854,-0.4959520473525559
-4.025,-0.1673089369511246,-0.2840192792494001
-4.0245,-0.1032878878050676,-0.09327978795610674
-4.024,-0.2526703358124887,0.002089957690313421
-4.0235,-0.8715404775575191,0.1822328105779959
-4.023,-1.383708870727004,-0.167456256792857
-4.0225,-1.554431668449771,-0.7078848154559045
-4.022,-1.874536914179959,-1.121153713257059
-4.0215,-2.354694782776154,-1.269506650929711
-4.021,-2.557428105071939,-1.195330182093607
-4.0205,-2.141291285622316,-0.9198175835592532
-4.02,-1.244996597576373,-0.3158091944639675
-4.0195,-0.5834457564006506,0.5001319627331828
-4.019,-0.1459685872356623,1.231300012689736
-4.0185,0.08877525963314228,1.697552102516679
-4.018,0.1741366584948169,1.951871424241121
-4.0175,0.2274875327832301,2.047241169887628
-4.017,0.2915085819292678,1.994257977861839
-4.0165,0.323519106502403,1.432636142387609
-4.016,0.3555296310754218,1.093543713422559
-4.0155,0.7503261008093205,1.082947075017401
-4.015,1.145122570543918,0.8710143069133105
-4.0145,1.123782220828572,0.06566978812131802
-4.014,1.038420821967188,-0.7396747306706744
-4.0135,1.21981379454789,-1.078767159636678
-4.013,1.411876941986003,-0.9833974139902578
-4.0125,1.433217291701369,-0.792657922697244
-4.012,1.19847344483202,-0.7078848154558852
-4.0115,0.8356874996711408,-0.6866915386455698
-4.011,0.5155822539406614,-0.718481453861072
-4.0105,0.2701682322141839,-0.8032545611023343
-4.01,-0.1032878878049318,-0.9410108603695881
-4.0095,-0.2953510352432193,-0.8456411147230812
-4.009,-0.2740106855278734,-0.5807251545941363
-4.0085,-0.2206598112393826,-0.2840192792489664
-4.008,-0.156638762093345,-0.01910331912002144
-4.0075,-0.1673089369510179,0.1610395337676611
-4.007,-0.6474668055472511,0.2034260873882441
-4.0065,-1.202315898146244,-0.07208651114585861
-4.006,-1.351698346153801,-0.6019184314042303
-4.0055,-1.522421143877121,-1.004590690800737
-4.005,-1.959898313041711,-1.163540266878104
-4.0045,-2.386705307349017,-1.0999604364471
-4.004,-1.981238662756378,-0.8456411147225512
-4.0035,-1.212986073003927,-0.2628260024388724
-4.003,-0.5834457564006506,0.5743084315693548
-4.0025,-0.1566387620937331,1.316073119930401
-4.002,0.0674349099179905,1.782325209758442
-4.0015,0.1741366584948169,1.951871424241121
-4.001,0.2488278824985274,2.026047893077226
-4.0005,0.2915085819293454,1.845905040188888
-4,0.3128489316446912,1.231300012689736
-3.9995,0.3448594562177392,1.00877060618122
-3.999,0.5796033030867573,0.7120647308365314
-3.9985,1.102441871113207,0.2458126410091644
-3.998,1.411876941986003,-0.4641621321370536
-3.9975,1.550589215135878,-1.131750351662602
-3.997,1.7213120128588,-1.598002441489969
-3.9965,1.849354111150991,-1.396666311791788
-3.996,1.753322537431848,-0.9728007755850904
-3.9955,1.411876941986003,-0.7290780922662394
-3.995,0.9317190733902845,-0.6125150698093976
-3.9945,0.4942419042252961,-0.6443049850249
-3.994,0.2061471830678648,-0.7078848154559045
-3.9935,-0.04993701351651855,-0.8244478379127463
-3.993,-0.2953510352432193,-0.792657922697244
-3.9925,-0.2846808603855366,-0.5489352393783931
-3.992,-0.2099896363817582,-0.2734226408440398
-3.9915,-0.1352984123779797,-0.04029659593035631
-3.991,-0.09261771294724913,0.09745970333682032
-3.9905,-0.3380317346739499,0.4471487707073456
-3.99,-0.9142211769888124,0.5955017083796896
-3.9895,-1.351698346153801,0.01268659609548085
-3.989,-1.746494815888059,-0.570128516188728
-3.9885,-2.290673733629873,-1.004590690800593
-3.988,-2.568098279929622,-1.205926820498774
-3.9875,-2.536087755356574,-1.195330182093607
-3.987,-1.810515865034154,-0.9198175835592532
-3.9865,-0.9675720512772257,-0.2946159176543747
-3.986,-0.3700422592469978,0.5425185163538525
-3.9855,-0.01792648894347063,1.241896651094903
-3.985,0.142126133921769,1.6657621873016
-3.9845,0.2168173579255475,1.888291593810116
-3.984,0.2381577076409128,2.004854616266958
-3.9835,0.2594980573562781,2.026047893077293
-3.983,0.2381577076409128,1.930678147430786
-3.9825,0.3661998059331045,1.803518486568777
-3.982,0.974399772821015,1.241896651094903
-3.9815,1.219813794547716,0.2034260873884947
-3.981,1.113112045970889,-0.7502713690765743
-3.9805,1.326515543124542,-1.396666311791788
-3.98,1.625280439139656,-1.322489842955616
-3.9795,1.689301488285752,-0.9516074987747555
-3.979,1.486568165989782,-0.6866915386455698
-3.9785,1.081101521397841,-0.5595318777835605
-3.978,0.6649647019482183,-0.5489352393783931
-3.9775,0.3661998059331045,-0.5595318777835605
-3.977,0.142126133921769,-0.6019184314042303
-3.9765,-0.2099896363817582,-0.718481453861072
-3.976,-0.3273615598162672,-0.6337083466197325
-3.9755,-0.4980843575391895,-0.6443049850249
-3.975,-0.4980843575391895,-0.5065486857577234
-3.9745,-0.391382608962363,-0.2628260024388724
-3.974,-0.391382608962363,0.08686306493165288
-3.9735,-0.8822106524157645,0.5319218779486851
-3.973,-1.383708870726849,0.1504428953626575
-3.9725,-1.757164990745741,-0.400582301706049
-3.972,-2.23732285934146,-0.7820612842920766
-3.9715,-2.557428105071939,-1.0999604364471
-3.971,-2.472066706210478,-1.195330182093607
-3.9705,-1.629122892453549,-1.046977244421262
-3.97,-0.8502001278427167,-0.570128516188728
-3.9695,-0.2953510352432193,0.2140227257936621
-3.969,0.01408403562957729,0.9981739677760521
-3.9685,0.1527963087794516,1.559795803249926
-3.968,0.1954770082101822,1.877694955404949
-3.9675,0.2061471830678648,2.026047893077293
-3.967,0.2488278824985954,2.047241169887628
-3.9665,0.2274875327832301,1.962468062646288
-3.966,0.2488278824985954,1.75053529454294
-3.9655,0.6009436528021226,1.464426057603419
-3.965,0.9637295979633325,0.7438546460520338
-3.9645,1.017080472251745,-0.2310360872233701
-3.964,1.006410297394063,-0.8880276683437509
-3.9635,1.177133095116985,-1.142346990067769
-3.963,1.379866417412955,-0.9939940523954253
-3.9625,1.390536592270638,-0.7608680074817418
-3.962,1.123782220828572,-0.5595318777835605
-3.9615,0.7503261008096795,-0.5489352393783931
-3.961,0.4622313796522482,-0.6443049850249
-3.9605,0.2488278824985954,-0.7078848154559045
-3.96,-0.02859666380115328,-0.8350444763179138
-3.9595,-0.1993194615240755,-0.7820612842920766
-3.959,-0.2526703358124887,-0.6125150698093976
-3.9585,-0.2099896363817582,-0.3793890248957141
-3.958,-0.156638762093345,-0.1780528951975329
-3.9575,-0.1352984123779797,0.03387987290581572
-3.957,-0.3273615598162672,0.5425185163538525
-3.9565,-0.7434983792658902,0.5001319627331828
-3.956,-1.1062843244271,-0.1250697031716958
-3.9555,-1.543761493592088,-0.6760949002404023
-3.955,-2.109280761049269,-1.05757388282643
-3.9545,-2.536087755356574,-1.205926820498774
-3.954,-2.365364957633652,-1.131750351662602
-3.9535,-1.479740444445993,-0.8138511995075789
-3.953,-0.7434983792658902,-0.1674562567923655
-3.9525,-0.2313299860971235,0.6378882620003594
-3.952,0.04609456020262521,1.326669758336243
-3.9515,0.1634664836371343,1.771728571353275
-3.951,0.2274875327832301,2.015451254672126
-3.9505,0.2701682322139607,2.057837808292796
-3.95,0.3128489316446912,1.983661339456623
-3.9495,0.291508581929326,1.845905040189447
-3.949,0.408880505363835,1.580989080060261
-3.9485,0.8676980242441885,1.220703374284568
-3.948,0.9850699476786977,0.3199891098453364
-3.9475,0.942389248247967,-0.6019184314042303
-3.947,1.177133095116985,-1.322489842955616
-3.9465,1.507908515705147,-1.523825972653797
-3.946,1.56125938999356,-1.131750351662602
-3.9455,1.326515543124542,-0.7078848154559045
-3.945,0.9210488985326017,-0.5065486857577234
-3.9445,0.5796033030867573,-0.4535654937318862
-3.944,0.3021787567870086,-0.4535654937318862
-3.9435,-0.02859666380115328,-0.570128516188728
-3.943,-0.4767440078238243,-0.792657922697244
-3.9425,-0.6154562809736985,-0.6760949002404023
-3.942,-0.4980843575391895,-0.4323722169215513
-3.9415,-0.3060212101009019,-0.1886495336027004
-3.941,-0.2206598112394408,0.02328323450064829
-3.9405,-0.5087545323968721,0.05507314971615059
-3.94,-1.020922925565639,-0.008506680714854012
-3.9395,-1.287677297007705,-0.4853554089473885
-3.939,-1.607782542738184,-0.9833974139902578
-3.9385,-2.109280761049269,-1.290699927740113
-3.938,-2.525417580498891,-1.364876396576285
-3.9375,-2.450726356495113,-1.227120097309109
-3.937,-1.629122892453549,-0.8456411147230812
-3.9365,-0.8502001278427167,-0.1356663415768632
-3.936,-0.3060212101009019,0.6696781772158616
-3.9355,0.01408403562957729,1.29487984312074
-3.935,0.1634664836371343,1.676358825706768
-3.9345,0.2168173579255475,1.867098316999781
-3.934,0.2488278824985954,1.888291593810116
-3.9335,0.2701682322139607,1.528005888034424
-3.933,0.2594980573562781,1.305476481525908
-3.9325,0.3021787567870086,1.178316820663898
-3.932,0.8036769750980928,1.072350436612224
-3.9315,1.166462920259302,0.5955017083796896
-3.931,1.209143619690033,-0.252229364033705
-3.9305,1.443887466559051,-0.9939940523954253
-3.93,1.742652362574165,-1.216523458903942
-3.9295,1.796003236862578,-0.9833974139902578
-3.929,1.582599739708926,-0.7396747306714069
-3.9285,1.145122570543937,-0.6019184314042303
-3.928,0.6863050516635838,-0.6231117082145651
-3.9275,0.3555296310754218,-0.7078848154559045
-3.927,0.142126133921769,-0.7820612842920766
-3.9265,-0.124628237520297,-0.8456411147230812
-3.926,-0.1993194615240755,-0.6549016234300674
-3.9255,-0.1673089369510276,-0.3793890248957141
-3.925,-0.1032878878049318,-0.1568596183871981
-3.9245,-0.03926683865883591,0.02328323450064829
-3.924,-0.1779791118087102,0.1822328105781598
-3.9235,-0.7755089038389382,0.3623756634660061
-3.923,-1.319687821580753,-0.02969995752518888
-3.9225,-1.597112367880501,-0.5913217929990628
-3.922,-1.938557963326346,-0.9833974139902578
-3.9215,-2.418715831922065,-1.195330182093607
-3.921,-2.557428105071939,-1.184733543688439
-3.9205,-2.066600061618538,-0.9622041371799229
-3.92,-1.180975548430879,-0.4111789401112165
-3.9195,-0.5194247072545548,0.4047622170866759
-3.919,-0.1032878878049318,1.135930267043229
-3.9185,0.1207857842064037,1.623375633680931
-3.918,0.2061471830678648,1.888291593810116
-3.9175,0.2381577076409128,2.004854616266958
-3.917,0.2594980573562781,2.026047893077293
-3.9165,0.2488278824985954,1.983661339456623
-3.916,0.2808384070716433,1.697552102517103
-3.9155,0.5689331282290746,1.029963882991555
-3.915,1.027750647109428,0.5107286011383502
-3.9145,1.145122570543937,-0.2946159176543747
-3.914,1.166462920259302,-1.01518732920576
-3.9135,1.433217291701369,-1.555615887869299
-3.913,1.667961138570387,-1.460246142222792
-3.9125,1.646620788855021,-1.068170521231597
-3.912,1.35852606769759,-0.7714646458869092
-3.9115,0.942389248247967,-0.6337083466197325
-3.911,0.5369226036560266,-0.6019184314042303
-3.9105,0.2701682322139607,-0.6443049850249
-3.91,-0.03926683865883591,-0.7608680074817418
-3.9095,-0.2633405106701714,-0.718481453861072
-3.909,-0.2953510352432193,-0.4853554089473885
-3.9085,-0.2206598112394408,-0.2310360872233701
-3.908,-0.1459685872356623,-0.04029659593035631
-3.9075,-0.1139580626626144,0.1292496185523226
-3.907,-0.5300948821122373,0.5107286011383502
-3.9065,-1.010252750707956,0.457745409112513
-3.906,-1.127624674142465,-0.1674562567923655
-3.9055,-1.415719395299897,-0.7396747306714069
-3.905,-1.906547438753298,-1.0999604364471
-3.9045,-2.312014083345239,-1.195330182093607
-3.904,-1.799845690176472,-0.9728007755850904
-3.9035,-1.06360362499637,-0.326405832869877
-3.903,-0.4660738329661415,0.5319218779486851
-3.9025,-0.08194753808956648,1.25249328950007
-3.902,0.1101156093487211,1.718745379327438
-3.9015,0.1848068333524996,1.962468062646288
-3.901,0.2061471830678648,2.047241169887628
-3.9005,0.2594980573562781,2.1214176387238
-3.9,0.291508581929326,2.110821000318633
-3.8995,0.2808384070716433,1.941274785835954
-3.899,0.4515612047945656,1.538602526439591
-3.8985,0.9210488985326017,0.6166949851900245
-3.898,1.187803269974668,-0.400582301706049
-3.8975,1.049090996824793,-1.131750351662602
-3.897,1.134452395686255,-1.38606967338662
-3.8965,1.35852606769759,-1.078767159636765
-3.896,1.411876941986003,-0.7078848154559045
-3.8955,1.219813794547716,-0.570128516188728
-3.895,0.857027849386506,-0.5383386009732256
-3.8945,0.5049120790829789,-0.5913217929990628
-3.894,0.2701682322139607,-0.6654982618352349
-3.8935,0.02475421048725994,-0.7502713690765743
-3.893,-0.2953510352432193,-0.8032545611024114
-3.8925,-0.3273615598162672,-0.6125150698093976
-3.892,-0.2420001609548061,-0.3581957480853793
-3.8915,-0.156638762093345,-0.1356663415768632
-3.891,-0.08194753808956648,0.06566978812131802
-3.8905,-0.274010685527854,0.4471487707073456
-3.89,-0.8715404775580819,0.7438546460520338
-3.8895,-1.26633694729234,0.2034260873884947
-3.889,-1.319687821580753,-0.326405832869877
-3.8885,-1.607782542738184,-0.7078848154559045
-3.888,-2.087940411333903,-0.9622041371799229
-3.8875,-2.205312334768412,-1.004590690800593
-3.887,-1.522421143876723,-0.6549016234300674
-3.8865,-0.8288597781273515,0.1186529801471552
-3.886,-0.3060212101009019,0.9451907757502149
-3.8855,0.00341386077189465,1.538602526439591
