Class_2_Relax_eyes_open/Class_2_Relax_Eyes_open_Turki_14.csv

#Digilent WaveForms Oscilloscope Acquisition
#Device Name: EExplorer
#Serial Number: SN:210151A2B84A
#Date Time: 2021-02-03 11:22:25.858
#Sample rate: 2000Hz
#Samples: 16384
#Trigger: Source: Channel 1 Type: Edge Condition: Rising Level: 0 V Hyst.: Auto HoldOff: 0 s
#Channel 1: Range: 1 V/div Offset: 0 V Attenuation: 1 X
#Channel 2: Range: 1 V/div Offset: 0 V Attenuation: 1 X
#Power Supplies: ON
#Fixed Supply: ON
#Voltage: 3.3 V Readback: 3.331 V
#Positive Supply: ON
#Voltage: 3.7 V Readback: 3.717 V
#Current: 40 mA Readback: 18 mA
#Negative Supply: ON
#Voltage: -3.7 V Readback: -3.29 V
#Current: -40 mA Readback: -9 mA
#Reference 1: ON
#Voltage: 0 V
#Reference 2: ON
#Voltage: 0 V

Time (s),Channel 1 (V),Channel 2 (V)
-4.096,-0.2526703358124887,-0.4641621321370536
-4.0955,-0.9889124009919217,-1.089363798041364
-4.095,-1.458400094730385,-1.428456227007059
-4.0945,-1.191645723288561,-1.174136905283272
-4.094,-0.6581369804049143,-0.4535654937325416
-4.0935,-0.1779791118084191,0.3305857482510628
-4.093,0.142126133921769,0.9451907757502149
-4.0925,0.312848931644536,1.316073119930738
-4.092,0.3768699807907871,1.496215972818969
-4.0915,0.3768699807907871,1.549199164844759
-4.091,0.3661998059331045,1.538602526439591
-4.0905,0.3555296310754024,1.485619334413667
-4.09,0.3341892813600565,1.390249588767247
-4.0895,0.3235191065023739,1.273686566310405
-4.089,0.08877525963356928,0.9451907757505137
-4.0885,-0.4447334832507763,0.07626642652648545
-4.088,-0.9142211769888124,-0.8456411147230812
-4.0875,-1.138294848999944,-1.364876396575813
-4.087,-0.7968492535538085,-1.205926820498475
-4.0865,-0.2526703358124887,-0.8774310299385835
-4.086,0.1421261339214099,-0.5913217929993231
-4.0855,0.3982103305062591,-0.4853554089474559
-4.085,0.5155822539406614,-0.5595318777835605
-4.0845,0.5262524287983344,-0.6972881770506119
-4.084,0.5262524287984121,-0.8138511995076464
-4.0835,0.6009436528021226,-0.8880276683437509
-4.083,0.6222840025174878,-0.8668343915334161
-4.0825,0.5475927785136414,-0.7608680074815779
-4.082,0.4729015545099309,-0.5807251545938954
-4.0815,0.3982103305061524,-0.3899856633008816
-4.081,0.3555296310754606,-0.1992461720080413
-4.0805,0.09944543449103843,0.1822328105781598
-4.08,-0.3593720843893152,0.2776025562246667
-4.0795,-0.7755089038385597,-0.2946159176538542
-4.079,-1.202315898146671,-0.7714646458872176
-4.0785,-1.67180359188428,-1.110557074852267
-4.078,-1.650463242168934,-1.068170521231636
-4.0775,-1.052933450138134,-0.411178940110484
-4.077,-0.4447334832507763,0.3941655786815084
-4.0765,0.003413860771487087,1.040560521396134
-4.076,0.2594980573563751,1.453829419198445
-4.0755,0.3661998059331045,1.6657621873016
-4.075,0.3982103305061524,1.739938656137773
-4.0745,0.3875401556484503,1.739938656137724
-4.074,0.3661998059331045,1.686955464111935
-4.0735,0.3448594562177392,1.591585718465428
-4.073,0.3341892813600663,1.464426057603535
-4.0725,0.2168173579255475,1.210106735879401
-4.072,-0.3700422592469978,0.4471487707073456
-4.0715,-0.9248913518459905,-0.5171453241620139
-4.071,-1.277007122150197,-1.258910012524659
-4.0705,-1.46907026958831,-1.311893204550448
-4.07,-1.298347471865543,-1.01518732920603
-4.0695,-0.7328282044076835,-0.7502713690764973
-4.069,-0.156638762093345,-0.6654982618352349
-4.0685,0.2274875327832301,-0.6866915386455698
-4.068,0.4195506802215856,-0.7608680074818188
-4.0675,0.4942419042252961,-0.8456411147230812
-4.067,0.5475927785137094,-0.8986243067489184
-4.0665,0.5049120790829207,-0.9410108603694629
-4.066,0.4408910299368829,-0.8032545611024114
-4.0655,0.3982103305061524,-0.6019184314042303
-4.065,0.3661998059331336,-0.4005823017062321
-4.0645,0.3555296310754218,-0.1992461720078678
-4.064,0.3448594562177392,0.1504428953626575
-4.0635,0.2701682322140286,0.7120647308360206
-4.063,-0.2313299860978028,0.404762217085982
-4.0625,-0.9782422261349084,-0.3581957480853793
-4.062,-1.618452717595285,-0.9939940523948469
-4.0615,-1.56510184330691,-1.237716735713949
-4.061,-0.9675720512772257,-0.8774310299385835
-4.0605,-0.391382608962363,-0.1568596183871981
-4.06,0.03542438534515607,0.6166949851905642
-4.0595,0.2701682322139607,1.210106735879401
-4.059,0.3768699807907871,1.591585718465428
-4.0585,0.398210330506133,1.771728571353111
-4.058,0.3875401556484697,1.835308401784279
-4.0575,0.3768699807907871,1.845905040189447
-4.057,0.3555296310754412,1.7823252097585
-4.0565,0.3448594562177392,1.686955464111935
-4.056,0.3235191065023739,1.549199164844759
-4.0555,-0.04993701351617885,1.082947075017816
-4.055,-0.5621054066856249,0.09745970333595293
-4.0545,-0.9355615267041777,-0.8562377531282487
-4.054,-1.23432642271902,-1.290699927739718
-4.0535,-1.234326422718826,-1.121153713257136
-4.053,-0.722158029550525,-0.792657922697244
-4.0525,-0.1886492866663929,-0.6231117082145651
-4.052,0.1848068333526937,-0.6549016234301541
-4.0515,0.3982103305061524,-0.7502713690765743
-4.051,0.4942419042252961,-0.8880276683437509
-4.0505,0.5049120790829692,-1.004590690800487
-4.05,0.3448594562177392,-1.131750351662602
-4.0495,0.2594980573562781,-0.9833974139902578
-4.049,0.2594980573562781,-0.7184814538613129
-4.0485,0.2915085819293454,-0.4535654937316742
-4.048,0.3128489316446912,-0.2204394488182027
-4.0475,0.3128489316446912,-0.02969995752536236
-4.047,0.2701682322137666,0.2776025562244739
-4.0465,0.05676473506030786,0.06566978812131802
-4.046,-0.306021210100572,-0.5383386009726763
-4.0455,-0.6367966306895296,-0.8350444763181355
-4.045,-1.148965023857831,-1.078767159636765
-4.0445,-1.202315898146244,-0.9304142219644207
-4.044,-0.7861790786961841,-0.2416327256278533
-4.0435,-0.3060212101009019,0.5107286011383502
-4.043,0.05676473506030786,1.082947075017392
-4.0425,0.2701682322137666,1.422039503982441
-4.042,0.3661998059331045,1.580989080060261
-4.0415,0.3875401556484697,1.623375633680931
-4.041,0.3875401556484697,1.602182356870615
-4.0405,0.3661998059330948,1.538602526439504
-4.04,0.3555296310754218,1.443232780793084
-4.0395,0.334189281360076,1.305476481526033
-4.039,0.08877525963277351,0.9134008605339031
-4.0385,-0.5514352318276028,0.02328323450064829
-4.038,-0.9995825758498661,-0.8880276683429221
-4.0375,-1.191645723288396,-1.470842780627883
-4.037,-1.010252750707956,-1.38606967338662
-4.0365,-0.4554036581084589,-1.036380606016095
-4.036,0.003413860772166375,-0.7078848154557503
-4.0355,0.3021787567870086,-0.5383386009732256
-4.035,0.4622313796522482,-0.570128516188728
-4.0345,0.5369226036559587,-0.6972881770506215
-4.034,0.5475927785137094,-0.7608680074817418
-4.0335,0.6222840025174878,-0.8986243067489184
-4.033,0.6863050516635256,-0.9410108603695496
-4.0325,0.6222840025174005,-0.8032545611022379
-4.032,0.5262524287983441,-0.6125150698093976
-4.0315,0.4515612047946335,-0.4217755785165574
-4.031,0.3982103305062494,-0.220439448817769
-4.0305,0.5049120790829789,0.2564092794143318
-4.03,0.2488278824988283,0.3729723018710676
-4.0295,-0.3060212101014454,-0.2204394488186653
-4.029,-0.9035510021311299,-0.7290780922662394
-4.0285,-1.490410619303675,-1.078767159636765
-4.028,-1.44772991987245,-1.078767159636235
-4.0275,-0.9035510021311299,-0.4959520473525559
-4.027,-0.3593720843893152,0.2881991946298341
-4.0265,0.04609456020225644,0.9557874141547752
-4.026,0.2808384070716433,1.42203950398275
-4.0255,0.3768699807907871,1.676358825706768
-4.025,0.398210330506133,1.771728571353188
-4.0245,0.38754015564846,1.792921848163571
-4.024,0.3768699807907871,1.75053529454294
-4.0235,0.3661998059331142,1.686955464111993
-4.023,0.3448594562176615,1.57039244165491
-4.0225,0.2594980573562781,1.369056311956912
-4.022,-0.2633405106696959,0.6696781772164977
-4.0215,-0.8075194284123256,-0.3264058328706577
-4.021,-1.180975548430879,-1.184733543688439
-4.0205,-1.447729919872945,-1.598002441489969
-4.02,-1.351698346153335,-1.258910012524245
-4.0195,-0.839529952985034,-0.8562377531282487
-4.019,-0.3060212101009019,-0.6337083466197325
-4.0185,0.1101156093483426,-0.5383386009733123
-4.018,0.3448594562177392,-0.6019184314042303
-4.0175,0.4515612047945656,-0.7078848154559045
-4.017,0.536922603655949,-0.7820612842920091
-4.0165,0.6542945270905164,-0.697288177050689
-4.016,0.6329541773751706,-0.6443049850249
-4.0155,0.55826295337146,-0.6125150698094265
-4.015,0.4729015545098824,-0.5807251545938279
-4.0145,0.4195506802215176,-0.5065486857577234
-4.014,0.5049120790829013,-0.1780528951978317
-4.0135,0.5475927785133697,0.2776025562243197
-4.013,0.1741366584948169,-0.1038764263613609
-4.0125,-0.274010685527854,-0.7502713690765743
-4.012,-0.9248913518466602,-1.216523458903913
-4.0115,-1.1062843244271,-1.184733543688439
-4.011,-0.7648387289812555,-0.4853554089473885
-4.0105,-0.3166913849589921,0.3835689402755508
-4.01,0.03542438534494258,1.104140351827727
-4.0095,0.2488278824985954,1.591585718465428
-4.009,0.3555296310753248,1.867098316999531
-4.0085,0.38754015564846,1.983661339456652
-4.008,0.3768699807907871,2.015451254672126
-4.0075,0.3661998059331142,1.99425797786181
-4.007,0.3555296310754121,1.920081509025503
-4.0065,0.3448594562177392,1.79292184816361
-4.006,0.3128489316446912,1.602182356870596
-4.0055,-0.113958062663119,0.966384052559615
-4.005,-0.6688071552621118,-0.06148987274069118
-4.0045,-1.052933450138687,-0.9833974139902578
-4.004,-1.383708870727082,-1.598002441489843
-4.0035,-1.639793067311232,-1.460246142222792
-4.003,-1.533091318734406,-1.078767159636765
-4.0025,-1.116954499285161,-0.8138511995078198
-4.002,-0.5194247072545548,-0.718481453861072
-4.0015,-0.01792648894347063,-0.7502713690765743
-4.001,0.3128489316443904,-0.8880276683436257
-4.0005,0.4835717293676814,-1.068170521231761
-4,0.5582629533713921,-1.248313374119443
-3.9995,0.5262524287983441,-1.174136905283272
-3.999,0.4729015545099309,-0.8986243067489184
-3.9985,0.4195506802215176,-0.6019184314042303
-3.998,0.3875401556484697,-0.3581957480853793
-3.9975,0.3982103305061524,-0.07208651114585861
-3.997,0.6542945270905358,0.457745409112513
-3.9965,0.3661998059331045,0.2670059178194992
-3.996,-0.4660738329661415,-0.4111789401112165
-3.9955,-1.244996597576974,-0.9304142219644207
-3.995,-1.757164990745741,-1.258910012524611
-3.9945,-1.415719395299897,-0.9833974139902578
-3.994,-0.7755089038389382,-0.2416327256285375
-3.9935,-0.2206598112394408,0.5001319627331828
-3.993,0.142126133921769,1.051157159801889
-3.9925,0.3341892813600565,1.37965295036208
-3.992,0.408880505363835,1.549199164844759
-3.9915,0.408880505363835,1.591585718465428
-3.991,0.3982103305061524,1.591585718465428
-3.9905,0.3768699807907871,1.549199164844759
-3.99,0.3661998059331045,1.475022696008586
-3.9895,0.3555296310754218,1.369056311956912
-3.989,0.2594980573562781,1.316073119931075
-3.9885,-0.2313299860971235,0.9451907757502149
-3.988,-0.7008176798351597,-0.008506680714854012
-3.9875,-1.020922925565639,-0.8244478379127463
-3.987,-0.7755089038389382,-0.9198175835592532
-3.9865,-0.3060212101009019,-0.7078848154559045
-3.986,0.1207857842064037,-0.4959520473525559
-3.9855,0.3768699807907871,-0.4535654937318862
-3.985,0.5049120790829789,-0.5489352393783931
-3.9845,0.5475927785137094,-0.6866915386455698
-3.984,0.5369226036560266,-0.7820612842920766
-3.9835,0.5475927785137094,-0.8880276683437509
-3.983,0.5582629533713921,-0.6549016234300674
-3.9825,0.5155822539406614,-0.400582301706049
-3.982,0.4515612047945656,-0.2310360872233701
-3.9815,0.3982103305061524,-0.09327978795619347
-3.981,0.3661998059331045,0.05507314971615059
-3.9805,0.3448594562177392,0.5107286011383502
-3.98,0.2808384070716433,0.7226613692416989
-3.9795,-0.3060212101009019,0.07626642652648545
-3.979,-0.9675720512772257,-0.7078848154559045
-3.9785,-1.341028171296118,-1.237716735714276
-3.978,-1.052933450138687,-1.333086481360783
-3.9775,-0.5407650569699201,-0.9198175835592532
-3.977,-0.1032878878049318,-0.2310360872233701
-3.9765,0.1848068333524996,0.4895353243280153
-3.976,0.3341892813600565,1.040560521396722
-3.9755,0.3875401556484697,1.369056311956912
-3.975,0.3875401556484697,1.517409249629256
-3.9745,0.3768699807907871,1.559795803249926
-3.974,0.3661998059331045,1.538602526439591
-3.9735,0.3555296310754218,1.475022696008586
-3.973,0.3448594562177392,1.37965295036208
-3.9725,0.2381577076409128,1.188913459069066
-3.972,-0.3060212101009019,0.8604176685088755
-3.9715,-0.7861790786966207,0.1504428953626575
-3.971,-0.9462317015618604,-0.7078848154559045
-3.9705,-0.839529952985034,-1.05757388282643
-3.97,-0.4340633083930936,-0.8880276683437509
-3.9695,-0.02859666380115328,-0.6654982618352349
-3.969,0.2594980573562781,-0.5595318777835605
-3.9685,0.4408910299368829,-0.5595318777835605
-3.968,0.5049120790829789,-0.6760949002404023
-3.9675,0.5155822539406614,-0.8562377531282487
-3.967,0.4942419042252961,-1.036380606016095
-3.9665,0.4515612047945656,-1.174136905283272
-3.966,0.4195506802215176,-0.9516074987747555
-3.9655,0.3875401556484697,-0.6337083466197325
-3.965,0.3661998059331045,-0.3158091944647096
-3.9645,0.3661998059331045,-0.06148987274069118
-3.964,0.4302208550792003,0.309392471440169
-3.9635,0.6116138276598051,0.6908714540261965
-3.963,0.4408910299368829,0.2034260873884947
-3.9625,0.1101156093487211,-0.4853554089473885
-3.962,-0.5621054066852853,-0.9728007755850904
-3.9615,-1.116954499284783,-1.205926820498774
-3.961,-0.9889124009925911,-0.7290780922662394
-3.9605,-0.5621054066852853,0.04447651131098315
-3.96,-0.1459685872356623,0.7332580076468663
-3.9595,0.1527963087794516,1.210106735879401
-3.959,0.3128489316446912,1.464426057603419
-3.9585,0.3768699807907871,1.570392441655093
-3.958,0.3875401556484697,1.602182356870596
-3.9575,0.3875401556484697,1.580989080060261
-3.957,0.3768699807907871,1.528005888034424
-3.9565,0.3661998059331045,1.411442865577582
-3.956,0.3341892813600565,1.25249328950007
-3.9555,-0.06060718837420119,0.7120647308365314
-3.955,-0.658136980404429,-0.2416327256285375
-3.9545,-1.020922925565639,-1.0999604364471
-3.954,-1.202315898146244,-1.555615887869299
-3.9535,-1.084943974711735,-1.333086481360783
-3.953,-0.5514352318276028,-0.9092209451540858
-3.9525,-0.02859666380115328,-0.6443049850249
-3.952,0.3128489316446912,-0.5595318777835605
-3.9515,0.4942419042252961,-0.570128516188728
-3.951,0.5369226036560266,-0.6231117082145651
-3.9505,0.5262524287983441,-0.7396747306714069
-3.95,0.5689331282290746,-0.8456411147230812
-3.9495,0.5582629533713921,-0.7502713690765743
-3.949,0.5049120790829789,-0.6125150698093976
-3.9485,0.4408910299368829,-0.4641621321370536
-3.948,0.3982103305061524,-0.3158091944647096
-3.9475,0.3555296310754218,-0.1356663415768632
-3.947,0.07810508477567314,0.1716361721729923
-3.9465,-0.4340633083930936,-0.08268314955102604
-3.946,-0.8928808272734472,-0.7078848154559045
-3.9455,-1.330357996438436,-1.227120097309109
-3.945,-1.437059745015262,-1.460246142222792
-3.9445,-0.9782422261349084,-1.174136905283272
-3.944,-0.4340633083930936,-0.5171453241628908
-3.9435,-0.007256314085787988,0.2776025562246667
-3.943,0.2488278824985954,0.9451907757502149
-3.9425,0.3661998059331045,1.390249588767247
-3.942,0.3982103305061524,1.623375633680931
-3.9415,0.3982103305061524,1.70814874092227
-3.941,0.3768699807907871,1.718745379327438
-3.9405,0.3661998059331045,1.676358825706768
-3.94,0.3555296310754218,1.580989080060261
-3.9395,0.3448594562177392,1.453829419198252
-3.939,0.1207857842064037,1.082947075017392
-3.9385,-0.5407650569699201,0.2034260873884947
-3.938,-1.020922925565639,-0.7502713690765743
-3.9375,-1.244996597576974,-1.42845622700729
-3.937,-1.095614149569417,-1.417859588602123
-3.9365,-0.6367966306890638,-1.046977244421262
-3.936,-0.124628237520297,-0.792657922697244
-3.9355,0.2488278824985954,-0.6231117082145651
-3.935,0.4622313796522482,-0.6019184314042303
-3.9345,0.5582629533713921,-0.718481453861072
-3.934,0.5689331282290746,-0.8774310299385835
-3.9335,0.4942419042252961,-0.9304142219644207
-3.933,0.4195506802215176,-0.8350444763179138
-3.9325,0.3875401556484697,-0.6972881770507372
-3.932,0.3661998059331045,-0.5489352393783931
-3.9315,0.3555296310754218,-0.400582301706049
-3.931,0.3661998059331045,-0.2310360872233701
-3.9305,0.2168173579255475,0.2458126410091644
-3.93,-0.3487019095316325,0.4789386859228479
-3.9295,-0.8715404775580819,-0.1038764263613609
-3.929,-1.234326422719292,-0.6866915386455698
-3.9285,-1.67180359188428,-1.078767159636765
-3.928,-1.618452717595867,-1.078767159636765
-3.9275,-1.020922925565639,-0.4429688553267188
-3.927,-0.4127229586777283,0.3729723018711736
-3.9265,0.02475421048725994,1.051157159801889
-3.926,0.2808384070716433,1.485619334413754
-3.9255,0.3875401556484697,1.718745379327438
-3.925,0.4195506802215176,1.803518486568777
-3.9245,0.408880505363835,1.803518486568777
-3.924,0.3768699807907871,1.761131932948107
-3.9235,0.3661998059331045,1.6657621873016
-3.923,0.3555296310754218,1.538602526439591
-3.9225,0.2701682322139607,1.316073119931075
-3.922,-0.2526703358124887,0.5849050699745222
-3.9215,-0.7328282044082075,-0.4111789401112165
-3.921,-0.9569018764195432,-1.205926820498774
-3.9205,-1.148965023857831,-1.492036057438295
-3.92,-1.180975548430879,-1.216523458903942
-3.9195,-0.8181896032696687,-0.8456411147230812
-3.919,-0.2953510352432193,-0.6231117082145651
-3.9185,0.1314559590640864,-0.5277419625680583
-3.918,0.3982103305061524,-0.6019184314042303
-3.9175,0.5049120790829789,-0.7396747306714069
-3.917,0.4622313796522482,-0.9622041371799229
-3.9165,0.1954770082101822,-1.131750351662602
-3.916,0.1207857842064037,-0.9728007755850904
-3.9155,0.1634664836371343,-0.6972881770507372
-3.915,0.2381577076409128,-0.4217755785163839
-3.9145,0.3021787567870086,-0.1992461720078678
-3.914,0.4302208550792003,0.13984625695749
-3.9135,0.6649647019482183,0.6802748156210291
-3.913,0.2808384070716433,0.3729723018711736
-3.9125,-0.3380317346739499,-0.3581957480853793
-3.912,-1.052933450138687,-0.9516074987747555
-3.9115,-1.362368521011484,-1.258910012524611
-3.911,-0.9995825758502737,-0.9198175835592532
-3.9105,-0.4874141826815069,-0.1886495336027004
-3.91,-0.04993701351651855,0.5319218779486851
-3.9095,0.2168173579255475,1.061753798207057
-3.909,0.3555296310754218,1.390249588767247
-3.9085,0.3982103305061524,1.538602526439591
-3.908,0.3982103305061524,1.591585718465428
-3.9075,0.3875401556484697,1.602182356870596
-3.907,0.3768699807907871,1.570392441655093
-3.9065,0.3661998059331045,1.496215972818921
-3.906,0.3555296310754218,1.411442865577582
-3.9055,0.4622313796522482,1.453829419198252
-3.905,0.2808384070716433,1.146526905448396
-3.9045,-0.1032878878049318,0.1610395337678249
-3.904,-0.3700422592469978,-0.5807251545938954
-3.9035,-0.1993194615240755,-0.7820612842920766
-3.903,0.08877525963335578,-0.8244478379127463
-3.9025,0.3021787567870086,-0.792657922697244
-3.902,0.4408910299368829,-0.7820612842920766
-3.9015,0.5155822539406614,-0.7820612842920766
-3.901,0.5369226036560266,-0.7502713690765743
-3.9005,0.5475927785137094,-0.792657922697244
-3.9,0.5262524287983441,-0.9092209451540858
-3.8995,0.4729015545099309,-0.8244478379127463
-3.899,0.4195506802215176,-0.6125150698093976
-3.8985,0.3768699807907871,-0.400582301706049
-3.898,0.3661998059331045,-0.1992461720078678
-3.8975,0.3661998059331045,0.04447651131098315
-3.897,0.408880505363835,0.55311515475902
-3.8965,0.1207857842064037,0.3623756634660061
-3.896,-0.4340633083930936,-0.3370024712750445
-3.8955,-1.074273799854052,-0.8774310299385835
-3.895,-1.607782542738184,-1.237716735714276
-3.8945,-1.415719395299897,-1.068170521231597
-3.894,-0.8288597781273515,-0.3581957480853793
-3.8935,-0.2846808603855366,0.4259554938970107
-3.893,0.09944543449103843,1.029963882991555
-3.8925,0.3128489316446912,1.400846227172415
-3.892,0.3982103305061524,1.591585718465428
-3.8915,0.408880505363835,1.644568910491266
-3.891,0.3982103305061524,1.644568910491266
-3.8905,0.3768699807907871,1.602182356870596
-3.89,0.3661998059331045,1.517409249629256
-3.8895,0.3555296310754218,1.390249588767247
-3.889,0.1741366584948169,1.157123543853563
-3.8885,-0.4554036581084589,0.7226613692416989
-3.888,-0.9569018764195432,-0.1144730647665284
-3.8875,-1.138294849000148,-0.8774310299385835
-3.887,-0.8608703027003992,-1.025783967610927
-3.8865,-0.3700422592469978,-0.8350444763179138
-3.886,0.04609456020262521,-0.6866915386455698
