Class_2_Relax_eyes_open/Class_2_Relax_Eyes_open_Turki_9.csv

#Digilent WaveForms Oscilloscope Acquisition
#Device Name: EExplorer
#Serial Number: SN:210151A2B84A
#Date Time: 2020-12-15 14:02:50.167
#Sample rate: 2000Hz
#Samples: 16384
#Trigger: Source: Channel 1 Type: Edge Condition: Rising Level: 0 V Hyst.: Auto HoldOff: 0 s
#Channel 1: Range: 1 V/div Offset: 0 V Attenuation: 1 X
#Channel 2: Range: 1 V/div Offset: 0 V Attenuation: 1 X
#Power Supplies: ON
#Fixed Supply: ON
#Voltage: 3.3 V Readback: 3.319 V
#Positive Supply: ON
#Voltage: 3.7 V Readback: 3.714 V
#Current: 40 mA Readback: 20 mA
#Negative Supply: ON
#Voltage: -3.7 V Readback: -3.345 V
#Current: -40 mA Readback: -7 mA
#Reference 1: ON
#Voltage: 0 V
#Reference 2: ON
#Voltage: 0 V

Time (s),Channel 1 (V),Channel 2 (V)
-4.096,0.3555296310754218,-1.036380606016095
-4.0955,0.2915085819293842,-0.8986243067490436
-4.095,0.238157707640903,-0.7290780922660564
-4.0945,0.2274875327832301,-0.5277419625680583
-4.094,0.4408910299366888,-0.01910331912048413
-4.0935,0.1207857842057535,0.4365521323017252
-4.093,-0.5941159312583333,-0.06148987274069118
-4.0925,-1.212986073003364,-0.6760949002398433
-4.092,-1.629122892453287,-1.131750351662477
-4.0915,-1.341028171296118,-0.9939940523954253
-4.091,-0.7861790786966207,-0.3158091944647096
-4.0905,-0.2953510352429185,0.4047622170871963
-4.09,0.03542438534494258,0.9769806909657173
-4.0895,0.2061471830678648,1.358459673551745
-4.089,0.2701682322139025,1.559795803249743
-4.0885,0.2701682322139607,1.633972272086098
-4.088,0.2594980573562781,1.633972272086098
-4.0875,0.2381577076409322,1.580989080060309
-4.087,0.2274875327832301,1.506812611223983
-4.0865,0.2274875327832301,1.390249588767247
-4.086,0.08877525963348193,1.23130001268988
-4.0855,-0.4980843575396068,1.125333628637377
-4.085,-0.9569018764195432,0.3729723018711736
-4.0845,-1.23432642271904,-0.6019184314033437
-4.084,-1.277007122149692,-1.046977244421243
-4.0835,-0.9142211769888124,-1.025783967610927
-4.083,-0.3380317346739499,-0.9410108603695881
-4.0825,0.09944543449124223,-0.9092209451541051
-4.082,0.3235191065023739,-0.9304142219644207
-4.0815,0.4195506802215176,-0.9622041371799229
-4.081,0.4302208550791906,-0.9939940523953964
-4.0805,0.4195506802215176,-1.01518732920576
-4.08,0.4302208550792003,-0.9092209451540858
-4.0795,0.3982103305061815,-0.8562377531282969
-4.079,0.334189281360008,-0.7926579226971476
-4.0785,0.2808384070716433,-0.6866915386455698
-4.078,0.2381577076409516,-0.5277419625682028
-4.0775,0.3661998059331045,-0.1674562567917872
-4.077,0.3661998059331045,0.4683420475176805
-4.0765,-0.2526703358119258,0.1928294489835778
-4.076,-0.8928808272739712,-0.4535654937323295
-4.0755,-1.46907026958831,-0.9410108603695881
-4.075,-1.426389570157579,-1.110557074852267
-4.0745,-0.9355615267037118,-0.6125150698086941
-4.074,-0.423393133535411,0.1610395337678249
-4.0735,-0.04993701351651855,0.8604176685088755
-4.073,0.1634664836369402,1.347863035146134
-4.0725,0.2594980573562781,1.644568910491266
-4.072,0.2808384070716433,1.782325209758442
-4.0715,0.2594980573562975,1.803518486568758
-4.071,0.2488278824985857,1.76113193294803
-4.0705,0.2381577076409128,1.676358825706768
-4.07,0.2274875327832398,1.549199164844874
-4.0695,0.1848068333520629,1.390249588767199
-4.069,-0.2953510352432193,1.33726639674141
-4.0685,-0.8822106524157645,0.9345941373450475
-4.068,-1.298347471865582,-0.07208651114663925
-4.0675,-1.51175096901904,-0.9304142219644207
-4.067,-1.095614149569417,-1.237716735714276
-4.0665,-0.2953510352426759,-1.152943628472783
-4.066,0.3021787567870086,-0.9833974139902578
-4.0655,0.5582629533713921,-0.9092209451540858
-4.065,0.5796033030867379,-0.9198175835592436
-4.0645,0.5049120790829789,-0.9198175835592532
-4.064,0.408880505363835,-0.9622041371799229
-4.0635,0.4302208550791809,-1.110557074852132
-4.063,0.4302208550791518,-1.078767159636582
-4.0625,0.3768699807907871,-0.8774310299385835
-4.062,0.3128489316447495,-0.644304985025112
-4.0615,0.2594980573562975,-0.4111789401109562
-4.061,0.2808384070716433,-0.1250697031716958
-4.0605,0.4408910299368829,0.5001319627331828
-4.06,-0.04993701351714934,0.415358855491188
-4.0595,-0.7434983792658902,-0.3052125560595421
-4.059,-1.362368521011484,-0.9198175835592532
-4.0585,-1.469070269588213,-1.290699927739776
-4.058,-1.020922925565639,-1.004590690800593
-4.0575,-0.5087545323968721,-0.3052125560595421
-4.057,-0.1032878878053005,0.3835689402757146
-4.0565,0.142126133921769,0.8816109453192104
-4.056,0.2488278824985954,1.188913459069066
-4.0555,0.2808384070716142,1.337266396741275
-4.055,0.270168232213951,1.379652950362051
-4.0545,0.2594980573562781,1.347863035146577
-4.054,0.2381577076409322,1.284283204715631
-4.0535,0.238157707640903,1.210106735879304
-4.053,0.2274875327832301,1.104140351827727
-4.0525,-0.1032878878049318,0.9557874141553824
-4.052,-0.722158029550884,0.7226613692409183
-4.0515,-1.116954499284783,-0.1356663415768632
-4.051,-1.30901764672307,-0.9622041371799229
-4.0505,-1.383708870726781,-1.248313374119183
-4.05,-0.9462317015618604,-1.0999604364471
-4.0495,-0.3060212101009019,-0.8880276683437509
-4.049,0.1634664836367073,-0.6972881770509107
-4.0485,0.3982103305062203,-0.6231117082145747
-4.048,0.4729015545099309,-0.6337083466197325
-4.0475,0.451561204794585,-0.6443049850248903
-4.047,0.451561204794585,-0.6549016234300674
-4.0465,0.4729015545099309,-0.6549016234300674
-4.046,0.4088805053638933,-0.6443049850249096
-4.0455,0.3341892813599983,-0.6125150698093301
-4.045,0.2701682322139607,-0.5383386009732256
-4.0445,0.2168173579255475,-0.4111789401112165
-4.044,0.02475421048680383,0.1080563417423058
-4.0435,-0.4767440078238243,0.457745409112513
-4.043,-1.020922925565639,-0.1038764263613609
-4.0425,-1.479740444445575,-0.7184814538605129
-4.042,-1.810515865034154,-1.184733543688439
-4.0415,-1.405049220442214,-1.078767159636765
-4.041,-0.7861790786971836,-0.4217755785169814
-4.0405,-0.2740106855275435,0.309392471440699
-4.04,0.0674349099179905,0.8922075837243778
-4.0395,0.2381577076407575,1.263089927904901
-4.039,0.291508581929326,1.475022696008654
-4.0385,0.291508581929326,1.549199164844759
-4.038,0.280838407071653,1.549199164844759
-4.0375,0.2594980573562586,1.506812611224021
-4.037,0.2381577076409128,1.432636142387917
-4.0365,0.2381577076409128,1.33726639674141
-4.036,0.0567647350597353,1.210106735879372
-4.0355,-0.572775581542968,1.178316820663898
-4.035,-1.031593100423322,0.4471487707073456
-4.0345,-1.24499659757678,-0.559531877782645
-4.034,-1.287677297007705,-1.110557074852267
-4.0335,-1.020922925565639,-1.184733543688439
-4.033,-0.3913826089629356,-1.057573882826546
-4.0325,0.1207857842066463,-0.9092209451540376
-4.032,0.3875401556484697,-0.8562377531282487
-4.0315,0.4835717293675261,-0.888027668343722
-4.031,0.4729015545099018,-0.8668343915334161
-4.0305,0.4408910299368829,-0.8668343915334161
-4.03,0.4408910299368829,-0.9198175835592051
-4.0295,0.3982103305060845,-0.8350444763177692
-4.029,0.3235191065023739,-0.6760949002404023
-4.0285,0.2808384070716433,-0.4853554089473885
-4.028,0.2488278824987507,-0.2734226408436832
-4.0275,0.4195506802215176,0.1186529801471552
-4.027,0.3768699807907871,0.7438546460520338
-4.0265,-0.3700422592463185,0.4577454091127733
-4.026,-1.148965023857831,-0.2628260024388724
-4.0255,-1.703814116457328,-0.8562377531282487
-4.025,-1.469070269588523,-1.174136905282983
-4.0245,-0.8822106524152792,-0.8032545611017851
-4.024,-0.3487019095316325,-0.1144730647665284
-4.0235,0.01408403562924732,0.5319218779480972
-4.023,0.2168173579256154,0.9981739677763123
-4.0225,0.291508581929326,1.284283204715573
-4.022,0.3021787567869989,1.422039503982624
-4.0215,0.2808384070716239,1.453829419198233
-4.021,0.2594980573562781,1.432636142387917
-4.0205,0.2488278824985954,1.390249588767247
-4.02,0.2488278824985469,1.305476481525773
-4.0195,0.1954770082101822,1.157123543853563
-4.019,-0.3273615598162672,1.040560521396722
-4.0185,-0.9675720512766434,0.6060983467852522
-4.018,-1.362368521011484,-0.3370024712750445
-4.0175,-1.447729919872945,-1.01518732920576
-4.017,-0.9462317015623165,-1.11055707485218
-4.0165,-0.1993194615236388,-0.9622041371798169
-4.016,0.2808384070716433,-0.8456411147230812
-4.0155,0.4835717293674291,-0.8350444763179234
-4.015,0.5155822539406225,-0.8668343915334354
-4.0145,0.4729015545099309,-0.8880276683437509
-4.014,0.4195506802215662,-0.8880276683437509
-4.0135,0.4622313796522385,-0.8668343915333679
-4.013,0.4515612047945656,-0.8138511995075789
-4.0125,0.3875401556484697,-0.7290780922662394
-4.012,0.3235191065023351,-0.6019184314040761
-4.0115,0.2808384070716433,-0.4323722169215513
-4.011,0.3341892813600565,-0.1462629799820306
-4.0105,0.5689331282288611,0.4895353243274371
-4.01,0.03542438534494258,0.4471487707073456
-4.0095,-0.7861790786966207,-0.2628260024388724
-4.009,-1.501080794160708,-0.8668343915328669
-4.0085,-1.671803591883814,-1.174136905282925
-4.008,-1.159635198715513,-0.792657922697244
-4.0075,-0.5834457564011746,-0.05089323433619841
-4.007,-0.1246282375200544,0.6484849004059895
-4.0065,0.142126133921769,1.157123543853563
-4.006,0.2701682322139607,1.453829419198252
-4.0055,0.3021787567870086,1.591585718465457
-4.005,0.3021787567870086,1.623375633680931
-4.0045,0.2808384070716433,1.570392441655093
-4.004,0.2594980573562781,1.496215972818815
-4.0035,0.2594980573562781,1.37965295036208
-4.003,0.2488278824985954,1.241896651094903
-4.0025,-0.0499370135162468,1.15712354385364
-4.002,-0.690147504977477,1.00877060618122
-4.0015,-1.116954499284783,0.1292496185523226
-4.001,-1.298347471865223,-0.7926579226964056
-4.0005,-1.298347471864864,-1.237716735714248
-4,-0.722158029550525,-1.205926820498774
-3.9995,-0.07127736323188383,-1.004590690800593
-3.999,0.3448594562177392,-0.8456411147230812
-3.9985,0.5155822539406614,-0.7608680074817418
-3.998,0.5369226036560266,-0.7714646458869092
-3.9975,0.4835717293676135,-0.8350444763179138
-3.997,0.4622313796522482,-0.8986243067489184
-3.9965,0.4622313796522482,-0.8562377531282487
-3.996,0.3982103305061524,-0.792657922697244
-3.9955,0.3235191065023739,-0.6972881770507372
-3.995,0.2701682322139607,-0.570128516188728
-3.9945,0.2701682322139607,-0.3899856633008816
-3.994,0.5155822539406614,0.1928294489833272
-3.9935,0.1741366584948169,0.5425185163538525
-3.993,-0.4980843575391895,-0.04029659593035631
-3.9925,-1.138294849000148,-0.7290780922662394
-3.992,-1.522421143876723,-1.216523458903942
-3.9915,-1.202315898146244,-1.163540266878104
-3.991,-0.6688071552621118,-0.5065486857577234
-3.9905,-0.2099896363817582,0.2670059178194992
-3.99,0.08877525963335578,0.8816109453192104
-3.9895,0.2488278824985954,1.29487984312074
-3.989,0.3021787567870086,1.517409249629256
-3.9885,0.3021787567870086,1.591585718465428
-3.988,0.2808384070716433,1.580989080060261
-3.9875,0.2701682322139607,1.528005888034424
-3.987,0.2594980573562781,1.432636142387917
-3.9865,0.2594980573562781,1.305476481525908
-3.986,0.1101156093487211,1.093543713422559
-3.9855,-0.5087545323968721,0.8286277532933731
-3.985,-1.052933450138687,0.002089957690313421
-3.9845,-1.277007122150022,-0.8986243067489184
-3.984,-1.351698346153801,-1.311893204550448
-3.9835,-0.9675720512772257,-1.237716735714276
-3.983,-0.274010685527854,-0.9939940523954253
-3.9825,0.2381577076409128,-0.8244478379127463
-3.982,0.4622313796522482,-0.7502713690765743
-3.9815,0.5155822539406614,-0.7502713690765743
-3.981,0.4942419042252961,-0.8138511995075789
-3.9805,0.4515612047945656,-0.9198175835592532
-3.98,0.4408910299368829,-0.9516074987747555
-3.9795,0.3875401556484697,-0.9728007755850904
-3.979,0.3235191065023739,-0.9410108603695881
-3.9785,0.2701682322139607,-0.8456411147230812
-3.978,0.2488278824985954,-0.6654982618352349
-3.9775,0.4515612047945656,-0.2098428104130352
-3.977,0.408880505363835,0.4153588554918433
-3.9765,-0.3060212101009019,0.08686306493165288
-3.976,-1.042263275281004,-0.5807251545938954
-3.9755,-1.586442193022819,-1.068170521231597
-3.975,-1.373038695869166,-1.121153713257435
-3.9745,-0.8181896032696687,-0.5171453241628908
-3.974,-0.3060212101009019,0.2987958330350016
-3.9735,0.03542438534494258,0.9981739677760521
-3.973,0.2274875327832301,1.475022696008586
-3.9725,0.3021787567870086,1.739938656137773
-3.972,0.3128489316446912,1.856501678594614
-3.9715,0.291508581929326,1.856501678594614
-3.971,0.2808384070716433,1.79292184816361
-3.9705,0.2701682322139607,1.686955464111935
-3.97,0.2594980573562781,1.549199164844759
-3.9695,0.2061471830678648,1.37965295036208
-3.969,-0.3060212101009019,1.358459673551745
-3.9685,-0.8608703027003992,0.8180311148882058
-3.968,-1.223656247861609,-0.2204394488182027
-3.9675,-1.351698346153801,-0.9939940523954253
-3.967,-0.9569018764195432,-1.131750351662602
-3.9665,-0.2313299860971235,-1.036380606016095
-3.966,0.3128489316446912,-0.9516074987747555
-3.9655,0.5369226036560266,-0.9622041371799229
-3.965,0.5689331282290746,-0.9939940523954253
-3.9645,0.5369226036560266,-1.036380606016095
-3.964,0.4835717293676135,-1.078767159636765
-3.9635,0.4515612047945656,-1.142346990067769
-3.963,0.408880505363835,-1.089363798041932
-3.9625,0.3448594562177392,-0.9410108603695881
-3.962,0.291508581929326,-0.7396747306714069
-3.9615,0.2594980573562781,-0.5277419625680583
-3.961,0.3555296310754218,-0.2098428104130352
-3.9605,0.5689331282290746,0.457745409112513
-3.96,-0.02859666380115328,0.4471487707073456
-3.9595,-0.7434983792658902,-0.252229364033705
-3.959,-1.330357996438436,-0.8668343915334161
-3.9585,-1.383708870726849,-1.163540266878104
-3.958,-0.9248913518464952,-0.7714646458869092
-3.9575,-0.423393133535411,-0.04029659593035631
-3.957,-0.03926683865883591,0.6484849004055269
-3.9565,0.1848068333524996,1.135930267043229
-3.956,0.2808384070716433,1.432636142387917
-3.9555,0.3128489316446912,1.570392441655093
-3.955,0.3021787567870086,1.612778995275763
-3.9545,0.2808384070716433,1.570392441655093
-3.954,0.2701682322139607,1.506812611224089
-3.9535,0.2594980573562781,1.411442865577582
-3.953,0.2488278824985954,1.263089927905238
-3.9525,-0.1139580626626144,0.9451907757502149
-3.952,-0.7008176798351597,0.2881991946298341
-3.9515,-1.06360362499637,-0.6549016234300674
-3.951,-1.277007122150022,-1.301296566145281
-3.9505,-1.277007122150022,-1.290699927740113
-3.95,-0.722158029550525,-1.046977244421262
-3.9495,-0.04993701351651855,-0.8456411147230812
-3.949,0.3982103305061524,-0.8138511995075789
-3.9485,0.5689331282290746,-0.9198175835592532
-3.948,0.5902734779444399,-1.05757388282643
-3.9475,0.5369226036560266,-1.163540266878104
-3.947,0.5049120790829789,-1.152943628472937
-3.9465,0.4835717293676135,-1.046977244421262
-3.946,0.4195506802215176,-0.9092209451540858
-3.9455,0.3448594562177392,-0.7396747306714069
-3.945,0.291508581929326,-0.5595318777835605
-3.9445,0.2808384070716433,-0.326405832869877
-3.944,0.5262524287983441,0.2670059178194992
-3.9435,0.2061471830678648,0.457745409112513
-3.943,-0.5621054066852853,-0.1674562567923655
-3.9425,-1.244996597576974,-0.7396747306714069
-3.942,-1.693143941599645,-1.131750351662602
-3.9415,-1.373038695869166,-0.9304142219644207
-3.941,-0.7861790786966207,-0.2204394488182027
-3.9405,-0.274010685527854,0.5107286011383502
-3.94,0.07810508477567314,1.072350436612224
-3.9395,0.2488278824985954,1.42203950398275
-3.939,0.3128489316446912,1.602182356870596
-3.9385,0.3235191065023739,1.644568910491266
-3.938,0.3021787567870086,1.612778995275763
-3.9375,0.2808384070716433,1.538602526439591
-3.937,0.2701682322139607,1.443232780793084
-3.9365,0.2701682322139607,1.305476481525908
-3.936,0.08877525963335578,1.135930267043229
-3.9355,-0.5087545323968721,1.125333628638062
-3.935,-0.9675720512772257,0.4471487707073456
-3.9345,-1.212986073003927,-0.5171453241628908
-3.934,-1.159635198715513,-1.01518732920576
-3.9335,-0.5941159312583333,-1.01518732920576
-3.933,0.05676473506030786,-0.8986243067489184
-3.9325,0.4515612047945656,-0.8032545611024114
-3.932,0.5902734779444399,-0.792657922697244
-3.9315,0.5902734779444399,-0.8562377531282487
-3.931,0.5262524287983441,-0.9728007755850904
-3.9305,0.4942419042252961,-1.0999604364471
-3.93,0.5475927785137094,-1.195330182093607
-3.9295,0.4942419042252961,-1.05757388282643
-3.929,0.408880505363835,-0.8138511995075789
-3.9285,0.3341892813600565,-0.5595318777835605
-3.928,0.2808384070716433,-0.3158091944647096
-3.9275,0.4195506802215176,0.1292496185523226
-3.927,0.3021787567870086,0.6378882620003594
-3.9265,-0.423393133535411,0.1822328105781598
-3.926,-1.127624674142465,-0.5489352393783931
-3.9255,-1.693143941599645,-1.110557074852267
-3.925,-1.565101843307454,-1.174136905283272
-3.9245,-0.9675720512772257,-0.5913217929990628
-3.924,-0.4020527838200457,0.13984625695749
-3.9235,-0.007256314085787988,0.7438546460520338
-3.923,0.2168173579255475,1.146526905448396
-3.9225,0.3128489316446912,1.369056311956912
-3.922,0.3341892813600565,1.453829419198252
-3.9215,0.3128489316446912,1.453829419198252
-3.921,0.291508581929326,1.400846227172415
-3.9205,0.2808384070716433,1.326669758336243
-3.92,0.2701682322139607,1.220703374284568
-3.9195,0.2168173579255475,1.082947075017392
-3.919,-0.3060212101009019,1.00877060618122
-3.9185,-0.839529952985034,0.4683420475176805
-3.918,-1.127624674142465,-0.4853554089473885
-3.9175,-1.30901764672307,-1.142346990067769
-3.917,-1.170305373573196,-1.227120097309109
-3.9165,-0.5621054066852853,-1.078767159636765
-3.916,0.00341386077189465,-0.8880276683437509
-3.9155,0.3448594562177392,-0.7502713690765743
-3.915,0.4942419042252961,-0.6972881770507372
-3.9145,0.5262524287983441,-0.7290780922662394
-3.914,0.5049120790829789,-0.792657922697244
-3.9135,0.5369226036560266,-0.8456411147230812
-3.913,0.5155822539406614,-0.8456411147230812
-3.9125,0.4302208550792003,-0.7820612842920766
-3.912,0.3448594562177392,-0.6760949002404023
-3.9115,0.291508581929326,-0.4959520473525559
-3.911,0.3661998059331045,-0.1992461720078678
-3.9105,0.5049120790829789,0.4895353243280153
-3.91,-0.09261771294724913,0.5319218779486851
-3.9095,-0.7648387289812555,-0.1568596183871981
-3.909,-1.319687821580753,-0.7396747306714069
-3.9085,-1.415719395299897,-1.121153713257435
-3.908,-0.9675720512772257,-0.8350444763179138
-3.9075,-0.4447334832507763,-0.1250697031716958
-3.907,-0.04993701351651855,0.5955017083796896
-3.9065,0.1848068333524996,1.125333628638062
-3.906,0.291508581929326,1.464426057603419
-3.9055,0.3235191065023739,1.623375633680931
-3.905,0.3128489316446912,1.676358825706768
-3.9045,0.291508581929326,1.655165548896433
-3.904,0.2808384070716433,1.591585718465428
-3.9035,0.2701682322139607,1.485619334413754
-3.903,0.2594980573562781,1.33726639674141
-3.9025,-0.1139580626626144,1.029963882991555
-3.902,-0.722158029550525,0.4789386859228479
-3.9015,-1.052933450138687,-0.4641621321370536
-3.901,-1.212986073003927,-1.216523458903942
-3.9005,-1.020922925565639,-1.396666311791788
-3.9,-0.3487019095316325,-1.227120097309109
-3.8995,0.2594980573562781,-1.068170521231597
-3.899,0.5369226036560266,-0.9939940523954253
-3.8985,0.5796033030867573,-1.004590690800593
-3.898,0.5262524287983441,-1.089363798041932
-3.8975,0.4515612047945656,-1.131750351662602
-3.897,0.4942419042252961,-1.174136905283272
-3.8965,0.5475927785137094,-1.142346990067769
-3.896,0.4942419042252961,-1.036380606016095
-3.8955,0.408880505363835,-0.8774310299385835
-3.895,0.3341892813600565,-0.6760949002404023
-3.8945,0.3235191065023739,-0.4111789401112165
-3.894,0.5902734779444399,0.2352160026039969
-3.8935,0.2274875327832301,0.5319218779486851
-3.893,-0.4980843575391895,-0.06148987274069118
-3.8925,-1.138294849000148,-0.6549016234300674
-3.892,-1.597112367880501,-1.078767159636765
-3.8915,-1.330357996438436,-0.8986243067489184
-3.891,-0.7755089038389382,-0.1992461720078678
-3.8905,-0.274010685527854,0.5637117931641874
-3.89,0.07810508477567314,1.146526905448396
-3.8895,0.2488278824985954,1.517409249629256
-3.889,0.3235191065023739,1.70814874092227
-3.8885,0.3341892813600565,1.761131932948107
-3.888,0.3128489316446912,1.729342017732605
-3.8875,0.291508581929326,1.655165548896433
-3.887,0.2808384070716433,1.538602526439591
-3.8865,0.2808384070716433,1.390249588767247
-3.886,0.1101156093487211,1.231300012689736
-3.8855,-0.4980843575391895,1.178316820663898
