Class_2_Relax_eyes_open/Class_2_Relax_Eyes_open_Turki_4.csv

#Digilent WaveForms Oscilloscope Acquisition
#Device Name: EExplorer
#Serial Number: SN:210151A2B84A
#Date Time: 2020-11-18 11:29:20.875
#Sample rate: 2000Hz
#Samples: 16384
#Trigger: Source: Channel 1 Type: Edge Condition: Rising Level: 0 V Hyst.: Auto HoldOff: 0 s
#Channel 1: Range: 1 V/div Offset: 0 V Attenuation: 1 X
#Channel 2: Range: 1 V/div Offset: 0 V Attenuation: 1 X
#Power Supplies: ON
#Fixed Supply: ON
#Voltage: 3.3 V Readback: 3.325 V
#Positive Supply: ON
#Voltage: 3.7 V Readback: 3.714 V
#Current: 500 mA Readback: 20 mA
#Negative Supply: ON
#Voltage: -3.7 V Readback: -3.703 V
#Current: -500 mA Readback: -10 mA
#Reference 1: ON
#Voltage: 0 V
#Reference 2: ON
#Voltage: 0 V

Time (s),Channel 1 (V),Channel 2 (V)
-4.096,0.5796033030867573,0.02328323450064829
-4.0955,0.611613827659776,-0.008506680714825098
-4.095,0.6116138276597177,0.01268659609549049
-4.0945,0.5155822539406614,0.02328323450064829
-4.094,0.419550680221605,0.04447651131096388
-4.0935,0.3768699807908065,0.0868630649317589
-4.093,0.3982103305061524,0.2034260873884947
-4.0925,0.9210488985321262,0.7862411996721734
-4.092,1.347855892839296,1.528005888034636
-4.0915,0.6756348768059011,1.761131932948107
-4.091,-0.1993194615240755,1.00877060618122
-4.0905,-0.4554036581083619,-0.1568596183878438
-4.09,-0.3487019095316325,-0.8668343915334161
-4.0895,-0.1459685872356623,-0.8350444763179138
-4.089,0.02475421048710466,-0.358195748085813
-4.0885,0.142126133921769,0.1822328105781598
-4.088,0.2061471830678648,0.627291623595192
-4.0875,0.2274875327832107,0.9451907757499258
-4.087,0.2274875327832204,1.135930267043334
-4.0865,0.2168173579255475,1.25249328950007
-4.086,0.1954770082102016,1.316073119931017
-4.0855,0.1848068333524996,1.358459673551754
-4.085,0.1848068333524996,1.369056311956912
-4.0845,0.0247542104874055,1.273686566310492
-4.084,-0.583445756401097,0.7120647308357122
-4.0835,-1.074273799854052,-0.1886495336027004
-4.083,-1.479740444445993,-0.9304142219644207
-4.0825,-1.671803591884018,-1.099960436446704
-4.082,-1.383708870726849,-0.6654982618352349
-4.0815,-0.6688071552621118,-0.1780528951975329
-4.081,-0.02859666380173553,0.1186529801468854
-4.0805,0.3555296310754218,0.2352160026039969
-4.08,0.5155822539406614,0.2352160026039969
-4.0795,0.5369226036560072,0.1504428953627346
-4.079,0.5369226036560363,0.1080563417421034
-4.0785,0.5475927785137094,0.2352160026039969
-4.078,0.4942419042253446,0.1928294489833658
-4.0775,0.4088805053637671,0.05507314971603493
-4.077,0.3341892813600565,-0.07208651114585861
-4.0765,0.2915085819293648,-0.103876426361332
-4.076,0.4835717293677785,0.3093924714407183
-4.0755,0.6649647019482183,0.9134008605347127
-4.075,0.05676473506030786,0.5001319627331828
-4.0745,-0.7434983792662202,-0.4641621321377957
-4.074,-1.1062843244271,-1.280103289334946
-4.0735,-0.8608703027003992,-1.555615887869299
-4.073,-0.4660738329665006,-1.205926820499092
-4.0725,-0.1139580626626144,-0.5065486857577234
-4.072,0.09944543449103843,0.1504428953626575
-4.0715,0.2168173579254407,0.6272916235947583
-4.071,0.2488278824985954,0.9134008605348379
-4.0705,0.2488278824985954,1.051157159801889
-4.07,0.2274875327832495,1.104140351827678
-4.0695,0.2168173579255281,1.114736990232885
-4.069,0.1954770082101822,1.104140351827727
-4.0685,0.1954770082101822,1.082947075017392
-4.068,0.1101156093482164,0.9875773293703642
-4.0675,-0.4447334832507763,0.4153588554918433
-4.067,-1.010252750707956,-0.4853554089473885
-4.0665,-1.37303869586938,-1.237716735714334
-4.066,-1.607782542738184,-1.301296566145281
-4.0655,-1.341028171296118,-0.8244478379127463
-4.065,-0.6367966306897043,-0.32640583287033
-4.0645,-0.007256314085787988,0.02328323450064829
-4.064,0.3448594562177392,0.1610395337678249
-4.0635,0.5049120790828333,0.1398462569575093
-4.063,0.5369226036560363,0.1080563417419396
-4.0625,0.5475927785137094,0.05507314971615059
-4.062,0.6436243522327657,-0.04029659593026957
-4.0615,0.6222840025173714,0.002089957690390522
-4.061,0.4942419042252961,0.08686306493165288
-4.0605,0.3875401556484697,0.1716361721729923
-4.06,0.3021787567871542,0.2458126410093957
-4.0595,0.4622313796522482,0.5001319627331828
-4.059,0.9637295979633325,1.146526905448396
-4.0585,0.6222840025177984,1.114736990232923
-4.058,-0.07127736323188383,0.1504428953626575
-4.0575,-0.4767440078238243,-0.9092209451540858
-4.057,-0.4340633083931325,-1.640388995109973
-4.0565,-0.2313299860971235,-1.820531847998485
-4.056,-0.02859666380115328,-1.34368311976595
-4.0555,0.1101156093485949,-0.5595318777842737
-4.055,0.1954770082102113,0.1292496185527563
-4.0545,0.2274875327832301,0.6060983467848571
-4.054,0.2274875327832301,0.8604176685086442
-4.0535,0.2061471830678357,0.9663840525605595
-4.053,0.1741366584948169,0.9769806909657173
-4.0525,0.1634664836371343,0.9451907757502149
-4.052,0.163466483637144,0.9028042221294874
-4.0515,0.1741366584948169,0.8392243916985406
-4.051,-0.1032878878049318,0.4259554938970107
-4.0505,-0.6367966306885786,-0.464162132136244
-4.05,-1.010252750707956,-1.322489842955616
-4.0495,-1.084943974711735,-1.778145294377815
-4.049,-0.5621054066857608,-1.470842780628239
-4.0485,0.1421261339222057,-0.8562377531277282
-4.048,0.6222840025174878,-0.2840192792492073
-4.0475,0.782336625382582,0.02328323450036879
-4.047,0.7289857510942075,0.1080563417419781
-4.0465,0.6116138276598051,0.09745970333682032
-4.046,0.5155822539407487,0.01268659609555796
-4.0455,0.5155822539406419,-0.05089323433551411
-4.045,0.4942419042252961,-0.04029659593035631
-4.0445,0.4302208550792003,0.01268659609548085
-4.044,0.3555296310753733,0.09745970333701306
-4.0435,0.3021787567870086,0.309392471440169
-4.043,0.3021787567870086,0.4259554938970107
-4.0425,0.6542945270902156,0.9028042221291115
-4.042,0.5369226036560266,1.199510097474233
-4.0415,-0.3700422592469978,0.4259554938970107
-4.041,-1.074273799853412,-0.6125150698084532
-4.0405,-1.010252750707617,-1.25891001252465
-4.04,-0.6367966306890638,-1.301296566145281
-4.0395,-0.2526703358128381,-0.8032545611028644
-4.039,0.0247542104873958,-0.1250697031711754
-4.0385,0.1741366584948169,0.4471487707073456
-4.038,0.2381577076408545,0.839224391698184
-4.0375,0.2488278824985857,1.061753798207144
-4.037,0.2381577076409128,1.157123543853563
-4.0365,0.2168173579255475,1.178316820663898
-4.036,0.1954770082101822,1.178316820663869
-4.0355,0.1954770082101822,1.146526905448396
-4.035,0.1848068333524996,1.104140351827727
-4.0345,-0.09261771294699681,1.04056052139678
-4.034,-0.7968492535543035,0.8604176685088755
-4.0335,-1.277007122150022,0.01268659609548085
-4.033,-1.618452717595556,-0.8668343915326162
-4.0325,-1.725154466172295,-1.110557074851978
-4.032,-1.287677297007705,-0.792657922697244
-4.0315,-0.4980843575399077,-0.3687923864909323
-4.031,0.1314559590643775,-0.09327978795606819
-4.0305,0.4515612047945656,0.04447651131098315
-4.03,0.5689331282289678,0.07626642652645654
-4.0295,0.5902734779444689,0.04447651131088678
-4.029,0.6222840025174878,-0.06148987274069118
-4.0285,0.6436243522328531,-0.1038764263613609
-4.028,0.5689331282290552,-0.06148987274061408
-4.0275,0.5475927785137094,0.02328323450064829
-4.027,0.5155822539406614,0.1186529801471552
-4.0265,0.4515612047946238,0.2140227257935753
-4.026,0.7396559259519968,0.6166949851900245
-4.0255,0.8997085488172365,1.114736990232894
-4.025,0.2808384070722062,0.5743084315698463
-4.0245,-0.5514352318282433,-0.4111789401119779
-4.024,-1.255666772434657,-1.248313374119443
-4.0235,-1.180975548430947,-1.598002441489651
-4.023,-0.7541685541231751,-1.301296566144625
-4.0225,-0.3166913849585846,-0.5807251545938954
-4.022,0.003413860771603494,0.1292496185516769
-4.0215,0.1741366584948848,0.6484849004058063
-4.021,0.2488278824985954,0.9557874141553824
-4.0205,0.2594980573562781,1.104140351827727
-4.02,0.248827882498576,1.146526905448377
-4.0195,0.2274875327832301,1.125333628638062
-4.019,0.2061471830678648,1.082947075017392
-4.0185,0.1954770082101919,1.040560521396761
-4.018,0.1634664836371343,0.9663840525605498
-4.0175,-0.2633405106701714,0.7332580076468663
-4.017,-0.7541685541231266,-0.082683149550284
-4.0165,-1.138294849000294,-1.015187329206223
-4.016,-1.298347471865388,-1.523825972653797
-4.0155,-0.6154562809743196,-1.184733543688748
-4.015,0.163466483637571,-0.6654982618348783
-4.0145,0.6436243522328531,-0.2734226408440398
-4.014,0.7930068002402741,-0.04029659593056834
-4.0135,0.7289857510942075,0.06566978812133729
-4.013,0.6116138276598051,0.08686306493165288
-4.0125,0.5262524287983441,0.03387987290581572
-4.012,0.5369226036559684,0.04447651131104098
-4.0115,0.4729015545099309,0.1080563417419877
-4.011,0.3875401556484697,0.09745970333682032
-4.0105,0.3128489316447592,0.09745970333682032
-4.01,0.2701682322139607,0.1292496185523226
-4.0095,0.2808384070716433,0.3941655786815084
-4.009,0.504912079082775,1.082947075016765
-4.0085,0.09944543449046586,1.273686566309586
-4.008,-0.5300948821122373,0.3729723018711736
-4.0075,-0.6901475049773315,-0.7078848154549217
-4.007,-0.4874141826812546,-1.428456227007358
-4.0065,-0.2099896363817582,-1.502632695843462
-4.006,0.01408403562957729,-0.9728007755850904
-4.0055,0.1527963087795099,-0.2204394488176244
-4.005,0.2168173579255475,0.4153588554918433
-4.0045,0.2381577076409128,0.849821030103708
-4.004,0.2274875327832204,1.082947075017488
-4.0035,0.2168173579255475,1.188913459069066
-4.003,0.1954770082101822,1.210106735879401
-4.0025,0.1848068333525093,1.188913459069085
-4.002,0.1741366584948169,1.146526905448396
-4.0015,0.1527963087794516,1.082947075017392
-4.001,-0.3060212101004847,0.9134008605348669
-4.0005,-0.9462317015622292,0.4047622170858374
-4,-1.351698346153801,-0.5171453241628908
-3.9995,-1.415719395299897,-1.004590690800593
-3.999,-0.839529952985034,-0.8562377531282487
-3.9985,-0.1352984123779797,-0.5171453241628908
-3.998,0.3875401556484697,-0.2628260024388724
-3.9975,0.6009436528021226,-0.1144730647665284
-3.997,0.6222840025174878,-0.1356663415768632
-3.9965,0.5796033030867573,-0.1992461720078678
-3.996,0.5262524287983441,-0.1780528951975329
-3.9955,0.6116138276598051,-0.2310360872233701
-3.995,0.6009436528021226,-0.1780528951975329
-3.9945,0.5262524287983441,-0.04029659593035631
-3.994,0.4302208550792003,0.09745970333682032
-3.9935,0.3341892813600565,0.2034260873884947
-3.993,0.3448594562177392,0.383568940276341
-3.9925,0.7716664505250448,0.9769806909657173
-3.992,0.6863050516635838,1.284283204715573
-3.9915,0.01408403562957729,0.4895353243280153
-3.991,-0.8181896032696687,-0.6019184314042303
-3.9905,-0.9782422261349084,-1.354279758171118
-3.99,-0.7008176798351597,-1.439052865412457
-3.9895,-0.3273615598162672,-0.9516074987747555
-3.989,-0.03926683865883591,-0.2628260024388724
-3.9885,0.1314559590640864,0.3199891098453364
-3.988,0.2168173579255475,0.7120647308365314
-3.9875,0.2381577076409128,0.9345941373450475
-3.987,0.2381577076409128,1.029963882991555
-3.9865,0.2168173579255475,1.040560521396722
-3.986,0.2061471830678648,1.029963882991555
-3.9855,0.1954770082101822,0.9981739677760521
-3.985,0.1848068333524996,0.9028042221295453
-3.9845,-0.04993701351651855,0.5955017083796896
-3.984,-0.6688071552621118,-0.2098428104130352
-3.9835,-1.084943974711735,-1.089363798041932
-3.983,-1.522421143876723,-1.767548655972648
-3.9825,-1.46907026958831,-1.725162102351978
-3.982,-0.658136980404429,-1.110557074852267
-3.9815,0.1207857842064037,-0.5489352393783931
-3.981,0.5689331282290746,-0.1674562567923655
-3.9805,0.707645401378949,0.07626642652648545
-3.98,0.6863050516635838,0.1080563417419877
-3.9795,0.6009436528021226,0.02328323450064829
-3.979,0.5902734779444399,-0.1038764263613609
-3.9785,0.6009436528021226,-0.1780528951975329
-3.978,0.5155822539406614,-0.1356663415768632
-3.9775,0.4302208550792003,-0.02969995752518888
-3.977,0.3555296310754218,0.1186529801471552
-3.9765,0.3128489316446912,0.2564092794143318
-3.976,0.3128489316446912,0.7120647308365314
-3.9755,0.07810508477567314,1.146526905448396
-3.975,-0.5087545323968721,0.5001319627331828
-3.9745,-1.191645723288561,-0.5383386009732256
-3.974,-1.373038695869166,-1.354279758171118
-3.9735,-0.9889124009925911,-1.598002441489969
-3.973,-0.5087545323968721,-1.205926820498774
-3.9725,-0.1139580626626144,-0.4853554089473885
-3.972,0.1207857842064037,0.1928294489833272
-3.9715,0.2274875327832301,0.6802748156210291
-3.971,0.2594980573562781,0.9557874141553824
-3.9705,0.2594980573562781,1.082947075017392
-3.97,0.2274875327832301,1.125333628638062
-3.9695,0.2061471830678648,1.125333628638062
-3.969,0.1954770082101822,1.082947075017392
-3.9685,0.1848068333524996,1.029963882991555
-3.968,0.1101156093487211,0.9875773293708847
-3.9675,0.01408403562957729,1.093543713422559
-3.967,-0.3060212101009019,0.627291623595192
-3.9665,-0.754168554123573,-0.3052125560595421
-3.966,-0.807519428411986,-0.6231117082145651
-3.9655,-0.3593720843893152,-0.5065486857577234
-3.965,0.1527963087794516,-0.2840192792492073
-3.9645,0.4942419042252961,-0.1144730647665284
-3.964,0.6329541773751706,-0.06148987274069118
-3.9635,0.6329541773751706,-0.07208651114585861
-3.963,0.5582629533713921,-0.02969995752518888
-3.9625,0.5049120790829789,-0.008506680714854012
-3.962,0.5155822539406614,-0.02969995752518888
-3.9615,0.4622313796522482,-0.01910331912002144
-3.961,0.3875401556484697,0.03387987290581572
-3.9605,0.3235191065023739,0.1186529801471552
-3.96,0.2808384070716433,0.2140227257936621
-3.9595,0.4622313796522482,0.5637117931641874
-3.959,0.6436243522328531,1.210106735879401
-3.9585,0.03542438534494258,1.051157159801889
-3.958,-0.8822106524157645,0.03387987290581572
-3.9575,-1.383708870726849,-0.9833974139902578
-3.957,-1.127624674142465,-1.619195718300304
-3.9565,-0.6474668055467465,-1.672178910326141
-3.956,-0.2206598112394408,-1.0999604364471
-3.9555,0.05676473506030786,-0.2840192792492073
-3.955,0.1954770082101822,0.4259554938970107
-3.9545,0.2488278824985954,0.9028042221295453
-3.954,0.2594980573562781,1.157123543853563
-3.9535,0.2381577076409128,1.25249328950007
-3.953,0.2061471830678648,1.263089927905238
-3.9525,0.1848068333524996,1.210106735879401
-3.952,0.1848068333524996,1.146526905448396
-3.9515,0.142126133921769,1.061753798207057
-3.951,-0.3700422592469978,0.9769806909657173
-3.9505,-1.031593100423322,0.5743084315693548
-3.95,-1.437059745015262,-0.3899856633008816
-3.9495,-1.778505340461106,-1.195330182093607
-3.949,-1.778505340461106,-1.174136905283272
-3.9485,-1.287677297007705,-0.7078848154559045
-3.948,-0.5087545323968721,-0.2946159176543747
-3.9475,0.08877525963335578,-0.04029659593035631
-3.947,0.3982103305061524,0.04447651131098315
-3.9465,0.5049120790829789,-0.008506680714854012
-3.946,0.5262524287983441,-0.07208651114585861
-3.9455,0.6649647019482183,-0.1038764263613609
-3.945,0.6756348768059011,-0.09327978795619347
-3.9445,0.5796033030867573,-0.07208651114585861
-3.944,0.4622313796522482,-0.02969995752518888
-3.9435,0.3555296310754218,0.04447651131098315
-3.943,0.4195506802215176,0.2458126410091644
-3.9425,0.9637295979633325,0.8816109453192104
-3.942,0.857027849386506,1.157123543853563
-3.9415,0.2381577076409128,0.3517790250608387
-3.941,-0.2526703358124887,-0.7078848154559045
-3.9405,-0.3166913849585846,-1.460246142222792
-3.94,-0.1886492866663929,-1.650985633515806
-3.9395,-0.02859666380115328,-1.216523458903942
-3.939,0.09944543449103843,-0.4429688553267188
-3.9385,0.1741366584948169,0.2776025562246667
-3.938,0.2061471830678648,0.775644561267536
-3.9375,0.2168173579255475,1.061753798207057
-3.937,0.2168173579255475,1.188913459069066
-3.9365,0.2061471830678648,1.210106735879401
-3.936,0.1954770082101822,1.178316820663898
-3.9355,0.1954770082101822,1.125333628638062
-3.935,0.1954770082101822,1.040560521396722
-3.9345,-0.06060718837420119,0.8286277532933731
-3.934,-0.690147504977477,0.04447651131098315
-3.9335,-1.148965023857831,-0.9198175835592532
-3.933,-1.51175096901904,-1.640388995110639
-3.9325,-1.223656247861609,-1.693372187136476
-3.932,-0.4020527838200457,-1.184733543688439
-3.9315,0.3021787567870086,-0.6654982618352349
-3.931,0.6649647019482183,-0.2840192792492073
-3.9305,0.7396559259519968,-0.01910331912002144
-3.93,0.6542945270905358,0.08686306493165288
-3.9295,0.5475927785137094,0.04447651131098315
-3.929,0.5155822539406614,-0.01910331912002144
-3.9285,0.5262524287983441,-0.008506680714854012
-3.928,0.4622313796522482,-0.01910331912002144
-3.9275,0.3982103305061524,-0.01910331912002144
-3.927,0.3448594562177392,0.002089957690313421
-3.9265,0.3235191065023739,0.1080563417419877
-3.926,0.4729015545099309,0.6378882620003594
-3.9255,0.3768699807907871,1.188913459069066
-3.925,-0.2526703358124887,0.7650479228623686
-3.9245,-0.6047861061160158,-0.2734226408440398
-3.924,-0.5300948821122373,-1.121153713257435
-3.9235,-0.2846808603855366,-1.42845622700729
-3.923,-0.06060718837420119,-1.110557074852267
-3.9225,0.09944543449103843,-0.4323722169215513
-3.922,0.1848068333524996,0.2246193641988295
-3.9215,0.2168173579255475,0.701468092431364
-3.921,0.2274875327832301,0.9875773293708847
-3.9205,0.2168173579255475,1.125333628638062
-3.92,0.2061471830678648,1.178316820663898
-3.9195,0.1954770082101822,1.178316820663898
-3.919,0.1848068333524996,1.146526905448396
-3.9185,0.1848068333524996,1.114736990232894
-3.918,0.0674349099179905,1.040560521396722
-3.9175,-0.156638762093345,0.9663840525605498
-3.917,-0.5300948821122373,0.2987958330350016
-3.9165,-1.042263275281004,-0.6866915386455698
-3.916,-1.554431668449771,-1.258910012524611
-3.9155,-1.639793067311232,-1.036380606016095
-3.915,-1.116954499284783,-0.5595318777835605
-3.9145,-0.3807124341046804,-0.1568596183871981
-3.914,0.1634664836371343,0.07626642652648545
-3.9135,0.4622313796522482,0.13984625695749
-3.913,0.5689331282290746,0.1292496185523226
-3.9125,0.6009436528021226,0.08686306493165288
-3.912,0.7183155762366316,-0.01910331912002144
-3.9115,0.707645401378949,-0.01910331912002144
-3.911,0.6009436528021226,-0.008506680714854012
-3.9105,0.4729015545099309,0.03387987290581572
-3.91,0.3555296310754218,0.07626642652648545
-3.9095,0.09944543449103843,0.4365521323021782
-3.909,0.1314559590640864,1.146526905448396
-3.9085,-0.1993194615240755,1.305476481525908
-3.908,-0.722158029550525,0.4683420475176805
-3.9075,-1.180975548430879,-0.5489352393783931
-3.907,-1.031593100423322,-1.068170521231597
-3.9065,-0.6154562809736985,-0.8562377531282487
-3.906,-0.2206598112394408,-0.2840192792492073
-3.9055,0.04609456020262521,0.2776025562246667
-3.905,0.1848068333524996,0.6908714540261965
-3.9045,0.2488278824985954,0.9663840525605498
-3.904,0.2488278824985954,1.114736990232894
-3.9035,0.2381577076409128,1.188913459069066
-3.903,0.2168173579255475,1.210106735879401
-3.9025,0.1954770082101822,1.199510097474233
-3.902,0.1741366584948169,1.167720182258731
-3.9015,0.1207857842064037,1.125333628638062
-3.901,-0.3487019095316325,0.7862411996727035
-3.9005,-0.7861790786966207,-0.05089323433552374
-3.9,-1.180975548430879,-0.9410108603695881
-3.8995,-1.51175096901904,-1.34368311976595
-3.899,-0.8715404775580819,-1.004590690800593
-3.8985,0.01408403562957729,-0.5489352393783931
-3.898,0.6009436528021226,-0.2204394488182027
-3.8975,0.8143471499557753,-0.05089323433552374
-3.897,0.7716664505250448,-0.008506680714854012
-3.8965,0.6542945270905358,-0.04029659593035631
-3.896,0.5369226036560266,-0.1144730647665284
-3.8955,0.6649647019482183,-0.1992461720078678
-3.895,0.6756348768059011,0.1186529801471552
-3.8945,0.5582629533713921,0.3199891098453364
-3.894,0.4195506802215176,0.383568940276341
-3.8935,0.3341892813600565,0.383568940276341
-3.893,0.2488278824985954,0.5001319627331828
-3.8925,0.2808384070716433,1.082947075017392
-3.892,-0.02859666380115328,1.42203950398275
-3.8915,-0.7114878546928423,0.6484849004055269
-3.891,-1.351698346153801,-0.4535654937318862
-3.8905,-1.351698346153801,-1.205926820498774
-3.89,-0.8928808272734472,-1.195330182093607
-3.8895,-0.4127229586777283,-0.6760949002404023
-3.889,-0.04993701351651855,-0.09327978795619347
-3.8885,0.1527963087794516,0.3623756634660061
-3.888,0.2381577076409128,0.6484849004055269
-3.8875,0.2594980573562781,0.8074344764830383
-3.887,0.2488278824985954,0.8710143069140429
