Class_2_Relax_eyes_open/Class_2_Relax_eyes_open_Basim_6.csv

#Digilent WaveForms Oscilloscope Acquisition
#Device Name: EExplorer
#Serial Number: SN:210151A2B84A
#Date Time: 2020-12-13 12:22:04.102
#Sample rate: 2000Hz
#Samples: 16384
#Trigger: Source: Channel 1 Type: Edge Condition: Rising Level: 0 V Hyst.: Auto HoldOff: 0 s
#Channel 1: Range: 1 V/div Offset: 0 V Attenuation: 1 X
#Channel 2: Range: 1 V/div Offset: 0 V Attenuation: 1 X
#Power Supplies: ON
#Fixed Supply: ON
#Voltage: 3.3 V Readback: 3.327 V
#Positive Supply: ON
#Voltage: 3.7 V Readback: 3.713 V
#Current: 40 mA Readback: 17 mA
#Negative Supply: ON
#Voltage: -3.7 V Readback: -3.35 V
#Current: -40 mA Readback: -7 mA
#Reference 1: ON
#Voltage: 0 V
#Reference 2: ON
#Voltage: 0 V

Time (s),Channel 1 (V),Channel 2 (V)
-4.096,0.1741366584948169,-1.915901593644992
-4.0955,0.003413860772049915,-1.5874058030851
-4.095,0.01408403562961611,-0.8880276683432112
-4.0945,0.05676473506030786,-0.2946159176543747
-4.094,0.0674349099179808,0.1504428953622527
-4.0935,0.0674349099180002,0.362375663466064
-4.093,0.07810508477567314,0.4259554938970107
-4.0925,0.05676473506032727,0.4895353243279575
-4.092,-0.07127736323189353,0.6696781772158231
-4.0915,-0.08194753808956648,0.627291623595192
-4.091,-0.02859666380115328,0.5213252395435176
-4.0905,0.02475421048730846,0.4153588554917951
-4.09,0.07810508477567314,0.3623756634660061
-4.0895,-0.01792648894347063,0.5743084315693548
-4.089,-0.604786106115482,1.146526905447875
-4.0885,-1.244996597576974,0.9345941373450475
-4.088,-1.543761493592088,0.05507314971615059
-4.0875,-1.725154466172528,-0.8032545611016308
-4.087,-1.565101843306939,-1.089363798041537
-4.0865,-0.9995825758502737,-0.6549016234300674
-4.086,-0.4554036581089538,-0.06148987274123086
-4.0855,-0.0606071883740071,0.447148770707654
-4.085,0.1527963087794516,0.7862411996727035
-4.0845,0.2381577076408351,0.966384052560386
-4.084,0.2594980573562684,1.051157159801909
-4.0835,0.2488278824985954,1.072350436612224
-4.083,0.2381577076409128,1.040560521396722
-4.0825,0.2594980573562878,0.9663840525604823
-4.082,0.2701682322139607,0.8922075837243778
-4.0815,0.3875401556484697,0.7120647308365314
-4.081,0.7930068002400412,0.1080563417425371
-4.0805,1.241154144263081,-0.5913217929990628
-4.08,1.230483969405398,-1.248313374119443
-4.0795,1.09177169625565,-1.735758740756702
-4.079,0.9637295979630995,-1.799338571187678
-4.0785,0.707645401378949,-1.280103289334946
-4.078,0.4515612047947985,-0.6760949002409516
-4.0775,0.2701682322138539,-0.1356663415765548
-4.077,0.1527963087794516,0.2034260873884947
-4.0765,0.07810508477574107,0.3623756634658616
-4.076,0.04609456020245054,0.4153588554920746
-4.0755,-0.1459685872356623,0.6696781772158616
-4.075,-0.2313299860971235,0.701468092431364
-4.0745,-0.1459685872355653,0.5531151547588754
-4.074,-0.03926683865883591,0.3941655786815084
-4.0735,0.04609456020262521,0.2987958330350016
-4.073,0.01408403562960641,0.2670059178195281
-4.0725,-0.5087545323968721,-0.1038764263613609
-4.072,-1.223656247861609,-0.7608680074817418
-4.0715,-1.575772018164816,-1.354279758170578
-4.071,-1.511750969018332,-1.831128486403547
-4.0705,-0.7328282044082075,-1.714565463946811
-4.07,-0.156638762093869,-0.8880276683445026
-4.0695,0.163466483637241,-0.08268314955049598
-4.069,0.2808384070716433,0.5001319627331828
-4.0685,0.3021787567870086,0.8392243916985406
-4.068,0.2701682322139316,0.9981739677760906
-4.0675,0.2381577076409128,1.040560521396722
-4.067,0.2168173579255475,1.00877060618122
-4.0665,0.1954770082102016,0.9451907757501379
-4.066,0.2168173579255475,0.8604176685088755
-4.0655,0.2488278824985954,0.7438546460520338
-4.065,0.3021787567869601,0.627291623595298
-4.0645,0.5049120790829789,0.2987958330350016
-4.064,0.9317190733902845,-0.3793890248957141
-4.0635,0.8997085488172656,-1.078767159636129
-4.063,0.4622313796520056,-1.640388995110822
-4.0625,0.1954770082101822,-1.84172512480882
-4.062,0.1207857842064716,-1.428456227007666
-4.0615,0.1101156093487405,-0.8138511995070874
-4.061,0.1314559590640864,-0.2734226408440398
-4.0605,0.1634664836371343,0.09745970333682032
-4.06,0.1527963087794419,0.2776025562247245
-4.0595,0.142126133921769,0.3411823866556712
-4.059,0.00341386077189465,0.55311515475902
-4.0585,-0.1993194615238912,0.807434476482807
-4.058,-0.1886492866663929,0.7226613692416989
-4.0575,-0.09261771294724913,0.5637117931641874
-4.057,0.003413860771807303,0.425955493897136
-4.0565,0.05676473506030786,0.3729723018711736
-4.056,-0.1993194615240755,0.701468092431364
-4.0555,-0.8502001278421247,0.7650479228623107
-4.055,-1.309017646723274,0.05507314971539885
-4.0545,-1.533091318734406,-0.7714646458869092
-4.054,-1.639793067311135,-1.24831337411901
-4.0535,-1.191645723288056,-0.9198175835586654
-4.053,-0.6367966306890638,-0.2734226408440398
-4.0525,-0.1886492866663929,0.309392471440169
-4.052,0.0781050847757993,0.7120647308367435
-4.0515,0.2168173579255475,0.9451907757502149
-4.051,0.2594980573562781,1.051157159801889
-4.0505,0.2488278824986051,1.072350436612205
-4.05,0.2381577076409128,1.061753798207057
-4.0495,0.2274875327832301,0.9981739677760521
-4.049,0.238157707640903,0.9134008605347899
-4.0485,0.3021787567872124,0.7862411996724432
-4.048,0.5262524287983441,0.5001319627331828
-4.0475,1.187803269974066,-0.1992461720072317
-4.047,1.849354111150943,-0.9516074987753241
-4.0465,1.796003236862578,-1.576809164679634
-4.046,1.017080472252454,-2.021867977696261
-4.0455,0.3768699807905251,-1.8629184016185
-4.045,0.08877525963335578,-1.142346990067769
-4.0445,0.00341386077189465,-0.4641621321370536
-4.044,0.02475421048726964,-0.01910331911979978
-4.0435,0.03542438534494258,0.2246193641988295
-4.043,0.05676473506030786,0.3411823866556712
-4.0425,0.01408403562961611,0.4471487707072492
-4.042,-0.3487019095316325,0.849821030103708
-4.0415,-0.4447334832507763,0.9028042221295453
-4.041,-0.3060212101010281,0.712064730836705
-4.0405,-0.1352984123778632,0.5107286011382249
-4.04,-0.007256314085787988,0.3729723018711736
-4.0395,-0.1352984123778632,0.3623756634660158
-4.039,-0.7328282044086928,0.07626642652590719
-4.0385,-1.26633694729234,-0.5595318777835605
-4.038,-1.469070269588126,-1.205926820498186
-4.0375,-1.309017646722459,-1.70396882554146
-4.037,-0.6367966306890638,-1.502632695843462
-4.0365,-0.1459685872356623,-0.718481453861072
-4.036,0.1314559590641931,0.03387987290630724
-4.0355,0.2488278824985954,0.5743084315693548
-4.035,0.2701682322139607,0.8816109453192104
-4.0345,0.2594980573562878,1.029963882991419
-4.034,0.2274875327832301,1.061753798207057
-4.0335,0.2061471830678648,1.040560521396722
-4.033,0.2061471830678648,0.9663840525606173
-4.0325,0.2168173579255669,0.8922075837242911
-4.032,0.2381577076409128,0.7968378380778709
-4.0315,0.3875401556483339,0.5849050699747149
-4.031,0.9210488985330773,-0.07208651114655251
-4.0305,1.443887466559051,-0.8350444763179138
-4.03,1.379866417413014,-1.481439419032539
-4.0295,0.8783681991014346,-1.958288147265507
-4.029,0.3982103305061524,-1.788741932782983
-4.0285,0.1741366584948169,-1.121153713257435
-4.028,0.06743490991795169,-0.4641621321366295
-4.0275,0.02475421048725994,0.002089957690313421
-4.027,0.00341386077189465,0.2776025562246667
-4.0265,0.02475421048724053,0.362375663465929
-4.026,0.05676473506030786,0.3517790250608387
-4.0255,-0.08194753808956648,0.55311515475902
-4.025,-0.1246282375202582,0.5955017083796511
-4.0245,-0.06060718837412356,0.4789386859227323
-4.024,0.02475421048725994,0.3517790250608387
-4.0235,0.07810508477562461,0.288199194629892
-4.023,0.04609456020218852,0.3835689402768133
-4.0225,-0.4340633083930936,0.9028042221295453
-4.022,-1.031593100422778,0.7968378380779673
-4.0215,-1.298347471865077,-0.008506680715596106
-4.021,-0.9569018764195432,-0.8244478379127463
-4.0205,-0.01792648894347063,-1.290699927740113
-4.02,0.4835717293677008,-0.941010860368981
-4.0195,0.5796033030867573,-0.2734226408440398
-4.019,0.4942419042252961,0.3305857482505039
-4.0185,0.3661998059332209,0.7544512844568156
-4.018,0.2701682322139607,1.00877060618122
-4.0175,0.2061471830678648,1.125333628638062
-4.017,0.174136658494846,1.146526905448377
-4.0165,0.1741366584948363,1.114736990232827
-4.016,0.1954770082101822,1.040560521396722
-4.0155,0.238157707640874,0.9345941373451438
-4.015,0.3235191065026844,0.7862411996723276
-4.0145,0.6649647019482183,0.3729723018711736
-4.014,1.209143619689538,-0.3793890248950299
-4.0135,1.081101521397414,-1.078767159637295
-4.013,0.6116138276598051,-1.661582271920973
-4.0125,0.3021787567870086,-1.778145294377815
-4.012,0.1848068333524704,-1.227120097308608
-4.0115,0.1527963087794516,-0.6760949002404023
-4.011,0.1314559590640864,-0.3158091944647096
-4.0105,0.0887752596333946,-0.01910331912029128
-4.01,0.08877525963335578,0.1504428953626575
-4.0095,0.09944543449103843,0.1928294489833272
-4.009,-0.01792648894336388,0.3729723018710097
-4.0085,-0.3593720843893734,0.8392243916985888
-4.008,-0.423393133535411,0.8922075837243778
-4.0075,-0.2846808603856628,0.7332580076470109
-4.007,-0.1246282375201903,0.5637117931641104
-4.0065,-0.007256314085787988,0.4789386859228479
-4.006,-0.274010685527854,0.3623756634660061
-4.0055,-0.8288597781277008,-0.1886495336033268
-4.005,-1.212986073003927,-0.8774310299385835
-4.0045,-1.394379045584531,-1.364876396576285
-4.004,-1.55443166844947,-1.566212526273966
-4.0035,-1.223656247861609,-1.01518732920576
-4.003,-0.7008176798351597,-0.2310360872233701
-4.0025,-0.2526703358128963,0.4153588554912554
-4.002,0.03542438534494258,0.8392243916985406
-4.0015,0.1848068333524996,1.051157159801889
-4.001,0.2381577076408642,1.125333628637994
-4.0005,0.238157707640903,1.104140351827669
-4,0.2274875327832301,1.040560521396722
-3.9995,0.2168173579255475,0.9451907757502149
-3.999,0.2061471830678648,0.849821030103708
-3.9985,0.2168173579255475,0.7650479228623686
-3.998,0.2701682322139607,0.6060983467848571
-3.9975,0.8036769750980928,0.01268659609548085
-3.997,1.102441871113207,-0.7608680074817418
-3.9965,0.707645401378949,-1.407262950196955
-3.996,-0.06060718837420119,-1.862918401619155
-3.9955,-0.4554036581084589,-1.746355379162313
-3.995,-0.4127229586777283,-1.068170521231597
-3.9945,-0.2526703358124887,-0.4323722169215513
-3.994,-0.09261771294724913,0.02328323450064829
-3.9935,0.02475421048725994,0.2670059178194992
-3.993,0.09944543449103843,0.3517790250608387
-3.9925,0.08877525963335578,0.4047622170866759
-3.992,-0.09261771294724913,0.5849050699745222
-3.9915,-0.124628237520297,0.55311515475902
-3.991,-0.06060718837420119,0.4153588554918433
-3.9905,0.02475421048725994,0.2987958330350016
-3.99,0.08877525963335578,0.2246193641988295
-3.9895,-0.02859666380115328,0.2458126410091644
-3.989,-0.6261264558313813,0.3623756634660061
-3.9885,-1.277007122150022,-0.1038764263613609
-3.988,-1.703814116457328,-0.8032545611024114
-3.9875,-1.83185621474952,-1.248313374119443
-3.987,-1.30901764672307,-0.9198175835592532
-3.9865,-0.7008176798351597,-0.3052125560595421
-3.986,-0.2206598112394408,0.2670059178194992
-3.9855,0.07810508477567314,0.6484849004055269
-3.985,0.2168173579255475,0.8710143069140429
-3.9845,0.2594980573562781,0.9769806909657173
-3.984,0.2488278824985954,1.00877060618122
-3.9835,0.2274875327832301,0.9875773293708847
-3.983,0.2168173579255475,0.9345941373450475
-3.9825,0.2381577076409128,0.8604176685088755
-3.982,0.2808384070716433,0.7332580076468663
-3.9815,0.3661998059331045,0.5743084315693548
-3.981,0.5796033030867573,0.2140227257936621
-3.9805,1.017080472251745,-0.5065486857577234
-3.98,0.8997085488172365,-1.184733543688439
-3.9795,0.2808384070716433,-1.735758740757146
-3.979,-0.3807124341046804,-1.958288147265661
-3.9785,-0.4874141826815069,-1.449649503817625
-3.978,-0.3380317346739499,-0.6760949002404023
-3.9775,-0.1459685872356623,-0.1356663415768632
-3.977,0.01408403562957729,0.2140227257936621
-3.9765,0.09944543449103843,0.3623756634660061
-3.976,0.1314559590640864,0.3729723018711736
-3.9755,-0.02859666380115328,0.4683420475176805
-3.975,-0.1139580626626144,0.4365521323021782
-3.9745,-0.07127736323188383,0.3199891098453364
-3.974,0.01408403562957729,0.2246193641988295
-3.9735,0.07810508477567314,0.1928294489833272
-3.973,0.05676473506030786,0.2987958330350016
-3.9725,-0.391382608962363,0.7862411996727035
-3.972,-1.074273799854052,0.627291623595192
-3.9715,-1.607782542738184,-0.1674562567923655
-3.971,-1.682473766741963,-0.9198175835592532
-3.9705,-1.383708870726849,-1.34368311976595
-3.97,-0.8715404775580819,-0.9728007755850904
-3.9695,-0.3807124341046804,-0.2840192792492073
-3.969,-0.03926683865883591,0.3305857482505039
-3.9685,0.1634664836371343,0.7544512844572011
-3.968,0.2381577076409128,0.9875773293708847
-3.9675,0.2488278824985954,1.093543713422559
-3.967,0.2381577076409128,1.114736990232894
-3.9665,0.2274875327832301,1.082947075017392
-3.966,0.2274875327832301,0.9981739677760521
-3.9655,0.2488278824985954,0.9028042221295453
-3.965,0.3341892813600565,0.7332580076468663
-3.9645,0.6009436528021226,0.3729723018711736
-3.964,1.209143619690033,-0.3581957480853793
-3.9635,1.35852606769759,-1.089363798041932
-3.963,0.9637295979633325,-1.682775548731308
-3.9625,0.3875401556484697,-2.011271339291499
-3.962,0.1314559590640864,-1.650985633515806
-3.9615,0.05676473506030786,-0.8880276683437509
-3.961,0.08877525963335578,-0.252229364033705
-3.9605,0.1527963087794516,0.1292496185523226
-3.96,0.1741366584948169,0.2564092794143318
-3.9595,0.1634664836371343,0.2564092794143318
-3.959,0.01408403562957729,0.4047622170866759
-3.9585,-0.2313299860971235,0.6166949851900245
-3.958,-0.2206598112394408,0.5425185163538525
-3.9575,-0.1139580626626144,0.4047622170866759
-3.957,-0.01792648894347063,0.2987958330350016
-3.9565,0.03542438534494258,0.2987958330350016
-3.956,-0.274010685527854,0.6696781772158616
-3.9555,-0.9142211769888124,1.082947075017392
-3.955,-1.202315898146244,0.5213252395435176
-3.9545,-1.244996597576974,-0.3899856633008816
-3.954,-1.30901764672307,-1.036380606016095
-3.9535,-0.9782422261349084,-0.8774310299385835
-3.953,-0.5194247072545548,-0.2946159176543747
-3.9525,-0.1459685872356623,0.2776025562246667
-3.952,0.08877525963335578,0.7120647308365314
-3.9515,0.2061471830678648,0.9663840525605498
-3.951,0.2488278824985954,1.114736990232894
-3.9505,0.2381577076409128,1.157123543853563
-3.95,0.2274875327832301,1.157123543853563
-3.9495,0.2274875327832301,1.114736990232894
-3.949,0.2381577076409128,1.040560521396722
-3.9485,0.2701682322139607,0.9451907757502149
-3.948,0.4195506802215176,0.7120647308365314
-3.9475,0.9850699476786977,0.09745970333682032
-3.947,1.529248865420512,-0.6760949002404023
-3.9465,1.241154144263081,-1.333086481360783
-3.946,0.5582629533713921,-1.778145294377815
-3.9455,0.2274875327832301,-1.608599079895136
-3.945,0.09944543449103843,-1.131750351662602
-3.9445,0.04609456020262521,-0.570128516188728
-3.944,0.04609456020262521,-0.1250697031716958
-3.9435,0.04609456020262521,0.1610395337678249
-3.943,0.05676473506030786,0.2670059178194992
-3.9425,0.0674349099179905,0.2776025562246667
-3.942,-0.02859666380115328,0.4153588554918433
-3.9415,-0.02859666380115328,0.3941655786815084
-3.941,0.02475421048725994,0.2776025562246667
-3.9405,0.0674349099179905,0.1822328105781598
-3.94,0.09944543449103843,0.13984625695749
-3.9395,-0.01792648894347063,0.3517790250608387
-3.939,-0.6261264558313813,0.8074344764830383
-3.9385,-1.341028171296118,0.3941655786815084
-3.938,-1.949228138184029,-0.4217755785163839
-3.9375,-2.344024607918286,-1.110557074852267
-3.937,-1.853196564464885,-1.152943628472937
-3.9365,-1.06360362499637,-0.5807251545938954
-3.936,-0.4340633083930936,0.07626642652648545
-3.9355,-0.01792648894347063,0.5955017083796896
-3.935,0.1954770082101822,0.92399749893988
-3.9345,0.2701682322139607,1.093543713422559
-3.934,0.2808384070716433,1.157123543853563
-3.9335,0.2594980573562781,1.157123543853563
-3.933,0.2488278824985954,1.093543713422559
-3.9325,0.2594980573562781,0.9981739677760521
-3.932,0.3021787567870086,0.8604176685088755
-3.9315,0.4195506802215176,0.6378882620003594
-3.931,0.7609962756673623,0.09745970333682032
-3.9305,1.369196242555273,-0.6760949002404023
-3.93,1.465227816274416,-1.354279758171118
-3.9295,0.9530594231056497,-1.894708316834657
-3.929,0.5049120790829789,-2.032464616101834
-3.9285,0.3235191065023739,-1.449649503817625
-3.928,0.2274875327832301,-0.7290780922662394
-3.9275,0.1527963087794516,-0.2098428104130352
-3.927,0.1207857842064037,0.08686306493165288
-3.9265,0.09944543449103843,0.2352160026039969
-3.926,0.09944543449103843,0.2776025562246667
-3.9255,-0.08194753808956648,0.4471487707073456
-3.925,-0.1993194615240755,0.5425185163538525
-3.9245,-0.1459685872356623,0.4471487707073456
-3.924,-0.03926683865883591,0.309392471440169
-3.9235,0.04609456020262521,0.2246193641988295
-3.923,0.01408403562957729,0.2034260873884947
-3.9225,-0.5087545323968721,0.03387987290581572
-3.922,-1.244996597576974,-0.1462629799820306
-3.9215,-1.607782542738184,-0.6972881770507372
-3.921,-1.778505340461106,-1.248313374119443
-3.9205,-1.639793067311232,-1.364876396576285
-3.92,-1.06360362499637,-0.7820612842920766
-3.9195,-0.4980843575391895,-0.1038764263613609
-3.919,-0.09261771294724913,0.4471487707073456
-3.9185,0.142126133921769,0.7862411996727035
-3.918,0.2488278824985954,0.9663840525605498
-3.9175,0.2701682322139607,1.029963882991555
-3.917,0.2488278824985954,1.029963882991555
-3.9165,0.2381577076409128,0.9875773293708847
-3.916,0.2381577076409128,0.9028042221295453
-3.9155,0.2594980573562781,0.7968378380778709
-3.915,0.3875401556484697,0.5743084315693548
-3.9145,0.6222840025174878,0.2140227257936621
-3.914,1.177133095116985,-0.4853554089473885
-3.9135,1.219813794547716,-1.174136905283272
-3.913,0.857027849386506,-1.735758740757146
-3.9125,0.5049120790829789,-2.074851169722503
-3.912,0.3875401556484697,-1.788741932782983
-3.9115,0.3235191065023739,-1.05757388282643
-3.911,0.2594980573562781,-0.4323722169215513
-3.9105,0.2061471830678648,0.01268659609548085
-3.91,0.1634664836371343,0.2564092794143318
-3.9095,0.1314559590640864,0.3517790250608387
-3.909,-0.007256314085787988,0.2881991946298341
-3.9085,-0.2846808603855366,0.09745970333682032
-3.908,-0.274010685527854,0.08686306493165288
-3.9075,-0.1459685872356623,0.1504428953626575
-3.907,-0.01792648894347063,0.2246193641988295
-3.9065,0.05676473506030786,0.3199891098453364
-3.906,-0.156638762093345,0.6802748156210291
-3.9055,-0.722158029550525,0.8710143069140429
-3.905,-1.319687821580753,0.2140227257936621
-3.9045,-1.767835165603424,-0.6549016234300674
-3.904,-1.383708870726849,-1.248313374119443
-3.9035,-0.7114878546928423,-1.046977244421262
-3.903,-0.1993194615240755,-0.4535654937318862
-3.9025,0.09944543449103843,0.1186529801471552
-3.902,0.2381577076409128,0.5107286011383502
-3.9015,0.2701682322139607,0.7438546460520338
-3.901,0.2594980573562781,0.849821030103708
-3.9005,0.2381577076409128,0.8710143069140429
-3.9,0.2168173579255475,0.849821030103708
-3.8995,0.2274875327832301,0.7862411996727035
-3.899,0.2381577076409128,0.7226613692416989
-3.8985,0.3021787567870086,0.6166949851900245
-3.898,0.4942419042252961,0.3623756634660061
-3.8975,1.15579274540162,-0.2628260024388724
-3.897,1.956055859727818,-0.9833974139902578
-3.8965,2.500234777469633,-1.587405803084801
-3.896,2.340182154604393,-2.032464616101834
-3.8955,1.635950613997339,-1.915901593644992
-3.895,0.9530594231056497,-1.184733543688439
-3.8945,0.4729015545099309,-0.4853554089473885
-3.894,0.1848068333524996,0.03387987290581572
-3.8935,0.0674349099179905,0.3199891098453364
-3.893,0.03542438534494258,0.4471487707073456
-3.8925,0.02475421048725994,0.5213252395435176
-3.892,-0.1032878878049318,0.7226613692416989
-3.8915,-0.1139580626626144,0.701468092431364
-3.891,-0.04993701351651855,0.55311515475902
-3.8905,0.03542438534494258,0.4153588554918433
-3.89,0.08877525963335578,0.3305857482505039
-3.8895,0.02475421048725994,0.4365521323021782
-3.889,-0.4447334832507763,0.8286277532933731
-3.8885,-1.042263275281004,0.4153588554918433
-3.888,-1.490410619303675,-0.4111789401112165
-3.8875,-1.821186039891837,-1.152943628472937
-3.887,-1.618452717595867,-1.258910012524611
-3.8865,-1.020922925565639,-0.7078848154559045
