Class_2_Relax_eyes_open/Class_2_Relax_eyes_open_Basim_5.csv

#Digilent WaveForms Oscilloscope Acquisition
#Device Name: EExplorer
#Serial Number: SN:210151A2B84A
#Date Time: 2020-11-26 10:35:02.917
#Sample rate: 2000Hz
#Samples: 16384
#Trigger: Source: Channel 1 Type: Edge Condition: Rising Level: 0 V Hyst.: Auto HoldOff: 0 s
#Channel 1: Range: 1 V/div Offset: 0 V Attenuation: 1 X
#Channel 2: Range: 1 V/div Offset: 0 V Attenuation: 1 X
#Power Supplies: ON
#Fixed Supply: ON
#Voltage: 3.3 V Readback: 3.326 V
#Positive Supply: ON
#Voltage: 3.7 V Readback: 3.72 V
#Current: 500 mA Readback: 20 mA
#Negative Supply: ON
#Voltage: -3.7 V Readback: -3.708 V
#Current: -500 mA Readback: -8 mA
#Reference 1: ON
#Voltage: 0 V
#Reference 2: ON
#Voltage: 0 V

Time (s),Channel 1 (V),Channel 2 (V)
-4.096,-0.3807124341046804,-1.301296566145281
-4.0955,0.2061471830673311,-0.7396747306719177
-4.095,0.5475927785138162,-0.188649533602286
-4.0945,0.6649647019482183,0.2670059178194992
-4.094,0.6542945270905455,0.5213252395432864
-4.0935,0.6116138276597662,0.6060983467848474
-4.093,0.5689331282290746,0.5955017083796896
-4.0925,0.7503261008095146,0.7120647308364254
-4.092,0.8143471499557073,0.6272916235949607
-4.0915,0.7396559259519968,0.3729723018711736
-4.091,0.6222840025174878,0.09745970333682032
-4.0905,0.5369226036559198,-0.1250697031717921
-4.09,0.4195506802215176,-0.2310360872233701
-4.0895,-0.1993194615240755,0.2246193641988295
-4.089,-0.9462317015611811,0.9239974989392441
-4.0885,-1.341028171296118,1.284283204715573
-4.088,-1.67180359188428,0.6166949851900245
-4.0875,-1.522421143876859,-0.241632725627757
-4.087,-0.903551002130567,-0.517145324162833
-4.0865,-0.2846808603855366,-0.4535654937318862
-4.086,0.1527963087790537,-0.2734226408442036
-4.0855,0.3982103305062494,-0.08268314955087185
-4.085,0.5049120790829789,0.08686306493165288
-4.0845,0.5262524287983247,0.2140227257935464
-4.084,0.5049120790829594,0.3093924714402364
-4.0835,0.4835717293676135,0.383568940276341
-4.083,0.4622313796522482,0.4365521323021782
-4.0825,0.4515612047945559,0.4683420475176902
-4.082,0.4408910299368829,0.4789386859228479
-4.0815,0.1634664836371343,0.1716361721729923
-4.081,-0.5514352318269526,-0.6125150698086844
-4.0805,-1.010252750707956,-1.38606967338662
-4.08,-1.095614149569417,-1.767548655972648
-4.0795,-0.6474668055471541,-1.407262950197283
-4.079,-0.04993701351613038,-0.803254561101891
-4.0785,0.3768699807907871,-0.2310360872233701
-4.078,0.5796033030865729,0.1928294489829417
-4.0775,0.6222840025174684,0.436552132302236
-4.077,0.6009436528021226,0.5001319627331828
-4.0765,0.5582629533714309,0.4683420475177094
-4.076,0.6436243522329599,0.3729723018710676
-4.0755,0.7609962756673623,0.2564092794143318
-4.075,0.7183155762366316,0.1186529801471552
-4.0745,0.632954177375093,-0.0191033191201371
-4.074,0.5475927785137094,-0.1462629799820306
-4.0735,0.4835717293676135,-0.2416327256285375
-4.073,0.06743490991836898,0.04447651131072294
-4.0725,-0.722158029550525,0.7332580076468663
-4.072,-1.244996597576974,1.347863035146577
-4.0715,-1.575772018164835,1.178316820664052
-4.071,-1.565101843306939,0.2987958330345389
-4.0705,-0.9995825758502737,-0.2098428104130352
-4.07,-0.3700422592475704,-0.3687923864904022
-4.0695,0.09944543449128104,-0.3264058328697614
-4.069,0.3661998059331045,-0.1992461720078678
-4.0685,0.4942419042252961,-0.06148987274069118
-4.068,0.5262524287983344,0.07626642652659146
-4.0675,0.5155822539406614,0.1928294489833272
-4.067,0.4835717293676135,0.2987958330350016
-4.0665,0.4622313796522385,0.3835689402763989
-4.066,0.4515612047945656,0.4471487707073456
-4.0655,0.4408910299368829,0.4895353243280153
-4.065,0.3235191065024806,0.3729723018712796
-4.0645,-0.3593720843893152,-0.2946159176543747
-4.064,-1.010252750707956,-1.089363798041932
-4.0635,-1.319687821580471,-1.682775548730769
-4.063,-1.095614149568825,-1.735758740756693
-4.0625,-0.4447334832507763,-1.237716735714276
-4.062,0.1314559590635623,-0.5701285161893351
-4.0615,0.4622313796523647,0.03387987290614339
-4.061,0.5902734779444399,0.3941655786815084
-4.0605,0.6116138276598051,0.5637117931641874
-4.06,0.5796033030867768,0.5637117931641585
-4.0595,0.6009436528021226,0.5319218779486851
-4.059,0.79300680024041,0.5743084315693548
-4.0585,0.79300680024041,0.4153588554919879
-4.058,0.6969752265212663,0.1504428953626575
-4.0575,0.5902734779444399,-0.09327978795619347
-4.057,0.5155822539407293,-0.2840192792490338
-4.0565,0.3235191065023739,-0.2416327256285375
-4.056,-0.3593720843893152,0.3729723018711736
-4.0555,-1.170305373572458,1.093543713421904
-4.055,-1.746494815888301,1.284283204714802
-4.0545,-2.013249187330125,0.4365521323021782
-4.054,-1.458400094731132,-0.1992461720072896
-4.0535,-0.7008176798346066,-0.3793890248956563
-4.053,-0.09261771294724913,-0.3158091944647096
-4.0525,0.2808384070716433,-0.1674562567923655
-4.052,0.4729015545099891,0.00208995769043871
-4.0515,0.5369226036560266,0.13984625695749
-4.051,0.5262524287983441,0.2564092794143318
-4.0505,0.5049120790829983,0.351779025060752
-4.05,0.4729015545099309,0.4259554938970107
-4.0495,0.4515612047945656,0.4789386859228479
-4.049,0.4408910299368927,0.5107286011383213
-4.0485,0.4195506802210809,0.4895353243275527
-4.048,-0.06060718837420119,-0.01910331912002144
-4.0475,-0.7221580295499234,-0.8350444763171716
-4.047,-0.9782422261347434,-1.52382597265399
-4.0465,-0.7968492535543035,-1.735758740757146
-4.046,-0.2526703358129836,-1.375473034981781
-4.0455,0.2488278824988574,-0.7926579226967043
-4.045,0.5369226036560266,-0.1992461720078678
-4.0445,0.6329541773751706,0.2458126410091644
-4.044,0.6222840025174587,0.478938685922925
-4.0435,0.5902734779444399,0.5637117931641874
-4.043,0.5582629533713921,0.5001319627331828
-4.0425,0.7396559259518318,0.2246193641990801
-4.042,0.8143471499557753,-0.01910331912002144
-4.0415,0.7396559259519968,-0.1462629799820306
-4.041,0.6329541773752676,-0.2416327256284508
-4.0405,0.5369226036559296,-0.3158091944647288
-4.04,0.4302208550792003,-0.3370024712750445
-4.0395,-0.1139580626621194,0.1504428953622142
-4.039,-0.9035510021315181,0.8816109453196345
-4.0385,-1.330357996438436,1.347863035146577
-4.038,-1.639793067310951,0.7756445612680565
-4.0375,-1.554431668449218,-0.1356663415771812
-4.037,-0.9462317015618604,-0.4853554089473885
-4.0365,-0.3273615598162672,-0.4641621321370536
-4.036,0.1314559590643193,-0.3052125560593783
-4.0355,0.3875401556484697,-0.1250697031716958
-4.035,0.5049120790829789,0.04447651131098315
-4.0345,0.5262524287983247,0.1716361721728767
-4.034,0.5049120790829789,0.2776025562246667
-4.0335,0.4835717293676135,0.3517790250608387
-4.033,0.4622313796522676,0.4153588554917855
-4.0325,0.4408910299368829,0.4577454091125227
-4.032,0.4408910299368829,0.4683420475176805
-4.0315,0.1314559590643678,0.1716361721732622
-4.031,-0.6901475049780205,-0.6125150698100915
-4.0305,-1.287677297007705,-1.375473034981453
-4.03,-1.362368521011416,-1.746355379161976
-4.0295,-0.7861790786959899,-1.428456227006798
-4.029,-0.09261771294724913,-0.8880276683437509
-4.0285,0.3875401556484697,-0.3158091944647096
-4.028,0.6009436528021711,0.1822328105784393
-4.0275,0.6542945270905358,0.4895353243280153
-4.027,0.6222840025174878,0.6060983467848571
-4.0265,0.5689331282291231,0.5743084315693837
-4.026,0.6222840025174878,0.4259554938970107
-4.0255,0.7289857510943143,0.2458126410091644
-4.025,0.6969752265212954,0.08686306493179743
-4.0245,0.6116138276597372,-0.05089323433562976
-4.024,0.5369226036560266,-0.1674562567923655
-4.0235,0.483571729367662,-0.2734226408439435
-4.023,0.1741366584940891,-0.06148987274009365
-4.0225,-0.6261264558313813,0.5955017083796896
-4.022,-1.234326422718739,1.16772018225821
-4.0215,-1.586442193022858,0.9134008605338839
-4.021,-1.629122892453549,0.002089957690313421
-4.0205,-1.074273799854052,-0.4535654937318862
-4.02,-0.4340633083926472,-0.5171453241627848
-4.0195,0.05676473506030786,-0.400582301706049
-4.019,0.3555296310754218,-0.2310360872233701
-4.0185,0.483571729367497,-0.06148987274084539
-4.018,0.5262524287983441,0.08686306493165288
-4.0175,0.5155822539406614,0.2140227257936621
-4.017,0.4835717293676426,0.3093924714400822
-4.0165,0.4622313796522288,0.3941655786815663
-4.016,0.4408910299368829,0.457745409112513
-4.0155,0.4408910299368829,0.5001319627331443
-4.015,0.3341892813594646,0.4047622170860976
-4.0145,-0.3166913849585846,-0.2310360872233701
-4.014,-0.9995825758496526,-1.036380606015363
-4.0135,-1.202315898145943,-1.619195718300236
-4.013,-0.8715404775580819,-1.545019249464132
-4.0125,-0.2206598112394408,-1.0999604364471
-4.012,0.3235191065026262,-0.5701285161882653
-4.0115,0.6009436528021226,-0.06148987274069118
-4.011,0.6756348768059011,0.3199891098453364
-4.0105,0.6436243522328822,0.5213252395433345
-4.01,0.5796033030867573,0.55311515475902
-4.0095,0.5796033030867573,0.4365521323021782
-4.009,0.7396559259518513,0.07626642652681315
-4.0085,0.7396559259519289,-0.0932797879562513
-4.008,0.6649647019482183,-0.1568596183871981
-4.0075,0.568933128229162,-0.2098428104129871
-4.007,0.5049120790828333,-0.2734226408439724
-4.0065,0.3448594562177392,-0.1992461720078678
-4.006,-0.3700422592469978,0.383568940276341
-4.0055,-1.255666772435191,1.072350436612504
-4.005,-1.842526389607202,1.37965295036208
-4.0045,-2.183971985053047,0.5849050699745222
-4.004,-1.671803591883552,-0.1886495336029317
-4.0035,-0.8715404775580819,-0.4429688553267188
-4.003,-0.2099896363817582,-0.4111789401112165
-4.0025,0.2274875327828322,-0.2628260024390073
-4.002,0.4515612047945656,-0.1038764263613609
-4.0015,0.5369226036560266,0.03387987290581572
-4.001,0.5369226036560266,0.1398462569573937
-4.0005,0.5049120790829594,0.224619364198897
-4,0.4835717293676135,0.2987958330350016
-3.9995,0.4515612047945656,0.3517790250608387
-3.999,0.4408910299368829,0.3941655786815084
-3.9985,0.408880505363835,0.3623756634660061
-3.998,-0.04993701351651855,-0.1250697031716958
-3.9975,-0.9248913518464952,-0.9516074987747555
-3.997,-1.67180359188428,-1.650985633515806
-3.9965,-1.693143941599645,-1.84172512480882
-3.996,-0.9462317015618604,-1.38606967338662
-3.9955,-0.1673089369510276,-0.7714646458869092
-3.995,0.3555296310754218,-0.1568596183871981
-3.9945,0.6009436528021226,0.2987958330350016
-3.994,0.6756348768059011,0.5425185163538525
-3.9935,0.6436243522328531,0.5849050699745222
-3.993,0.5902734779444399,0.5319218779486851
-3.9925,0.7503261008096795,0.2246193641988295
-3.992,0.8143471499557753,-0.02969995752518888
-3.9915,0.7396559259519968,-0.1144730647665284
-3.991,0.6329541773751706,-0.1674562567923655
-3.9905,0.5369226036560266,-0.2098428104130352
-3.99,0.4302208550792003,-0.2204394488182027
-3.9895,-0.1352984123779797,0.2564092794143318
-3.989,-0.9142211769888124,0.9557874141553824
-3.9885,-1.341028171296118,1.347863035146577
-3.988,-1.67180359188428,0.7332580076468663
-3.9875,-1.639793067311232,-0.2416327256285375
-3.987,-1.042263275281004,-0.6019184314042303
-3.9865,-0.391382608962363,-0.570128516188728
-3.986,0.08877525963335578,-0.3793890248957141
-3.9855,0.3768699807907871,-0.1780528951975329
-3.985,0.4942419042252961,-0.008506680714854012
-3.9845,0.5262524287983441,0.1186529801471552
-3.984,0.5155822539406614,0.2140227257936621
-3.9835,0.4835717293676135,0.2881991946298341
-3.983,0.4622313796522482,0.3411823866556712
-3.9825,0.4515612047945656,0.3941655786815084
-3.982,0.4408910299368829,0.4153588554918433
-3.9815,0.2061471830678648,0.1610395337678249
-3.981,-0.572775581542968,-0.6019184314042303
-3.9805,-1.383708870726849,-1.38606967338662
-3.98,-1.863866739322568,-1.820531847998485
-3.9795,-1.341028171296118,-1.555615887869299
-3.979,-0.4980843575391895,-0.9939940523954253
-3.9785,0.1527963087794516,-0.4111789401112165
-3.978,0.5155822539406614,0.1080563417419877
-3.9775,0.6542945270905358,0.4683420475176805
-3.977,0.6542945270905358,0.6378882620003594
-3.9765,0.6116138276598051,0.6378882620003594
-3.976,0.6649647019482183,0.4153588554918433
-3.9755,0.7823366253827275,0.05507314971615059
-3.975,0.7396559259519968,-0.1144730647665284
-3.9745,0.6436243522328531,-0.1886495336027004
-3.974,0.5582629533713921,-0.2416327256285375
-3.9735,0.4942419042252961,-0.2946159176543747
-3.973,0.1848068333524996,-0.08268314955102604
-3.9725,-0.5300948821122373,0.5849050699745222
-3.972,-0.9569018764195432,1.167720182258731
-3.9715,-1.202315898146244,0.9451907757502149
-3.971,-1.426389570157579,-0.008506680714854012
-3.9705,-1.074273799854052,-0.5383386009732256
-3.97,-0.4980843575391895,-0.6019184314042303
-3.9695,-0.01792648894347063,-0.4429688553267188
-3.969,0.3021787567870086,-0.2416327256285375
-3.9685,0.4622313796522482,-0.06148987274069118
-3.968,0.5155822539406614,0.08686306493165288
-3.9675,0.5155822539406614,0.2034260873884947
-3.967,0.4942419042252961,0.2881991946298341
-3.9665,0.4729015545099309,0.3623756634660061
-3.966,0.4515612047945656,0.4153588554918433
-3.9655,0.4408910299368829,0.4471487707073456
-3.965,0.3555296310754218,0.3623756634660061
-3.9645,-0.274010685527854,-0.252229364033705
-3.964,-0.9248913518464952,-1.068170521231597
-3.9635,-1.159635198715513,-1.661582271920973
-3.963,-0.8288597781273515,-1.534422611058964
-3.9625,-0.1886492866663929,-1.046977244421262
-3.962,0.3341892813600565,-0.5171453241628908
-3.9615,0.6009436528021226,-0.008506680714854012
-3.961,0.6756348768059011,0.3729723018711736
-3.9605,0.6542945270905358,0.55311515475902
-3.96,0.5902734779444399,0.5849050699745222
-3.9595,0.5796033030867573,0.5637117931641874
-3.959,0.7503261008096795,0.6696781772158616
-3.9585,0.7609962756673623,0.5425185163538525
-3.958,0.6863050516635838,0.2881991946298341
-3.9575,0.5902734779444399,0.03387987290581572
-3.957,0.5155822539406614,-0.1674562567923655
-3.9565,0.3235191065023739,-0.1674562567923655
-3.956,-0.4340633083930936,0.3729723018711736
-3.9555,-1.244996597576974,1.051157159801889
-3.955,-1.650463242168915,1.33726639674141
-3.9545,-1.917217613610981,0.6378882620003594
-3.954,-1.554431668449771,-0.1462629799820306
-3.9535,-0.839529952985034,-0.4217755785163839
-3.953,-0.2099896363817582,-0.400582301706049
-3.9525,0.2168173579255475,-0.252229364033705
-3.952,0.4408910299368829,-0.08268314955102604
-3.9515,0.5262524287983441,0.08686306493165288
-3.951,0.5369226036560266,0.2246193641988295
-3.9505,0.5049120790829789,0.3305857482505039
-3.95,0.4835717293676135,0.4259554938970107
-3.9495,0.4622313796522482,0.5001319627331828
-3.949,0.4408910299368829,0.5425185163538525
-3.9485,0.4195506802215176,0.5637117931641874
-3.948,0.00341386077189465,0.13984625695749
-3.9475,-0.722158029550525,-0.6760949002404023
-3.947,-1.127624674142465,-1.396666311791788
-3.9465,-1.148965023857831,-1.693372187136476
-3.946,-0.5834457564006506,-1.375473034981453
-3.9455,0.03542438534494258,-0.8138511995075789
-3.945,0.4302208550792003,-0.2416327256285375
-3.9445,0.6116138276598051,0.2352160026039969
-3.944,0.6436243522328531,0.5001319627331828
-3.9435,0.6116138276598051,0.5849050699745222
-3.943,0.5689331282290746,0.5425185163538525
-3.9425,0.707645401378949,0.1928294489833272
-3.942,0.7823366253827275,-0.1038764263613609
-3.9415,0.7183155762366316,-0.2310360872233701
-3.941,0.6222840025174878,-0.2946159176543747
-3.9405,0.5369226036560266,-0.3475991096802118
-3.94,0.4622313796522482,-0.3793890248957141
-3.9395,0.01408403562957729,0.02328323450064829
-3.939,-0.658136980404429,0.7438546460520338
-3.9385,-1.180975548430879,1.167720182258731
-3.938,-1.693143941599645,0.5743084315693548
-3.9375,-1.682473766741963,-0.3158091944647096
-3.937,-1.06360362499637,-0.6231117082145651
-3.9365,-0.4020527838200457,-0.570128516188728
-3.936,0.08877525963335578,-0.3793890248957141
-3.9355,0.3661998059331045,-0.1674562567923655
-3.935,0.5049120790829789,0.01268659609548085
-3.9345,0.5262524287983441,0.1504428953626575
-3.934,0.5155822539406614,0.2564092794143318
-3.9335,0.4835717293676135,0.3411823866556712
-3.933,0.4622313796522482,0.4153588554918433
-3.9325,0.4408910299368829,0.457745409112513
-3.932,0.4408910299368829,0.4789386859228479
-3.9315,0.2594980573562781,0.2987958330350016
-3.931,-0.4127229586777283,-0.4323722169215513
-3.9305,-0.9142211769888124,-1.237716735714276
-3.93,-1.116954499284783,-1.693372187136476
-3.9295,-0.7008176798351597,-1.42845622700729
-3.929,-0.06060718837420119,-0.9410108603695881
-3.9285,0.3982103305061524,-0.3899856633008816
-3.928,0.6222840025174878,0.1080563417419877
-3.9275,0.6649647019482183,0.4047622170866759
-3.927,0.6329541773751706,0.5425185163538525
-3.9265,0.5796033030867573,0.5637117931641874
-3.926,0.6329541773751706,0.4153588554918433
-3.9255,0.7716664505250448,0.1292496185523226
-3.925,0.7503261008096795,-0.02969995752518888
-3.9245,0.6542945270905358,-0.1250697031716958
-3.924,0.5582629533713921,-0.1992461720078678
-3.9235,0.4942419042252961,-0.2628260024388724
-3.923,0.1101156093487211,-0.008506680714854012
-3.9225,-0.7434983792658902,0.6696781772158616
-3.922,-1.373038695869166,1.284283204715573
-3.9215,-1.767835165603424,1.220703374284568
-3.921,-1.949228138184029,0.2564092794143318
-3.9205,-1.405049220442214,-0.400582301706049
-3.92,-0.6794773301197943,-0.5383386009732256
-3.9195,-0.08194753808956648,-0.4217755785163839
-3.919,0.291508581929326,-0.2310360872233701
-3.9185,0.4729015545099309,-0.04029659593035631
-3.918,0.5369226036560266,0.1080563417419877
-3.9175,0.5262524287983441,0.2352160026039969
-3.917,0.5049120790829789,0.3305857482505039
-3.9165,0.4729015545099309,0.4047622170866759
-3.916,0.4515612047945656,0.457745409112513
-3.9155,0.4408910299368829,0.5107286011383502
-3.915,0.3661998059331045,0.457745409112513
-3.9145,-0.2420001609548061,-0.1356663415768632
-3.914,-0.8288597781273515,-0.9516074987747555
-3.9135,-1.095614149569417,-1.587405803084801
-3.913,-0.8502001278427167,-1.598002441489969
-3.9125,-0.2313299860971235,-1.174136905283272
-3.912,0.291508581929326,-0.6337083466197325
-3.9115,0.5689331282290746,-0.08268314955102604
-3.911,0.6649647019482183,0.309392471440169
-3.9105,0.6436243522328531,0.5107286011383502
-3.91,0.5902734779444399,0.55311515475902
-3.9095,0.5689331282290746,0.5107286011383502
-3.909,0.7396559259519968,0.5955017083796896
-3.9085,0.7609962756673623,0.4789386859228479
-3.908,0.6863050516635838,0.2458126410091644
-3.9075,0.5902734779444399,0.01268659609548085
-3.907,0.5155822539406614,-0.1886495336027004
-3.9065,0.3875401556484697,-0.252229364033705
-3.906,-0.2526703358124887,0.2458126410091644
-3.9055,-1.138294849000148,0.9451907757502149
-3.905,-1.778505340461106,1.42203950398275
-3.9045,-2.141291285622316,0.9134008605347127
-3.904,-1.618452717595867,0.1716361721729923
-3.9035,-0.8288597781273515,-0.1992461720078678
-3.903,-0.1673089369510276,-0.3052125560595421
-3.9025,0.2488278824985954,-0.252229364033705
-3.902,0.4622313796522482,-0.1356663415768632
-3.9015,0.5369226036560266,0.002089957690313421
-3.901,0.5369226036560266,0.13984625695749
-3.9005,0.5049120790829789,0.2564092794143318
-3.9,0.4729015545099309,0.3517790250608387
-3.8995,0.4515612047945656,0.4259554938970107
-3.899,0.4408910299368829,0.5001319627331828
-3.8985,0.4302208550792003,0.5213252395435176
-3.898,0.07810508477567314,0.1716361721729923
-3.8975,-0.6367966306890638,-0.6125150698093976
-3.897,-0.9889124009925911,-1.333086481360783
-3.8965,-0.9248913518464952,-1.566212526274467
-3.896,-0.3807124341046804,-1.216523458903942
-3.8955,0.1848068333524996,-0.7396747306714069
-3.895,0.5262524287983441,-0.2310360872233701
-3.8945,0.6542945270905358,0.2140227257936621
-3.894,0.6436243522328531,0.4895353243280153
-3.8935,0.6009436528021226,0.5849050699745222
-3.893,0.5475927785137094,0.5213252395435176
-3.8925,0.7183155762366316,0.1716361721729923
-3.892,0.8463576745288233,-0.1462629799820306
-3.8915,0.7823366253827275,-0.2310360872233701
-3.891,0.6649647019482183,-0.2416327256285375
-3.8905,0.5582629533713921,-0.2628260024388724
-3.89,0.4622313796522482,-0.2734226408440398
-3.8895,-0.02859666380115328,0.1080563417419877
-3.889,-0.8928808272734472,0.8074344764830383
-3.8885,-1.437059745015262,1.358459673551745
-3.888,-1.746494815888059,1.072350436612224
-3.8875,-1.725154466172693,0.1292496185523226
-3.887,-1.1062843244271,-0.3687923864905467
