Class_2_Relax_eyes_open/Class_2_Relax_eyes_open_Suko_10.csv

#Digilent WaveForms Oscilloscope Acquisition
#Device Name: EExplorer
#Serial Number: SN:210151A2B84A
#Date Time: 2021-02-03 11:33:23.744
#Sample rate: 2000Hz
#Samples: 16384
#Trigger: Source: Channel 1 Type: Edge Condition: Rising Level: 0 V Hyst.: Auto HoldOff: 0 s
#Channel 1: Range: 1 V/div Offset: 0 V Attenuation: 1 X
#Channel 2: Range: 1 V/div Offset: 0 V Attenuation: 1 X
#Power Supplies: ON
#Fixed Supply: ON
#Voltage: 3.3 V Readback: 3.361 V
#Positive Supply: ON
#Voltage: 3.7 V Readback: 3.703 V
#Current: 40 mA Readback: 18 mA
#Negative Supply: ON
#Voltage: -3.7 V Readback: -3.348 V
#Current: -40 mA Readback: -4 mA
#Reference 1: ON
#Voltage: 0 V
#Reference 2: ON
#Voltage: 0 V

Time (s),Channel 1 (V),Channel 2 (V)
-4.096,0.1848068333524996,-0.1886495336027004
-4.0955,-0.3380317346734744,-0.7184814538605901
-4.095,-0.8075194284124033,-1.142346990067972
-4.0945,-1.26633694729234,-1.364876396576285
-4.094,-1.821186039891332,-1.428456227007232
-4.0935,-2.183971985052533,-1.354279758170674
-4.093,-1.618452717595867,-0.8668343915334161
-4.0925,-0.8181896032703966,-0.08268314955173928
-4.092,-0.1993194615237165,0.5955017083800654
-4.0915,0.1954770082101822,1.00877060618122
-4.091,0.3875401556484697,1.188913459069066
-4.0905,0.4622313796522385,1.188913459068979
-4.09,0.4515612047945656,1.093543713422559
-4.0895,0.4195506802215176,0.9345941373450475
-4.089,0.3875401556484989,0.7650479228625228
-4.0885,0.3555296310754218,0.6060983467848571
-4.088,0.1314559590640864,0.5955017083796896
-4.0875,-0.466073832965598,0.8922075837241079
-4.087,-0.8502001278428137,0.680274815620258
-4.0865,-0.9569018764195432,-0.1674562567923655
-4.086,-0.7434983792660843,-0.6866915386450975
-4.0855,-0.1673089369505424,-0.7184814538609756
-4.085,0.3661998059331045,-0.6125150698093976
-4.0845,0.6969752265209654,-0.495952047352662
-4.084,0.8143471499557364,-0.4111789401111876
-4.0835,0.7716664505250448,-0.3793890248957141
-4.083,0.707645401378949,-0.3793890248957141
-4.0825,0.8356874996711989,-0.5065486857577619
-4.082,0.8997085488172365,-0.5489352393783931
-4.0815,0.8036769750980928,-0.4323722169215513
-4.081,0.6436243522329986,-0.2522293640338689
-4.0805,0.5262524287983441,-0.07208651114585861
-4.08,0.4515612047945656,0.1186529801471552
-4.0795,0.2274875327834339,0.2881991946296799
-4.079,-0.4447334832514265,0.3835689402759073
-4.0785,-1.159635198715513,-0.09327978795619347
-4.078,-1.703814116456833,-0.6866915386450301
-4.0775,-2.183971985053144,-1.110557074852469
-4.077,-2.290673733629873,-1.333086481360783
-4.0765,-2.173301810195471,-1.280103289334994
-4.076,-1.351698346153083,-0.665498261834541
-4.0755,-0.5621054066852853,0.09745970333682032
-4.075,-0.007256314085787988,0.6908714540261965
-4.0745,0.3128489316448077,1.019367244586503
-4.074,0.4408910299368829,1.146526905448396
-4.0735,0.4515612047945656,1.135930267043229
-4.073,0.4088805053638738,1.040560521396809
-4.0725,0.3661998059331045,0.9028042221295453
-4.072,0.3341892813600565,0.7438546460520338
-4.0715,0.2381577076410001,0.6060983467849823
-4.071,-0.2740106855282228,0.7120647308366375
-4.0705,-0.6794773301197943,0.8286277532933731
-4.07,-0.7114878546928132,0.1822328105787476
-4.0695,-0.4447334832502425,-0.4217755785166152
-4.069,0.142126133921769,-0.6760949002404023
-4.0685,0.6222840025174878,-0.7078848154559045
-4.068,0.8890383739595926,-0.6760949002403348
-4.0675,0.9317190733902845,-0.6019184314042303
-4.067,0.8463576745288233,-0.5595318777835605
-4.0665,0.7396559259519386,-0.5489352393784124
-4.066,0.6756348768059011,-0.570128516188728
-4.0655,0.6863050516635838,-0.4641621321370536
-4.065,0.611613827659873,-0.3370024712751601
-4.0645,0.5262524287983441,-0.1886495336027004
-4.064,0.4729015545099309,-0.04029659593035631
-4.0635,0.4622313796522579,0.1292496185521684
-4.063,0.4088805053636506,0.256409279414033
-4.0625,0.2061471830678648,-0.07208651114585861
-4.062,-0.3060212101004361,-0.5913217929985906
-4.0615,-0.7755089038393943,-0.8562377531283257
-4.061,-1.277007122150022,-0.9410108603695881
-4.0605,-1.853196564464885,-0.9833974139902578
-4.06,-2.034589537044849,-0.8774310299380341
-4.0595,-1.330357996438436,-0.2734226408440398
-4.059,-0.6047861061160158,0.4471487707073456
-4.0585,-0.04993701351702318,0.9875773293703932
-4.058,0.2701682322139607,1.273686566310405
-4.0575,0.4195506802215176,1.347863035146577
-4.057,0.4622313796522094,1.284283204715631
-4.0565,0.4302208550792003,1.135930267043229
-4.056,0.3875401556484697,0.9557874141553824
-4.0555,0.344859456217778,0.765047922862542
-4.055,0.3021787567866592,0.5955017083798342
-4.0545,-0.08194753808956648,0.7544512844572011
-4.054,-0.5834457564001945,0.8922075837242525
-4.0535,-0.8395299529850631,0.2246193641981549
-4.053,-0.8715404775580819,-0.5171453241628908
-4.0525,-0.391382608962363,-0.3581957480853793
-4.052,0.2701682322143877,-0.1674562567923559
-4.0515,0.7396559259519968,-0.1568596183871981
-4.051,0.9210488985326017,-0.1992461720078678
-4.0505,0.9103787236749289,-0.3158091944646035
-4.05,0.825017324813458,-0.4323722169215513
-4.0495,0.7503261008096795,-0.5383386009732256
-4.049,0.8356874996710631,-0.6654982618351192
-4.0485,0.7930068002403032,-0.6337083466196073
-4.048,0.6756348768059011,-0.4959520473525559
-4.0475,0.5796033030868447,-0.3052125560597156
-4.047,0.4942419042252573,-0.09327978795607782
-4.0465,0.4515612047945656,0.03387987290581572
-4.046,0.03542438534532105,-0.3475991096798649
-4.0455,-0.6794773301202601,-0.8880276683440979
-4.045,-1.191645723288561,-1.269506650929778
-4.0445,-1.693143941599645,-1.439052865412457
-4.044,-2.173301810195461,-1.428456227007174
-4.0435,-2.280003558772191,-1.301296566145281
-4.043,-1.981238662757077,-0.9410108603695881
-4.0425,-1.08494397471255,-0.1780528951982268
-4.042,-0.3700422592469978,0.55311515475902
-4.0415,0.1101156093487211,1.051157159801889
-4.041,0.3661998059328715,1.273686566310203
-4.0405,0.4408910299368635,1.316073119931008
-4.04,0.4195506802215176,1.241896651094903
-4.0395,0.3768699807908259,1.093543713422694
-4.039,0.3341892813600371,0.9134008605345296
-4.0385,0.3128489316446912,0.7120647308365314
-4.038,0.08877525963355956,0.6484849004055847
-4.0375,-0.5621054066857317,0.9557874141554402
-4.037,-1.052933450138687,1.019367244586387
-4.0365,-1.26633694729234,0.4153588554918433
-4.036,-0.9355615267035275,0.1292496185520817
-4.0355,-0.2206598112394408,-0.1356663415768632
-4.035,0.3875401556484697,-0.4217755785163839
-4.0345,0.7396559259516766,-0.6019184314040664
-4.034,0.825017324813458,-0.718481453861072
-4.0335,0.7609962756673623,-0.8350444763179138
-4.033,0.6756348768059787,-0.824447837912756
-4.0325,0.771666450525103,-0.856237753128162
-4.032,0.8356874996711408,-0.7608680074817418
-4.0315,0.7396559259520842,-0.5065486857579546
-4.031,0.6116138276597081,-0.2098428104127847
-4.0305,0.5049120790829789,0.06566978812131802
-4.03,0.4515612047946141,0.3199891098451051
-4.0295,0.7289857510946346,0.7014680924317591
-4.029,1.081101521397841,1.135930267043229
-4.0285,0.6863050516635838,0.6908714540261965
-4.028,-0.1993194615249004,-0.1992461720085424
-4.0275,-1.1062843244271,-0.9410108603695881
-4.027,-1.895877263895616,-1.364876396576285
-4.0265,-2.066600061618382,-1.354279758171127
-4.026,-1.319687821580753,-0.6972881770507372
-4.0255,-0.572775581542968,0.1186529801471552
-4.025,-0.02859666380164816,0.7438546460514651
-4.0245,0.2915085819294522,1.125333628638216
-4.024,0.4302208550792003,1.29487984312074
-4.0235,0.4515612047945461,1.326669758336214
-4.023,0.4195506802214691,1.273686566310299
-4.0225,0.3661998059331045,1.157123543853563
-4.022,0.3235191065024127,1.02996388299167
-4.0215,0.2381577076404567,0.8816109453189598
-4.021,-0.2633405106701714,0.6060983467848571
-4.0205,-0.690147504977477,-0.07208651114585861
-4.02,-0.7008176798348783,-0.8562377531284414
-4.0195,-0.391382608962363,-1.068170521231597
-4.019,0.1207857842064037,-0.8032545611024114
-4.0185,0.5369226036556481,-0.5065486857579933
-4.018,0.79300680024041,-0.400582301706049
-4.0175,0.8783681991018712,-0.4641621321370536
-4.017,0.8356874996711796,-0.5807251545937894
-4.0165,0.7396559259520065,-0.6760949002405275
-4.016,0.7503261008096795,-0.8138511995075789
-4.0155,0.8356874996710631,-0.8986243067488413
-4.015,0.7396559259518803,-0.7926579226970609
-4.0145,0.6116138276598051,-0.5913217929990628
-4.014,0.5262524287984217,-0.3793890248959069
-4.0135,0.4622313796523161,-0.1568596183869475
-4.013,0.5369226036560266,0.1186529801471552
-4.0125,0.9103787236749192,0.7120647308365314
-4.012,0.515582253939982,1.252493289499762
-4.0115,-0.2313299860971235,0.9134008605347127
-4.011,-0.9462317015618604,0.08686306493165288
-4.0105,-1.618452717595256,-0.7820612842912863
-4.01,-2.173301810195364,-1.364876396576285
-4.0095,-1.853196564464885,-1.290699927740113
-4.009,-1.020922925566396,-0.5595318777842255
-4.0085,-0.3380317346735326,0.2352160026045656
-4.008,0.1207857842064037,0.8604176685088755
-4.0075,0.3661998059328813,1.241896651094556
-4.007,0.4408910299368635,1.453829419198329
-4.0065,0.4195506802215176,1.538602526439591
-4.006,0.3768699807907871,1.528005888034424
-4.0055,0.3448594562177004,1.464426057603342
-4.005,0.3021787567870086,1.37965295036208
-4.0045,-0.1139580626626144,1.390249588767247
-4.004,-0.7114878546931819,1.432636142387271
-4.0035,-1.084943974711735,0.7226613692416989
-4.003,-1.319687821580753,-0.1462629799820306
-4.0025,-0.8608703027008164,-0.3581957480851865
-4.002,-0.1032878878049318,-0.3158091944647096
-4.0015,0.4729015545099309,-0.3052125560595421
-4.001,0.7823366253824461,-0.3687923864904889
-4.0005,0.8463576745287748,-0.4747587705423463
-4,0.79300680024041,-0.6125150698093976
-3.9995,0.7396559259519968,-0.718481453861072
-3.999,0.8997085488172365,-0.8244478379127463
-3.9985,0.8997085488172365,-0.8456411147230812
-3.998,0.8463576745288233,-0.8456411147230812
-3.9975,0.7716664505250448,-0.7396747306714069
-3.997,0.6542945270905358,-0.5489352393783931
-3.9965,0.5689331282290746,-0.2946159176543747
-3.996,0.7503261008096795,0.1504428953626575
-3.9955,0.4942419042252961,0.7226613692416989
-3.995,-0.1673089369510276,0.6166949851900245
-3.9945,-0.9248913518464952,-0.1250697031716958
-3.994,-1.650463242168915,-0.8244478379127463
-3.9935,-2.19464215991073,-1.227120097309109
-3.993,-1.789175515318789,-1.046977244421262
-3.9925,-0.9675720512772257,-0.3052125560595421
-3.992,-0.2953510352432193,0.4683420475176805
-3.9915,0.142126133921769,1.040560521396722
-3.991,0.3768699807907871,1.369056311956912
-3.9905,0.4622313796522482,1.517409249629256
-3.99,0.4622313796522482,1.517409249629256
-3.9895,0.4408910299368829,1.443232780793084
-3.989,0.408880505363835,1.316073119931075
-3.9885,0.3768699807907871,1.178316820663898
-3.988,0.2168173579255475,1.019367244586387
-3.9875,-0.3593720843893152,0.8392243916985406
-3.987,-1.031593100423322,0.2034260873884947
-3.9865,-1.330357996438436,-0.6654982618352349
-3.986,-1.127624674142465,-1.0999604364471
-3.9855,-0.423393133535411,-0.9516074987747555
-3.985,0.2594980573562781,-0.6443049850249
-3.9845,0.6969752265212663,-0.4959520473525559
-3.984,0.8676980242441885,-0.5277419625680583
-3.9835,0.8463576745288233,-0.6443049850249
-3.983,0.7503261008096795,-0.8138511995075789
-3.9825,0.825017324813458,-0.8986243067489184
-3.982,0.857027849386506,-0.8986243067489184
-3.9815,0.7396559259519968,-0.8244478379127463
-3.981,0.6009436528021226,-0.6972881770507372
-3.9805,0.4835717293676135,-0.5489352393783931
-3.98,0.4195506802215176,-0.3793890248957141
-3.9795,0.3555296310754218,-0.09327978795619347
-3.979,0.2168173579255475,0.55311515475902
-3.9785,-0.3060212101009019,0.5213252395435176
-3.978,-0.8502001278427167,-0.2098428104130352
-3.9775,-1.458400094730627,-0.9516074987747555
-3.977,-2.066600061618538,-1.417859588602123
-3.9765,-2.151961460479999,-1.492036057438295
-3.976,-1.405049220442214,-0.8456411147230812
-3.9755,-0.6261264558313813,0.03387987290581572
-3.975,-0.06060718837420119,0.7862411996727035
-3.9745,0.2808384070716433,1.273686566310405
-3.974,0.4302208550792003,1.528005888034424
-3.9735,0.4515612047945656,1.623375633680931
-3.973,0.408880505363835,1.623375633680931
-3.9725,0.3555296310754218,1.549199164844759
-3.972,0.3235191065023739,1.432636142387917
-3.9715,0.2274875327832301,1.33726639674141
-3.971,-0.3060212101009019,1.464426057603419
-3.9705,-0.8288597781273515,1.411442865577582
-3.97,-1.138294849000148,0.5425185163538525
-3.9695,-1.351698346153801,-0.3475991096802118
-3.969,-0.8928808272734472,-0.6125150698093976
-3.9685,-0.1352984123779797,-0.6125150698093976
-3.968,0.4729015545099309,-0.570128516188728
-3.9675,0.79300680024041,-0.570128516188728
-3.967,0.8356874996711408,-0.6125150698093976
-3.9665,0.7609962756673623,-0.6760949002404023
-3.966,0.7609962756673623,-0.6972881770507372
-3.9655,0.8783681991018712,-0.6760949002404023
-3.965,0.8890383739595538,-0.6972881770507372
-3.9645,0.8143471499557753,-0.6866915386455698
-3.964,0.6863050516635838,-0.5807251545938954
-3.9635,0.5582629533713921,-0.4111789401112165
-3.963,0.3768699807907871,-0.2310360872233701
-3.9625,0.1954770082101822,0.04447651131098315
-3.962,-0.2633405106701714,-0.1568596183871981
-3.9615,-0.722158029550525,-0.5489352393783931
-3.961,-1.234326422719292,-0.6443049850249
-3.9605,-1.789175515318789,-0.8986243067489184
-3.96,-2.205312334768412,-1.110557074852267
-3.9595,-1.735824641030376,-0.8456411147230812
-3.959,-0.9035510021311299,-0.1356663415768632
-3.9585,-0.2526703358124887,0.5637117931641874
-3.958,0.1741366584948169,1.061753798207057
-3.9575,0.3875401556484697,1.326669758336243
-3.957,0.4515612047945656,1.443232780793084
-3.9565,0.4408910299368829,1.432636142387917
-3.956,0.3875401556484697,1.358459673551745
-3.9555,0.3448594562177392,1.241896651094903
-3.955,0.3128489316446912,1.104140351827727
-3.9545,-0.03926683865883591,1.019367244586387
-3.954,-0.6261264558313813,0.9663840525605498
-3.9535,-1.020922925565639,0.2458126410091644
-3.953,-1.127624674142465,-0.2734226408440398
-3.9525,-0.6688071552621118,-0.2734226408440398
-3.952,0.01408403562957729,-0.252229364033705
-3.9515,0.5262524287983441,-0.2734226408440398
-3.951,0.79300680024041,-0.3899856633008816
-3.9505,0.8463576745288233,-0.5065486857577234
-3.95,0.79300680024041,-0.6654982618352349
-3.9495,0.7289857510943143,-0.8244478379127463
-3.949,0.8143471499557753,-1.004590690800593
-3.9485,0.79300680024041,-0.9622041371799229
-3.948,0.6649647019482183,-0.7290780922662394
-3.9475,0.5582629533713921,-0.4535654937318862
-3.947,0.4729015545099309,-0.1992461720078678
-3.9465,0.4302208550792003,-0.04029659593035631
-3.946,0.3555296310754218,-0.3581957480853793
-3.9455,0.05676473506030786,-0.9304142219644207
-3.945,-0.5194247072545548,-1.375473034981453
-3.9445,-1.223656247861609,-1.640388995110639
-3.944,-1.906547438753298,-1.682775548731308
-3.9435,-2.247993034199143,-1.555615887869299
-3.943,-1.789175515318789,-1.036380606016095
-3.9425,-0.9248913518464952,-0.1992461720078678
-3.942,-0.2633405106701714,0.5213252395435176
-3.9415,0.1741366584948169,0.9875773293708847
-3.941,0.3875401556484697,1.199510097474233
-3.9405,0.4515612047945656,1.231300012689736
-3.94,0.4408910299368829,1.167720182258731
-3.9395,0.3982103305061524,1.051157159801889
-3.939,0.3661998059331045,0.9028042221295453
-3.9385,0.3235191065023739,0.7650479228623686
-3.938,0.1954770082101822,0.627291623595192
-3.9375,-0.2846808603855366,0.4365521323021782
-3.937,-0.7008176798351597,-0.1992461720078678
-3.9365,-0.9142211769888124,-0.9410108603695881
-3.936,-0.5834457564006506,-1.163540266878104
-3.9355,0.04609456020262521,-0.9516074987747555
-3.935,0.5796033030867573,-0.6972881770507372
-3.9345,0.857027849386506,-0.5595318777835605
-3.934,0.8890383739595538,-0.4959520473525559
-3.9335,0.8036769750980928,-0.4959520473525559
-3.933,0.707645401378949,-0.5489352393783931
-3.9325,0.8036769750980928,-0.7290780922662394
-3.932,0.8997085488172365,-0.8032545611024114
-3.9315,0.79300680024041,-0.6337083466197325
-3.931,0.6542945270905358,-0.400582301706049
-3.9305,0.5369226036560266,-0.1674562567923655
-3.93,0.4622313796522482,0.04447651131098315
-3.9295,0.2381577076409128,0.3623756634660061
-3.929,-0.3166913849585846,0.6484849004055269
-3.9285,-0.8928808272734472,0.1610395337678249
-3.928,-1.30901764672307,-0.5383386009732256
-3.9275,-1.789175515318789,-1.0999604364471
-3.927,-2.215982509626095,-1.417859588602123
-3.9265,-2.183971985053047,-1.460246142222792
-3.926,-1.437059745015262,-0.8774310299385835
-3.9255,-0.6367966306890638,-0.07208651114585861
-3.925,-0.06060718837420119,0.5743084315693548
-3.9245,0.2808384070716433,0.9769806909657173
-3.924,0.4302208550792003,1.157123543853563
-3.9235,0.4515612047945656,1.188913459069066
-3.923,0.408880505363835,1.135930267043229
-3.9225,0.3661998059331045,1.029963882991555
-3.922,0.3341892813600565,0.8922075837243778
-3.9215,0.2381577076409128,0.7862411996727035
-3.921,-0.3060212101009019,0.9557874141553824
-3.9205,-0.8608703027003992,1.210106735879401
-3.92,-1.095614149569417,0.6802748156210291
-3.9195,-1.116954499284783,-0.1568596183871981
-3.919,-0.6047861061160158,-0.4323722169215513
-3.9185,0.07810508477567314,-0.4217755785163839
-3.918,0.5902734779444399,-0.400582301706049
-3.9175,0.8463576745288233,-0.4323722169215513
-3.917,0.8997085488172365,-0.4853554089473885
-3.9165,0.825017324813458,-0.5277419625680583
-3.916,0.8036769750980928,-0.570128516188728
-3.9155,0.8356874996711408,-0.6125150698093976
-3.915,0.7289857510943143,-0.5277419625680583
-3.9145,0.6009436528021226,-0.3899856633008816
-3.914,0.5049120790829789,-0.2204394488182027
-3.9135,0.4622313796522482,-0.04029659593035631
-3.913,0.3661998059331045,-0.04029659593035631
-3.9125,0.03542438534494258,-0.5277419625680583
-3.912,-0.4660738329661415,-1.036380606016095
-3.9115,-0.9248913518464952,-1.364876396576285
-3.911,-1.394379045584531,-1.481439419033127
-3.9105,-1.938557963326346,-1.439052865412457
-3.91,-2.130621110764634,-1.248313374119443
-3.9095,-1.437059745015262,-0.6125150698093976
-3.909,-0.6688071552621118,0.1928294489833272
-3.9085,-0.09261771294724913,0.8180311148882058
-3.908,0.2594980573562781,1.167720182258731
-3.9075,0.4302208550792003,1.305476481525908
-3.907,0.4729015545099309,1.284283204715573
-3.9065,0.4515612047945656,1.167720182258731
-3.906,0.4302208550792003,0.9981739677760521
-3.9055,0.3982103305061524,0.8074344764830383
-3.905,0.3555296310754218,0.6484849004055269
-3.9045,0.01408403562957729,0.6802748156210291
-3.904,-0.572775581542968,0.701468092431364
-3.9035,-0.8928808272734472,0.07626642652648545
-3.903,-1.1062843244271,-0.5065486857577234
-3.9025,-0.7328282044082075,-0.3899856633008816
-3.902,-0.06060718837420119,-0.2098428104130352
-3.9015,0.4835717293676135,-0.2098428104130352
-3.901,0.7609962756673623,-0.3687923864905467
-3.9005,0.8463576745288233,-0.5913217929990628
-3.9,0.79300680024041,-0.718481453861072
-3.8995,0.7503261008096795,-0.7502713690765743
-3.899,0.8143471499557753,-0.792657922697244
-3.8985,0.7609962756673623,-0.6972881770507372
-3.898,0.6542945270905358,-0.4959520473525559
-3.8975,0.5369226036560266,-0.2628260024388724
-3.897,0.4622313796522482,-0.05089323433552374
-3.8965,0.4622313796522482,0.1822328105781598
-3.896,0.8036769750980928,0.6484849004055269
-3.8955,0.707645401378949,1.220703374284568
-3.895,0.03542438534494258,0.9134008605347127
-3.8945,-0.7861790786966207,-0.04029659593035631
-3.894,-1.554431668449771,-0.9198175835592532
-3.8935,-2.173301810195364,-1.47084278062796
-3.893,-2.023919362187807,-1.460246142222792
-3.8925,-1.170305373573196,-0.7396747306714069
-3.892,-0.4447334832507763,0.08686306493165288
-3.8915,0.0674349099179905,0.7332580076468663
-3.891,0.3448594562177392,1.135930267043229
-3.8905,0.4515612047945656,1.33726639674141
-3.89,0.4408910299368829,1.42203950398275
-3.8895,0.3875401556484697,1.400846227172415
-3.889,0.3448594562177392,1.316073119931075
-3.8885,0.3235191065023739,1.210106735879401
-3.888,0.142126133921769,1.093543713422559
-3.8875,-0.4340633083930936,1.114736990232894
-3.887,-0.8822106524157645,0.6696781772158616
-3.8865,-1.30901764672307,-0.1780528951975329
