Class_5_Move_Left_hand_Horiszontal/Class_5_Move_Left_Hand_Horizontal_Zakour_6.csv

#Digilent WaveForms Oscilloscope Acquisition
#Device Name: EExplorer
#Serial Number: SN:210151A2B84A
#Date Time: 2020-12-10 13:46:29.624
#Sample rate: 2000Hz
#Samples: 16384
#Trigger: Source: Channel 1 Type: Edge Condition: Rising Level: 0 V Hyst.: Auto HoldOff: 0 s
#Channel 1: Range: 1 V/div Offset: 0 V Attenuation: 1 X
#Channel 2: Range: 1 V/div Offset: 0 V Attenuation: 1 X
#Power Supplies: ON
#Fixed Supply: ON
#Voltage: 3.3 V Readback: 3.323 V
#Positive Supply: ON
#Voltage: 3.7 V Readback: 3.696 V
#Current: 40 mA Readback: 21 mA
#Negative Supply: ON
#Voltage: -3.7 V Readback: -3.987 V
#Current: -40 mA Readback: -7 mA
#Reference 1: ON
#Voltage: 0 V
#Reference 2: ON
#Voltage: 0 V

Time (s),Channel 1 (V),Channel 2 (V)
-4.096,0.9317190733902845,-0.2946159176543747
-4.0955,0.5796033030870775,0.1292496185519371
-4.095,0.3341892813599207,0.2881991946298245
-4.0945,0.1848068333524996,0.2776025562246667
-4.094,0.1207857842064619,0.2246193641988777
-4.0935,0.04609456020260581,0.3411823866556616
-4.093,0.02475421048725994,0.3305857482505039
-4.0925,0.05676473506027875,0.2564092794143992
-4.092,0.08877525963337519,0.2034260873884947
-4.0915,0.1101156093487211,0.2034260873884947
-4.091,-0.03926683865883591,0.4471487707073456
-4.0905,-0.6688071552627911,1.040560521396549
-4.09,-1.415719395299897,0.849821030103708
-4.0895,-2.055929886760855,-0.02969995752518888
-4.089,-2.525417580498464,-0.8562377531274969
-4.0885,-2.290673733629873,-1.0999604364471
-4.088,-1.586442193022819,-0.792657922697244
-4.0875,-1.37303869586936,-0.6125150698095615
-4.087,-0.7541685541231751,0.07626642652698661
-4.0865,-0.3166913849585846,0.627291623595192
-4.086,-0.007256314086069415,1.051157159801504
-4.0855,0.2274875327832495,1.347863035146626
-4.085,0.2488278824985954,1.400846227172415
-4.0845,0.2168173579255766,1.358459673551784
-4.084,0.1954770082101725,1.284283204715476
-4.0835,0.1848068333524996,1.178316820663898
-4.083,0.2701682322139607,0.9028042221295453
-4.0825,0.7716664505256658,0.08686306493066021
-4.082,1.454557641416734,-1.004590690800593
-4.0815,1.657290963712704,-1.915901593644992
-4.081,1.603940089424339,-2.477523429118355
-4.0805,1.56125938999356,-2.403346960282694
-4.08,1.315845368266859,-1.587405803084801
-4.0795,0.9423892482483067,-0.7714646458876513
-4.079,0.6116138276595819,-0.2204394488178846
-4.0785,0.3661998059331045,0.1292496185523226
-4.078,0.2274875327833563,0.2776025562245318
-4.0775,0.1527963087794225,0.2670059178196438
-4.077,0.1207857842064037,0.4259554938970107
-4.0765,0.0887752596333849,0.5213252395434309
-4.076,0.08877525963336548,0.4365521323020721
-4.0755,0.09944543449103843,0.3199891098453364
-4.075,0.09944543449103843,0.2458126410091644
-4.0745,0.05676473505990027,0.2881991946302871
-4.074,-0.391382608962363,0.7862411996727035
-4.0735,-1.191645723288561,1.00877060618122
-4.073,-1.927887788467994,0.2881991946304895
-4.0725,-2.429386006779747,-0.4535654937318862
-4.072,-2.568098279929622,-1.046977244421262
-4.0715,-2.013249187330629,-0.9622041371800001
-4.071,-1.095614149569,-0.3475991096797975
-4.0705,-0.6367966306890638,0.1080563417419877
-4.07,-0.6581369804044096,0.1610395337677767
-4.0695,-0.4554036581082454,0.4577454091128118
-4.069,-0.2206598112394408,0.7862411996727035
-4.0685,-0.01792648894347063,1.040560521396722
-4.068,0.1741366584948751,1.231300012689697
-4.0675,0.2381577076409128,1.188913459069066
-4.067,0.2488278824985954,1.040560521396722
-4.0665,0.3021787567873483,0.7968378380773022
-4.066,0.6756348768059011,0.1716361721729923
-4.0655,1.454557641416734,-0.8668343915334161
-4.065,1.817343586577614,-1.799338571187302
-4.0645,1.529248865420512,-2.456330152308531
-4.064,1.326515543124542,-2.403346960282694
-4.0635,1.070431346540392,-1.534422611059755
-4.063,0.7716664505248216,-0.707884815455413
-4.0625,0.5262524287983441,-0.1674562567923655
-4.062,0.3448594562179041,0.1186529801468949
-4.0615,0.2061471830678066,0.2564092794143703
-4.061,0.142126133921769,0.2987958330350016
-4.0605,0.01408403562957729,0.3941655786815084
-4.06,-0.2206598112394408,0.6060983467847896
-4.0595,-0.2206598112394408,0.5319218779486851
-4.059,-0.1139580626626144,0.383568940276341
-4.0585,-0.007256314085885035,0.2987958330350787
-4.058,0.03542438534494258,0.2987958330350016
-4.0575,-0.1886492866663929,0.6908714540261965
-4.057,-0.9035510021304798,1.114736990232509
-4.0565,-1.714484291315011,0.5001319627331828
-4.056,-2.3973754822067,-0.400582301706049
-4.0555,-2.65345967879085,-1.110557074851621
-4.055,-2.322684258202038,-1.195330182093057
-4.0545,-1.351698346153801,-0.5913217929990628
-4.054,-0.5941159312590223,0.1186529801465095
-4.0535,-0.09261771294703564,0.690871454026505
-4.053,0.142126133921769,1.029963882991555
-4.0525,-0.1673089369510276,0.8074344764830383
-4.052,-0.5514352318274184,0.4895353243282177
-4.0515,-0.3487019095316325,0.7120647308365314
-4.051,-0.2206598112394408,0.8286277532933731
-4.0505,0.01408403562936381,0.9134008605346355
-4.05,0.2701682322139607,0.7862411996727035
-4.0495,0.5369226036560266,0.2776025562246667
-4.049,1.262494493977786,-0.7396747306704816
-4.0485,2.030747083731839,-1.767548655973342
-4.048,2.297501455173662,-2.530506621144703
-4.0475,2.190799706596933,-2.859002411704595
-4.047,1.817343586577478,-2.064254531316411
-4.0465,1.305175193409177,-1.046977244421262
-4.046,0.8250173248138948,-0.3581957480860056
-4.0455,0.4835717293674485,0.07626642652665892
-4.045,0.3021787567870086,0.2670059178194992
-4.0445,0.2061471830678648,0.2881991946298341
-4.044,0.1634664836370858,0.2564092794144571
-4.0435,0.1101156093487211,0.3941655786815084
-4.043,0.08877525963335578,0.3941655786815084
-4.0425,0.09944543449102873,0.3199891098454039
-4.042,0.1101156093487211,0.2564092794143318
-4.0415,0.1207857842064037,0.2458126410091644
-4.041,0.02475421048734729,0.4365521323020047
-4.0405,-0.5834457564013978,0.9769806909654474
-4.04,-1.405049220442214,0.6802748156210291
-4.0395,-1.981238662756553,-0.2204394488173834
-4.039,-2.504077230783546,-0.9833974139905662
-4.0385,-2.525417580498891,-1.322489842955616
-4.038,-1.650463242169711,-0.8350444763183571
-4.0375,-0.8502001278421829,-0.07208651114526107
-4.037,-0.2633405106701714,0.5849050699745222
-4.0365,0.07810508477567314,1.029963882991555
-4.036,0.2381577076409419,1.273686566310502
-4.0355,0.2701682322139607,1.37965295036208
-4.035,0.2594980573562781,1.390249588767247
-4.0345,0.2381577076409322,1.305476481525985
-4.034,0.02475421048725994,0.9345941373450475
-4.0335,-0.5087545323968721,0.2034260873884947
-4.033,-0.4340633083931616,0.002089957690496524
-4.0325,0.1634664836379592,-0.5171453241637004
-4.032,1.070431346540159,-1.407262950196955
-4.0315,1.785333062004246,-2.127834361747685
-4.031,2.116108482592844,-2.265590661014842
-4.0305,1.881364635724039,-1.523825972653797
-4.03,1.433217291701776,-0.7184814538618044
-4.0295,0.9637295979629928,-0.1356663415765548
-4.029,0.5902734779444399,0.2034260873884947
-4.0285,0.3555296310754218,0.3199891098453364
-4.028,0.2061471830677969,0.2670059178194125
-4.0275,0.1314559590640864,0.1716361721729923
-4.027,0.01408403562957729,0.2987958330350016
-4.0265,-0.0712773632318062,0.425955493896895
-4.026,-0.04993701351651855,0.3729723018711736
-4.0255,0.01408403562957729,0.309392471440169
-4.025,0.06743490991794199,0.2881991946298534
-4.0245,0.06743490991758291,0.3729723018716651
-4.024,-0.3807124341046804,0.9134008605347127
-4.0235,-1.298347471864553,1.104140351827553
-4.023,-2.162631635338303,0.2458126410082681
-4.0225,-2.845522826229371,-0.7396747306714069
-4.022,-2.962894749663773,-1.439052865411822
-4.0215,-2.280003558771269,-1.258910012523927
-4.021,-1.26633694729234,-0.5065486857577234
-4.0205,-0.4980843575391895,0.2564092794143318
-4.02,-0.01792648894325713,0.8286277532936815
-4.0195,0.2168173579255475,1.167720182258731
-4.019,0.291508581929326,1.326669758336243
-4.0185,0.280838407071653,1.379652950362032
-4.018,0.2594980573562781,1.316073119931075
-4.0175,0.2488278824985954,1.188913459069066
-4.017,0.2488278824985954,1.029963882991699
-4.0165,0.2915085819295686,0.7862411996722698
-4.016,0.5582629533713921,0.309392471440169
-4.0155,1.177133095116422,-0.5595318777827702
-4.015,1.550589215135606,-1.470842780628846
-4.0145,1.251824319120764,-2.445733513903364
-4.014,1.358526067697493,-1.756952017568107
-4.0135,1.155792745401445,-0.9939940523948277
-4.013,0.9637295979633325,-0.3370024712750445
-4.0125,0.7609962756673623,0.07626642652648545
-4.012,0.4729015545097368,0.1928294489833465
-4.0115,0.2594980573562781,0.2140227257936621
-4.011,0.1634664836371343,0.2140227257936621
-4.0105,0.1101156093487696,0.2458126410091355
-4.01,0.05676473506030786,0.383568940276341
-4.0095,0.0674349099179905,0.4047622170866759
-4.009,0.08877525963333638,0.3835689402763603
-4.0085,0.1101156093487211,0.3517790250608387
-4.008,0.1101156093487211,0.3517790250608387
-4.0075,-0.1139580626624106,0.6696781772155725
-4.007,-0.9248913518473103,1.019367244585741
-4.0065,-1.821186039891837,0.309392471440169
-4.006,-2.461396531352796,-0.7502713690765743
-4.0055,-2.952224574805634,-1.534422611058916
-4.005,-2.333354433060604,-1.481439419033127
-4.0045,-1.373038695869166,-0.7078848154559045
-4.004,-0.5941159312578674,0.1186529801477238
-4.0035,-0.08194753808956648,0.7438546460520338
-4.003,0.1848068333524996,1.125333628638062
-4.0025,0.2808384070715559,1.316073119930902
-4.002,0.291508581929326,1.37965295036208
-4.0015,0.2594980573562781,1.347863035146577
-4.001,0.2488278824986051,1.231300012689841
-4.0005,0.2488278824986148,1.061753798206855
-4,0.2701682322139607,0.8392243916985406
-3.9995,0.408880505363835,0.5107286011383502
-3.999,0.9957401225363802,-0.1992461720078678
-3.9985,1.710641838001117,-0.9833974139902578
-3.998,2.052087433446962,-1.629792356705471
-3.9975,2.052087433446962,-2.138431000153508
-3.997,1.35852606769759,-2.096044446532838
-3.9965,0.6649647019482183,-1.555615887869299
-3.996,0.3768699807907871,-0.7078848154559045
-3.9955,0.1741366584948169,-0.1356663415768632
-3.995,0.1741366584948169,0.2458126410091644
-3.9945,0.1954770082101822,0.3729723018711736
-3.994,0.1101156093487211,0.3199891098453364
-3.9935,-0.07127736323188383,0.457745409112513
-3.993,-0.124628237520297,0.4683420475176805
-3.9925,-0.07127736323188383,0.3517790250608387
-3.992,0.00341386077189465,0.2670059178194992
-3.9915,0.05676473506030786,0.2458126410091644
-3.991,-0.007256314085787988,0.3941655786815084
-3.9905,-0.5834457564006506,0.8710143069140429
-3.99,-1.565101843307454,0.4259554938970107
-3.9895,-2.386705307349017,-0.5383386009732256
-3.989,-2.973564924521563,-1.237716735714276
-3.9885,-3.112277197671437,-1.703968825541643
-3.988,-2.312014083345239,-1.354279758171118
-3.9875,-1.277007122150022,-0.5171453241628908
-3.987,-0.4980843575391895,0.2564092794143318
-3.9865,-0.007256314085787988,0.8074344764830383
-3.986,0.2274875327832301,1.114736990232894
-3.9855,0.3021787567870086,1.25249328950007
-3.985,0.291508581929326,1.273686566310405
-3.9845,0.2701682322139607,1.199510097474233
-3.984,0.2594980573562781,1.040560521396722
-3.9835,0.291508581929326,0.8392243916985406
-3.983,0.4408910299368829,0.457745409112513
-3.9825,0.942389248247967,-0.2098428104130352
-3.982,1.625280439139656,-0.9728007755850904
-3.9815,1.860024286008674,-1.608599079895136
-3.981,1.828013761435626,-2.074851169722503
-3.9805,1.731982187716482,-1.947691508860494
-3.98,1.177133095116985,-1.417859588602123
-3.9795,0.291508581929326,-1.248313374119443
-3.979,0.1634664836371343,-0.5489352393783931
-3.9785,0.0674349099179905,-0.1144730647665284
-3.978,0.08877525963335578,0.1928294489833272
-3.9775,0.142126133921769,0.3305857482505039
-3.977,0.02475421048725994,0.4153588554918433
-3.9765,-0.09261771294724913,0.5319218779486851
-3.976,-0.07127736323188383,0.457745409112513
-3.9755,0.00341386077189465,0.3411823866556712
-3.975,0.0674349099179905,0.2776025562246667
-3.9745,0.07810508477567314,0.309392471440169
-3.974,-0.3380317346739499,0.775644561267536
-3.9735,-1.191645723288561,0.775644561267536
-3.973,-1.863866739322568,-0.1674562567923655
-3.9725,-2.333354433060604,-1.174136905283272
-3.972,-2.653459678791083,-1.820531847998485
-3.9715,-2.055929886760855,-1.51322933424863
-3.971,-1.191645723288561,-0.6549016234300674
-3.9705,-0.4874141826815069,0.1716361721729923
-3.97,-0.02859666380115328,0.7544512844572011
-3.9695,0.1954770082101822,1.093543713422559
-3.969,0.2808384070716433,1.241896651094903
-3.9685,0.2808384070716433,1.273686566310405
-3.968,0.2594980573562781,1.220703374284568
-3.9675,0.2488278824985954,1.093543713422559
-3.967,0.2381577076409128,0.92399749893988
-3.9665,0.2808384070716433,0.7120647308365314
-3.966,0.5582629533713921,0.2352160026039969
-3.9655,1.262494493978446,-0.5595318777835605
-3.965,1.635950613997339,-1.290699927740113
-3.9645,1.475897991132099,-1.831128486403653
-3.964,1.305175193409177,-1.629792356705471
-3.9635,0.974399772821015,-1.068170521231597
-3.963,0.4408910299368829,-0.7820612842920766
-3.9625,-0.07127736323188383,-0.5807251545938954
-3.962,-0.07127736323188383,-0.1674562567923655
-3.9615,-0.03926683865883591,0.03387987290581572
-3.961,0.08877525963335578,0.1928294489833272
-3.9605,0.1101156093487211,0.2987958330350016
-3.96,-0.06060718837420119,0.5107286011383502
-3.9595,-0.08194753808956648,0.5001319627331828
-3.959,-0.01792648894347063,0.4153588554918433
-3.9585,0.04609456020262521,0.3517790250608387
-3.958,0.08877525963335578,0.3517790250608387
-3.9575,-0.1139580626626144,0.6908714540261965
-3.957,-0.9355615267041777,1.114736990232894
-3.9565,-1.917217613610981,0.4047622170866759
-3.956,-2.60010880450267,-0.6125150698093976
-3.9555,-3.144287722244484,-1.417859588602123
-3.955,-2.952224574806197,-1.682775548731308
-3.9545,-1.885207089037933,-1.046977244421262
-3.954,-0.9355615267041777,-0.1674562567923655
-3.9535,-0.2633405106701714,0.55311515475902
-3.953,0.1101156093487211,1.019367244586387
-3.9525,0.2701682322139607,1.273686566310405
-3.952,0.3128489316446912,1.358459673551745
-3.9515,0.291508581929326,1.347863035146577
-3.951,0.2701682322139607,1.231300012689736
-3.9505,0.2701682322139607,1.051157159801889
-3.95,0.291508581929326,0.8392243916985406
-3.9495,0.3982103305061524,0.5213252395435176
-3.949,0.974399772821015,-0.1780528951975329
-3.9485,1.731982187716482,-0.9728007755850904
-3.948,1.870694460866357,-1.608599079895136
-3.9475,1.774662887147213,-2.053657892912168
-3.947,1.614610264281974,-1.725162102351978
-3.9465,1.241154144263081,-0.9410108603695881
-3.946,0.4942419042252961,-0.6760949002404023
-3.9455,-0.2206598112394408,-0.6019184314042303
-3.945,-0.2633405106701714,-0.1568596183871981
-3.9445,-0.2420001609548061,0.02328323450064829
-3.944,-0.09261771294724913,0.1716361721729923
-3.9435,-0.1779791118087102,0.5319218779486851
-3.943,-0.2633405106701714,0.5849050699745222
-3.9425,-0.1779791118087102,0.457745409112513
-3.942,-0.06060718837420119,0.3199891098453364
-3.9415,0.03542438534494258,0.2564092794143318
-3.941,0.02475421048725994,0.3623756634660061
-3.9405,-0.5621054066852853,0.9134008605347127
-3.94,-1.522421143876723,0.7120647308365314
-3.9395,-2.269333383914508,-0.3370024712750445
-3.939,-2.96289474966388,-1.34368311976595
-3.9385,-3.026915798809975,-1.820531847998485
-3.938,-2.03458953704549,-1.301296566145281
-3.9375,-1.074273799854052,-0.400582301706049
-3.937,-0.3487019095316325,0.4047622170866759
-3.9365,0.0674349099179905,0.9557874141553824
-3.936,0.2594980573562781,1.25249328950007
-3.9355,0.3128489316446912,1.37965295036208
-3.935,0.291508581929326,1.400846227172415
-3.9345,0.2701682322139607,1.316073119931075
-3.934,0.2594980573562781,1.157123543853563
-3.9335,0.2701682322139607,0.9557874141553824
-3.933,0.3235191065023739,0.6802748156210291
-3.9325,0.7503261008096795,0.06566978812131802
-3.932,1.550589215135878,-0.7608680074817418
-3.9315,2.137448832308423,-1.481439419033127
-3.931,2.265490930600615,-2.021867977696666
-3.9305,2.12677865745074,-1.947691508860494
-3.93,1.646620788855021,-1.142346990067769
-3.9295,1.070431346540159,-0.4959520473525559
-3.929,0.2808384070716433,-0.4111789401112165
-3.9285,-0.3593720843893152,-0.5171453241628908
-3.928,-0.3380317346739499,-0.2734226408440398
-3.9275,-0.2526703358124887,-0.1568596183871981
-3.927,-0.1032878878049318,0.2034260873884947
-3.9265,-0.04993701351651855,0.5425185163538525
-3.926,-0.02859666380115328,0.5001319627331828
-3.9255,0.02475421048725994,0.3941655786815084
-3.925,0.05676473506030786,0.3305857482505039
-3.9245,0.00341386077189465,0.4047622170866759
-3.924,-0.5194247072545548,0.9134008605347127
-3.9235,-1.405049220442214,1.104140351827727
-3.923,-1.970568487899394,0.1822328105781598
-3.9225,-2.386705307349017,-0.9304142219644207
-3.922,-2.696140378221814,-1.725162102351978
-3.9215,-2.130621110764634,-1.576809164679634
-3.921,-1.26633694729234,-0.7502713690765743
-3.9205,-0.5300948821122373,0.09745970333682032
-3.92,-0.04993701351651855,0.7226613692416989
-3.9195,0.2061471830678648,1.104140351827727
-3.919,0.291508581929326,1.284283204715573
-3.9185,0.291508581929326,1.33726639674141
-3.918,0.2701682322139607,1.29487984312074
-3.9175,0.2488278824985954,1.178316820663898
-3.917,0.2594980573562781,1.019367244586387
-3.9165,0.291508581929326,0.7968378380778709
-3.916,0.5475927785137094,0.3199891098453364
-3.9155,1.241154144263081,-0.4853554089473885
-3.915,1.870694460866357,-1.258910012524611
-3.9145,2.265490930600615,-1.88411167842949
-3.914,2.372192679177441,-2.096044446532838
-3.9135,1.998736559158548,-1.47084278062796
-3.913,1.422547116843686,-0.7290780922662394
-3.9125,0.8783681991018712,-0.1250697031716958
-3.912,0.1848068333524996,-0.1038764263613609
-3.9115,-0.5407650569699201,-0.4959520473525559
-3.911,-0.4554036581084589,-0.2946159176543747
-3.9105,-0.3273615598162672,-0.1356663415768632
-3.91,-0.09261771294724913,0.1928294489833272
-3.9095,0.09944543449103843,0.3517790250608387
-3.909,0.1314559590640864,0.2987958330350016
-3.9085,0.1314559590640864,0.2352160026039969
-3.908,0.1314559590640864,0.2352160026039969
-3.9075,-0.06060718837420119,0.5107286011383502
-3.907,-0.8181896032696687,0.9451907757502149
-3.9065,-1.789175515318789,0.3199891098453364
-3.906,-2.386705307349017,-0.7290780922662394
-3.9055,-2.898873700517784,-1.576809164679634
-3.905,-2.792171951940957,-1.873515040024322
-3.9045,-1.853196564464885,-1.227120097309109
-3.904,-0.9462317015618604,-0.3158091944647096
-3.9035,-0.2846808603855366,0.4471487707073456
-3.903,0.09944543449103843,0.9345941373450475
-3.9025,0.2701682322139607,1.199510097474233
-3.902,0.3021787567870086,1.29487984312074
-3.9015,0.291508581929326,1.284283204715573
-3.901,0.2594980573562781,1.188913459069066
-3.9005,0.2488278824985954,1.029963882991555
-3.9,0.2701682322139607,0.8286277532933731
-3.8995,0.3875401556484697,0.4895353243280153
-3.899,0.9317190733902845,-0.2098428104130352
-3.8985,1.529248865420512,-1.025783967610927
-3.898,1.603940089424291,-1.703968825541643
-3.8975,1.443887466559051,-1.831128486403653
-3.897,1.262494493978446,-1.195330182093607
-3.8965,1.006410297394063,-0.6019184314042303
-3.896,0.7609962756673623,-0.1568596183871981
-3.8955,0.5369226036560266,0.1080563417419877
-3.895,0.1954770082101822,0.05507314971615059
-3.8945,-0.3593720843893152,-0.3793890248957141
-3.894,-0.4874141826815069,-0.474758770542221
-3.8935,-0.6047861061160158,-0.1674562567923655
-3.893,-0.572775581542968,0.1504428953626575
-3.8925,-0.2953510352432193,0.3305857482505039
-3.892,-0.08194753808956648,0.3623756634660061
-3.8915,0.02475421048725994,0.3411823866556712
-3.891,-0.007256314085787988,0.457745409112513
-3.8905,-0.5941159312583333,0.9451907757502149
-3.89,-1.46907026958831,0.6166949851900245
-3.8895,-2.215982509626095,-0.4853554089473885
-3.889,-2.909543875375467,-1.502632695843462
-3.8885,-3.144287722244484,-2.000674700886331
-3.888,-2.19464215991073,-1.481439419033127
-3.8875,-1.202315898146244,-0.5277419625680583
-3.887,-0.4447334832507763,0.3199891098453364
-3.8865,0.02475421048725994,0.9028042221295453
-3.886,0.2488278824985954,1.231300012689736
-3.8855,0.3128489316446912,1.358459673551745
