Class_5_Move_Left_hand_Horiszontal/Class_5_Move_Left_hand_Horiszontal_SH_5.csv

#Digilent WaveForms Oscilloscope Acquisition
#Device Name: EExplorer
#Serial Number: SN:210151A2B84A
#Date Time: 2020-12-13 13:30:07.083
#Sample rate: 2000Hz
#Samples: 16384
#Trigger: Source: Channel 1 Type: Edge Condition: Rising Level: 0 V Hyst.: Auto HoldOff: 0 s
#Channel 1: Range: 1 V/div Offset: 0 V Attenuation: 1 X
#Channel 2: Range: 1 V/div Offset: 0 V Attenuation: 1 X
#Power Supplies: ON
#Fixed Supply: ON
#Voltage: 3.3 V Readback: 3.328 V
#Positive Supply: ON
#Voltage: 3.7 V Readback: 3.718 V
#Current: 40 mA Readback: 18 mA
#Negative Supply: ON
#Voltage: -3.7 V Readback: -3.349 V
#Current: -40 mA Readback: -8 mA
#Reference 1: ON
#Voltage: 0 V
#Reference 2: ON
#Voltage: 0 V

Time (s),Channel 1 (V),Channel 2 (V)
-4.096,0.6436243522328531,0.457745409112513
-4.0955,0.5582629533714697,0.6802748156208267
-4.095,0.5475927785135055,0.7438546460517543
-4.0945,0.3235191065023739,0.4365521323021782
-4.094,-0.3913826089617129,-0.1780528951969739
-4.0935,-1.031593100423749,-0.7396747306716863
-4.093,-1.501080794161358,-1.046977244421262
-4.0925,-1.565101843307396,-0.6866915386458974
-4.092,-1.020922925565096,-0.1780528951972342
-4.0915,-0.423393133535411,0.1504428953626575
-4.091,0.02475421048725994,0.2881991946298341
-4.0905,0.2915085819294327,0.2776025562245799
-4.09,0.408880505363835,0.1822328105781598
-4.0895,0.4515612047945656,0.04447651131098315
-4.089,0.4408910299368927,-0.0932797879560682
-4.0885,0.408880505363835,-0.2098428104130352
-4.088,0.3875401556484697,-0.2946159176543747
-4.0875,0.344859456217778,-0.2734226408440591
-4.087,0.2274875327831331,-0.04029659593024066
-4.0865,0.1207857842064037,0.08686306493165288
-4.086,-0.3487019095312055,0.447148770707018
-4.0855,-0.8928808272737772,0.6802748156204798
-4.085,-1.255666772434657,0.07626642652648545
-4.0845,-1.223656247861638,-0.1886495336024595
-4.084,-0.722158029550001,-0.06148987274063335
-4.0835,-0.1459685872356623,0.002089957690313421
-4.083,0.2808384070716433,0.002089957690313421
-4.0825,0.536922603656114,0.0126865960955194
-4.082,0.6329541773751706,0.05507314971615059
-4.0815,0.6649647019482183,0.05507314971615059
-4.081,0.6756348768058914,0.1610395337677286
-4.0805,0.825017324813458,0.1928294489833272
-4.08,0.8036769750980928,0.3517790250608387
-4.0795,0.6969752265213633,0.5637117931639947
-4.079,0.568933128228997,0.7544512844573071
-4.0785,0.4835717293676135,0.8710143069140429
-4.078,0.5582629533713241,0.7968378380779384
-4.0775,0.8143471499552707,0.3941655786809012
-4.077,0.2594980573562781,-0.2734226408440398
-4.0765,-0.5194247072538464,-0.8562377531277188
-4.076,-1.159635198715649,-1.22712009730907
-4.0755,-1.30901764672307,-1.184733543688439
-4.075,-0.8928808272734472,-0.6654982618352349
-4.0745,-0.370042259246629,-0.156859618386909
-4.074,0.03542438534494258,0.1610395337678249
-4.0735,0.2808384070716433,0.2670059178194992
-4.073,0.3982103305060457,0.224619364198868
-4.0725,0.4302208550792003,0.09745970333682032
-4.072,0.4302208550792003,-0.05089323433552374
-4.0715,0.3982103305061815,-0.1886495336025751
-4.071,0.366199805933085,-0.2416327256285568
-4.0705,0.3448594562177392,-0.2628260024388724
-4.07,0.2915085819293745,-0.2628260024388724
-4.0695,-0.145968587236264,0.1822328105785067
-4.069,-0.807519428411986,0.5637117931641874
-4.0685,-1.191645723288561,0.04447651131098315
-4.068,-1.341028171296011,-0.633708346619588
-4.0675,-1.223656247861609,-0.474758770542221
-4.067,-0.690147504977477,-0.1568596183871981
-4.0665,-0.1032878878045339,-0.07208651114585861
-4.066,0.3341892813600565,-0.07208651114585861
-4.0655,0.5582629533713921,-0.02969995752518888
-4.065,0.6222840025174297,0.1186529801470203
-4.0645,0.6009436528021226,0.2564092794143318
-4.064,0.7716664505250448,0.2352160026039969
-4.0635,0.8676980242441011,0.2670059178194703
-4.063,0.7609962756672362,0.4471487707075094
-4.0625,0.6222840025174878,0.627291623595192
-4.062,0.5262524287984315,0.7544512844570854
-4.0615,0.419550680221275,0.7226613692412074
-4.061,0.1527963087794516,0.1822328105781598
-4.0605,-0.3807124341046804,-0.5171453241628908
-4.06,-1.020922925566134,-1.089363798042164
-4.0595,-1.565101843307454,-1.34368311976595
-4.059,-1.543761493592088,-0.9092209451540858
-4.0585,-0.956901876420077,-0.379389024896196
-4.058,-0.3700422592469978,-0.01910331912002144
-4.0575,0.05676473506030786,0.13984625695749
-4.057,0.3128489316444583,0.1504428953626478
-4.0565,0.4195506802215176,0.06566978812131802
-4.056,0.4408910299368829,-0.05089323433552374
-4.0555,0.43022085507921,-0.1568596183871017
-4.055,0.4088805053638059,-0.2416327256285472
-4.0545,0.3768699807907871,-0.252229364033705
-4.054,0.3448594562177683,-0.2098428104130738
-4.0535,0.3341892813599692,-0.1992461720078389
-4.053,0.2381577076409128,-0.1674562567923655
-4.0525,-0.3380317346739499,0.2564092794143318
-4.052,-0.8608703027007583,0.4471487707068926
-4.0515,-1.255666772434657,-0.05089323433552374
-4.051,-1.458400094730627,0.04447651131098315
-4.0505,-1.03159310042371,0.1716361721728767
-4.05,-0.4020527838200457,0.1716361721729923
-4.0495,0.09944543449103843,0.1292496185523226
-4.049,0.4195506802212265,0.08686306493169144
-4.0485,0.5796033030867962,0.1504428953627153
-4.048,0.6222840025174878,0.2140227257936621
-4.0475,0.6863050516635256,0.2034260873885043
-4.047,0.7823366253826693,0.1610395337679695
-4.0465,0.7183155762366316,0.3199891098453364
-4.046,0.6222840025175752,0.5319218779484923
-4.0455,0.5475927785136608,0.6908714540262929
-4.045,0.4942419042252961,0.7968378380778709
-4.0445,0.6222840025174878,0.5001319627331828
-4.044,0.5475927785130398,-0.1674562567929341
-4.0435,-0.1886492866663929,-0.792657922697244
-4.043,-0.8608703027003992,-1.195330182093607
-4.0425,-1.415719395299392,-1.22712009730908
-4.042,-1.341028171296118,-0.6972881770507372
-4.0415,-0.807519428411986,-0.2098428104130352
-4.041,-0.2740106855283393,0.08686306493138304
-4.0405,0.1101156093489152,0.1822328105781212
-4.04,0.3235191065023739,0.13984625695749
-4.0395,0.4195506802214303,0.0232832345007543
-4.039,0.4408910299368635,-0.1144730647666344
-4.0385,0.4195506802215176,-0.2310360872233701
-4.038,0.3768699807908259,-0.2628260024388435
-4.0375,0.3448594562177197,-0.231036087223399
-4.037,0.3235191065023739,-0.2628260024388724
-4.0365,0.2808384070716433,-0.2946159176543747
-4.036,-0.1993194615246675,0.09745970333722509
-4.0355,-0.8502001278427167,0.5425185163538525
-4.035,-1.287677297007705,0.2776025562246667
-4.0345,-1.138294849000284,-0.09327978795585612
-4.034,-0.572775581542968,-0.1250697031716958
-4.0335,-0.02859666380115328,-0.04029659593035631
-4.033,0.3555296310750724,0.01268659609543266
-4.0325,0.5582629533714697,0.02328323450062901
-4.032,0.6436243522328531,0.002089957690313421
-4.0315,0.6329541773751802,0.08686306493157578
-4.031,0.632954177375355,0.2034260873883983
-4.0305,0.8356874996711408,0.09745970333682032
-4.03,0.8463576745288136,0.2458126410090295
-4.0295,0.7183155762365054,0.5107286011385814
-4.029,0.5796033030867573,0.7650479228623686
-4.0285,0.4835717293676135,0.9451907757502149
-4.028,0.2915085819289669,0.7862411996721252
-4.0275,-0.1032878878049318,0.1504428953626575
-4.027,-0.722158029550525,-0.5171453241628908
-4.0265,-1.277007122149518,-0.9516074987743603
-4.026,-1.682473766741963,-0.5383386009732256
-4.0255,-1.565101843307454,0.08686306493165288
-4.025,-0.9462317015624233,0.2670059178193354
-4.0245,-0.3487019095312346,0.1822328105779959
-4.024,0.08877525963335578,0.002089957690313421
-4.0235,0.3235191065021604,-0.1886495336025269
-4.023,0.4195506802215371,-0.3264058328699638
-4.0225,0.4408910299368829,-0.4217755785163839
-4.022,0.43022085507921,-0.4641621321370151
-4.0215,0.3982103305061233,-0.4429688553266513
-4.021,0.3661998059331045,-0.3687923864905467
-4.0205,0.3448594562177392,-0.2840192792492073
-4.02,0.2915085819290058,-0.06148987274030567
-4.0195,-0.06060718837420119,0.3623756634660061
-4.019,-0.5834457564006506,0.4683420475176805
-4.0185,-1.042263275280587,-0.1038764263608405
-4.018,-1.46907026958831,-0.2734226408440398
-4.0175,-1.405049220442214,-0.01910331912002144
-4.017,-0.7968492535548566,0.1822328105779767
-4.0165,-0.1566387620929374,0.2776025562247052
-4.016,0.291508581929326,0.3199891098453364
-4.0155,0.5689331282288224,0.2987958330350208
-4.015,0.6649647019482183,0.2987958330350883
-4.0145,0.6649647019482183,0.3941655786815084
-4.014,0.6863050516635644,0.3305857482505617
-4.0135,0.6542945270904484,0.3623756634661989
-4.013,0.5582629533713921,0.5743084315693548
-4.0125,0.4942419042252961,0.775644561267536
-4.012,0.4515612047945365,0.8816109453191622
-4.0115,0.4195506802215176,0.8286277532933731
-4.011,0.4408910299368829,0.2564092794143318
-4.0105,0.1421261339220407,-0.5065486857570295
-4.01,-0.5514352318276028,-1.121153713257435
-4.0095,-1.212986073003927,-1.460246142222792
-4.009,-1.394379045584366,-1.428456227007319
-4.0085,-0.9569018764190482,-0.9304142219639677
-4.008,-0.4127229586777283,-0.4323722169215513
-4.0075,0.01408403562918908,-0.135666341577133
-4.007,0.2701682322140772,-0.02969995752522743
-4.0065,0.3982103305061524,-0.07208651114585861
-4.006,0.4302208550792003,-0.1886495336027004
-4.0055,0.4302208550791712,-0.326405832869983
-4.005,0.3982103305061524,-0.4429688553267188
-4.0045,0.3661998059331045,-0.4853554089473885
-4.004,0.3341892813600275,-0.4853554089473596
-4.0035,0.3021787567870086,-0.4535654937318862
-4.003,0.02475421048725994,-0.1568596183871981
-4.0025,-0.658136980403808,0.4259554938964807
-4.002,-1.30901764672307,0.2564092794143318
-4.0015,-1.895877263895616,-0.4217755785163839
-4.001,-2.098610586191402,-0.3370024712751216
-4.0005,-1.351698346153063,0.1080563417421612
-4,-0.5407650569699201,0.2987958330350016
-3.9995,0.08877525963335578,0.2246193641988295
-3.999,0.4515612047945656,0.2140227257936621
-3.9985,0.6009436528021226,0.2458126410091644
-3.998,0.6436243522328531,0.3199891098453364
-3.9975,0.6756348768059011,0.3623756634660061
-3.997,0.6756348768059011,0.3411823866556712
-3.9965,0.6116138276598051,0.5107286011383502
-3.996,0.5369226036560266,0.701468092431364
-3.9955,0.4729015545099309,0.849821030103708
-3.995,0.4515612047945656,0.8816109453192104
-3.9945,0.2808384070716433,0.5213252395435176
-3.994,-0.2206598112394408,-0.1674562567923655
-3.9935,-0.722158029550525,-0.7820612842920766
-3.993,-1.212986073003927,-1.237716735714276
-3.9925,-1.330357996438436,-1.248313374119443
-3.992,-0.8928808272734472,-0.7502713690765743
-3.9915,-0.3700422592469978,-0.2204394488182027
-3.991,0.03542438534494258,0.1080563417419877
-3.9905,0.291508581929326,0.2246193641988295
-3.99,0.3982103305061524,0.1822328105781598
-3.9895,0.4408910299368829,0.05507314971615059
-3.989,0.4302208550792003,-0.1144730647665284
-3.9885,0.3982103305061524,-0.252229364033705
-3.988,0.3661998059331045,-0.326405832869877
-3.9875,0.3341892813600565,-0.3581957480853793
-3.987,0.3021787567870086,-0.3158091944647096
-3.9865,0.2061471830678648,-0.252229364033705
-3.986,-0.3380317346739499,0.2458126410091644
-3.9855,-0.9675720512772257,0.6378882620003594
-3.985,-1.30901764672307,0.1080563417419877
-3.9845,-1.586442193022819,-0.4429688553267188
-3.984,-1.287677297007705,-0.326405832869877
-3.9835,-0.6367966306890638,-0.1144730647665284
-3.983,-0.04993701351651855,0.02328323450064829
-3.9825,0.3555296310754218,0.1080563417419877
-3.982,0.5902734779444399,0.1186529801471552
-3.9815,0.6542945270905358,0.2034260873884947
-3.981,0.6649647019482183,0.2987958330350016
-3.9805,0.8356874996711408,0.2140227257936621
-3.98,0.825017324813458,0.309392471440169
-3.9795,0.6969752265212663,0.5213252395435176
-3.979,0.5796033030867573,0.7226613692416989
-3.9785,0.4942419042252961,0.8286277532933731
-3.978,0.6222840025174878,0.6590815388106942
-3.9775,0.9530594231056497,0.03387987290581572
-3.977,0.4408910299368829,-0.6231117082145651
-3.9765,-0.4447334832507763,-1.05757388282643
-3.976,-1.138294849000148,-1.248313374119443
-3.9755,-1.1062843244271,-0.9622041371799229
-3.975,-0.6688071552621118,-0.4323722169215513
-3.9745,-0.2099896363817582,-0.008506680714854012
-3.974,0.1314559590640864,0.2034260873884947
-3.9735,0.3235191065023739,0.2352160026039969
-3.973,0.408880505363835,0.1610395337678249
-3.9725,0.4302208550792003,0.01268659609548085
-3.972,0.4195506802215176,-0.1356663415768632
-3.9715,0.3982103305061524,-0.2734226408440398
-3.971,0.3661998059331045,-0.3370024712750445
-3.9705,0.3341892813600565,-0.3370024712750445
-3.97,0.3021787567870086,-0.326405832869877
-3.9695,0.00341386077189465,-0.1356663415768632
-3.969,-0.658136980404429,0.3729723018711736
-3.9685,-1.255666772434657,0.2987958330350016
-3.968,-1.725154466172693,-0.3158091944647096
-3.9675,-1.597112367880501,-0.326405832869877
-3.967,-0.9035510021311299,-0.1886495336027004
-3.9665,-0.2313299860971235,-0.07208651114585861
-3.966,0.2594980573562781,0.02328323450064829
-3.9655,0.5369226036560266,0.04447651131098315
-3.965,0.6542945270905358,0.07626642652648545
-3.9645,0.6649647019482183,0.1504428953626575
-3.964,0.8783681991018712,0.03387987290581572
-3.9635,0.974399772821015,0.04447651131098315
-3.963,0.8676980242441885,0.2564092794143318
-3.9625,0.707645401378949,0.5213252395435176
-3.962,0.5796033030867573,0.7120647308365314
-3.9615,0.5475927785137094,0.7332580076468663
-3.961,0.9210488985326017,0.2352160026039969
-3.9605,0.6649647019482183,-0.4429688553267188
-3.96,-0.156638762093345,-0.9939940523954253
-3.9595,-0.9355615267041777,-1.237716735714276
-3.959,-1.170305373573196,-1.110557074852267
-3.9585,-0.807519428411986,-0.5913217929990628
-3.958,-0.3380317346739499,-0.1144730647665284
-3.9575,0.03542438534494258,0.1610395337678249
-3.957,0.2701682322139607,0.2352160026039969
-3.9565,0.3875401556484697,0.1822328105781598
-3.956,0.4195506802215176,0.04447651131098315
-3.9555,0.4195506802215176,-0.1144730647665284
-3.955,0.3982103305061524,-0.2416327256285375
-3.9545,0.3661998059331045,-0.2946159176543747
-3.954,0.3341892813600565,-0.3052125560595421
-3.9535,0.2594980573562781,-0.1780528951975329
-3.953,0.05676473506030786,0.1186529801471552
-3.9525,-0.391382608962363,0.5955017083796896
-3.952,-1.010252750707956,0.4683420475176805
-3.9515,-1.437059745015262,-0.08268314955102604
-3.951,-1.383708870726849,0.01268659609548085
-3.9505,-0.807519428411986,0.13984625695749
-3.95,-0.1886492866663929,0.2140227257936621
-3.9495,0.2488278824985954,0.1928294489833272
-3.949,0.5155822539406614,0.09745970333682032
-3.9485,0.6116138276598051,0.1292496185523226
-3.948,0.6116138276598051,0.2246193641988295
-3.9475,0.6969752265212663,0.2034260873884947
-3.947,0.8356874996711408,0.1292496185523226
-3.9465,0.7716664505250448,0.2670059178194992
-3.946,0.6542945270905358,0.457745409112513
-3.9455,0.5369226036560266,0.6484849004055269
-3.945,0.4729015545099309,0.7862411996727035
-3.9445,0.7289857510943143,0.5001319627331828
-3.944,0.8463576745288233,-0.1674562567923655
-3.9435,0.08877525963335578,-0.7714646458869092
-3.943,-0.7648387289812555,-1.142346990067769
-3.9425,-1.298347471865388,-1.237716735714276
-3.942,-1.084943974711735,-0.7714646458869092
-3.9415,-0.5834457564006506,-0.1886495336027004
-3.941,-0.124628237520297,0.2246193641988295
-3.9405,0.1848068333524996,0.4047622170866759
-3.94,0.3448594562177392,0.4047622170866759
-3.9395,0.408880505363835,0.2881991946298341
-3.939,0.4195506802215176,0.1292496185523226
-3.9385,0.3982103305061524,-0.05089323433552374
-3.938,0.3768699807907871,-0.1674562567923655
-3.9375,0.3555296310754218,-0.252229364033705
-3.937,0.2274875327832301,-0.08268314955102604
-3.9365,-0.04993701351651855,0.2458126410091644
-3.936,-0.5194247072545548,0.5637117931641874
-3.9355,-1.010252750707956,0.4259554938970107
-3.935,-1.138294849000148,-0.3370024712750445
-3.9345,-1.255666772434657,-0.7290780922662394
-3.934,-0.9782422261349084,-0.4111789401112165
-3.9335,-0.4340633083930936,-0.1356663415768632
-3.933,0.07810508477567314,-0.04029659593035631
-3.9325,0.4195506802215176,0.002089957690313421
-3.932,0.5796033030867573,0.01268659609548085
-3.9315,0.6329541773751706,0.07626642652648545
-3.931,0.6756348768059011,0.1186529801471552
-3.9305,0.9210488985326017,-0.01910331912002144
-3.93,0.9103787236749192,0.1080563417419877
-3.9295,0.7609962756673623,0.3729723018711736
-3.929,0.6116138276598051,0.5955017083796896
-3.9285,0.5155822539406614,0.7332580076468663
-3.928,0.6222840025174878,0.6166949851900245
-3.9275,1.113112045970889,0.01268659609548085
-3.927,0.79300680024041,-0.6549016234300674
-3.9265,0.01408403562957729,-1.142346990067769
-3.926,-0.7008176798351597,-1.34368311976595
-3.9255,-0.7328282044082075,-0.9410108603695881
-3.925,-0.4340633083930936,-0.3687923864905467
-3.9245,-0.09261771294724913,0.05507314971615059
-3.924,0.1634664836371343,0.2564092794143318
-3.9235,0.3128489316446912,0.2881991946298341
-3.923,0.3768699807907871,0.1928294489833272
-3.9225,0.3982103305061524,0.05507314971615059
-3.922,0.3875401556484697,-0.1038764263613609
-3.9215,0.3661998059331045,-0.2098428104130352
-3.921,0.3448594562177392,-0.252229364033705
-3.9205,0.3021787567870086,-0.252229364033705
-3.92,0.2808384070716433,-0.2416327256285375
-3.9195,0.07810508477567314,0.06566978812131802
-3.919,-0.391382608962363,0.5001319627331828
-3.9185,-0.9462317015618604,0.1504428953626575
-3.918,-1.415719395299897,0.03387987290581572
-3.9175,-1.362368521011484,0.3305857482505039
-3.917,-0.7755089038389382,0.3729723018711736
-3.9165,-0.156638762093345,0.2564092794143318
-3.916,0.2808384070716433,0.03387987290581572
-3.9155,0.5475927785137094,-0.1462629799820306
-3.915,0.6649647019482183,-0.1886495336027004
-3.9145,0.6542945270905358,-0.06148987274069118
-3.914,0.6329541773751706,-0.09327978795619347
-3.9135,0.5582629533713921,0.06566978812131802
-3.913,0.4835717293676135,0.3729723018711736
-3.9125,0.4302208550792003,0.6378882620003594
-3.912,0.408880505363835,0.8286277532933731
-3.9115,0.4622313796522482,0.8604176685088755
-3.911,0.8143471499557753,0.4047622170866759
-3.9105,0.4408910299368829,-0.3052125560595421
-3.91,-0.4660738329661415,-0.9198175835592532
-3.9095,-1.287677297007705,-1.333086481360783
-3.909,-1.415719395299897,-1.205926820498774
-3.9085,-0.9462317015618604,-0.6443049850249
-3.908,-0.4020527838200457,-0.1250697031716958
-3.9075,0.02475421048725994,0.1716361721729923
-3.907,0.2701682322139607,0.2670059178194992
-3.9065,0.3875401556484697,0.2140227257936621
-3.906,0.4195506802215176,0.07626642652648545
-3.9055,0.408880505363835,-0.08268314955102604
-3.905,0.3768699807907871,-0.2204394488182027
-3.9045,0.3448594562177392,-0.2734226408440398
-3.904,0.3128489316446912,-0.3052125560595421
-3.9035,0.291508581929326,-0.3052125560595421
-3.903,0.04609456020262521,-0.06148987274069118
-3.9025,-0.5834457564006506,0.3411823866556712
-3.902,-1.148965023857831,-0.04029659593035631
-3.9015,-1.319687821580753,-0.570128516188728
-3.901,-1.362368521011484,-0.252229364033705
-3.9005,-0.8715404775580819,0.1822328105781598
-3.9,-0.2420001609548061,0.3199891098453364
-3.8995,0.2274875327832301,0.2776025562246667
-3.899,0.4729015545099309,0.1610395337678249
-3.8985,0.5796033030867573,0.04447651131098315
-3.898,0.6116138276598051,0.05507314971615059
-3.8975,0.7503261008096795,0.03387987290581572
-3.897,0.942389248247967,-0.01910331912002144
-3.8965,0.8890383739595538,0.2034260873884947
-3.896,0.7503261008096795,0.4895353243280153
-3.8955,0.6009436528021226,0.7226613692416989
-3.895,0.4942419042252961,0.8074344764830383
-3.8945,0.1101156093487211,0.4153588554918433
-3.894,-0.391382608962363,-0.2098428104130352
-3.8935,-0.9462317015618604,-0.7820612842920766
-3.893,-1.298347471865388,-1.142346990067769
-3.8925,-1.373038695869166,-1.184733543688439
-3.892,-0.9142211769888124,-0.718481453861072
-3.8915,-0.391382608962363,-0.1886495336027004
-3.891,0.02475421048725994,0.1504428953626575
-3.8905,0.2701682322139607,0.2776025562246667
-3.89,0.3875401556484697,0.2458126410091644
-3.8895,0.4195506802215176,0.1080563417419877
-3.889,0.408880505363835,-0.06148987274069118
-3.8885,0.3875401556484697,-0.1992461720078678
-3.888,0.3448594562177392,-0.2946159176543747
-3.8875,0.3128489316446912,-0.326405832869877
