Class_5_Move_Left_hand_Horiszontal/Class_5_Move_Left_hand_Horizontal_Turki_15.csv

#Digilent WaveForms Oscilloscope Acquisition
#Device Name: EExplorer
#Serial Number: SN:210151A2B84A
#Date Time: 2021-02-07 10:56:32.049
#Sample rate: 2000Hz
#Samples: 16384
#Trigger: Source: Channel 1 Type: Edge Condition: Rising Level: 0 V Hyst.: Auto HoldOff: 0 s
#Channel 1: Range: 1 V/div Offset: 0 V Attenuation: 1 X
#Channel 2: Range: 1 V/div Offset: 0 V Attenuation: 1 X
#Power Supplies: ON
#Fixed Supply: ON
#Voltage: 3.3 V Readback: 3.317 V
#Positive Supply: ON
#Voltage: 3.7 V Readback: 3.732 V
#Current: 40 mA Readback: 16 mA
#Negative Supply: ON
#Voltage: -3.7 V Readback: -3.363 V
#Current: -40 mA Readback: -6 mA
#Reference 1: ON
#Voltage: 0 V
#Reference 2: ON
#Voltage: 0 V

Time (s),Channel 1 (V),Channel 2 (V)
-4.096,0.3661998059331045,-0.07208651114585861
-4.0955,0.3661998059331045,-0.02969995752522743
-4.095,0.3128489316446427,0.02328323450068684
-4.0945,0.2594980573562781,0.06566978812131802
-4.094,0.2168173579255863,0.09745970333679141
-4.0935,-0.08194753809019727,-0.1356663415774222
-4.093,-0.7755089038389382,-0.7502713690765743
-4.0925,-1.287677297007239,-1.343683119765411
-4.092,-1.255666772434279,-1.50263269584298
-4.0915,-0.839529952985034,-0.9728007755850904
-4.091,-0.4127229586777283,-0.326405832869877
-4.0905,-0.0819475380894015,0.1822328105784489
-4.09,0.09944543449103843,0.5001319627331828
-4.0895,0.1848068333524996,0.6696781772158616
-4.089,0.2061471830678454,0.7226613692416507
-4.0885,0.1954770082101822,0.7120647308365314
-4.088,0.1741366584948169,0.6696781772158616
-4.0875,0.163466483637144,0.6166949851900727
-4.087,0.1527963087794419,0.5637117931641392
-4.0865,0.142126133921769,0.5107286011383502
-4.086,0.142126133921769,0.4471487707074034
-4.0855,0.110115609348362,0.3411823866551797
-4.085,-0.2846808603855366,-0.1992461720078678
-4.0845,-0.6154562809733977,-0.8774310299379666
-4.084,-0.6794773301196875,-1.354279758171031
-4.0835,-0.5621054066852853,-1.258910012524611
-4.083,-0.2313299860971235,-0.8668343915334161
-4.0825,0.03542438534506873,-0.5065486857574921
-4.082,0.1741366584948169,-0.252229364033705
-4.0815,0.2274875327832301,-0.1038764263613609
-4.081,0.238157707640903,-0.008506680714940748
-4.0805,0.2168173579255475,0.002089957690313421
-4.08,0.291508581929326,0.02328323450064829
-4.0795,0.6542945270902059,0.4471487707069601
-4.079,0.7609962756672458,0.6060983467847704
-4.0785,0.6329541773751706,0.5107286011383502
-4.078,0.4622313796524035,0.3835689402764567
-4.0775,0.3448594562176518,0.3305857482503111
-4.077,0.2488278824985954,0.1186529801471552
-4.0765,-0.188649286665995,-0.4853554089468392
-4.076,-0.4767440078240863,-1.046977244421677
-4.0755,-0.7648387289812555,-1.502632695843462
-4.075,-0.9035510021311299,-1.460246142222792
-4.0745,-0.6688071552618207,-0.8456411147224934
-4.074,-0.3487019095316325,-0.1992461720078678
-4.0735,-0.08194753808956648,0.2987958330350016
-4.073,0.07810508477552758,0.5849050699742619
-4.0725,0.1634664836371343,0.7332580076468663
-4.072,0.1848068333524996,0.775644561267536
-4.0715,0.1848068333524996,0.7544512844572204
-4.071,0.1741366584948072,0.7120647308364833
-4.0705,0.1634664836371343,0.6590815388106942
-4.07,0.1527963087794613,0.6060983467849053
-4.0695,0.142126133921769,0.5425185163537947
-4.069,0.142126133921769,0.4789386859228479
-4.0685,0.07810508477567314,0.2140227257936621
-4.068,-0.08194753808978968,-0.389985663301508
-4.0675,-0.3273615598162672,-1.078767159636765
-4.067,-0.2420001609548061,-1.322489842955616
-4.0665,0.05676473506047284,-0.9728007755847049
-4.066,0.2381577076409128,-0.5489352393783931
-4.0655,0.3128489316446912,-0.2416327256285375
-4.065,0.3021787567870183,-0.09327978795632838
-4.0645,0.2594980573562781,-0.07208651114585861
-4.064,0.2274875327832301,-0.09327978795619347
-4.0635,0.2168173579255572,-0.08268314955103567
-4.063,0.4408910299369703,-0.1886495336026714
-4.0625,0.5369226036560266,-0.1568596183871981
-4.062,0.4729015545099891,-0.05089323433562012
-4.0615,0.3661998059330268,0.04447651131106025
-4.061,0.2808384070716433,0.1292496185523226
-4.0605,0.1741366584948169,0.1716361721729923
-4.06,-0.2846808603859733,-0.09327978795678137
-4.0595,-0.7648387289812555,-0.7396747306714069
-4.059,-0.9355615267041777,-1.290699927740113
-4.0585,-0.8395299529851213,-1.290699927740113
-4.058,-0.5300948821122373,-0.7714646458869092
-4.0575,-0.2206598112394408,-0.1992461720078678
-4.057,0.003413860771690869,0.224619364198444
-4.0565,0.1207857842064037,0.4895353243280153
-4.056,0.1741366584948169,0.6166949851900245
-4.0555,0.1848068333524898,0.6590815388106557
-4.055,0.1741366584948072,0.648484900405498
-4.0545,0.1634664836371343,0.6166949851900245
-4.054,0.1527963087794613,0.5743084315693934
-4.0535,0.142126133921769,0.5319218779486369
-4.053,0.142126133921769,0.4789386859228479
-4.0525,0.142126133921769,0.4365521323021782
-4.052,0.05676473505990027,0.2564092794137439
-4.0515,-0.391382608962363,-0.3899856633008816
-4.051,-0.6688071552621118,-1.110557074852267
-4.0505,-0.6581369804044387,-1.534422611058579
-4.05,-0.2206598112394408,-1.142346990067769
-4.0495,0.142126133921769,-0.6337083466197325
-4.049,0.3235191065022089,-0.2734226408443675
-4.0485,0.3555296310753927,-0.1038764263612742
-4.048,0.3235191065023739,-0.008506680714854012
-4.0475,0.2701682322140092,0.04447651131093496
-4.047,0.2274875327833175,0.08686306493173962
-4.0465,0.3235191065023739,0.1822328105781598
-4.046,0.4088805053637574,0.2564092794142643
-4.0455,0.3875401556484115,0.2246193641988006
-4.045,0.3235191065023739,0.1928294489833272
-4.0445,0.2808384070716433,0.1716361721729923
-4.044,0.2808384070714686,0.1504428953623394
-4.0435,0.08877525963335578,-0.1992461720078678
-4.043,-0.391382608962363,-0.8244478379127463
-4.0425,-0.7114878546925512,-1.375473034980952
-4.042,-0.9782422261349084,-1.682775548731308
-4.0415,-0.8288597781273515,-1.195330182093607
-4.041,-0.4874141826818174,-0.5065486857583498
-4.0405,-0.1779791118085259,0.06566978812167461
-4.04,0.02475421048725994,0.457745409112513
-4.0395,0.1421261339216622,0.6696781772156689
-4.039,0.1848068333524996,0.7544512844572204
-4.0385,0.1848068333524996,0.775644561267536
-4.038,0.1741366584948266,0.7438546460520626
-4.0375,0.1634664836371246,0.7120647308364833
-4.037,0.1527963087794516,0.6590815388106942
-4.0365,0.142126133921769,0.6166949851900245
-4.036,0.1421261339217399,0.5531151547589139
-4.0355,0.1101156093487211,0.4365521323021782
-4.035,-0.1886492866663929,-0.1250697031716958
-4.0345,-0.5087545323965809,-0.8562377531275837
-4.034,-0.7008176798351597,-1.34368311976595
-4.0335,-0.4554036581084589,-1.078767159636765
-4.033,-0.09261771294757909,-0.6443049850252951
-4.0325,0.1527963087795487,-0.3158091944645746
-4.032,0.2594980573562781,-0.1674562567923655
-4.0315,0.2808384070716239,-0.1462629799820499
-4.031,0.259498057356249,-0.1674562567924041
-4.0305,0.2274875327832301,-0.2098428104130352
-4.03,0.2915085819292678,-0.2522293640336665
-4.0295,0.4942419042252864,-0.3370024712749384
-4.029,0.4835717293676135,-0.2204394488182027
-4.0285,0.3982103305061524,-0.05089323433552374
-4.028,0.312848931644633,0.1080563417421034
-4.0275,0.2488278824985954,0.2352160026039969
-4.027,0.2808384070716433,0.4047622170866759
-4.0265,0.07810508477585751,0.2564092794144667
-4.026,-0.3380317346739499,-0.4323722169215513
-4.0255,-0.7648387289812555,-1.068170521231597
-4.025,-0.7861790786966013,-1.036380606016124
-4.0245,-0.5300948821119656,-0.5807251545934521
-4.024,-0.2313299860971235,-0.09327978795619347
-4.0235,-0.01792648894366472,0.2670059178191715
-4.023,0.1101156093487696,0.4789386859229346
-4.0225,0.1634664836371343,0.5743084315693548
-4.022,0.1848068333524802,0.6060983467848282
-4.0215,0.1741366584948072,0.5955017083796608
-4.021,0.1634664836371343,0.5637117931641874
-4.0205,0.1527963087794516,0.5319218779486851
-4.02,0.142126133921769,0.5001319627331443
-4.0195,0.142126133921769,0.457745409112513
-4.019,0.1314559590640864,0.3941655786815084
-4.0185,-0.1139580626623912,-0.04029659592996121
-4.018,-0.6047861061160158,-0.792657922697244
-4.0175,-0.8608703027003992,-1.449649503817625
-4.017,-0.5727755815432301,-1.460246142222783
-4.0165,0.03542438534527253,-0.8244478379122934
-4.016,0.3982103305061524,-0.326405832869877
-4.0155,0.5155822539405546,-0.02969995752545873
-4.015,0.4729015545098436,0.08686306493166251
-4.0145,0.3768699807907871,0.09745970333682032
-4.014,0.2808384070717307,0.02328323450071575
-4.0135,0.238157707641136,-0.08268314955122844
-4.013,0.4835717293676135,-0.3052125560595421
-4.0125,0.5582629533713921,-0.2946159176543747
-4.012,0.4835717293675165,-0.1250697031715319
-4.0115,0.3768699807907871,0.05507314971615059
-4.011,0.291508581929326,0.1928294489833272
-4.0105,0.2594980573563072,0.2987958330349052
-4.01,0.03542438534494258,0.4365521323021782
-4.0095,-0.4340633083930936,-0.06148987274069118
-4.009,-0.5941159312581877,-0.697288177050159
-4.0085,-0.4767440078236205,-0.7820612842917971
-4.008,-0.2526703358124887,-0.474758770542221
-4.0075,-0.04993701351670293,-0.1038764263616982
-4.007,0.07810508477573137,0.1928294489835103
-4.0065,0.142126133921769,0.3941655786815084
-4.006,0.1634664836371343,0.5107286011383502
-4.0055,0.1634664836371343,0.5743084315693837
-4.005,0.1634664836371343,0.6060983467848571
-4.0045,0.1527963087794516,0.6166949851900245
-4.004,0.142126133921769,0.6166949851900149
-4.0035,0.142126133921769,0.6060983467848571
-4.003,0.1314559590640864,0.5955017083796896
-4.0025,0.1314559590640864,0.5849050699745318
-4.002,0.02475421048725994,0.3941655786815084
-4.0015,-0.423393133535411,-0.2840192792492073
-4.001,-0.6901475049772343,-1.015187329205095
-4.0005,-0.7861790786963296,-1.460246142222503
-4,-0.4660738329661415,-1.142346990067769
-3.9995,-0.09261771294724913,-0.6654982618352349
-3.999,0.142126133921769,-0.2840192792492073
-3.9985,0.2381577076409128,-0.08268314955102604
-3.998,0.2701682322139607,0.002089957690313421
-3.9975,0.2488278824985954,0.02328323450064829
-3.997,0.2168173579255475,0.03387987290581572
-3.9965,0.3128489316446912,0.06566978812131802
-3.996,0.4302208550792003,0.09745970333682032
-3.9955,0.4195506802215176,0.1080563417419877
-3.995,0.3448594562177392,0.09745970333682032
-3.9945,0.2701682322139607,0.1080563417419877
-3.994,0.2168173579255475,0.13984625695749
-3.9935,0.09944543449103843,0.2352160026039969
-3.993,-0.4447334832507763,-0.1250697031716958
-3.9925,-0.9248913518464952,-0.8138511995075789
-3.992,-1.148965023857831,-1.248313374119443
-3.9915,-0.9035510021311299,-0.9622041371799229
-3.991,-0.5087545323968721,-0.4111789401112165
-3.9905,-0.1779791118087102,0.08686306493165288
-3.99,0.03542438534494258,0.4365521323021782
-3.9895,0.1527963087794516,0.6378882620003594
-3.989,0.1848068333524996,0.7332580076468663
-3.9885,0.1848068333524996,0.7650479228623686
-3.988,0.1741366584948169,0.7544512844572011
-3.9875,0.1634664836371343,0.7332580076468663
-3.987,0.142126133921769,0.701468092431364
-3.9865,0.142126133921769,0.6590815388106942
-3.986,0.1314559590640864,0.6060983467848571
-3.9855,0.04609456020262521,0.4789386859228479
-3.985,-0.4127229586777283,-0.1462629799820306
-3.9845,-0.7434983792658902,-0.9304142219644207
-3.984,-0.7861790786966207,-1.481439419033127
-3.9835,-0.4660738329661415,-1.364876396576285
-3.983,-0.07127736323188383,-0.9092209451540858
-3.9825,0.1954770082101822,-0.474758770542221
-3.982,0.291508581929326,-0.1886495336027004
-3.9815,0.3021787567870086,-0.07208651114585861
-3.981,0.2701682322139607,-0.04029659593035631
-3.9805,0.2274875327832301,-0.01910331912002144
-3.98,0.291508581929326,-0.1356663415768632
-3.9795,0.4835717293676135,-0.3158091944647096
-3.979,0.4942419042252961,-0.252229364033705
-3.9785,0.408880505363835,-0.1038764263613609
-3.978,0.3128489316446912,0.03387987290581572
-3.9775,0.2488278824985954,0.1504428953626575
-3.977,0.00341386077189465,-0.02969995752518888
-3.9765,-0.5834457564006506,-0.6231117082145651
-3.976,-0.9782422261349084,-1.205926820498774
-3.9755,-1.244996597576974,-1.608599079895136
-3.975,-1.042263275281004,-1.269506650929778
-3.9745,-0.6261264558313813,-0.6019184314042303
-3.974,-0.2526703358124887,-0.01910331912002144
-3.9735,0.00341386077189465,0.383568940276341
-3.973,0.1314559590640864,0.6060983467848571
-3.9725,0.1848068333524996,0.6908714540261965
-3.972,0.1954770082101822,0.701468092431364
-3.9715,0.1848068333524996,0.6802748156210291
-3.971,0.1634664836371343,0.627291623595192
-3.9705,0.1527963087794516,0.5849050699745222
-3.97,0.142126133921769,0.5319218779486851
-3.9695,0.142126133921769,0.4789386859228479
-3.969,0.1207857842064037,0.457745409112513
-3.9685,-0.2526703358124887,0.3517790250608387
-3.968,-0.6794773301197943,-0.3158091944647096
-3.9675,-0.8288597781273515,-1.05757388282643
-3.967,-0.7114878546928423,-1.333086481360783
-3.9665,-0.2846808603855366,-1.004590690800593
-3.966,0.0674349099179905,-0.5807251545938954
-3.9655,0.2488278824985954,-0.2416327256285375
-3.965,0.3128489316446912,-0.05089323433552374
-3.9645,0.3021787567870086,0.02328323450064829
-3.964,0.2594980573562781,0.01268659609548085
-3.9635,0.2381577076409128,0.01268659609548085
-3.963,0.3982103305061524,-0.1886495336027004
-3.9625,0.4408910299368829,-0.2204394488182027
-3.962,0.3875401556484697,-0.1250697031716958
-3.9615,0.3448594562177392,0.02328323450064829
-3.961,0.291508581929326,0.1186529801471552
-3.9605,0.2168173579255475,0.2034260873884947
-3.96,-0.156638762093345,0.13984625695749
-3.9595,-0.7861790786966207,-0.4641621321370536
-3.959,-1.084943974711735,-1.046977244421262
-3.9585,-0.8822106524157645,-0.9410108603695881
-3.958,-0.5087545323968721,-0.474758770542221
-3.9575,-0.1779791118087102,0.002089957690313421
-3.957,0.03542438534494258,0.3517790250608387
-3.9565,0.142126133921769,0.5743084315693548
-3.956,0.1848068333524996,0.6802748156210291
-3.9555,0.1848068333524996,0.7226613692416989
-3.955,0.1741366584948169,0.7226613692416989
-3.9545,0.1634664836371343,0.701468092431364
-3.954,0.1527963087794516,0.6696781772158616
-3.9535,0.142126133921769,0.627291623595192
-3.953,0.142126133921769,0.5849050699745222
-3.9525,0.1314559590640864,0.5425185163538525
-3.952,-0.1139580626626144,0.2670059178194992
-3.9515,-0.6794773301197943,-0.4641621321370536
-3.951,-0.9995825758502737,-1.205926820498774
-3.9505,-1.084943974711735,-1.608599079895136
-3.95,-0.6688071552621118,-1.248313374119443
-3.9495,-0.1886492866663929,-0.6972881770507372
-3.949,0.1207857842064037,-0.2734226408440398
-3.9485,0.2594980573562781,-0.008506680714854012
-3.948,0.291508581929326,0.1186529801471552
-3.9475,0.2808384070716433,0.1292496185523226
-3.947,0.2488278824985954,0.1186529801471552
-3.9465,0.408880505363835,0.06566978812131802
-3.946,0.5262524287983441,0.01268659609548085
-3.9455,0.4729015545099309,0.01268659609548085
-3.945,0.3661998059331045,0.05507314971615059
-3.9445,0.2808384070716433,0.08686306493165288
-3.944,0.2168173579255475,0.05507314971615059
-3.9435,-0.2099896363817582,-0.3899856633008816
-3.943,-0.8288597781273515,-1.036380606016095
-3.9425,-1.052933450138687,-1.534422611058964
-3.942,-1.212986073003927,-1.534422611058964
-3.9415,-1.031593100423322,-1.110557074852267
-3.941,-0.6261264558313813,-0.5171453241628908
-3.9405,-0.2526703358124887,-0.02969995752518888
-3.94,0.00341386077189465,0.309392471440169
-3.9395,0.142126133921769,0.4895353243280153
-3.939,0.1954770082101822,0.5743084315693548
-3.9385,0.1954770082101822,0.6060983467848571
-3.938,0.1848068333524996,0.5955017083796896
-3.9375,0.1741366584948169,0.5849050699745222
-3.937,0.1527963087794516,0.5743084315693548
-3.9365,0.1527963087794516,0.55311515475902
-3.936,0.142126133921769,0.5319218779486851
-3.9355,0.0674349099179905,0.457745409112513
-3.935,-0.423393133535411,-0.08268314955102604
-3.9345,-0.7008176798351597,-0.792657922697244
-3.934,-0.7968492535543035,-1.364876396576285
-3.9335,-0.658136980404429,-1.290699927740113
-3.933,-0.2846808603855366,-0.8138511995075789
-3.9325,0.01408403562957729,-0.3581957480853793
-3.932,0.1848068333524996,-0.09327978795619347
-3.9315,0.2488278824985954,0.01268659609548085
-3.931,0.2594980573562781,0.002089957690313421
-3.9305,0.2381577076409128,-0.08268314955102604
-3.93,0.2701682322139607,-0.1356663415768632
-3.9295,0.3661998059331045,-0.07208651114585861
-3.929,0.3555296310754218,0.002089957690313421
-3.9285,0.3128489316446912,0.05507314971615059
-3.928,0.2701682322139607,0.1080563417419877
-3.9275,0.2594980573562781,0.1504428953626575
-3.927,0.07810508477567314,0.02328323450064829
-3.9265,-0.572775581542968,-0.5489352393783931
-3.926,-1.031593100423322,-1.163540266878104
-3.9255,-1.116954499284783,-1.407262950196955
-3.925,-0.7968492535543035,-0.9728007755850904
-3.9245,-0.4020527838200457,-0.3793890248957141
-3.924,-0.1032878878049318,0.1080563417419877
-3.9235,0.08877525963335578,0.4365521323021782
-3.923,0.1741366584948169,0.6060983467848571
-3.9225,0.2061471830678648,0.6696781772158616
-3.922,0.1954770082101822,0.6908714540261965
-3.9215,0.1848068333524996,0.6696781772158616
-3.921,0.1634664836371343,0.6378882620003594
-3.9205,0.1527963087794516,0.6060983467848571
-3.92,0.1527963087794516,0.5743084315693548
-3.9195,0.142126133921769,0.5319218779486851
-3.919,0.142126133921769,0.4895353243280153
-3.9185,-0.07127736323188383,0.1716361721729923
-3.918,-0.5514352318276028,-0.5595318777835605
-3.9175,-0.9142211769888124,-1.258910012524611
-3.917,-0.8715404775580819,-1.34368311976595
-3.9165,-0.3807124341046804,-0.8774310299385835
-3.916,0.05676473506030786,-0.4217755785163839
-3.9155,0.291508581929326,-0.1250697031716958
-3.915,0.3555296310754218,0.05507314971615059
-3.9145,0.3341892813600565,0.13984625695749
-3.914,0.2808384070716433,0.1080563417419877
-3.9135,0.2701682322139607,0.04447651131098315
-3.913,0.3875401556484697,0.2034260873884947
-3.9125,0.408880505363835,0.2670059178194992
-3.912,0.4302208550792003,0.2670059178194992
-3.9115,0.408880505363835,0.2458126410091644
-3.911,0.3661998059331045,0.2246193641988295
-3.9105,0.3021787567870086,0.2670059178194992
-3.91,-0.06060718837420119,0.1928294489833272
-3.9095,-0.658136980404429,-0.4217755785163839
-3.909,-0.8928808272734472,-1.036380606016095
-3.9085,-0.7648387289812555,-0.9833974139902578
-3.908,-0.4447334832507763,-0.5171453241628908
-3.9075,-0.156638762093345,-0.02969995752518888
-3.907,0.03542438534494258,0.3517790250608387
-3.9065,0.142126133921769,0.5955017083796896
-3.906,0.1848068333524996,0.7226613692416989
-3.9055,0.1954770082101822,0.775644561267536
-3.905,0.1848068333524996,0.7968378380778709
-3.9045,0.1741366584948169,0.775644561267536
-3.904,0.1634664836371343,0.7544512844572011
-3.9035,0.1527963087794516,0.7226613692416989
-3.903,0.142126133921769,0.6908714540261965
-3.9025,0.142126133921769,0.6378882620003594
-3.902,-0.06060718837420119,0.3305857482505039
-3.9015,-0.6047861061160158,-0.4111789401112165
-3.901,-0.9248913518464952,-1.142346990067769
-3.9005,-0.9248913518464952,-1.481439419033127
-3.9,-0.5300948821122373,-1.152943628472937
-3.8995,-0.1139580626626144,-0.6443049850249
-3.899,0.142126133921769,-0.2204394488182027
-3.8985,0.2594980573562781,-0.01910331912002144
-3.898,0.2808384070716433,0.02328323450064829
-3.8975,0.2594980573562781,0.03387987290581572
-3.897,0.2381577076409128,-0.02969995752518888
-3.8965,0.3661998059331045,-0.1674562567923655
-3.896,0.4302208550792003,-0.2098428104130352
-3.8955,0.3982103305061524,-0.1250697031716958
-3.895,0.3235191065023739,-0.04029659593035631
-3.8945,0.2594980573562781,0.03387987290581572
-3.894,0.1954770082101822,0.07626642652648545
-3.8935,-0.2206598112394408,-0.2628260024388724
-3.893,-0.807519428411986,-0.8986243067489184
-3.8925,-0.9995825758502737,-1.439052865412457
-3.892,-1.06360362499637,-1.661582271920973
-3.8915,-0.7968492535543035,-1.142346990067769
-3.891,-0.423393133535411,-0.474758770542221
-3.8905,-0.1139580626626144,0.06566978812131802
-3.89,0.07810508477567314,0.4153588554918433
-3.8895,0.1741366584948169,0.6060983467848571
-3.889,0.1954770082101822,0.6802748156210291
-3.8885,0.1954770082101822,0.6908714540261965
-3.888,0.1848068333524996,0.6696781772158616
