Class_5_Move_Left_hand_Horiszontal/Class_5_Move_Left_Hand_Horizontal_Zakour_1.csv

#Digilent WaveForms Oscilloscope Acquisition
#Device Name: EExplorer
#Serial Number: SN:210151A2B84A
#Date Time: 2020-10-20 13:11:45.061
#Sample rate: 2000Hz
#Samples: 16384
#Trigger: Source: Channel 1 Type: Edge Condition: Rising Level: 0 V Hyst.: Auto HoldOff: 0 s
#Channel 1: Range: 1 V/div Offset: 0 V
#Channel 2: Range: 1 V/div Offset: 0 V

Time (s),Channel 1 (V),Channel 2 (V)
-4.0960000000000001,0.76099627566736228,-0.10387642636136091
-4.0955000000000004,1.2304839694049714,-1.1423469900668248
-4.0949999999999998,1.2838348436939766,-2.1066410849382851
-4.0945,1.4652278162744163,-2.4139435986878612
-4.0940000000000003,1.1024418711135366,-1.8629184016196561
-4.0934999999999997,0.6542945270901962,-0.93041422196375567
-4.093,0.28083840707164331,-0.19924617200786782
-4.0925000000000002,-0.039266838658544745,0.10805634174170825
-4.0919999999999996,-0.17797911180872963,0.13984625695741293
-4.0914999999999999,-0.19931946152407554,0.055073149716150585
-4.0910000000000002,-0.17797911180871023,-0.029699957525188878
-4.0904999999999996,-0.18864928666654815,-0.040296595930173193
-4.0899999999999999,-0.35937208438931517,0.16103953376782493
-4.0895000000000001,-0.34870190953163249,0.17163617217299235
-4.0890000000000004,-0.31669138495861371,0.16103953376783456
-4.0884999999999998,-0.31669138495858457,0.20342608738849466
-4.0880000000000001,-0.30602121010090194,0.23521600260399694
-4.0875000000000004,-0.72215802955014652,0.65908153881030862
-4.0869999999999997,-1.5544316684504309,1.28428320471538
-4.0865,-2.2800035587721905,1.0723504366122243
-4.0860000000000003,-2.4400561816372845,-0.029699957524186527
-4.0854999999999997,-1.4157193952989457,-1.1317503516628524
-4.085,-0.3700422592469978,-1.4072629501969551
-4.0845000000000002,0.13145595906363022,-0.89862430674938099
-4.0839999999999996,0.29150858192930656,-0.20984281041251482
-4.0834999999999999,0.27016823221396069,0.36237566346600614
-4.0830000000000002,0.19547700821018218,0.75445128445720111
-4.0824999999999996,0.12078578420635519,0.98757732937098108
-4.0819999999999999,0.067434909917990504,1.0935437134225592
-4.0815000000000001,0.05676473506030786,1.0723504366122243
-4.0810000000000004,0.088775259633326664,0.90280422212969946
-4.0804999999999998,0.11011560934872107,0.58490506997452218
-4.0800000000000001,-0.29535103524321932,-0.44296885532671876
-4.0795000000000003,0.1207857842060252,-1.3118932045496579
-4.0789999999999997,1.1024418711140316,-2.0960444465334067
-4.0785,2.0094067340162312,-2.7212461124377167
-4.0780000000000003,2.574926001472897,-2.9331788805408725
-4.0774999999999997,2.2441505808844826,-2.2973805762301711
-4.077,1.4012067671283206,-1.3648763965762853
-4.0765000000000002,0.63295417737586934,-0.63370834662039754
-4.0759999999999996,0.14212613392155549,-0.18864953360253653
-4.0754999999999999,-0.092617712947249131,-0.0085066807148540119
-4.0750000000000002,-0.16730893695102761,0.0020899576903134209
-4.0744999999999996,-0.15663876209333524,-0.040296595930365949
-4.0739999999999998,-0.14596858723566233,-0.050893234335523743
-4.0735000000000001,-0.24200016095480609,0.086863064931652884
-4.0730000000000004,-0.27401068552782493,0.097459703336810671
-4.0724999999999998,-0.22065981123944084,-0.0085066807148540119
-4.0720000000000001,-0.14596858723566233,-0.082683149551026042
-4.0715000000000003,-0.12462823752031643,-0.050893234335552658
-4.0709999999999997,-0.615456280974504,0.48953532432868996
-4.0705,-1.5010807941613578,1.2313000126897355
-4.0700000000000003,-2.1092807610487156,1.2313000126897355
-4.0694999999999997,-1.714484291313749,0.58490506997464742
-4.069,-0.32736155981626724,0.72266136924169888
-4.0685000000000002,0.75032610080967954,0.9134008605347127
-4.0679999999999996,0.96372959796314805,0.69087145402594596
-4.0674999999999999,0.76099627566736228,0.41535885549184332
-4.0670000000000002,0.4835717293676135,0.26700591781949923
-4.0664999999999996,0.23815770764078661,0.25640927941443781
-4.0659999999999998,0.099445434491038431,0.37297230187117358
-4.0655000000000001,0.024754210487259936,0.53192187794868506
-4.0650000000000004,0.0034138607719140582,0.6802748156208942
-4.0644999999999998,0.035424385344942577,0.71206473083653143
-4.0640000000000001,0.12078578420640371,0.63788826200035942
-4.0635000000000003,0.32351910650218951,0.42595549389720344
-4.0629999999999997,0.91037872367556938,-0.10387642636185243
-4.0625,1.625280439139656,-0.64430498502489997
-4.0620000000000003,1.7853330620047501,-1.3542797581704722
-4.0614999999999997,1.3585260676974154,-2.0748511697223009
-4.0609999999999999,1.1664629202593024,-1.8523217632139874
-4.0605000000000002,0.67563487680590106,-1.0257839676109275
-4.0599999999999996,0.25949805735609366,-0.11447306476586336
-4.0594999999999999,0.05676473506030786,0.61669498519002452
-4.0590000000000002,-0.11395806266261441,0.89220758372437781
-4.0585000000000004,-0.18864928666632497,0.86041766850890433
-4.0579999999999998,-0.18864928666639288,0.70146809243136399
-4.0575000000000001,-0.17797911180871023,0.50013196273318283
-4.0570000000000004,-0.26334051067009379,0.41535885549192042
-4.0564999999999998,-0.40205278382004572,0.39416557868150842
-4.056,-0.33803173467394987,0.16103953376782493
-4.0555000000000003,-0.22065981123954759,-0.093279787955962146
-4.0549999999999997,-0.12462823752043289,-0.31580919446459393
-4.0545,-0.27401068552785401,-0.18864953360270037
-4.0540000000000003,-1.0102527507072869,0.4789386859222407
-4.0534999999999997,-1.6718035918840957,0.96638405256005833
-4.0529999999999999,-1.46907026958831,0.42595549389701071
-4.0525000000000002,-0.42339313353541097,-0.68669153864556975
-4.0519999999999996,0.82501732481381707,-1.6191957183003132
-4.0514999999999999,1.2198137945477157,-1.6297923567054711
-4.0510000000000002,1.0170804722517455,-1.01518732920576
-4.0505000000000004,0.64362435223319281,-0.34759910968081897
-4.0499999999999998,0.33418928136005654,0.18223281057815977
-4.0495000000000001,0.12078578420640371,0.53192187794868506
-4.0490000000000004,0.024754210487347286,0.72266136924152535
-4.0484999999999998,-0.017926488943451217,0.81803111488814795
-4.048,0.0034138607718946501,0.75445128445720111
-4.0475000000000003,0.07810508477560521,0.58490506997467639
-4.0469999999999997,0.18480683335271306,0.33058574825014725
-4.0465,0.41955068022151765,-0.061489872740691176
-4.0460000000000003,0.94238924824749148,-0.63370834661921205
-4.0454999999999997,1.6466207888551281,-1.2483133741203205
-4.0449999999999999,1.7639927122895305,-2.2126074689896797
-4.0445000000000002,1.9133751602970874,-2.562296536360205
-4.0439999999999996,1.497238340846853,-1.93709487045444
-4.0434999999999999,0.82501732481345802,-0.96220413717992292
-4.0430000000000001,0.3768699807907871,-0.12506970317169577
-4.0425000000000004,0.056764735060599036,0.26700591781914262
-4.0419999999999998,-0.13529841237797968,0.33058574825050385
-4.0415000000000001,-0.19931946152407554,0.28819919462983412
-4.0410000000000004,-0.20998963638174845,0.21402272579372955
-4.0404999999999998,-0.2206598112395961,0.16103953376793095
-4.04,-0.39138260896236304,0.27760255622466667
-4.0395000000000003,-0.39138260896236304,0.2352160026040355
-4.0389999999999997,-0.2740106855277667,0.097459703336752856
-4.0385,-0.17797911180871023,0.023283234500648287
-4.0380000000000003,-0.13529841237801848,0.023283234500648287
-4.0374999999999996,-0.53009488211286815,0.52132523954416332
-4.0369999999999999,-1.2236562478616091,1.2313000126897355
-4.0365000000000002,-1.2770071221500223,1.3160731199310751
-4.0359999999999996,-0.3487019095305165,0.27760255622359692
-4.0354999999999999,0.87836819910187125,-0.89862430674891836
-4.0350000000000001,1.3371857179822249,-1.2906999277401132
-4.0345000000000004,1.123782220828766,-0.88802766834411706
-4.0339999999999998,0.71831557623663156,-0.29461591765437467
-4.0335000000000001,0.35552963107542179,0.2246193641988295
-4.0330000000000004,0.13145595906429014,0.58490506997419445
-4.0324999999999998,0.0034138607718558322,0.78624119967279982
-4.032,-0.039266838658835915,0.89220758372437781
-4.0315000000000003,-0.017926488943490033,0.86041766850890433
-4.0309999999999997,0.03542438534502021,0.70146809243116159
-4.0305,0.12078578420640371,0.47893868592284788
-4.0300000000000002,0.18480683335244133,0.1822328105784296
-4.0294999999999996,-0.35937208438891727,-0.54893523937906774
-4.0289999999999999,0.078105084775673142,-1.2906999277401132
-4.0285000000000002,1.0597611716824762,-2.0748511697225034
-4.0279999999999996,1.6146102642818183,-2.5516998979544017
-4.0274999999999999,1.4438874665590511,-1.8523217632139874
-4.0270000000000001,0.97439977282101498,-0.9304142219644207
-4.0265000000000004,0.44089102993736817,-0.30521255606011077
-4.0259999999999998,0.05676473506030786,-0.0085066807148540119
-4.0255000000000001,-0.13529841237797968,0.076266426526485451
-4.0250000000000004,-0.18864928666634437,0.055073149716169861
-4.0244999999999997,-0.18864928666636377,0.0020899576903037832
-4.024,-0.15663876209334496,-0.0085066807148540119
-4.0235000000000003,-0.27401068552774727,0.17163617217282851
-4.0229999999999997,-0.34870190953157426,0.30939247144010151
-4.0225,-0.28468086038553664,0.23521600260399694
-4.0220000000000002,-0.19931946152415317,0.13984625695757677
-4.0214999999999996,-0.13529841237822229,0.10805634174229616
-4.0209999999999999,-0.40205278382004572,0.4471487707073456
-4.0205000000000002,-0.98891240099259115,1.0617537982070568
-4.0199999999999996,-1.4157193953002074,1.5915857184654958
-4.0194999999999999,-1.7571649907457412,1.6657621873016004
-4.0190000000000001,-1.0209229255656389,0.57430843156935485
-4.0185000000000004,0.078105084774673594,-0.51714532416189807
-4.0179999999999998,0.50491207908297886,-0.67609490024040231
-4.0175000000000001,0.51558225394066137,-0.34759910968021185
-4.0170000000000003,0.37686998079091327,0.097459703336415515
-4.0164999999999997,0.21681735792544074,0.48953532432826591
-4.016,0.099445434491038431,0.76504792286236856
-4.0155000000000003,0.035424385345000808,0.93459413734489327
-4.0149999999999997,0.0034138607719237635,0.99817396777596534
-4.0145,0.035424385344942577,0.90280422212954525
-4.0140000000000002,0.0994454344909802,0.68027481562123149
-4.0134999999999996,0.1954770082104248,0.39416557868111329
-4.0129999999999999,0.4622313796522482,-0.04029659593035631
-4.0125000000000002,1.1557927454016199,-0.67609490024040231
-4.0119999999999996,1.9133751602972815,-1.2906999277407685
-4.0114999999999998,2.1267786574507404,-2.0112713392914987
-4.0110000000000001,1.2945050185514941,-2.043061254507001
-4.0105000000000004,0.61161382766042616,-1.2589100125253241
-4.0099999999999998,0.046094560202625215,-0.66549826183523486
-4.0095000000000001,-0.20998963638175816,-0.25222936403370499
-4.0090000000000003,-0.19931946152408525,0.012686596095239921
-4.0084999999999997,-0.20998963638174845,0.023283234500571185
-4.008,-0.19931946152407554,-0.061489872740691176
-4.0075000000000003,-0.1886492866664026,-0.082683149551006765
-4.0069999999999997,-0.26334051067033637,0.012686596095663968
-4.0065,-0.44473348325077627,0.21402272579366208
-4.0060000000000002,-0.39138260896236304,0.19282944898332721
-4.0054999999999996,-0.25267033581239168,0.11865298014712627
-4.0049999999999999,-0.14596858723566233,0.086863064931652884
-4.0045000000000002,-0.22065981123944084,0.27760255622466667
-4.0039999999999996,-0.93556152670496373,0.92399749894043903
-4.0034999999999998,-1.7998456901764717,1.5386025264395911
-4.0030000000000001,-2.0025790124724421,1.3160731199310751
-4.0025000000000004,-1.1276246741432612,0.129249618553402
-4.0019999999999998,0.24882788249859539,-1.0575738828264298
-4.0015000000000001,0.87836819910187125,-1.2906999277401132
-4.0010000000000003,0.84635767452885236,-0.81385119950801266
-4.0004999999999997,0.59027347794419727,-0.17805289519705103
-4,0.32351910650237387,0.35177902506083869
-3.9994999999999998,0.14212613392176898,0.71206473083653143
-3.9990000000000001,0.035424385344942577,0.93459413734504748
-3.9984999999999999,-0.0072563140857879876,1.0299638829915545
-3.9980000000000002,0.0034138607718946501,0.97698069096571727
-3.9975000000000001,0.067434909917990504,0.7968378380778709
-3.9969999999999999,0.14212613392176898,0.54251851635385251
-3.9965000000000002,0.29150858192932599,0.20342608738849466
-3.996,0.77166645052504479,-0.36879238649054674
-3.9954999999999998,1.5719295648512428,-1.0575738828264298
-3.9950000000000001,2.2334804060275668,-1.650985633515806
-3.9944999999999999,1.8493541111509915,-2.159624276963843
-3.9940000000000002,1.0704313465401587,-1.650985633515806
-3.9935,0.38754015564846972,-0.87743102993858346
-3.9929999999999999,-0.071277363231883828,-0.36879238649054674
-3.9925000000000002,-0.17797911180871023,-0.04029659593035631
-3.992,-0.19931946152407554,0.055073149716150585
-3.9914999999999998,-0.22065981123944084,-0.04029659593035631
-3.9910000000000001,-0.19931946152407554,-0.13566634157686319
-3.9904999999999999,-0.19931946152407554,-0.12506970317169577
-3.9900000000000002,-0.32736155981626724,0.055073149716150585
-3.9895,-0.33803173467394987,0.10805634174198775
-3.9889999999999999,-0.26334051067017139,0.086863064931652884
-3.9885000000000002,-0.17797911180871023,0.055073149716150585
-3.988,-0.14596858723566233,0.12924961855232261
-3.9874999999999998,-0.62612645583138127,0.63788826200035942
-3.9870000000000001,-1.4904106193036752,1.33726639674141
-3.9864999999999999,-1.9172176136109809,1.6339722720860981
-3.9860000000000002,-1.6291228924535495,0.89220758372437781
-3.9855,-0.42339313353541097,-0.38998566330088158
-3.9849999999999999,0.45156120479456557,-0.99399405239542526
-3.9845000000000002,0.65429452709053582,-0.75027136907657432
-3.984,0.53692260365602662,-0.22043944881820265
-3.9834999999999998,0.33418928136005654,0.27760255622466667
-3.9830000000000001,0.17413665849481691,0.64848490040552687
-3.9824999999999999,0.05676473506030786,0.89220758372437781
-3.9820000000000002,0.0034138607718946501,1.0087706061812196
-3.9815,-0.0072563140857879876,0.98757732937088472
-3.9809999999999999,0.046094560202625215,0.82862775329337313
-3.9805000000000001,0.12078578420640371,0.58490506997452218
-3.98,0.24882788249859539,0.25640927941433178
-3.9794999999999998,0.6116138276598051,-0.26282600243887239
-3.9790000000000001,1.2945050185514941,-1.0257839676109275
-3.9784999999999999,1.2518243191207636,-2.2232041073948472
-3.9780000000000002,1.1878032699746677,-2.5093133443343683
-3.9775,0.63295417737517057,-1.7357587407571455
-3.9769999999999999,0.12078578420640371,-0.95160749877475548
-3.9765000000000001,-0.10328788780493176,-0.31580919446470956
-3.976,-0.17797911180871023,0.012686596095480854
-3.9754999999999998,-0.24200016095480609,0.023283234500648287
-3.9750000000000001,-0.23132998609712346,-0.04029659593035631
-3.9744999999999999,-0.18864928666639288,-0.11447306476652835
-3.9740000000000002,-0.16730893695102761,-0.12506970317169577
-3.9735,-0.26334051067017139,0.044476511310983152
-3.9729999999999999,-0.31669138495858457,0.17163617217299235
-3.9725000000000001,-0.27401068552785401,0.18223281057815977
-3.972,-0.18864928666639288,0.15044289536265748
-3.9714999999999998,-0.13529841237797968,0.13984625695749003
-3.9710000000000001,-0.41272295867772835,0.48953532432801533
-3.9704999999999999,-1.2449965975769743,1.1677201822587309
-3.9700000000000002,-1.7891755153187892,1.5491991648447585
-3.9695,-1.4477299198729445,0.88161094531921036
-3.9689999999999999,-0.70081767983515975,0.033879872905815719
-3.9685000000000001,0.34485945621773917,-0.96220413717992292
-3.968,0.83568749967114075,-1.1741369052832717
-3.9674999999999998,0.77166645052504479,-0.71848145386107198
-3.9670000000000001,0.51558225394066137,-0.12506970317169577
-3.9664999999999999,0.28083840707164331,0.38356894027634103
-3.9660000000000002,0.11011560934872107,0.74385464605203377
-3.9655,0.024754210487259936,0.95578741415538238
-3.9649999999999999,-0.0072563140857879876,1.0405605213967219
-3.9645000000000001,0.014084035629577295,0.97698069096571727
-3.964,0.078105084775673142,0.80743447648303834
-3.9634999999999998,0.20614718306786484,0.51072860113835017
-3.9630000000000001,0.40888050536383502,0.12924961855232261
-3.9624999999999999,1.0170804722517455,-0.48535540894738849
-3.9620000000000002,1.5292488654205123,-1.0893637980419322
-3.9615,1.6679611385703865,-1.7357587407571455
-3.9609999999999999,1.1024418711132067,-2.0006747008863313
-3.9605000000000001,0.60094365280212259,-1.2165234589039415
-3.96,0.14212613392176898,-0.52774196256805828
-3.9594999999999998,-0.10328788780493176,-0.04029659593035631
-3.9590000000000001,-0.14596858723566233,0.16103953376782493
-3.9584999999999999,-0.18864928666639288,0.076266426526485451
-3.9580000000000002,-0.18864928666639288,-0.050893234335523743
-3.9575,-0.18864928666639288,-0.13566634157686319
-3.9569999999999999,-0.22065981123944084,-0.093279787956193475
-3.9565000000000001,-0.30602121010090194,0.012686596095480854
-3.956,-0.26334051067017139,-0.019103319120021445
-3.9554999999999998,-0.18864928666639288,-0.072086511145858609
-3.9550000000000001,-0.12462823752029703,-0.082683149551026042
-3.9544999999999999,-0.23132998609712346,0.12924961855232261
-3.9540000000000002,-0.91422117698881245,0.80743447648303834
-3.9535,-1.7678351656034239,1.5068126112240887
-3.9529999999999998,-2.5254175804988912,1.8670983169997815
-3.9525000000000001,-2.9095438753754665,1.0723504366122243
-3.952,-2.472066706210478,-0.19924617200786782
-3.9514999999999998,-1.4263895701575793,-0.66549826183523486
-3.9510000000000001,-0.66880715526211176,-0.4535654937318862
-3.9504999999999999,-0.18864928666639288,-0.029699957525188878
-3.9500000000000002,0.046094560202625215,0.39416557868150842
-3.9495,0.12078578420640371,0.72266136924169888
-3.9489999999999998,0.11011560934872107,0.93459413734504748
-3.9485000000000001,0.08877525963335578,1.0511571598018894
-3.948,0.078105084775673142,1.0193672445863871
-3.9474999999999998,0.11011560934872107,0.84982103010370802
-3.9470000000000001,0.16346648363713429,0.61669498519002452
-3.9464999999999999,0.13145595906408636,0.13984625695749003
-3.9460000000000002,0.067434909917990504,-1.0787671596367647
-3.9455,1.0170804722517455,-1.9053049552398247
-3.9449999999999998,1.9667260345855007,-2.5516998979550376
-3.9445000000000001,2.3295119797467105,-2.774229304463554
-3.944,1.9453856848701352,-2.0006747008863313
-3.9434999999999998,1.2091436196900331,-0.98339741399025782
-3.9430000000000001,0.49424190422529612,-0.28401927924920728
-3.9424999999999999,0.046094560202625215,0.055073149716150585
-3.9420000000000002,-0.16730893695102761,0.15044289536265748
-3.9415,-0.22065981123944084,0.10805634174198775
-3.9409999999999998,-0.19931946152407554,0.033879872905815719
-3.9405000000000001,-0.18864928666639288,-0.0085066807148540119
-3.9399999999999999,-0.35937208438931517,0.17163617217299235
-3.9394999999999998,-0.44473348325077627,0.26700591781949923
-3.9390000000000001,-0.41272295867772835,0.23521600260399694
-3.9384999999999999,-0.30602121010090194,0.097459703336820316
-3.9380000000000002,-0.24200016095480609,0.055073149716150585
-3.9375,-0.66880715526211176,0.54251851635385251
-3.9369999999999998,-1.5010807941613578,1.2524932895000704
-3.9365000000000001,-1.9385579633263461,1.4538294191982519
-3.9359999999999999,-1.3943790455845313,1.2313000126897355
-3.9355000000000002,-0.049937013516518552,1.3054764815259077
-3.9350000000000001,0.857027849386506,0.9134008605347127
-3.9344999999999999,0.96372959796333246,0.45774540911251305
-3.9340000000000002,0.71831557623663156,0.19282944898332721
-3.9335,0.41955068022151765,0.12924961855232261
-3.9329999999999998,0.19547700821018218,0.21402272579366208
-3.9325000000000001,0.05676473506030786,0.38356894027634103
-3.9319999999999999,-0.0072563140857879876,0.59550170837968963
-3.9315000000000002,-0.0072563140857879876,0.73325800764686633
-3.931,0.046094560202625215,0.75445128445720111
-3.9304999999999999,0.13145595906408636,0.66967817721586165
-3.9300000000000002,0.24882788249859539,0.51072860113835017
-3.9295,0.55826295337139209,0.19282944898332721
-3.9289999999999998,1.2518243191207636,-0.34759910968021185
