Class_5_Move_Left_hand_Horiszontal/Class_5_Move_Left_hand_Horiszontal_Suko_8.csv

#Digilent WaveForms Oscilloscope Acquisition
#Device Name: EExplorer
#Serial Number: SN:210151A2B84A
#Date Time: 2021-01-27 14:59:18.059
#Sample rate: 2000Hz
#Samples: 16384
#Trigger: Source: Channel 1 Type: Edge Condition: Rising Level: 0 V Hyst.: Auto HoldOff: 0 s
#Channel 1: Range: 1 V/div Offset: 0 V Attenuation: 1 X
#Channel 2: Range: 1 V/div Offset: 0 V Attenuation: 1 X
#Channel 4: Range: 1 V/div Offset: 0 V Attenuation: 1 X
#Power Supplies: ON
#Fixed Supply: ON
#Voltage: 3.3 V Readback: 3.331 V
#Positive Supply: ON
#Voltage: 3.7 V Readback: 3.717 V
#Current: 40 mA Readback: 14 mA
#Negative Supply: ON
#Voltage: -3.7 V Readback: -3.348 V
#Current: -40 mA Readback: -7 mA
#Reference 1: ON
#Voltage: 0 V
#Reference 2: ON
#Voltage: 0 V

Time (s),Channel 1 (V),Channel 2 (V),Channel 4 (V)
-4.096,0.825017324813458,-0.326405832869877,-0.03203722724012713
-4.0955,0.5689331282293075,-0.05089323433577431,-0.03203722724012713
-4.095,0.3128489316445165,0.1080563417420552,-0.03203722724012713
-4.0945,0.1207857842064037,0.1822328105781598,-0.03203722724012713
-4.094,0.01408403562967435,0.1822328105781598,-0.03203722724012713
-4.0935,0.02475421048729875,0.1822328105781501,0.01029508240328862
-4.093,0.0674349099179905,0.1716361721729923,0.03146123722496762
-4.0925,0.04609456020264462,0.1080563417420456,0.03146123722496762
-4.092,0.01408403562953848,0.03387987290577717,0.02087815981410887
-4.0915,-0.02859666380115328,-0.008506680714854012,0.01029508240326937
-4.091,-0.1139580626626144,0.02328323450064829,-0.01087107241842888
-4.0905,-0.5834457564012037,0.4789386859233587,-0.03203722724012713
-4.09,-1.191645723288561,1.040560521396722,-0.03203722724012713
-4.0895,-1.650463242168915,1.210106735879401,-0.05320338206182537
-4.089,-1.895877263895392,0.7120647308369844,-0.07436953688350438
-4.0885,-1.661133417026597,0.07626642652648545,-0.0637864594726745
-4.088,-1.095614149569417,-0.1462629799820306,-0.04262030465097626
-4.0875,-0.5834457564011164,-0.1356663415768728,-0.04262030465097626
-4.087,-0.2420001609546314,-0.008506680714719085,-0.04262030465097626
-4.0865,-0.04993701351651855,0.13984625695749,-0.04262030465097626
-4.086,0.02475421048719201,0.2776025562245414,-0.04262030465097626
-4.0855,0.03542438534493287,0.3835689402764278,-0.05320338206185424
-4.085,0.02475421048725994,0.4789386859228479,-0.08495261429437276
-4.0845,0.003413860771914058,0.5319218779486369,-0.1378680013485702
-4.084,-0.01792648894346092,0.5637117931641585,-0.1378680013486087
-4.0835,-0.007256314085787988,0.5319218779486851,-0.1272849239377692
-4.083,0.02475421048725994,0.4789386859228479,-0.106118769116071
-4.0825,0.1848068333530139,0.2987958330344619,-0.08495261429435351
-4.082,0.7503261008096795,-0.2946159176543747,-0.0637864594726745
-4.0815,1.102441871113207,-0.9622041371799229,-0.05320338206182537
-4.081,1.209143619689936,-1.428456227006866,-0.03203722724014638
-4.0805,1.262494493978446,-1.322489842955616,-0.03203722724012713
-4.08,1.15579274540162,-0.9198175835592532,-0.03203722724012713
-4.0795,0.9317190733904883,-0.4429688553271525,-0.03203722724012713
-4.079,0.6116138276595527,-0.05089323433529244,-0.03203722724012713
-4.0785,0.3341892813600565,0.2034260873884947,-0.03203722724012713
-4.078,0.1314559590642707,0.3305857482503882,-0.03203722724012713
-4.0775,0.01408403562954818,0.330585748250446,-0.03203722724010788
-4.077,-0.01792648894347063,0.2670059178194992,-0.01087107241842888
-4.0765,0.04609456020256698,0.1928294489833947,0.03146123722492912
-4.076,0.05676473506027874,0.1398462569574419,0.03146123722496762
-4.0755,0.02475421048725994,0.08686306493165288,0.03146123722496762
-4.075,-0.007256314085787988,0.01268659609548085,0.01029508240326937
-4.0745,-0.06060718837454085,-0.06148987274046951,-0.0108710724184385
-4.074,-0.4340633083930936,0.1822328105781598,-0.021454149829278
-4.0735,-1.084943974711735,0.7968378380778709,-0.03203722724012713
-4.073,-1.57577201816469,1.23130001268934,-0.04262030465096663
-4.0725,-1.949228138184029,1.072350436612224,-0.0637864594726745
-4.072,-1.981238662757077,0.3623756634660061,-0.0637864594726745
-4.0715,-1.405049220442738,-0.05089323433514786,-0.053203382061835
-4.071,-0.8075194284115881,-0.1780528951974847,-0.04262030465097626
-4.0705,-0.3700422592469978,-0.1250697031716958,-0.04262030465097626
-4.07,-0.1032878878051744,-0.008506680714960024,-0.04262030465097626
-4.0695,0.01408403562960641,0.1186529801472805,-0.05320338206181575
-4.069,0.04609456020262521,0.2564092794143318,-0.04262030465097626
-4.0685,0.03542438534494258,0.3623756634660061,-0.0637864594726745
-4.068,0.01408403562955789,0.4577454091125612,-0.1272849239377789
-4.0675,-0.007256314085787988,0.5107286011383502,-0.1378680013486184
-4.067,-0.01792648894347063,0.5425185163538525,-0.1378680013486184
-4.0665,0.003413860771943172,0.5107286011382827,-0.1167018465269009
-4.066,0.05676473506030786,0.4365521323021782,-0.09553569170522189
-4.0655,0.5262524287983441,0.01268659609548085,-0.07436953688352363
-4.065,1.049090996824318,-0.6549016234294602,-0.06378645947268413
-4.0645,1.15579274540162,-1.227120097309109,-0.04262030465097626
-4.064,1.209143619690033,-1.608599079895136,-0.03203722724012713
-4.0635,1.19847344483236,-1.439052865412612,-0.03203722724012713
-4.063,1.04909099682457,-0.8562377531277187,-0.02145414982928762
-4.0625,0.8036769750980928,-0.2734226408440398,-0.03203722724012713
-4.062,0.5155822539409234,0.1398462569571142,-0.03203722724012713
-4.0615,0.2701682322138054,0.3623756634660543,-0.03203722724012713
-4.061,0.09944543449103843,0.4153588554918433,-0.03203722724012713
-4.0605,0.00341386077189465,0.3729723018711736,-0.03203722724012713
-4.06,0.09944543449108695,0.3517790250607905,0.03146123722496762
-4.0595,0.1527963087794516,0.2987958330350016,0.03146123722496762
-4.059,0.1101156093487211,0.1928294489833272,0.03146123722496762
-4.0585,0.04609456020268345,0.07626642652659146,0.02087815981412813
-4.058,-0.007256314085787988,-0.04029659593035631,-0.000287995007579752
-4.0575,-0.1673089369510276,-0.008506680714854012,-0.021454149829278
-4.057,-0.7221580295500203,0.5001319627327202,-0.0320372272401175
-4.0565,-1.30901764672307,0.92399749893988,-0.04262030465097626
-4.056,-1.607782542738184,0.7968378380778709,-0.0637864594726745
-4.0555,-1.661133417026549,0.171636172173561,-0.0637864594726745
-4.055,-1.244996597576518,-0.1992461720079546,-0.05320338206181575
-4.0545,-0.7434983792658902,-0.2946159176543747,-0.04262030465097626
-4.054,-0.3487019095319915,-0.2416327256285857,-0.04262030465097626
-4.0535,-0.1139580626625077,-0.1250697031715801,-0.04262030465097626
-4.053,0.00341386077189465,0.002089957690313421,-0.04262030465097626
-4.0525,0.03542438534494258,0.1186529801471552,-0.05320338206182537
-4.052,0.02475421048724053,0.235216002604074,-0.0532033820618735
-4.0515,0.00341386077189465,0.3199891098453364,-0.106118769116071
-4.051,-0.007256314085787988,0.4047622170866759,-0.1378680013486184
-4.0505,-0.01792648894346092,0.4365521323021492,-0.1378680013486184
-4.05,-0.007256314085787988,0.4259554938970107,-0.1272849239377692
-4.0495,0.01408403562957729,0.4259554938970107,-0.106118769116071
-4.049,0.1741366584946713,0.2881991946299594,-0.0743695368835525
-4.0485,0.643624352232921,-0.178052895197957,-0.06378645947266487
-4.048,0.7183155762366316,-0.6443049850249,-0.05320338206182537
-4.0475,0.6863050516636129,-0.8350444763177403,-0.03203722724014638
-4.047,0.7930068002404391,-0.5277419625677499,-0.03203722724012713
-4.0465,0.825017324813458,-0.1886495336027004,-0.03203722724012713
-4.046,0.7396559259520744,-0.04029659593049123,-0.03203722724012713
-4.0455,0.5475927785135153,0.02328323450063865,-0.03203722724012713
-4.045,0.3341892813600565,0.01268659609548085,-0.03203722724012713
-4.0445,0.1527963087794516,-0.008506680714854012,-0.03203722724012713
-4.044,0.03542438534492317,-0.02969995752518888,-0.03203722724008862
-4.0435,0.01408403562957729,-0.02969995752518888,0.01029508240326937
-4.043,0.03542438534494258,-0.008506680714854012,0.04204431463581675
-4.0425,0.0140840356295967,0.02328323450061937,0.03146123722497725
-4.042,-0.007256314085787988,0.05507314971615059,0.03146123722496762
-4.0415,-0.03926683865883591,0.09745970333682032,0.01029508240326937
-4.041,-0.09261771294720061,0.1610395337677671,-0.01087107241840963
-4.0405,-0.4874141826821377,0.4577454091128118,-0.03203722724013675
-4.04,-1.180975548430879,0.7862411996727035,-0.04262030465097626
-4.0395,-1.757164990745217,0.75445128445723,-0.05320338206181575
-4.039,-2.194642159910361,0.2564092794140041,-0.07436953688350438
-4.0385,-1.789175515318789,-0.1038764263613609,-0.05320338206182537
-4.038,-1.116954499285394,-0.1038764263613609,-0.04262030465098588
-4.0375,-0.5727755815426381,0.03387987290596992,-0.04262030465097626
-4.037,-0.2099896363817582,0.2034260873884947,-0.04262030465097626
-4.0365,-0.02859666380115328,0.3517790250608387,-0.05320338206182537
-4.036,0.04609456020262521,0.4471487707074034,-0.05320338206182537
-4.0355,0.04609456020262521,0.5107286011383502,-0.05320338206182537
-4.035,0.03542438534494258,0.55311515475902,-0.08495261429437276
-4.0345,0.003413860771923766,0.5637117931641777,-0.1378680013485702
-4.034,-0.007256314085787988,0.5425185163538525,-0.1378680013486184
-4.0335,-0.01792648894347063,0.5001319627331828,-0.1378680013486184
-4.033,0.003413860771875242,0.4153588554919204,-0.1167018465269394
-4.0325,0.1848068333529945,0.1610395337672852,-0.08495261429435351
-4.032,0.7289857510943143,-0.4323722169215513,-0.0637864594726745
-4.0315,0.9317190733901001,-1.004590690800072,-0.053203382061835
-4.031,0.8890383739596119,-1.492036057438218,-0.0320372272401175
-4.0305,0.9530594231056497,-1.407262950196955,-0.021454149829278
-4.03,0.9637295979633228,-1.015187329206117,-0.021454149829278
-4.0295,0.8676980242439944,-0.5807251545936352,-0.03203722724012713
-4.029,0.6542945270905358,-0.2946159176543747,-0.03203722724012713
-4.0285,0.408880505363835,-0.1250697031716958,-0.03203722724012713
-4.028,0.227487532783104,-0.04029659593036595,-0.03203722724012713
-4.0275,0.08877525963335578,-0.05089323433552374,-0.03203722724012713
-4.027,0.01408403562957729,-0.07208651114585861,-0.01087107241842888
-4.0265,0.02475421048725023,-0.06148987274070081,0.03146123722492912
-4.026,0.02475421048725994,-0.06148987274069118,0.03146123722496762
-4.0255,0.00341386077189465,-0.05089323433552374,0.03146123722496762
-4.025,-0.02859666380112416,-0.04029659593036595,0.02087815981412813
-4.0245,-0.06060718837447292,-0.008506680714593796,-0.0002879950075990025
-4.024,-0.3593720843893152,0.2776025562246667,-0.021454149829278
-4.0235,-0.9995825758496915,0.8710143069135032,-0.0320372272401175
-4.023,-1.543761493592438,1.284283204715438,-0.04262030465100513
-4.0225,-1.927887788468663,1.135930267043229,-0.07436953688352363
-4.022,-1.810515865034261,0.5213252395440766,-0.06378645947268413
-4.0215,-1.234326422718797,0.1716361721729056,-0.05320338206181575
-4.021,-0.690147504977477,0.07626642652648545,-0.04262030465097626
-4.0205,-0.2953510352432193,0.1186529801471552,-0.04262030465097626
-4.02,-0.07127736323179648,0.2458126410092897,-0.04262030465097626
-4.0195,0.02475421048725994,0.383568940276341,-0.04262030465097626
-4.019,0.04609456020262521,0.5107286011383502,-0.05320338206182537
-4.0185,0.03542438534495228,0.6166949851899282,-0.06378645947266487
-4.018,0.01408403562957729,0.701468092431364,-0.1272849239377692
-4.0175,-0.007256314085787988,0.7438546460520338,-0.1378680013486184
-4.017,-0.007256314085787988,0.733258007646876,-0.1378680013486184
-4.0165,0.003413860771991695,0.690871454026052,-0.1167018465269009
-4.016,0.1101156093487211,0.5319218779486851,-0.09553569170522189
-4.0155,0.611613827659349,-0.02969995752467802,-0.07436953688354288
-4.015,1.091771696255602,-0.7184814538615828,-0.06378645947265525
-4.0145,1.177133095116985,-1.280103289334946,-0.04262030465097626
-4.014,1.155792745401639,-1.545019249463891,-0.03203722724013675
-4.0135,1.10244187111309,-1.216523458903508,-0.02145414982928762
-4.013,0.974399772821015,-0.7396747306714069,-0.03203722724012713
-4.0125,0.7823366253827275,-0.3475991096802118,-0.03203722724012713
-4.012,0.5262524287981306,-0.09327978795609709,-0.03203722724012713
-4.0115,0.291508581929326,0.01268659609548085,-0.03203722724012713
-4.011,0.1101156093487211,0.002089957690313421,-0.03203722724012713
-4.0105,0.01408403562966463,-0.07208651114579115,-0.03203722724012713
-4.01,0.142126133921769,-0.02969995752518888,0.03146123722496762
-4.0095,0.2381577076409128,0.05507314971615059,0.04204431463581675
-4.009,0.195477008210221,0.002089957690361612,0.03146123722497725
-4.0085,0.0994454344909608,-0.09327978795627058,0.02087815981409925
-4.008,0.01408403562957729,-0.1780528951975329,-0.000287995007579752
-4.0075,-0.1779791118085355,-0.09327978795627058,-0.01087107241841925
-4.007,-0.7755089038395691,0.457745409113101,-0.03203722724012713
-4.0065,-1.46907026958831,1.104140351827727,-0.03203722724012713
-4.006,-2.023919362187807,1.528005888034424,-0.05320338206182537
-4.0055,-1.874536914179687,1.326669758335761,-0.06378645947266487
-4.005,-1.255666772434657,0.7968378380778709,-0.05320338206182537
-4.0045,-0.690147504977477,0.3305857482505039,-0.05320338206182537
-4.004,-0.2846808603853329,0.07626642652641799,-0.05320338206181575
-4.0035,-0.06060718837420119,0.002089957690313421,-0.04262030465097626
-4.003,0.02475421048725994,0.06566978812131802,-0.04262030465097626
-4.0025,0.04609456020260581,0.2034260873883694,-0.04262030465097626
-4.002,0.03542438534494258,0.3623756634660061,-0.05320338206182537
-4.0015,0.01408403562957729,0.5213252395435176,-0.106118769116071
-4.001,-0.00725631408576858,0.6590815388105689,-0.1378680013485895
-4.0005,-0.01792648894346092,0.7544512844572493,-0.1378680013486087
-4,-0.007256314085787988,0.8074344764830383,-0.1272849239377692
-3.9995,0.03542438534494258,0.7650479228623686,-0.106118769116071
-3.999,0.3875401556484697,0.4259554938970107,-0.08495261429437276
-3.9985,0.8463576745288233,-0.09327978795619347,-0.0637864594726745
-3.998,0.8676980242441885,-0.5065486857577234,-0.05320338206182537
-3.9975,0.857027849386506,-0.7820612842920766,-0.03203722724012713
-3.997,0.9317190733902845,-0.6231117082145651,-0.03203722724012713
-3.9965,0.9103787236749192,-0.2628260024388724,-0.03203722724012713
-3.996,0.79300680024041,0.04447651131098315,-0.03203722724012713
-3.9955,0.5902734779444399,0.2987958330350016,-0.03203722724012713
-3.995,0.3555296310754218,0.4047622170866759,-0.03203722724012713
-3.9945,0.1634664836371343,0.4047622170866759,-0.03203722724012713
-3.994,0.04609456020262521,0.309392471440169,-0.03203722724012713
-3.9935,0.03542438534494258,0.1822328105781598,-0.000287995007579752
-3.993,0.09944543449103843,0.06566978812131802,0.03146123722496762
-3.9925,0.08877525963335578,-0.008506680714854012,0.03146123722496762
-3.992,0.04609456020262521,0.04447651131098315,0.0208781598141185
-3.9915,-0.007256314085787988,-0.04029659593035631,-0.000287995007579752
-3.991,-0.08194753808956648,-0.1780528951975329,-0.01087107241842888
-3.9905,-0.5407650569699201,0.1186529801471552,-0.03203722724012713
-3.99,-1.244996597576974,0.7226613692416989,-0.03203722724012713
-3.9895,-1.735824641030376,1.114736990232894,-0.04262030465097626
-3.989,-2.03458953704549,0.7968378380778709,-0.07436953688352363
-3.9885,-1.682473766741963,0.2140227257936621,-0.05320338206182537
-3.988,-1.074273799854052,-0.1144730647665284,-0.05320338206182537
-3.9875,-0.5514352318276028,-0.2098428104130352,-0.04262030465097626
-3.987,-0.2099896363817582,-0.1674562567923655,-0.04262030465097626
-3.9865,-0.02859666380115328,-0.06148987274069118,-0.04262030465097626
-3.986,0.04609456020262521,0.08686306493165288,-0.04262030465097626
-3.9855,0.04609456020262521,0.2352160026039969,-0.04262030465097626
-3.985,0.02475421048725994,0.3729723018711736,-0.07436953688352363
-3.9845,0.00341386077189465,0.4895353243280153,-0.1272849239377692
-3.984,-0.007256314085787988,0.5743084315693548,-0.1378680013486184
-3.9835,-0.01792648894347063,0.627291623595192,-0.1272849239377692
-3.983,-0.007256314085787988,0.6802748156210291,-0.1167018465269201
-3.9825,0.1101156093487211,0.5425185163538525,-0.08495261429437276
-3.982,0.6329541773751706,0.03387987290581572,-0.07436953688352363
-3.9815,0.9530594231056497,-0.6125150698093976,-0.0637864594726745
-3.981,0.8676980242441885,-1.121153713257435,-0.04262030465097626
-3.9805,0.8143471499557753,-1.216523458903942,-0.03203722724012713
-3.98,0.825017324813458,-0.9410108603695881,-0.03203722724012713
-3.9795,0.7823366253827275,-0.4853554089473885,-0.03203722724012713
-3.979,0.6009436528021226,-0.08268314955102604,-0.03203722724012713
-3.9785,0.3661998059331045,0.1928294489833272,-0.03203722724012713
-3.978,0.1741366584948169,0.3305857482505039,-0.03203722724012713
-3.9775,0.05676473506030786,0.3411823866556712,-0.03203722724012713
-3.977,0.00341386077189465,0.2670059178194992,-0.021454149829278
-3.9765,0.02475421048725994,0.1822328105781598,0.03146123722496762
-3.976,0.01408403562957729,0.07626642652648545,0.03146123722496762
-3.9755,-0.007256314085787988,-0.02969995752518888,0.03146123722496762
-3.975,-0.02859666380115328,-0.1356663415768632,0.01029508240326937
-3.9745,-0.04993701351651855,-0.2310360872233701,-0.000287995007579752
-3.974,-0.3166913849585846,-0.06148987274069118,-0.021454149829278
-3.9735,-0.9782422261349084,0.5637117931641874,-0.03203722724012713
-3.973,-1.629122892453549,1.188913459069066,-0.04262030465097626
-3.9725,-2.045259711903173,1.37965295036208,-0.0637864594726745
-3.972,-1.87453691418025,0.8604176685088755,-0.0637864594726745
-3.9715,-1.255666772434657,0.3305857482505039,-0.05320338206182537
-3.971,-0.6794773301197943,-0.008506680714854012,-0.04262030465097626
-3.9705,-0.2846808603855366,-0.1568596183871981,-0.04262030465097626
-3.97,-0.06060718837420119,-0.1568596183871981,-0.04262030465097626
-3.9695,0.03542438534494258,-0.07208651114585861,-0.04262030465097626
-3.969,0.05676473506030786,0.04447651131098315,-0.04262030465097626
-3.9685,0.03542438534494258,0.1822328105781598,-0.05320338206182537
-3.968,0.01408403562957729,0.309392471440169,-0.1167018465269201
-3.9675,-0.007256314085787988,0.4153588554918433,-0.1378680013486184
-3.967,-0.01792648894347063,0.4789386859228479,-0.1378680013486184
-3.9665,0.04609456020262521,0.4259554938970107,-0.1167018465269201
-3.966,0.1848068333524996,0.2458126410091644,-0.09553569170522189
-3.9655,0.5902734779444399,0.03387987290581572,-0.07436953688352363
-3.965,0.9103787236749192,-0.4111789401112165,-0.05320338206182537
-3.9645,0.8676980242441885,-0.8668343915334161,-0.04262030465097626
-3.964,0.8890383739595538,-0.9410108603695881,-0.021454149829278
-3.9635,0.9530594231056497,-0.6443049850249,-0.03203722724012713
-3.963,0.9103787236749192,-0.252229364033705,-0.021454149829278
-3.9625,0.7396559259519968,0.1186529801471552,-0.03203722724012713
-3.962,0.5155822539406614,0.3411823866556712,-0.03203722724012713
-3.9615,0.3021787567870086,0.4365521323021782,-0.03203722724012713
-3.961,0.142126133921769,0.4365521323021782,-0.03203722724012713
-3.9605,0.03542438534494258,0.3623756634660061,-0.03203722724012713
-3.96,0.03542438534494258,0.3411823866556712,0.0208781598141185
-3.9595,0.05676473506030786,0.309392471440169,0.04204431463581675
-3.959,0.03542438534494258,0.2034260873884947,0.03146123722496762
-3.9585,0.00341386077189465,0.07626642652648545,0.0208781598141185
-3.958,-0.02859666380115328,-0.04029659593035631,-0.000287995007579752
-3.9575,-0.1352984123779797,-0.04029659593035631,-0.01087107241842888
-3.957,-0.658136980404429,0.4365521323021782,-0.03203722724012713
-3.9565,-1.373038695869166,1.061753798207057,-0.04262030465097626
-3.956,-1.917217613610981,1.464426057603419,-0.05320338206182537
-3.9555,-2.280003558772191,0.9557874141553824,-0.08495261429437276
-3.955,-1.938557963326346,0.1822328105781598,-0.0637864594726745
-3.9545,-1.223656247861609,-0.1674562567923655,-0.05320338206182537
-3.954,-0.6367966306890638,-0.2310360872233701,-0.04262030465097626
-3.9535,-0.2420001609548061,-0.1674562567923655,-0.04262030465097626
