Class_5_Move_Left_hand_Horiszontal/Class_5_Move_Left_hand_Horizontal_Turki_13.csv

#Digilent WaveForms Oscilloscope Acquisition
#Device Name: EExplorer
#Serial Number: SN:210151A2B84A
#Date Time: 2021-02-03 11:24:03.047
#Sample rate: 2000Hz
#Samples: 16384
#Trigger: Source: Channel 1 Type: Edge Condition: Rising Level: 0 V Hyst.: Auto HoldOff: 0 s
#Channel 1: Range: 1 V/div Offset: 0 V Attenuation: 1 X
#Channel 2: Range: 1 V/div Offset: 0 V Attenuation: 1 X
#Power Supplies: ON
#Fixed Supply: ON
#Voltage: 3.3 V Readback: 3.331 V
#Positive Supply: ON
#Voltage: 3.7 V Readback: 3.673 V
#Current: 40 mA Readback: 18 mA
#Negative Supply: ON
#Voltage: -3.7 V Readback: -3.348 V
#Current: -40 mA Readback: -6 mA
#Reference 1: ON
#Voltage: 0 V
#Reference 2: ON
#Voltage: 0 V

Time (s),Channel 1 (V),Channel 2 (V)
-4.096,0.3235191065023739,-0.1144730647665284
-4.0955,0.302178756787028,0.1398462569572587
-4.095,0.1101156093481291,0.425955493896577
-4.0945,-0.5407650569699201,-0.05089323433552374
-4.094,-1.042263275280548,-0.7396747306707805
-4.0935,-1.53309131873458,-1.258910012524736
-4.093,-1.725154466172693,-1.396666311791788
-4.0925,-1.212986073004392,-0.76086800748232
-4.092,-0.5941159312578966,0.0868630649322986
-4.0915,-0.1139580626626144,0.7968378380778709
-4.091,0.1848068333524996,1.273686566310405
-4.0905,0.3235191065024127,1.52800588803452
-4.09,0.3661998059331045,1.633972272086098
-4.0895,0.3661998059331045,1.644568910491266
-4.089,0.3341892813600856,1.62337563368095
-4.0885,0.3021787567870086,1.580989080060261
-4.088,0.291508581929326,1.506812611224089
-4.0875,0.2701682322139801,1.390249588767353
-4.087,-0.02859666380177436,0.9981739677752425
-4.0865,-0.7114878546928423,0.1080563417419877
-4.086,-1.116954499284414,-0.7926579226964248
-4.0855,-1.319687821580646,-1.47084278062796
-4.085,-1.202315898146244,-1.47084278062796
-4.0845,-0.6901475049779429,-0.993994052395859
-4.084,-0.2099896363814476,-0.6125150698092724
-4.0835,0.1314559590640864,-0.474758770542221
-4.083,0.3661998059331045,-0.5913217929990628
-4.0825,0.4515612047946044,-0.7396747306715032
-4.082,0.4942419042252961,-0.8456411147230812
-4.0815,0.7503261008096795,-1.025783967610927
-4.081,0.8250173248133901,-0.9410108603696652
-4.0805,0.707645401378949,-0.6443049850249
-4.08,0.5475927785137094,-0.326405832869877
-4.0795,0.4302208550793071,-0.06148987274093209
-4.079,0.3661998059329589,0.02328323450027242
-4.0785,0.2061471830678648,-0.3899856633008816
-4.078,-0.1779791118083608,-0.9728007755845604
-4.0775,-0.5407650569702889,-1.428456227007512
-4.077,-0.9462317015618604,-1.672178910326141
-4.0765,-1.41571939529947,-1.661582271920983
-4.076,-1.277007122149566,-1.068170521230788
-4.0755,-0.7755089038389382,-0.1780528951975329
-4.075,-0.274010685527854,0.6060983467848571
-4.0745,0.06743490991817488,1.125333628638322
-4.074,0.2701682322139607,1.411442865577582
-4.0735,0.3448594562177392,1.506812611224089
-4.073,0.366199805933085,1.496215972818931
-4.0725,0.3448594562177392,1.443232780793084
-4.072,0.3235191065023739,1.358459673551745
-4.0715,0.302178756787028,1.252493289500167
-4.071,0.2808384070714686,1.114736990232624
-4.0705,0.08877525963335578,0.8180311148882058
-4.07,-0.5300948821116744,0.4895353243283141
-4.0695,-1.116954499285006,-0.2310360872239773
-4.069,-1.362368521011484,-0.8986243067489184
-4.0685,-1.042263275281004,-1.01518732920576
-4.068,-0.466073832965666,-0.8562377531281234
-4.0675,0.05676473506030786,-0.718481453861072
-4.067,0.3555296310754218,-0.5807251545938954
-4.0665,0.4835717293676329,-0.5171453241629101
-4.066,0.5049120790829789,-0.5383386009732256
-4.0655,0.4942419042252961,-0.6125150698093976
-4.065,0.5582629533713339,-0.6549016234300289
-4.0645,0.6329541773751706,-0.6443049850249
-4.064,0.5689331282290746,-0.474758770542221
-4.0635,0.4835717293676911,-0.2840192792493808
-4.063,0.3982103305061039,-0.135666341576709
-4.0625,0.3448594562177392,0.03387987290581572
-4.062,0.4195506802214497,0.383568940276023
-4.0615,0.4729015545095621,0.3623756634654375
-4.061,0.0674349099179905,-0.2628260024388724
-4.0605,-0.5941159312583333,-0.8774310299385835
-4.06,-1.309017646723226,-1.248313374119338
-4.0595,-1.479740444445993,-1.131750351662602
-4.059,-1.020922925565639,-0.3793890248957141
-4.0585,-0.4767440078243192,0.4683420475169094
-4.058,-0.04993701351651855,1.125333628638062
-4.0575,0.2061471830678648,1.528005888034424
-4.057,0.3341892813599401,1.729342017732422
-4.0565,0.3661998059331045,1.782325209758442
-4.056,0.3555296310754218,1.75053529454294
-4.0555,0.334189281360076,1.686955464111993
-4.055,0.3021787567869989,1.580989080060136
-4.0545,0.291508581929326,1.443232780793084
-4.054,0.2274875327832883,1.220703374284771
-4.0535,-0.1032878878053685,0.8816109453185165
-4.053,-0.5834457564006506,0.1186529801471552
-4.0525,-0.9355615267041777,-0.7396747306714069
-4.052,-0.9462317015615305,-1.174136905283127
-4.0515,-0.5834457564006506,-1.01518732920576
-4.051,-0.156638762093345,-0.6972881770507372
-4.0505,0.1741366584945161,-0.5171453241630547
-4.05,0.3555296310754218,-0.5383386009732256
-4.0495,0.4408910299368829,-0.6337083466197325
-4.049,0.4622313796522288,-0.7820612842919417
-4.0485,0.5155822539408264,-0.8880276683438376
-4.048,0.6969752265212663,-0.9833974139902578
-4.0475,0.6863050516635935,-0.8244478379128909
-4.047,0.5689331282289678,-0.5595318777833003
-4.0465,0.4515612047945656,-0.2734226408440398
-4.046,0.376869980790855,-0.02969995752541055
-4.0455,0.4195506802218088,0.2987958330352618
-4.045,0.7396559259519968,0.5849050699745222
-4.0445,0.4195506802215176,0.07626642652648545
-4.044,-0.1459685872361378,-0.5701285161890749
-4.0435,-0.6688071552621118,-0.9516074987747555
-4.043,-1.255666772434657,-1.174136905283272
-4.0425,-1.255666772434657,-0.8562377531285378
-4.042,-0.807519428411986,-0.07208651114585861
-4.0415,-0.3273615598162672,0.6908714540261965
-4.041,0.03542438534461262,1.241896651094402
-4.0405,0.248827882498673,1.559795803250042
-4.04,0.3341892813600565,1.686955464111935
-4.0395,0.3555296310754024,1.708148740922251
-4.039,0.3448594562177197,1.676358825706691
-4.0385,0.3235191065023739,1.591585718465428
-4.038,0.302178756787028,1.506812611224166
-4.0375,0.2701682322137181,1.390249588767286
-4.037,0.00341386077189465,1.432636142387917
-4.0365,-0.5407650569699201,0.9875773293708847
-4.036,-0.8502001278429302,0.002089957689503864
-4.0355,-1.084943974711735,-0.8880276683437509
-4.035,-1.020922925565639,-1.131750351662602
-4.0345,-0.5514352318280298,-0.8880276683439725
-4.034,-0.08194753808956648,-0.6443049850249
-4.0335,0.2488278824985954,-0.4641621321370536
-4.033,0.4302208550790353,-0.389985663300949
-4.0325,0.5049120790829983,-0.4005823017061551
-4.032,0.5262524287983441,-0.5171453241628908
-4.0315,0.7503261008094757,-0.7502713690763623
-4.031,0.7930068002403032,-0.7184814538609081
-4.0305,0.6756348768059011,-0.5383386009732256
-4.03,0.52625242879848,-0.3264058328700697
-4.0295,0.4088805053637865,-0.1250697031715223
-4.029,0.3555296310754218,0.06566978812131802
-4.0285,0.3982103305061524,0.3305857482505039
-4.028,0.3341892813597072,0.07626642652590719
-4.0275,-0.04993701351651855,-0.5595318777835605
-4.027,-0.6474668055467465,-1.036380606016095
-4.0265,-1.319687821580141,-1.364876396575986
-4.026,-1.437059745015262,-1.205926820498774
-4.0255,-0.9675720512772257,-0.4429688553267188
-4.025,-0.4340633083935789,0.3729723018704315
-4.0245,-0.02859666380093007,0.9875773293712317
-4.024,0.2168173579255475,1.369056311956912
-4.0235,0.3341892813599498,1.559795803249753
-4.023,0.3661998059330948,1.623375633680931
-4.0225,0.3555296310754218,1.623375633680931
-4.022,0.323519106502403,1.591585718465457
-4.0215,0.3021787567869892,1.538602526439495
-4.021,0.2808384070716433,1.432636142387917
-4.0205,0.1954770082101822,1.316073119931075
-4.02,-0.2206598112398484,0.6590815388097979
-4.0195,-0.6688071552621118,-0.326405832869877
-4.019,-0.9035510021311299,-1.089363798041932
-4.0185,-0.6047861061162876,-1.152943628472879
-4.018,-0.156638762093345,-0.7396747306714069
-4.0175,0.1848068333524996,-0.4535654937318862
-4.017,0.3661998059329395,-0.4535654937318862
-4.0165,0.440891029936912,-0.5701285161888532
-4.016,0.4729015545099309,-0.7078848154559045
-4.0155,0.4729015545099309,-0.7926579226971668
-4.015,0.5689331282291231,-0.8986243067488895
-4.0145,0.6222840025174878,-0.8668343915334161
-4.014,0.5582629533714503,-0.6654982618354179
-4.0135,0.46223137965219,-0.4429688553265164
-4.013,0.3982103305061524,-0.2204394488182027
-4.0125,0.3555296310754218,-0.04029659593035631
-4.012,0.1741366584943899,-0.1462629799824161
-4.0115,-0.2953510352432193,-0.570128516188728
-4.011,-0.7968492535543035,-1.004590690800593
-4.0105,-1.244996597576567,-1.237716735714064
-4.01,-1.778505340461106,-1.248313374119443
-4.0095,-1.842526389607202,-0.9622041371799229
-4.009,-1.202315898146826,-0.1674562567930884
-4.0085,-0.5514352318271661,0.712064730837129
-4.008,-0.07127736323188383,1.369056311956912
-4.0075,0.2168173579252854,1.750535294542593
-4.007,0.3448594562177683,1.898888232215284
-4.0065,0.3768699807907871,1.898888232215284
-4.006,0.3661998059331045,1.835308401784279
-4.0055,0.3341892813600275,1.718745379327293
-4.005,0.3021787567870086,1.559795803249926
-4.0045,0.291508581929326,1.369056311956912
-4.004,0.2488278824983334,1.072350436611588
-4.0035,-0.03926683865883591,0.3729723018711736
-4.003,-0.7328282044082075,-0.5277419625680583
-4.0025,-1.341028171295565,-1.290699927739419
-4.002,-1.703814116457328,-1.767548655972648
-4.0015,-1.383708870726849,-1.481439419033127
-4.001,-0.7114878546934537,-1.015187329206184
-4.0005,-0.113958062662265,-0.6654982618351288
-4,0.2701682322139607,-0.5489352393783931
-3.9995,0.4408910299368829,-0.6443049850249
-3.999,0.5155822539406614,-0.8032545611024114
-3.9985,0.5796033030867573,-0.9410108603695881
-3.998,0.7609962756673623,-1.078767159636765
-3.9975,0.7289857510943143,-0.9092209451540858
-3.997,0.6009436528021226,-0.6337083466197325
-3.9965,0.4835717293676135,-0.3899856633008816
-3.996,0.3982103305061524,-0.1992461720078678
-3.9955,0.4515612047945656,0.03387987290581572
-3.995,0.7396559259519968,0.309392471440169
-3.9945,0.3982103305061524,-0.1250697031716958
-3.994,-0.1993194615240755,-0.718481453861072
-3.9935,-0.807519428411986,-1.110557074852267
-3.993,-1.405049220442214,-1.34368311976595
-3.9925,-1.351698346153801,-1.004590690800593
-3.992,-0.8502001278427167,-0.1992461720078678
-3.9915,-0.3380317346739499,0.5955017083796896
-3.991,0.03542438534494258,1.167720182258731
-3.9905,0.2594980573562781,1.517409249629256
-3.99,0.3448594562177392,1.676358825706768
-3.9895,0.3661998059331045,1.729342017732605
-3.989,0.3448594562177392,1.739938656137773
-3.9885,0.3235191065023739,1.697552102517103
-3.988,0.3021787567870086,1.612778995275763
-3.9875,0.2808384070716433,1.485619334413754
-3.987,0.1848068333524996,1.263089927905238
-3.9865,-0.274010685527854,0.4047622170866759
-3.986,-0.6047861061160158,-0.5807251545938954
-3.9855,-0.7328282044082075,-1.152943628472937
-3.985,-0.4127229586777283,-1.01518732920576
-3.9845,-0.01792648894347063,-0.7714646458869092
-3.984,0.2381577076409128,-0.6654982618352349
-3.9835,0.3982103305061524,-0.7396747306714069
-3.983,0.4835717293676135,-0.8138511995075789
-3.9825,0.4942419042252961,-0.8562377531282487
-3.982,0.4942419042252961,-0.8562377531282487
-3.9815,0.6222840025174878,-0.8880276683437509
-3.981,0.6436243522328531,-0.7608680074817418
-3.9805,0.5582629533713921,-0.5595318777835605
-3.98,0.4515612047945656,-0.3475991096802118
-3.9795,0.3875401556484697,-0.1674562567923655
-3.979,0.3875401556484697,0.03387987290581572
-3.9785,0.7396559259519968,0.457745409112513
-3.978,0.6863050516635838,0.2458126410091644
-3.9775,0.0674349099179905,-0.4323722169215513
-3.977,-0.722158029550525,-1.036380606016095
-3.9765,-1.26633694729234,-1.301296566145281
-3.976,-1.1062843244271,-0.8562377531282487
-3.9755,-0.6367966306890638,-0.008506680714854012
-3.975,-0.1886492866663929,0.7650479228623686
-3.9745,0.1101156093487211,1.326669758336243
-3.974,0.2808384070716433,1.655165548896433
-3.9735,0.3448594562177392,1.803518486568777
-3.973,0.3555296310754218,1.835308401784279
-3.9725,0.3341892813600565,1.824711763379112
-3.972,0.3128489316446912,1.761131932948107
-3.9715,0.291508581929326,1.676358825706768
-3.971,0.2808384070716433,1.538602526439591
-3.9705,0.142126133921769,1.25249328950007
-3.97,-0.2846808603855366,0.4683420475176805
-3.9695,-0.4020527838200457,-0.4959520473525559
-3.969,-0.5087545323968721,-1.280103289334946
-3.9685,-0.7755089038389382,-1.598002441489969
-3.968,-0.5941159312583333,-1.248313374119443
-3.9675,-0.2420001609548061,-0.8668343915334161
-3.967,0.07810508477567314,-0.6337083466197325
-3.9665,0.3021787567870086,-0.570128516188728
-3.966,0.4302208550792003,-0.5913217929990628
-3.9655,0.4835717293676135,-0.7078848154559045
-3.965,0.6009436528021226,-0.8138511995075789
-3.9645,0.6756348768059011,-0.7714646458869092
-3.964,0.6009436528021226,-0.6443049850249
-3.9635,0.4942419042252961,-0.5171453241628908
-3.963,0.3982103305061524,-0.3793890248957141
-3.9625,0.3448594562177392,-0.2204394488182027
-3.962,0.5582629533713921,0.1716361721729923
-3.9615,0.7503261008096795,0.2564092794143318
-3.961,0.408880505363835,-0.3052125560595421
-3.9605,-0.1139580626626144,-0.8880276683437509
-3.96,-0.8608703027003992,-1.258910012524611
-3.9595,-1.341028171296118,-1.269506650929778
-3.959,-1.095614149569417,-0.6019184314042303
-3.9585,-0.6047861061160158,0.2776025562246667
-3.958,-0.1673089369510276,0.9981739677760521
-3.9575,0.1314559590640864,1.485619334413754
-3.957,0.291508581929326,1.75053529454294
-3.9565,0.3448594562177392,1.845905040189447
-3.956,0.3448594562177392,1.867098316999781
-3.9555,0.3341892813600565,1.845905040189447
-3.955,0.3021787567870086,1.75053529454294
-3.9545,0.2808384070716433,1.623375633680931
-3.954,0.2061471830678648,1.453829419198252
-3.9535,-0.3273615598162672,0.7968378380778709
-3.953,-1.010252750707956,-0.2204394488182027
-3.9525,-1.533091318734406,-1.068170521231597
-3.952,-1.46907026958831,-1.417859588602123
-3.9515,-0.8822106524157645,-1.184733543688439
-3.951,-0.274010685527854,-0.8562377531282487
-3.9505,0.1741366584948169,-0.6760949002404023
-3.95,0.4195506802215176,-0.6443049850249
-3.9495,0.5262524287983441,-0.7290780922662394
-3.949,0.5475927785137094,-0.8456411147230812
-3.9485,0.5796033030867573,-1.01518732920576
-3.948,0.6863050516635838,-1.131750351662602
-3.9475,0.6329541773751706,-0.9304142219644207
-3.947,0.5262524287983441,-0.6337083466197325
-3.9465,0.4195506802215176,-0.3581957480853793
-3.946,0.3661998059331045,-0.1038764263613609
-3.9455,0.4302208550792003,0.2140227257936621
-3.945,0.6756348768059011,0.4047622170866759
-3.9445,0.1954770082101822,-0.1356663415768632
-3.944,-0.3166913849585846,-0.7290780922662394
-3.9435,-0.9355615267041777,-1.110557074852267
-3.943,-1.426389570157579,-1.237716735714276
-3.9425,-1.223656247861609,-0.7290780922662394
-3.942,-0.7114878546928423,0.1080563417419877
-3.9415,-0.2313299860971235,0.8392243916985406
-3.941,0.09944543449103843,1.33726639674141
-3.9405,0.2808384070716433,1.602182356870596
-3.94,0.3448594562177392,1.697552102517103
-3.9395,0.3555296310754218,1.686955464111935
-3.939,0.3341892813600565,1.633972272086098
-3.9385,0.3128489316446912,1.549199164844759
-3.938,0.291508581929326,1.443232780793084
-3.9375,0.2594980573562781,1.273686566310405
-3.937,-0.1352984123779797,0.7332580076468663
-3.9365,-0.8502001278427167,-0.2204394488182027
-3.936,-1.159635198715513,-1.068170521231597
-3.9355,-0.9995825758502737,-1.47084278062796
-3.935,-0.4660738329661415,-1.258910012524611
-3.9345,0.01408403562957729,-0.8986243067489184
-3.934,0.3235191065023739,-0.6443049850249
-3.9335,0.5049120790829789,-0.5489352393783931
-3.933,0.5689331282290746,-0.570128516188728
-3.9325,0.5475927785137094,-0.6866915386455698
-3.932,0.5369226036560266,-0.8032545611024114
-3.9315,0.6542945270905358,-0.9198175835592532
-3.931,0.6542945270905358,-0.8032545611024114
-3.9305,0.5582629533713921,-0.6125150698093976
-3.93,0.4515612047945656,-0.3899856633008816
-3.9295,0.3768699807907871,-0.1568596183871981
-3.929,0.3448594562177392,-0.01910331912002144
-3.9285,0.2488278824985954,-0.3475991096802118
-3.928,-0.124628237520297,-0.8880276683437509
-3.9275,-0.5621054066852853,-1.258910012524611
-3.927,-1.202315898146244,-1.407262950196955
-3.9265,-1.661133417026597,-1.280103289334946
-3.926,-1.362368521011484,-0.6337083466197325
-3.9255,-0.7648387289812555,0.2776025562246667
-3.925,-0.2420001609548061,1.051157159801889
-3.9245,0.1101156093487211,1.570392441655093
-3.924,0.291508581929326,1.824711763379112
-3.9235,0.3555296310754218,1.898888232215284
-3.923,0.3661998059331045,1.856501678594614
-3.9225,0.3448594562177392,1.761131932948107
-3.922,0.3128489316446912,1.633972272086098
-3.9215,0.291508581929326,1.464426057603419
-3.921,0.2808384070716433,1.263089927905238
-3.9205,0.0674349099179905,0.8710143069140429
-3.92,-0.5621054066852853,0.002089957690313421
-3.9195,-0.9782422261349084,-0.8774310299385835
-3.919,-1.074273799854052,-1.47084278062796
-3.9185,-0.7861790786966207,-1.449649503817625
-3.918,-0.2846808603855366,-1.046977244421262
-3.9175,0.1207857842064037,-0.718481453861072
-3.917,0.3768699807907871,-0.5595318777835605
-3.9165,0.4942419042252961,-0.6337083466197325
-3.916,0.5369226036560266,-0.7714646458869092
-3.9155,0.5155822539406614,-0.9092209451540858
-3.915,0.4515612047945656,-1.036380606016095
-3.9145,0.3341892813600565,-0.9622041371799229
-3.914,0.291508581929326,-0.7290780922662394
-3.9135,0.2808384070716433,-0.4535654937318862
-3.913,0.291508581929326,-0.2204394488182027
-3.9125,0.3235191065023739,-0.02969995752518888
-3.912,0.6436243522328531,-0.1992461720078678
-3.9115,0.825017324813458,-0.7396747306714069
-3.911,0.2381577076409128,-1.216523458903942
-3.9105,-0.4980843575391895,-1.449649503817625
-3.91,-1.255666772434657,-1.449649503817625
-3.9095,-1.405049220442214,-1.004590690800593
-3.909,-0.9675720512772257,-0.1356663415768632
-3.9085,-0.4447334832507763,0.7120647308365314
-3.908,-0.02859666380115328,1.305476481525908
-3.9075,0.2168173579255475,1.633972272086098
-3.907,0.3235191065023739,1.761131932948107
-3.9065,0.3661998059331045,1.75053529454294
-3.906,0.3555296310754218,1.686955464111935
-3.9055,0.3235191065023739,1.591585718465428
-3.905,0.3021787567870086,1.464426057603419
-3.9045,0.2808384070716433,1.305476481525908
-3.904,0.2594980573562781,1.146526905448396
-3.9035,-0.1032878878049318,0.7226613692416989
-3.903,-0.6154562809736985,-0.1674562567923655
-3.9025,-0.9248913518464952,-0.9833974139902578
-3.902,-0.8715404775580819,-1.301296566145281
-3.9015,-0.4660738329661415,-1.163540266878104
-3.901,-0.03926683865883591,-0.9622041371799229
-3.9005,0.2488278824985954,-0.7820612842920766
-3.9,0.4195506802215176,-0.718481453861072
-3.8995,0.4835717293676135,-0.6972881770507372
-3.899,0.4835717293676135,-0.718481453861072
-3.8985,0.4302208550792003,-0.7714646458869092
-3.898,0.291508581929326,-0.7608680074817418
-3.8975,0.2381577076409128,-0.5913217929990628
-3.897,0.2488278824985954,-0.4217755785163839
-3.8965,0.2701682322139607,-0.2628260024388724
-3.896,0.3021787567870086,-0.1038764263613609
-3.8955,0.2488278824985954,-0.01910331912002144
-3.895,-0.2953510352432193,-0.4217755785163839
-3.8945,-0.8608703027003992,-0.9622041371799229
-3.894,-1.031593100423322,-1.280103289334946
-3.8935,-1.255666772434657,-1.311893204550448
-3.893,-1.575772018165136,-1.237716735714276
-3.8925,-1.298347471865388,-0.6866915386455698
-3.892,-0.7328282044082075,0.1716361721729923
-3.8915,-0.2206598112394408,0.92399749893988
-3.891,0.1101156093487211,1.432636142387917
-3.8905,0.291508581929326,1.697552102517103
-3.89,0.3661998059331045,1.771728571353275
-3.8895,0.3661998059331045,1.75053529454294
-3.889,0.3448594562177392,1.676358825706768
-3.8885,0.3128489316446912,1.559795803249926
-3.888,0.3021787567870086,1.400846227172415
-3.8875,0.2701682322139607,1.167720182258731
-3.887,-0.09261771294724913,0.5213252395435176
-3.8865,-0.754168554123573,-0.400582301706049
-3.886,-1.170305373573196,-1.195330182093607
