Class_5_Move_Left_hand_Horiszontal/Class_5_Move_Left_hand_Horiszontal_Suko_7.csv

#Digilent WaveForms Oscilloscope Acquisition
#Device Name: EExplorer
#Serial Number: SN:210151A2B84A
#Date Time: 2021-01-24 14:25:44.186
#Sample rate: 2000Hz
#Samples: 16384
#Trigger: Source: Channel 1 Type: Edge Condition: Rising Level: 0 V Hyst.: Auto HoldOff: 0 s
#Channel 1: Range: 1 V/div Offset: 0 V Attenuation: 1 X
#Channel 2: Range: 1 V/div Offset: 0 V Attenuation: 1 X
#Power Supplies: ON
#Fixed Supply: ON
#Voltage: 3.3 V Readback: 3.331 V
#Positive Supply: ON
#Voltage: 3.7 V Readback: 3.717 V
#Current: 40 mA Readback: 14 mA
#Negative Supply: ON
#Voltage: -3.7 V Readback: -3.348 V
#Current: -40 mA Readback: -6 mA
#Reference 1: ON
#Voltage: 0 V
#Reference 2: ON
#Voltage: 0 V

Time (s),Channel 1 (V),Channel 2 (V)
-4.096,0.3982103305061524,0.2034260873884947
-4.0955,0.3128489316447689,0.002089957690496524
-4.095,-0.1139580626629929,-0.5383386009736979
-4.0945,-0.5300948821122373,-1.05757388282643
-4.094,-0.8822106524154443,-1.364876396576006
-4.0935,-0.7434983792655699,-0.9939940523948759
-4.093,-0.391382608962363,-0.3899856633008816
-4.0925,-0.06060718837450202,0.1080563417415348
-4.092,0.1527963087795681,0.4471487707075094
-4.0915,0.2808384070716433,0.627291623595192
-4.091,0.3235191065023739,0.701468092431364
-4.0905,0.3341892813600468,0.7226613692416796
-4.09,0.3235191065023739,0.701468092431364
-4.0895,0.291508581929326,0.6696781772158616
-4.089,0.280838407071653,0.6272916235952305
-4.0885,0.2594980573562781,0.5955017083796896
-4.088,0.2488278824985954,0.55311515475902
-4.0875,0.05676473506048255,0.3517790250610218
-4.087,-0.5300948821126449,-0.3052125560601975
-4.0865,-0.9782422261349084,-1.025783967610927
-4.086,-1.319687821580442,-1.481439419032713
-4.0855,-1.287677297007239,-1.068170521231067
-4.085,-0.7755089038389382,-0.4853554089473885
-4.0845,-0.2420001609552914,-0.05089323433591886
-4.084,0.1421261339219631,0.1928294489834043
-4.0835,0.3555296310754218,0.2776025562246667
-4.083,0.4408910299368829,0.2776025562246667
-4.0825,0.4515612047946432,0.2564092794144089
-4.082,0.5369226036560266,0.3411823866556712
-4.0815,0.7289857510943143,0.5319218779486851
-4.081,0.7183155762366412,0.5107286011383695
-4.0805,0.6009436528021226,0.4153588554918433
-4.08,0.5049120790829789,0.3305857482505039
-4.0795,0.4302208550792683,0.2881991946298726
-4.079,0.2488278824981587,0.1610395337673334
-4.0785,-0.2313299860971235,-0.3793890248957141
-4.078,-0.7008176798347328,-0.9939940523948663
-4.0775,-1.063603624996389,-1.428456227007184
-4.077,-1.084943974711735,-1.311893204550448
-4.0765,-0.7008176798355091,-0.6760949002409805
-4.076,-0.2740106855275629,-0.02969995752475519
-4.0755,0.04609456020262521,0.4471487707073456
-4.075,0.2381577076409128,0.7332580076468663
-4.0745,0.3235191065023933,0.8604176685089043
-4.074,0.3448594562177392,0.8922075837243778
-4.0735,0.3341892813600565,0.8710143069140429
-4.073,0.3128489316447107,0.8286277532934117
-4.0725,0.2808384070716433,0.7650479228623686
-4.072,0.2594980573562781,0.6908714540261965
-4.0715,0.2488278824986051,0.6272916235952498
-4.071,0.1848068333520532,0.4895353243274853
-4.0705,-0.3060212101009019,-0.09327978795619347
-4.07,-0.8181896032692029,-0.8562377531275548
-4.0695,-1.180975548430927,-1.449649503817432
-4.069,-1.234326422719292,-1.237716735714276
-4.0685,-0.807519428411986,-0.6654982618352349
-4.068,-0.2633405106698123,-0.2098428104127847
-4.0675,0.1314559590640864,0.06566978812131802
-4.067,0.3448594562177392,0.1610395337678249
-4.0665,0.4195506802215274,0.1610395337677671
-4.066,0.4302208550792003,0.09745970333682032
-4.0655,0.4302208550792003,0.08686306493165288
-4.065,0.5796033030866214,0.3305857482502822
-4.0645,0.6436243522328531,0.4789386859228479
-4.064,0.5902734779444399,0.457745409112513
-4.0635,0.5049120790830565,0.4047622170867241
-4.063,0.4622313796522676,0.3729723018711736
-4.0625,0.4835717293676135,0.3729723018711736
-4.062,0.6116138276596886,0.06566978812159752
-4.0615,0.2061471830673214,-0.559531877784081
-4.061,-0.391382608962363,-1.131750351662602
-4.0605,-0.807519428411986,-1.301296566145281
-4.06,-0.6901475049771761,-0.8032545611018236
-4.0595,-0.3593720843893152,-0.1568596183871981
-4.059,-0.04993701351651855,0.3623756634660061
-4.0585,0.1634664836369402,0.6908714540258978
-4.058,0.2701682322139607,0.849821030103708
-4.0575,0.3235191065023739,0.8922075837243778
-4.057,0.3235191065023739,0.88161094531922
-4.0565,0.3128489316446912,0.8286277532933731
-4.056,0.291508581929326,0.7544512844572011
-4.0555,0.2701682322139801,0.6908714540262544
-4.055,0.2594980573562684,0.6166949851899475
-4.0545,0.2488278824985954,0.5319218779486851
-4.054,-0.08194753808926569,0.1928294489836356
-4.0535,-0.615456280973912,-0.5277419625686558
-4.053,-0.8502001278427167,-1.184733543688439
-4.0525,-1.020922925565639,-1.650985633515806
-4.052,-0.8928808272730784,-1.39666631179119
-4.0515,-0.4874141826815069,-0.7396747306714069
-4.051,-0.08194753808956648,-0.1780528951975329
-4.0505,0.1954770082099299,0.1610395337675165
-4.05,0.3341892813600565,0.2776025562246667
-4.0495,0.3982103305061524,0.2881991946298341
-4.049,0.4195506802214982,0.2352160026040451
-4.0485,0.6436243522330375,-0.01910331912020456
-4.048,0.8463576745288233,-0.2204394488182027
-4.0475,0.8036769750981316,-0.1356663415769403
-4.047,0.6756348768057943,0.02328323450078321
-4.0465,0.5582629533713921,0.1716361721729923
-4.046,0.4729015545100085,0.2881991946297281
-4.0455,0.2808384070710416,0.1504428953621081
-4.045,-0.3807124341046804,-0.4535654937318862
-4.0445,-0.9569018764195432,-1.110557074852267
-4.044,-1.084943974711424,-1.375473034981048
-4.0435,-0.7434983792658902,-0.9304142219644207
-4.043,-0.3273615598162672,-0.326405832869877
-4.0425,0.003413860771593835,0.1716361721725393
-4.042,0.2061471830678648,0.4789386859228479
-4.0415,0.3021787567870086,0.627291623595192
-4.041,0.3341892813600275,0.6802748156209809
-4.0405,0.3341892813600371,0.6696781772158423
-4.04,0.3128489316446912,0.6484849004055269
-4.0395,0.2701682322139995,0.5955017083797378
-4.039,0.238157707640903,0.542518516353814
-4.0385,0.2274875327832301,0.5001319627331828
-4.038,0.2274875327832301,0.4683420475177094
-4.0375,0.003413860771360904,0.2352160026033994
-4.037,-0.5834457564006506,-0.4217755785163839
-4.0365,-0.9782422261349084,-1.046977244421262
-4.036,-1.223656247861143,-1.428456227006798
-4.0355,-0.7114878546928423,-0.8880276683437509
-4.035,-0.08194753808956648,-0.2840192792492073
-4.0345,0.3021787567866593,0.06566978812099999
-4.034,0.4515612047945656,0.2246193641988295
-4.0335,0.4729015545099309,0.2352160026039969
-4.033,0.4408910299369121,0.2246193641988391
-4.0325,0.3982103305062009,0.2034260873885814
-4.032,0.4515612047945656,0.2987958330350016
-4.0315,0.5902734779443137,0.4789386859226841
-4.031,0.5796033030866992,0.4895353243279671
-4.0305,0.5155822539406614,0.4365521323021782
-4.03,0.4515612047946238,0.4047622170867048
-4.0295,0.3982103305061233,0.4153588554917951
-4.029,0.3661998059331045,0.3623756634660061
-4.0285,0.1527963087794516,-0.1144730647665284
-4.028,-0.2633405106707148,-0.7184814538615056
-4.0275,-0.8608703027003992,-1.195330182093607
-4.027,-0.9782422261349084,-1.046977244421262
-4.0265,-0.6581369804047201,-0.4429688553272682
-4.026,-0.2633405106701714,0.1504428953626575
-4.0255,0.03542438534494258,0.5849050699745222
-4.025,0.2168173579253825,0.8180311148879937
-4.0245,0.3021787567870377,0.9134008605347127
-4.024,0.3341892813600565,0.9134008605347127
-4.0235,0.3235191065023836,0.8710143069140814
-4.023,0.3128489316446718,0.7968378380777938
-4.0225,0.291508581929326,0.7120647308365314
-4.022,0.2594980573563072,0.6166949851901112
-4.0215,0.248827882498576,0.5319218779485887
-4.021,0.2274875327832301,0.4259554938970107
-4.0205,-0.07127736323188383,0.002089957690313421
-4.02,-0.7434983792664046,-0.7078848154564539
-4.0195,-1.30901764672307,-1.311893204550448
-4.019,-1.51175096901904,-1.142346990067769
-4.0185,-1.07427379985445,-0.6019184314047218
-4.018,-0.4660738329661415,-0.1462629799820306
-4.0175,0.00341386077189465,0.09745970333682032
-4.017,0.2701682322137181,0.1822328105780827
-4.0165,0.3875401556484988,0.1716361721729634
-4.016,0.4195506802215176,0.13984625695749
-4.0155,0.4408910299368635,0.09745970333685887
-4.015,0.5796033030867962,-0.04029659593037559
-4.0145,0.6222840025174878,-0.06148987274069118
-4.014,0.6649647019481795,0.02328323450057118
-4.0135,0.6329541773750832,0.1186529801472419
-4.013,0.5369226036560266,0.2140227257936621
-4.0125,0.4408910299368829,0.309392471440169
-4.012,0.2381577076405634,0.04447651131046272
-4.0115,-0.1459685872356623,-0.5277419625680583
-4.011,-0.6047861061160158,-1.05757388282643
-4.0105,-0.6367966306890347,-0.9410108603696942
-4.01,-0.3807124341046804,-0.4217755785163839
-4.0095,-0.09261771294724913,0.1080563417419877
-4.009,0.1207857842062096,0.5001319627328262
-4.0085,0.238157707640971,0.7332580076469724
-4.008,0.3021787567870086,0.849821030103708
-4.0075,0.3128489316446815,0.8816109453191815
-4.007,0.3128489316446718,0.8710143069140044
-4.0065,0.291508581929326,0.8286277532933731
-4.006,0.2701682322139607,0.775644561267536
-4.0055,0.2488278824985857,0.7120647308364833
-4.005,0.2381577076409128,0.6590815388106942
-4.0045,0.2381577076409128,0.5849050699745222
-4.004,0.03542438534443795,0.3305857482498871
-4.0035,-0.5194247072545548,-0.3475991096802118
-4.003,-0.9995825758502737,-1.05757388282643
-4.0025,-1.415719395299518,-1.534422611058531
-4.002,-1.159635198715513,-1.280103289334946
-4.0015,-0.5941159312583333,-0.718481453861072
-4.001,-0.09261771294770527,-0.252229364034129
-4.0005,0.227487532783366,0.03387987290595065
-4,0.3768699807907871,0.1822328105781598
-3.9995,0.4195506802215176,0.2246193641988295
-3.999,0.4195506802215176,0.2140227257936621
-3.9985,0.5796033030867573,0.3517790250608387
-3.998,0.6756348768059011,0.4259554938970107
-3.9975,0.6116138276598051,0.3623756634660061
-3.997,0.5155822539406614,0.2776025562246667
-3.9965,0.4408910299368829,0.2246193641988295
-3.996,0.4302208550792003,0.2352160026039969
-3.9955,0.8036769750980928,0.2776025562246667
-3.995,0.8783681991018712,-0.1992461720078678
-3.9945,0.1741366584948169,-0.8880276683437509
-3.994,-0.6794773301197943,-1.227120097309109
-3.9935,-0.9035510021311299,-0.9622041371799229
-3.993,-0.6474668055467465,-0.3687923864905467
-3.9925,-0.2846808603855366,0.1716361721729923
-3.992,0.01408403562957729,0.5425185163538525
-3.9915,0.1954770082101822,0.7544512844572011
-3.991,0.291508581929326,0.849821030103708
-3.9905,0.3235191065023739,0.8710143069140429
-3.99,0.3128489316446912,0.849821030103708
-3.9895,0.3021787567870086,0.7968378380778709
-3.989,0.2808384070716433,0.7438546460520338
-3.9885,0.2488278824985954,0.6802748156210291
-3.988,0.2274875327832301,0.6060983467848571
-3.9875,0.1101156093487211,0.4365521323021782
-3.987,-0.423393133535411,-0.1886495336027004
-3.9865,-0.9889124009925911,-0.9410108603695881
-3.986,-1.373038695869166,-1.523825972653797
-3.9855,-1.223656247861609,-1.407262950196955
-3.985,-0.6794773301197943,-0.8032545611024114
-3.9845,-0.1779791118087102,-0.2734226408440398
-3.984,0.142126133921769,0.05507314971615059
-3.9835,0.3128489316446912,0.1928294489833272
-3.983,0.3875401556484697,0.2034260873884947
-3.9825,0.3982103305061524,0.1822328105781598
-3.982,0.4942419042252961,0.2352160026039969
-3.9815,0.6542945270905358,0.3623756634660061
-3.981,0.6222840025174878,0.3199891098453364
-3.9805,0.5475927785137094,0.2564092794143318
-3.98,0.4835717293676135,0.2246193641988295
-3.9795,0.4408910299368829,0.2246193641988295
-3.979,0.6756348768059011,0.1928294489833272
-3.9785,0.7609962756673623,-0.2840192792492073
-3.978,0.2488278824985954,-0.8986243067489184
-3.9775,-0.4767440078238243,-1.110557074852267
-3.977,-0.8822106524157645,-0.570128516188728
-3.9765,-0.7114878546928423,-0.09327978795619347
-3.976,-0.3700422592469978,0.2140227257936621
-3.9755,-0.04993701351651855,0.4047622170866759
-3.975,0.1527963087794516,0.5213252395435176
-3.9745,0.2701682322139607,0.5849050699745222
-3.974,0.3128489316446912,0.6378882620003594
-3.9735,0.3128489316446912,0.6802748156210291
-3.973,0.3021787567870086,0.7226613692416989
-3.9725,0.2808384070716433,0.7438546460520338
-3.972,0.2594980573562781,0.7650479228623686
-3.9715,0.2381577076409128,0.775644561267536
-3.971,0.1848068333524996,0.7332580076468663
-3.9705,-0.3273615598162672,0.2458126410091644
-3.97,-0.8715404775580819,-0.4641621321370536
-3.9695,-1.26633694729234,-1.046977244421262
-3.969,-1.223656247861609,-1.004590690800593
-3.9685,-0.7114878546928423,-0.400582301706049
-3.968,-0.1993194615240755,0.08686306493165288
-3.9675,0.1634664836371343,0.383568940276341
-3.967,0.3448594562177392,0.4683420475176805
-3.9665,0.408880505363835,0.4365521323021782
-3.966,0.4195506802215176,0.3411823866556712
-3.9655,0.4195506802215176,0.2670059178194992
-3.965,0.5796033030867573,0.457745409112513
-3.9645,0.6222840025174878,0.4895353243280153
-3.964,0.5582629533713921,0.3941655786815084
-3.9635,0.4942419042252961,0.2776025562246667
-3.963,0.4302208550792003,0.1928294489833272
-3.9625,0.5369226036560266,0.13984625695749
-3.962,0.8997085488172365,-0.2310360872233701
-3.9615,0.5689331282290746,-0.8774310299385835
-3.961,-0.1993194615240755,-1.460246142222792
-3.9605,-0.7755089038389382,-1.650985633515806
-3.96,-0.722158029550525,-1.068170521231597
-3.9595,-0.423393133535411,-0.3899856633008816
-3.959,-0.1032878878049318,0.1504428953626575
-3.9585,0.1207857842064037,0.5001319627331828
-3.958,0.2488278824985954,0.6802748156210291
-3.9575,0.3021787567870086,0.7544512844572011
-3.957,0.3128489316446912,0.7650479228623686
-3.9565,0.3021787567870086,0.7332580076468663
-3.956,0.2808384070716433,0.701468092431364
-3.9555,0.2488278824985954,0.6590815388106942
-3.955,0.2274875327832301,0.6060983467848571
-3.9545,0.2168173579255475,0.55311515475902
-3.954,-0.09261771294724913,0.1928294489833272
-3.9535,-0.6367966306890638,-0.5383386009732256
-3.953,-1.138294849000148,-1.227120097309109
-3.9525,-1.255666772434657,-1.523825972653797
-3.952,-0.9569018764195432,-1.036380606016095
-3.9515,-0.4340633083930936,-0.4323722169215513
-3.951,-0.01792648894347063,0.01268659609548085
-3.9505,0.2488278824985954,0.2670059178194992
-3.95,0.3768699807907871,0.3199891098453364
-3.9495,0.4195506802215176,0.2670059178194992
-3.949,0.408880505363835,0.1822328105781598
-3.9485,0.5582629533713921,0.2458126410091644
-3.948,0.6542945270905358,0.2987958330350016
-3.9475,0.6009436528021226,0.2881991946298341
-3.947,0.4942419042252961,0.2564092794143318
-3.9465,0.408880505363835,0.2458126410091644
-3.946,0.3661998059331045,0.2458126410091644
-3.9455,0.5262524287983441,0.04447651131098315
-3.945,0.3982103305061524,-0.474758770542221
-3.9445,-0.07127736323188383,-1.025783967610927
-3.944,-0.5834457564006506,-1.407262950196955
-3.9435,-0.6367966306890638,-1.089363798041932
-3.943,-0.391382608962363,-0.4641621321370536
-3.9425,-0.1139580626626144,0.09745970333682032
-3.942,0.09944543449103843,0.4789386859228479
-3.9415,0.2274875327832301,0.701468092431364
-3.941,0.291508581929326,0.7968378380778709
-3.9405,0.3021787567870086,0.8180311148882058
-3.94,0.3021787567870086,0.8074344764830383
-3.9395,0.2808384070716433,0.7650479228623686
-3.939,0.2594980573562781,0.7226613692416989
-3.9385,0.2488278824985954,0.6696781772158616
-3.938,0.2488278824985954,0.6166949851900245
-3.9375,0.01408403562957729,0.3411823866556712
-3.937,-0.572775581542968,-0.3793890248957141
-3.9365,-0.9462317015618604,-1.078767159636765
-3.936,-0.9995825758502737,-1.417859588602123
-3.9355,-0.7755089038389382,-0.9833974139902578
-3.935,-0.3166913849585846,-0.4641621321370536
-3.9345,0.07810508477567314,-0.1674562567923655
-3.934,0.3128489316446912,-0.02969995752518888
-3.9335,0.3982103305061524,0.04447651131098315
-3.933,0.4195506802215176,0.06566978812131802
-3.9325,0.3982103305061524,0.05507314971615059
-3.932,0.4942419042252961,0.1504428953626575
-3.9315,0.8356874996711408,0.5425185163538525
-3.931,0.8676980242441885,0.627291623595192
-3.9305,0.7289857510943143,0.5425185163538525
-3.93,0.5475927785137094,0.4365521323021782
-3.9295,0.4195506802215176,0.3729723018711736
-3.929,0.3341892813600565,0.2352160026039969
-3.9285,-0.07127736323188383,-0.3052125560595421
-3.928,-0.7114878546928423,-0.9410108603695881
-3.9275,-1.202315898146244,-1.38606967338662
-3.927,-1.255666772434657,-1.258910012524611
-3.9265,-0.839529952985034,-0.6231117082145651
-3.926,-0.3700422592469978,0.03387987290581572
-3.9255,-0.007256314085787988,0.5107286011383502
-3.925,0.2061471830678648,0.7968378380778709
-3.9245,0.3021787567870086,0.9134008605347127
-3.924,0.3235191065023739,0.9345941373450475
-3.9235,0.3235191065023739,0.9028042221295453
-3.923,0.3021787567870086,0.8392243916985406
-3.9225,0.2701682322139607,0.7650479228623686
-3.922,0.2488278824985954,0.6802748156210291
-3.9215,0.2274875327832301,0.5955017083796896
-3.921,0.142126133921769,0.4259554938970107
-3.9205,-0.3593720843893152,-0.1886495336027004
-3.92,-0.8715404775580819,-0.9304142219644207
-3.9195,-1.1062843244271,-1.534422611058964
-3.919,-1.319687821580753,-1.703968825541643
-3.9185,-0.9889124009925911,-1.121153713257435
-3.918,-0.5087545323968721,-0.5171453241628908
-3.9175,-0.06060718837420119,-0.1144730647665284
-3.917,0.2274875327832301,0.08686306493165288
-3.9165,0.3661998059331045,0.1186529801471552
-3.916,0.408880505363835,0.08686306493165288
-3.9155,0.4408910299368829,0.09745970333682032
-3.915,0.6222840025174878,0.2987958330350016
-3.9145,0.6542945270905358,0.3623756634660061
-3.914,0.5796033030867573,0.3199891098453364
-3.9135,0.5369226036560266,0.2670059178194992
-3.913,0.4942419042252961,0.2458126410091644
-3.9125,0.3768699807907871,0.2034260873884947
-3.912,-0.1352984123779797,-0.2204394488182027
-3.9115,-0.5514352318276028,-0.7502713690765743
-3.911,-1.010252750707956,-1.290699927740113
-3.9105,-1.191645723288561,-1.417859588602123
-3.91,-0.8608703027003992,-0.8562377531282487
-3.9095,-0.4127229586777283,-0.1992461720078678
-3.909,-0.04993701351651855,0.3199891098453364
-3.9085,0.1741366584948169,0.6484849004055269
-3.908,0.291508581929326,0.8180311148882058
-3.9075,0.3235191065023739,0.8816109453192104
-3.907,0.3235191065023739,0.8710143069140429
-3.9065,0.3021787567870086,0.8392243916985406
-3.906,0.2808384070716433,0.7862411996727035
-3.9055,0.2488278824985954,0.7226613692416989
-3.905,0.2274875327832301,0.6590815388106942
-3.9045,0.2061471830678648,0.5849050699745222
-3.904,-0.1352984123779797,0.1822328105781598
-3.9035,-0.7008176798351597,-0.570128516188728
-3.903,-0.9995825758502737,-1.216523458903942
-3.9025,-1.127624674142465,-1.375473034981453
-3.902,-0.9355615267041777,-0.8986243067489184
-3.9015,-0.4554036581084589,-0.4535654937318862
-3.901,-0.007256314085787988,-0.1356663415768632
-3.9005,0.2488278824985954,0.04447651131098315
-3.9,0.3768699807907871,0.1080563417419877
-3.8995,0.4195506802215176,0.13984625695749
-3.899,0.4195506802215176,0.1610395337678249
-3.8985,0.4942419042252961,0.2987958330350016
-3.898,0.6116138276598051,0.55311515475902
-3.8975,0.5796033030867573,0.5743084315693548
-3.897,0.5582629533713921,0.5001319627331828
-3.8965,0.5582629533713921,0.4365521323021782
-3.896,0.5369226036560266,0.4153588554918433
-3.8955,0.8783681991018712,0.4789386859228479
-3.895,1.219813794547716,-0.01910331912002144
-3.8945,0.5582629533713921,-0.7608680074817418
-3.894,-0.391382608962363,-1.322489842955616
-3.8935,-0.722158029550525,-1.152943628472937
-3.893,-0.5514352318276028,-0.5595318777835605
-3.8925,-0.2526703358124887,0.02328323450064829
-3.892,0.00341386077189465,0.4259554938970107
-3.8915,0.1741366584948169,0.6484849004055269
-3.891,0.2701682322139607,0.7438546460520338
-3.8905,0.3021787567870086,0.7650479228623686
-3.89,0.3021787567870086,0.7226613692416989
-3.8895,0.2808384070716433,0.6696781772158616
-3.889,0.2701682322139607,0.6166949851900245
-3.8885,0.2381577076409128,0.55311515475902
-3.888,0.2168173579255475,0.4895353243280153
-3.8875,0.1634664836371343,0.3941655786815084
-3.887,-0.1993194615240755,-0.08268314955102604
