Class_5_Move_Left_hand_Horiszontal/Class_5_Move_Left_hand_Horiszontal_AM_1.csv

#Digilent WaveForms Oscilloscope Acquisition
#Device Name: EExplorer
#Serial Number: SN:210151A2B84A
#Date Time: 2020-10-20 17:03:47.710
#Sample rate: 2000Hz
#Samples: 16384
#Trigger: Source: Channel 1 Type: Edge Condition: Rising Level: 0 V Hyst.: Auto HoldOff: 0 s
#Channel 1: Range: 1 V/div Offset: 0 V
#Channel 2: Range: 1 V/div Offset: 0 V

Time (s),Channel 1 (V),Channel 2 (V)
-4.0960000000000001,0.4835717293676135,0.88161094531921036
-4.0955000000000004,0.40888050536390297,0.78624119967279016
-4.0949999999999998,0.3555296310750336,0.68027481562101944
-4.0945,-0.071277363231883828,0.66967817721586165
-4.0940000000000003,-0.62612645583087667,0.22461936419923428
-4.0934999999999997,-1.2876772970081807,-0.86683439153419672
-4.093,-1.8105158650341544,-1.7251621023519781
-4.0925000000000002,-1.2770071221505077,-1.227120097309562
-4.0919999999999996,-0.49808435753858782,-0.5701285161882268
-4.0914999999999999,0.16346648363713429,-0.019103319120021445
-4.0910000000000002,0.6116138276598051,0.34118238665567124
-4.0904999999999996,0.72898575109428521,0.40476221708665661
-4.0899999999999999,0.69697522652126631,0.38356894027634103
-4.0895000000000001,0.64362435223285308,0.35177902506083869
-4.0890000000000004,0.62228400251750726,0.30939247144020754
-4.0884999999999998,0.77166645052504479,0.15044289536265748
-4.0880000000000001,0.80367697509809277,0.18223281057815977
-4.0875000000000004,0.75032610080972806,0.3305857482503689
-4.0869999999999997,0.67563487680587198,0.50013196273314431
-4.0865,0.64362435223285308,0.45774540911251305
-4.0860000000000003,0.36619980593335677,-0.23103608722274371
-4.0854999999999997,-0.43406330839380208,-1.0893637980424526
-4.085,-1.2129860730039266,-1.6615822719209734
-4.0845000000000002,-1.8745369141796484,-1.9476915088602338
-4.0839999999999996,-2.5147474056410828,-2.0324646161014868
-4.0834999999999999,-2.3760351324913342,-1.650985633515806
-4.0830000000000002,-1.4157193952998968,-0.70788481545590454
-4.0824999999999996,-0.53009488211167444,0.1822328105787091
-4.0819999999999999,0.08877525963335578,0.78624119967270345
-4.0815000000000001,0.44089102993688295,1.0935437134225592
-4.0810000000000004,0.57960330308663122,1.1783168206638213
-4.0804999999999998,0.6116138276598051,1.1359302670432285
-4.0800000000000001,0.5689331282290746,1.0299638829915545
-4.0795000000000003,0.51558225394070989,0.90280422212966094
-4.0789999999999997,0.45156120479453649,0.78624119967260708
-4.0785,0.41955068022151765,0.68027481562102909
-4.0780000000000003,0.1101156093490025,0.40476221708692645
-4.0774999999999997,-0.57277558154364738,-0.28401927925006504
-4.077,-1.3196878215807528,-1.227120097309109
-4.0765000000000002,-1.8958772638950916,-1.8841116784288923
-4.0759999999999996,-0.93556152670332371,-0.7926579226963284
-4.0754999999999999,0.0034138607718946501,0.21402272579366208
-4.0750000000000002,0.54759277851370936,0.63788826200035942
-4.0744999999999996,0.8356874996711311,0.76504792286222401
-4.0739999999999998,0.82501732481345802,0.60609834678485708
-4.0735000000000001,0.73965592595199681,0.40476221708667587
-4.0730000000000004,0.65429452709061342,0.27760255622478236
-4.0724999999999998,0.60094365280212259,0.25640927941433178
-4.0720000000000001,0.67563487680590106,0.28819919462983412
-4.0715000000000003,0.7183155762365927,0.36237566346593869
-4.0709999999999997,0.68630505166353528,0.42595549389707815
-4.0705,0.63295417737517057,0.50013196273318283
-4.0700000000000003,0.59027347794447871,0.56371179316412956
-4.0694999999999997,0.85702784938686505,0.59550170837931382
-4.069,1.2518243191207636,0.18223281057815977
-4.0685000000000002,0.66496470194821833,-0.61251506980939763
-4.0679999999999996,-0.41272295867867936,-1.2801032893353217
-4.0674999999999999,-1.4584000947306273,-1.6933721871364757
-4.0670000000000002,-2.0345895370454898,-1.7357587407571455
-4.0664999999999996,-1.5651018433067454,-0.99399405239459648
-4.0659999999999998,-0.78617907869662074,-0.082683149551026042
-4.0655000000000001,-0.13529841237797968,0.62729162359519197
-4.0650000000000004,0.2915085819289378,1.040560521396346
-4.0644999999999998,0.50491207908297886,1.2207033742845681
-4.0640000000000001,0.5689331282290746,1.2313000126897355
-4.0635000000000003,0.5689331282290746,1.1677201822587886
-4.0629999999999997,0.52625242879829559,1.0617537982069509
-4.0625,0.47290155450993088,0.94519077575021493
-4.0620000000000003,0.43022085507923913,0.83922439169863694
-4.0614999999999997,0.17413665849373972,0.58490506997337532
-4.0609999999999999,-1.0102527507079564,-0.67609490024040231
-4.0605000000000002,-1.5757720181651362,-1.6085990798951362
-4.0599999999999996,-1.9385579633263947,-2.2655906610155747
-4.0594999999999999,-1.9919088376147593,-2.3291704914465217
-4.0590000000000002,-1.1916457232885611,-1.42845622700729
-4.0585000000000004,-0.26334051067101572,-0.47475877054308846
-4.0579999999999998,0.35552963107542179,0.076266426526485451
-4.0575000000000001,0.63295417737517057,0.30939247144016896
-4.0570000000000004,0.71831557623655395,0.39416557868143132
-4.0564999999999998,0.70764540137894905,0.38356894027634103
-4.056,0.66496470194821833,0.33058574825050385
-4.0555000000000003,0.71831557623658304,0.30939247144018822
-4.0549999999999997,0.82501732481341916,0.31998910984535567
-4.0545,0.78233662538272752,0.34118238665567124
-4.0540000000000003,0.69697522652134392,0.35177902506082903
-4.0534999999999997,0.60094365280211293,0.37297230187130853
-4.0529999999999999,0.59027347794443985,0.52132523954351762
-4.0525000000000002,1.0490909968247935,0.53192187794868506
-4.0519999999999996,0.81434714995483393,-0.18864953360350992
-4.0514999999999999,-0.22065981123944084,-1.0787671596367647
-4.0510000000000002,-1.3196878215807528,-1.746355379162313
-4.0505000000000004,-2.0772702364755311,-2.0536578929118892
-4.0499999999999998,-1.7785053404611064,-1.4602461422227924
-4.0495000000000001,-0.98891240099259115,-0.48535540894738849
-4.0490000000000004,-0.27401068552850416,0.3517790250600773
-4.0484999999999998,0.21681735792578039,0.89220758372462838
-4.048,0.47290155450993088,1.1677201822587309
-4.0475000000000003,0.5796033030866603,1.2630899279051511
-4.0469999999999997,0.57960330308672825,1.2524932895000029
-4.0465,0.54759277851370936,1.1783168206638983
-4.0460000000000003,0.49424190422534464,1.1041403518277941
-4.0454999999999997,0.46223137965218025,1.0193672445862907
-4.0449999999999999,0.38754015564846972,0.9134008605347127
-4.0445000000000002,-0.10328788780493176,0.34118238665567124
-4.0439999999999996,-1.0636036249969227,-0.80325456110316318
-4.0434999999999999,-1.67180359188428,-1.6297923567054711
-4.0430000000000001,-1.373038695869166,-1.5980024414899687
-4.0425000000000004,-0.60478610611671457,-1.0151873292062901
-4.0419999999999998,0.14212613392176898,-0.37938902489571413
-4.0415000000000001,0.63295417737517057,0.055073149716150585
-4.0410000000000004,0.76099627566724581,0.18223281057804414
-4.0404999999999998,0.75032610080962137,0.21402272579366208
-4.04,0.6863050516635838,0.21402272579366208
-4.0395000000000003,0.63295417737521908,0.20342608738850429
-4.0389999999999997,0.6329541773752676,0.19282944898331758
-4.0385,0.73965592595199681,0.18223281057815977
-4.0380000000000003,0.73965592595199681,0.22461936419879094
-4.0374999999999996,0.68630505166353528,0.29879583303506901
-4.0369999999999999,0.63295417737517057,0.37297230187117358
-4.0365000000000002,0.66496470194821833,0.30939247144016896
-4.0359999999999996,0.56893312822870579,-0.3264058328705709
-4.0354999999999999,0.16346648363713429,-1.0893637980419322
-4.0350000000000001,-0.51942470725455481,-1.6191957183003036
-4.0345000000000004,-1.319687821580025,-1.9053049552395644
-4.0339999999999998,-2.0452597119031726,-1.9794814240759964
-4.0335000000000001,-2.0345895370454898,-1.5132293342486296
-4.0330000000000004,-1.2236562478623467,-0.55953187778442792
-4.0324999999999998,-0.44473348325027162,0.29879583303552198
-4.032,0.11011560934872107,0.87101430691404291
-4.0315000000000003,0.41955068022123621,1.1677201822584611
-4.0309999999999997,0.55826295337142118,1.2736865663103765
-4.0305,0.59027347794443985,1.241896651094903
-4.0300000000000002,0.55826295337142118,1.1571235438536405
-4.0294999999999996,0.50491207908292068,1.0511571598017737
-4.0289999999999999,0.44089102993688295,0.92399749893988004
-4.0285000000000002,-0.17797911180871023,0.30939247144016896
-4.0279999999999996,-0.69014750497814659,-0.10387642636208373
-4.0274999999999999,-1.4263895701575793,-0.89862430674891836
-4.0270000000000001,-2.0879404113339031,-1.7993385711881502
-4.0265000000000004,-2.280003558772016,-1.8417251248087814
-4.0259999999999998,-1.5437614935920885,-0.9304142219644207
-4.0255000000000001,-0.55143523182760279,-0.11447306476652835
-4.0250000000000004,0.16346648363648408,0.33058574825009907
-4.0244999999999997,0.59027347794460483,0.48953532432800567
-4.024,0.77166645052504479,0.47893868592284788
-4.0235000000000003,0.78233662538271787,0.39416557868158553
-4.0229999999999997,0.72898575109426578,0.29879583303494373
-4.0225,0.67563487680590106,0.23521600260399694
-4.0220000000000002,0.81434714995564916,0.12924961855241901
-4.0214999999999996,0.85702784938643806,0.076266426526533634
-4.0209999999999999,0.78233662538272752,0.12924961855232261
-4.0205000000000002,0.66496470194821833,0.21402272579366208
-4.0199999999999996,0.5902734779441875,0.27760255622423297
-4.0194999999999999,0.31284893164469124,-0.19924617200786782
-4.0190000000000001,-0.41272295867772835,-0.99399405239542526
-4.0185000000000004,-1.1169544992841423,-1.6297923567048929
-4.0179999999999998,-1.7038141164573279,-2.0112713392914987
-4.0175000000000001,-2.322684258202921,-2.1490276385586755
-4.0170000000000003,-2.2800035587722292,-1.7675486559729947
-4.0164999999999997,-1.3837088707260725,-0.78206128429121879
-4.016,-0.53009488211223732,0.16103953376782493
-4.0155000000000003,0.078105084775120015,0.82862775329276595
-4.0149999999999997,0.43022085507933616,1.188913459069191
-4.0145,0.57960330308675734,1.3266697583362426
-4.0140000000000002,0.61161382765977601,1.3160731199310847
-4.0134999999999996,0.57960330308670882,1.2313000126896392
-4.0129999999999999,0.52625242879834411,1.1253336286380615
-4.0125000000000002,0.49424190422529612,1.0087706061812196
-4.0119999999999996,0.47290155450975618,0.90280422212953559
-4.0114999999999998,0.28083840707164331,0.89220758372437781
-4.0110000000000001,-0.3700422592469978,0.82862775329337313
-4.0105000000000004,-1.4904106193026563,-0.37938902489461535
-4.0099999999999998,-1.9172176136109809,-1.1635402668781043
-4.0095000000000001,-1.405049220442214,-0.96220413717992292
-4.0090000000000003,-0.61545628097441663,-0.44296885532719099
-4.0084999999999997,0.13145595906451335,0.023283234500860315
-4.008,0.60094365280212259,0.25640927941433178
-4.0075000000000003,0.75032610080954365,0.21402272579370063
-4.0069999999999997,0.73965592595195795,0.15044289536263822
-4.0065,0.69697522652126631,0.12924961855232261
-4.0060000000000002,0.64362435223285308,0.16103953376782493
-4.0054999999999996,0.68630505166363232,0.21402272579372955
-4.0049999999999999,0.73965592595199681,0.28819919462983412
-4.0045000000000002,0.70764540137894905,0.38356894027634103
-4.0039999999999996,0.64362435223281422,0.47893868592291533
-4.0034999999999998,0.60094365280212259,0.55311515475901996
-4.0030000000000001,0.71831557623663156,0.27760255622466667
-4.0025000000000004,0.99574012253612798,-0.55953187778279911
-4.0019999999999998,0.45156120479456557,-1.3542797581711179
-4.0015000000000001,-0.34870190953163249,-1.6297923567054711
-4.0010000000000003,-1.1809755484301216,-1.7251621023518913
-4.0004999999999997,-1.8638667393223833,-1.7357587407566251
-4,-1.6611334170265974,-1.1635402668781043
-3.9994999999999998,-0.94623170156186043,-0.26282600243887239
-3.9990000000000001,-0.26334051067017139,0.48953532432801533
-3.9984999999999999,0.20614718306786484,0.96638405256054982
-3.9980000000000002,0.47290155450993088,1.1889134590690658
-3.9975000000000001,0.5689331282290746,1.2207033742845681
-3.9969999999999999,0.57960330308675734,1.1677201822587309
-3.9965000000000002,0.54759277851370936,1.0617537982070568
-3.996,0.4835717293676135,0.94519077575021493
-3.9954999999999998,0.45156120479456557,0.83922439169854057
-3.9950000000000001,0.36619980593310447,0.71206473083653143
-3.9944999999999999,-0.16730893695102761,0.19282944898332721
-3.9940000000000002,-0.79684925355430347,-0.5807251545938954
-3.9935,-1.6291228924535495,-1.5768091646796343
-3.9929999999999999,-1.3090176467230703,-1.2801032893349458
-3.9925000000000002,-0.34870190953163249,-0.26282600243887239
-3.992,0.31284893164469124,0.29879583303500157
-3.9914999999999998,0.73965592595199681,0.5637117931641874
-3.9910000000000001,0.84635767452882327,0.5637117931641874
-3.9904999999999999,0.77166645052504479,0.42595549389701071
-3.9900000000000002,0.67563487680590106,0.30939247144016896
-3.9895,0.6116138276598051,0.24581264100916439
-3.9889999999999999,0.63295417737517057,0.21402272579366208
-3.9885000000000002,0.91037872367491923,0.065669788121318018
-3.988,1.006410297394063,0.033879872905815719
-3.9874999999999998,0.91037872367491923,0.13984625695749003
-3.9870000000000001,0.76099627566736228,0.26700591781949923
-3.9864999999999999,0.6863050516635838,0.23521600260399694
-3.9860000000000002,0.83568749967114075,-0.41117894011121647
-3.9855,0.41955068022151765,-1.1847335436884392
-3.9849999999999999,-0.5621054066852853,-1.7675486559726479
-3.9845000000000002,-1.5117509690190405,-2.0854478081276708
-3.984,-2.301343908487556,-2.1278343617483406
-3.9834999999999998,-2.1199509359069508,-1.5132293342486296
-3.9830000000000001,-1.2129860730039266,-0.49595204735255594
-3.9824999999999999,-0.40205278382004572,0.36237566346600614
-3.9820000000000002,0.15279630877945163,0.92399749893988004
-3.9815,0.45156120479456557,1.2101067358794007
-3.9809999999999999,0.5689331282290746,1.2842832047155728
-3.9805000000000001,0.59027347794443985,1.2524932895000704
-3.98,0.55826295337139209,1.1677201822587309
-3.9794999999999998,0.51558225394066137,1.0617537982070568
-3.9790000000000001,0.4622313796522482,0.96638405256054982
-3.9784999999999999,0.3768699807907871,0.82862775329337313
-3.9780000000000002,-0.4980843575391895,-0.13566634157686319
-3.9775,-1.0956141495694174,-1.1529436284729369
-3.9769999999999999,-1.3943790455845313,-1.9370948704553266
-3.9765000000000001,-1.5971123678805015,-2.0536578929121685
-3.976,-0.8928808272734472,-1.1211537132574345
-3.9754999999999998,0.0034138607718946501,-0.30521255605954212
-3.9750000000000001,0.53692260365602662,0.11865298014715518
-3.9744999999999999,0.73965592595199681,0.24581264100916439
-3.9740000000000002,0.77166645052504479,0.26700591781949923
-3.9735,0.71831557623663156,0.25640927941433178
-3.9729999999999999,0.65429452709053582,0.23521600260399694
-3.9725000000000001,0.62228400251748783,0.23521600260399694
-3.972,0.6863050516635838,0.25640927941433178
-3.9714999999999998,0.70764540137894905,0.29879583303500157
-3.9710000000000001,0.67563487680590106,0.35177902506083869
-3.9704999999999999,0.63295417737517057,0.40476221708667587
-3.9700000000000002,0.60094365280212259,0.43655213230217815
-3.9695,0.69697522652126631,-0.04029659593035631
-3.9689999999999999,0.47290155450993088,-0.88802766834375091
-3.9685000000000001,-0.32736155981626724,-1.5556158878692994
-3.968,-1.1276246741424654,-1.84172512480882
-3.9674999999999998,-1.8852070890379329,-1.9794814240759964
-3.9670000000000001,-2.0666000616185376,-1.6933721871364757
-3.9664999999999999,-1.3837088707268488,-0.792657922697244
-3.9660000000000002,-0.59411593125833329,0.11865298014715518
-3.9655,0.014084035629577295,0.76504792286236856
-3.9649999999999999,0.3768699807907871,1.1147369902328941
-3.9645000000000001,0.54759277851370936,1.241896651094903
-3.964,0.59027347794443985,1.241896651094903
-3.9634999999999998,0.5689331282290746,1.1677201822587309
-3.9630000000000001,0.49424190422529612,1.0617537982070568
-3.9624999999999999,0.44089102993688295,0.95578741415538238
-3.9620000000000002,0.3982103305061524,0.87101430691404291
-3.9615,0.16346648363713429,0.6590815388106942
-3.9609999999999999,-0.46607383296614152,-0.04029659593035631
-3.9605000000000001,-1.3303579964384356,-1.1105570748522671
-3.96,-1.6077825427381842,-1.5026326958434622
-3.9594999999999998,-0.64746680554674652,-0.51714532416289083
-3.9590000000000001,0.29150858192932599,0.27760255622466667
-3.9584999999999999,0.86769802424418851,0.62729162359519197
-3.9580000000000002,1.0597611716824762,0.58490506997452218
-3.9575,0.98506994767869771,0.36237566346600614
-3.9569999999999999,0.82501732481345802,0.20342608738849466
-3.9565000000000001,0.69697522652126631,0.13984625695749003
-3.956,0.6116138276598051,0.12924961855232261
-3.9554999999999998,0.6863050516635838,0.097459703336820316
-3.9550000000000001,0.78233662538272752,0.16103953376782493
-3.9544999999999999,0.75032610080967954,0.30939247144016896
-3.9540000000000002,0.67563487680590106,0.45774540911251305
-3.9535,0.60094365280212259,0.57430843156935485
-3.9529999999999998,0.83568749967114075,0.2246193641988295
-3.9525000000000001,1.2731646688361289,-0.53833860097322561
-3.952,0.81434714995577528,-1.1635402668781043
-3.9514999999999998,-0.028596663801153277,-1.3966663117917877
-3.9510000000000001,-1.0315931004233216,-1.5450192494641319
-3.9504999999999999,-1.7144842913150107,-1.523825972653797
-3.9500000000000002,-1.46907026958831,-0.89862430674891836
-3.9495,-0.79684925355430347,-0.061489872740691176
-3.9489999999999998,-0.17797911180871023,0.60609834678485708
-3.9485000000000001,0.23815770764091276,0.98757732937088472
-3.948,0.4622313796522482,1.1571235438535634
-3.9474999999999998,0.54759277851370936,1.1677201822587309
-3.9470000000000001,0.55826295337139209,1.0829470750173917
-3.9464999999999999,0.52625242879834411,0.96638405256054982
-3.9460000000000002,0.4835717293676135,0.84982103010370802
-3.9455,0.078105084775673142,0.39416557868150842
-3.9449999999999998,-0.54076505696992005,-0.20984281041303524
-3.9445000000000001,-1.1703053735731959,-0.73967473067140688
-3.944,-1.7678351656034239,-1.6085990798951362
-3.9434999999999998,-2.0559298867608553,-2.2549940226103495
-3.9430000000000001,-2.0666000616185376,-2.2867839378258519
-3.9424999999999999,-1.2983474718653876,-1.4708427806279598
-3.9420000000000002,-0.39138260896236304,-0.55953187778356051
-3.9415,0.24882788249859539,0.055073149716150585
-3.9409999999999998,0.60094365280212259,0.36237566346600614
-3.9405000000000001,0.72898575109431429,0.45774540911251305
-3.9399999999999999,0.72898575109431429,0.4471487707073456
-3.9394999999999998,0.69697522652126631,0.39416557868150842
-3.9390000000000001,0.72898575109431429,0.30939247144016896
-3.9384999999999999,1.0490909968247935,-0.050893234335523743
-3.9380000000000002,1.0811015213978414,-0.17805289519753292
-3.9375,0.93171907339028448,-0.082683149551026042
-3.9369999999999998,0.75032610080967954,0.065669788121318018
-3.9365000000000001,0.67563487680590106,-0.04029659593035631
-3.9359999999999999,0.12078578420640371,-0.71848145386107198
-3.9355000000000002,-0.76483872898125549,-1.4602461422227924
-3.9350000000000001,-1.5651018433074537,-2.0006747008863313
-3.9344999999999999,-2.301343908487556,-2.3185738530413542
-3.9340000000000002,-2.6641298536487659,-2.3079772146361868
-3.9335,-2.2053123347684123,-1.5768091646796343
-3.9329999999999998,-1.1596351987155133,-0.52774196256805828
-3.9325000000000001,-0.32736155981626724,0.33058574825050385
-3.9319999999999999,0.21681735792554749,0.87101430691404291
-3.9315000000000002,0.50491207908297886,1.1359302670432285
-3.931,0.60094365280212259,1.2101067358794007
-3.9304999999999999,0.60094365280212259,1.1677201822587309
-3.9300000000000002,0.55826295337139209,1.0723504366122243
-3.9295,0.4835717293676135,0.97698069096571727
-3.9289999999999998,0.41955068022151765,0.89220758372437781
-3.9285000000000001,0.34485945621773917,0.86041766850887547
-3.9279999999999999,0.099445434491038431,0.5637117931641874
-3.9275000000000002,-0.59411593125833329,-0.26282600243887239
-3.927,-1.6291228924535495,-1.5556158878692994
