Class_5_Move_Left_hand_Horiszontal/Class_5_Move_Left_hand_Horiszontal_Suko_1.csv

#Digilent WaveForms Oscilloscope Acquisition
#Device Name: EExplorer
#Serial Number: SN:210151A2B84A
#Date Time: 2020-10-20 13:24:30.323
#Sample rate: 2000Hz
#Samples: 16384
#Trigger: Source: Channel 1 Type: Edge Condition: Rising Level: 0 V Hyst.: Auto HoldOff: 0 s
#Channel 1: Range: 1 V/div Offset: 0 V
#Channel 2: Range: 1 V/div Offset: 0 V

Time (s),Channel 1 (V),Channel 2 (V)
-4.0960000000000001,0.22748753278323011,0.0020899576903134209
-4.0955000000000004,0.43022085507901597,0.66967817721525447
-4.0949999999999998,0.98506994767925082,1.326669758336628
-4.0945,1.593269914566608,1.75053529454294
-4.0940000000000003,1.603940089424281,1.8459050401893597
-4.0934999999999997,0.79300680023998305,1.0193672445856932
-4.093,0.32351910650237387,0.25640927941433178
-4.0925000000000002,0.078105084775896338,-0.29461591765387352
-4.0919999999999996,-0.071277363231796481,-0.60191843140417245
-4.0914999999999999,0.024754210487259936,-0.53833860097322561
-4.0910000000000002,0.13145595906408636,-0.32640583286987701
-4.0904999999999996,0.1421261339217787,-0.15685961838701498
-4.0899999999999999,0.15279630877945163,0.044476511310983152
-4.0895000000000001,0.21681735792554749,0.10805634174198775
-4.0890000000000004,0.25949805735623926,0.23521600260388129
-4.0884999999999998,0.25949805735627807,0.45774540911251305
-4.0880000000000001,0.25949805735627807,0.68027481562102909
-4.0875000000000004,0.2488278824986051,0.84982103010355381
-4.0869999999999997,0.50491207908368729,0.60609834678407648
-4.0865,1.2838348436938116,-0.25222936403370499
-4.0860000000000003,2.0200769088732442,-1.1211537132566443
-4.0854999999999997,2.0947681328765859,-1.6933721871361578
-4.085,0.87836819910187125,-1.3436831197659505
-4.0845000000000002,-0.43406330839189988,-0.36879238649143331
-4.0839999999999996,-0.80751942841185009,0.08686306493167216
-4.0834999999999999,-0.65813698040442903,0.10805634174198775
-4.0830000000000002,-0.35937208438931517,-0.061489872740691176
-4.0824999999999996,-0.092617712947084152,-0.28401927924939041
-4.0819999999999999,0.08877525963335578,-0.48535540894738849
-4.0815000000000001,0.18480683335249956,-0.63370834661973252
-4.0810000000000004,0.20614718306784544,-0.72907809226615272
-4.0804999999999998,0.20614718306786484,-0.73967473067140688
-4.0800000000000001,0.19547700821018218,-0.64430498502489997
-4.0795000000000003,0.18480683335250928,-0.48535540894753304
-4.0789999999999997,0.18480683335253839,-0.36879238649001667
-4.0785,0.22748753278323011,0.21402272579366208
-4.0780000000000003,0.3661998059329783,0.98757732937018117
-4.0774999999999997,0.55826295337147946,1.5386025264393501
-4.077,0.65429452709053582,1.2736865663104053
-4.0765000000000002,0.59027347794449803,0.73325800764735782
-4.0759999999999996,0.45156120479416767,0.18223281057756224
-4.0754999999999999,0.014084035629577295,-0.47475877054222104
-4.0750000000000002,-0.55143523182760279,-1.0787671596367647
-4.0744999999999996,-0.45540365810835215,-0.90922094515384488
-4.0739999999999998,-0.33803173467394987,-0.64430498502489997
-4.0735000000000001,-0.14596858723566233,-0.25222936403370499
-4.0730000000000004,0.12078578420616107,0.10805634174166007
-4.0724999999999998,0.23815770764091276,0.24581264100916439
-4.0720000000000001,0.23815770764091276,0.43655213230217815
-4.0715000000000003,0.21681735792556689,0.64848490040533413
-4.0709999999999997,0.19547700821016278,0.81803111488811908
-4.0705,0.17413665849481691,0.72266136924169888
-4.0700000000000003,0.13145595906412516,-0.061489872739977969
-4.0694999999999997,-0.0072563140860791219,-0.98339741399085534
-4.069,-0.32736155981626724,-1.6403889951106385
-4.0685000000000002,-0.93556152670417769,-1.4390528654124575
-4.0679999999999996,-1.7144842913150107,-0.42177557851577674
-4.0674999999999999,-1.7144842913150107,0.24581264100916439
-4.0670000000000002,-1.1596351987155133,0.33058574825050385
-4.0664999999999996,-0.5621054066848874,0.1504428953624069
-4.0659999999999998,-0.12462823752029703,-0.12506970317169577
-4.0655000000000001,0.13145595906408636,-0.37938902489571413
-4.0650000000000004,0.22748753278314277,-0.58072515459371232
-4.0644999999999998,0.24882788249859539,-0.71848145386107198
-4.0640000000000001,0.23815770764091276,-0.78206128429207655
-4.0635000000000003,0.21681735792556689,-0.77146464588691888
-4.0629999999999997,0.19547700821020159,-0.69728817705047696
-4.0625,0.21681735792554749,-0.41117894011121647
-4.0620000000000003,0.4302208550790062,0.21402272579309345
-4.0614999999999997,0.92104889853296079,0.99817396777659173
-4.0609999999999999,1.3158453682668594,1.5915857184654283
-4.0605000000000002,1.539919040278195,1.8353084017842791
-4.0599999999999996,1.3585260676972504,1.4114428655769364
-4.0594999999999999,0.98506994767869771,0.70146809243136399
-4.0590000000000002,0.63295417737517057,0.086863064931652884
-4.0585000000000004,0.38754015564869293,-0.24163272562823876
-4.0579999999999998,0.23815770764091276,-0.31580919446470956
-4.0575000000000001,-0.08194753808956648,-0.44296885532671876
-4.0570000000000004,-0.66880715526157797,-0.82444783791239939
-4.0564999999999998,-0.54076505696992005,-0.51714532416289083
-4.056,-0.34870190953163249,-0.24163272562853755
-4.0555000000000003,-0.15663876209351965,0.1292496185519853
-4.0549999999999997,0.099445434491125778,0.57430843156959577
-4.0545,0.19547700821018218,0.83922439169854057
-4.0540000000000003,0.19547700821018218,0.87101430691401405
-4.0534999999999997,0.23815770764087393,0.30939247143926302
-4.0529999999999999,0.19547700821018218,-0.68669153864556975
-4.0525000000000002,-0.039266838658835915,-1.5662125262744668
-4.0519999999999996,-0.80751942841289825,-2.0218679776960684
-4.0514999999999999,-1.8105158650341544,-1.3648763965762853
-4.0510000000000002,-2.0132491873301248,-0.44296885532671876
-4.0505000000000004,-1.458400094731132,-0.040296595930722545
-4.0499999999999998,-0.77550890383893822,-0.0085066807148540119
-4.0495000000000001,-0.25267033581248871,-0.15685961838719809
-4.0490000000000004,0.067434909917699348,-0.34759910968003838
-4.0484999999999998,0.216817357925596,-0.51714532416301606
-4.048,0.27016823221396069,-0.65490162343006741
-4.0475000000000003,0.24882788249861479,-0.72907809226617193
-4.0469999999999997,0.21681735792552809,-0.71848145386101414
-4.0465,0.19547700821018218,-0.65490162343006741
-4.0460000000000003,0.18480683335250928,-0.54893523937848943
-4.0454999999999997,0.18480683335250928,-0.11447306476580553
-4.0449999999999999,0.19547700821018218,0.68027481562102909
-4.0445000000000002,0.23815770764091276,1.3796529503620798
-4.0439999999999996,0.25949805735626835,1.6551655488959895
-4.0434999999999999,0.24882788249859539,1.1677201822587309
-4.0430000000000001,0.24882788249859539,0.48953532432801533
-4.0425000000000004,0.23815770764092248,-0.019103319119558815
-4.0419999999999998,0.22748753278323011,-0.28401927924920728
-4.0415000000000001,0.20614718306786484,-0.30521255605954212
-4.0410000000000004,0.1954770082101919,-0.1886495336028064
-4.0404999999999998,0.19547700821017247,0.0020899576904868976
-4.04,0.18480683335249956,0.19282944898332721
-4.0395000000000003,0.21681735792551837,0.2987958330349052
-4.0389999999999997,0.11011560934816791,0.30939247143977383
-4.0385,-0.4980843575391895,-0.12506970317169577
-4.0380000000000003,-0.50875453239686241,0.012686596095355579
-4.0374999999999996,-0.39138260896227572,0.25640927941417757
-4.0369999999999999,-0.29535103524321932,0.086863064931652884
-4.0365000000000002,-0.23132998609712346,-0.59132179299906285
-4.0359999999999996,-0.53009488211259637,-1.3860696733868516
-4.0354999999999999,-0.92489135184649518,-1.6403889951106385
-4.0350000000000001,-1.405049220442214,-0.72907809226623943
-4.0345000000000004,-1.9385579633258607,0.31998910984438234
-4.0339999999999998,-1.6397930673112322,0.5637117931641874
-4.0335000000000001,-0.98891240099259115,0.30939247144016896
-4.0330000000000004,-0.40205278382057952,-0.08268314955066941
-4.0324999999999998,-0.007256314085603603,-0.41117894011142853
-4.032,0.19547700821018218,-0.64430498502489997
-4.0315000000000003,0.25949805735621984,-0.78206128429195121
-4.0309999999999997,0.25949805735625864,-0.81385119950753071
-4.0305,0.23815770764091276,-0.76086800748174177
-4.0300000000000002,0.20614718306789395,-0.66549826183532157
-4.0294999999999996,0.1954770082101919,-0.49595204735221859
-4.0289999999999999,0.20614718306786484,-0.12506970317169577
-4.0285000000000002,0.21681735792554749,0.60609834678485708
-4.0279999999999996,0.22748753278328834,1.3160731199314799
-4.0274999999999999,0.29150858192932599,1.7611319329481074
-4.0270000000000001,0.3768699807907871,1.5597958032499259
-4.0265000000000004,0.3768699807907871,1.0617537982075098
-4.0259999999999998,0.33418928136005654,0.59550170837968963
-4.0255000000000001,0.29150858192932599,0.31998910984533641
-4.0250000000000004,0.24882788249863419,0.18223281057828505
-4.0244999999999997,0.22748753278321071,0.17163617217306945
-4.024,0.20614718306786484,0.25640927941433178
-4.0235000000000003,0.18480683335251896,0.39416557868138313
-4.0229999999999997,0.20614718306788424,0.47893868592290573
-4.0225,0.22748753278323011,0.54251851635385251
-4.0220000000000002,0.22748753278323011,0.68027481562090375
-4.0214999999999996,0.21681735792553777,0.80743447648311539
-4.0209999999999999,0.20614718306786484,0.89220758372437781
-4.0205000000000002,0.046094560202625215,0.58490506997452218
-4.0199999999999996,-0.78617907869689241,-0.75027136907721037
-4.0194999999999999,-1.0849439747117349,-1.4496495038176249
-4.0190000000000001,-1.405049220442214,-1.5450192494641319
-4.0185000000000004,-2.0772702364756088,-0.85623775312887507
-4.0179999999999998,-2.4934070559258434,0.30939247144016896
-4.0175000000000001,-2.0559298867608553,0.73325800764686633
-4.0170000000000003,-1.2876772970084038,0.43655213230244799
-4.0164999999999997,-0.5834457564002139,-0.019103319120378034
-4.016,-0.10328788780493176,-0.41117894011121647
-4.0155000000000003,0.16346648363689165,-0.68669153864531918
-4.0149999999999997,0.27016823221398012,-0.84564111472312942
-4.0145,0.29150858192932599,-0.89862430674891836
-4.0140000000000002,0.27016823221398012,-0.83504447631797163
-4.0134999999999996,0.23815770764088365,-0.73967473067129119
-4.0129999999999999,0.20614718306786484,-0.61251506980939763
-4.0125000000000002,0.20614718306786484,-0.38998566330088158
-4.0119999999999996,0.22748753278328834,0.21402272579436563
-4.0114999999999998,0.29150858192932599,0.98757732937088472
-4.0110000000000001,0.34485945621773917,1.6021823568705957
-4.0105000000000004,0.46223137965214145,1.8882915938098561
-4.0099999999999998,0.52625242879834411,1.4856193344137538
-4.0095000000000001,0.4835717293676135,0.87101430691404291
-4.0090000000000003,0.39821033050623,0.35177902506131098
-4.0084999999999997,0.32351910650232535,0.044476511310886778
-4.008,0.27016823221396069,-0.061489872740691176
-4.0075000000000003,0.22748753278326894,0.0020899576902555922
-4.0069999999999997,0.20614718306787455,0.16103953376795985
-4.0065,0.21681735792554749,0.30939247144016896
-4.0060000000000002,0.28083840707164331,0.31998910984533641
-4.0054999999999996,0.29150858192930656,0.47893868592305028
-4.0049999999999999,0.27016823221396069,0.70146809243136399
-4.0045000000000002,0.22748753278323011,0.89220758372437781
-4.0039999999999996,0.20614718306785512,0.96638405256014503
-4.0034999999999998,0.19547700821018218,0.52132523954351762
-4.0030000000000001,0.08877525963335578,-0.20984281041303524
-4.0025000000000004,-0.20998963638148641,-0.78206128429155608
-4.0019999999999998,-0.092617712947249131,-0.68669153864556975
-4.0015000000000001,0.33418928136005654,-0.32640583286987701
-4.0010000000000003,0.88903837395904917,0.43655213230148426
-4.0004999999999997,0.79300680024018688,0.35177902506048209
-4,0.54759277851370936,-0.04029659593035631
-3.9994999999999998,0.43022085507920033,-0.33700247127504446
-3.9990000000000001,0.29150858192932599,-0.62311170821456507
-3.9984999999999999,0.17413665849481691,-0.84564111472308123
-3.9980000000000002,0.12078578420640371,-0.94101086036958814
-3.9975000000000001,0.12078578420640371,-0.95160749877475548
-3.9969999999999999,0.13145595906408636,-0.84564111472308123
-3.9965000000000002,0.15279630877945163,-0.67609490024040231
-3.996,0.18480683335249956,-0.43237221692155131
-3.9954999999999998,0.24882788249859539,0.097459703336820316
-3.9950000000000001,0.35552963107542179,0.87101430691404291
-3.9944999999999999,0.47290155450993088,1.5174092496292562
-3.9940000000000002,0.50491207908297886,1.7717285713532749
-3.9935,0.49424190422529612,1.2842832047155728
-3.9929999999999999,0.41955068022151765,0.64848490040552687
-3.9925000000000002,0.34485945621773917,0.19282944898332721
-3.992,0.28083840707164331,0.0020899576903134209
-3.9914999999999998,0.23815770764091276,-0.0085066807148540119
-3.9910000000000001,0.20614718306786484,0.10805634174198775
-3.9904999999999999,0.19547700821018218,0.27760255622466667
-3.9900000000000002,0.19547700821018218,0.45774540911251305
-3.9895,0.30217875678700862,0.35177902506083869
-3.9889999999999999,0.3768699807907871,0.33058574825050385
-3.9885000000000002,0.35552963107542179,0.52132523954351762
-3.988,0.29150858192932599,0.73325800764686633
-3.9874999999999998,0.23815770764091276,0.86041766850887547
-3.9870000000000001,0.27016823221396069,0.48953532432801533
-3.9864999999999999,0.28083840707164331,-0.26282600243887239
-3.9860000000000002,0.16346648363713429,-0.95160749877475548
-3.9855,-0.18864928666639288,-1.4390528654124575
-3.9849999999999999,-0.90355100213112993,-1.3436831197659505
-3.9845000000000002,-1.2770071221500223,-0.61251506980939763
-3.984,-1.2556667724346571,-0.43237221692155131
-3.9834999999999998,-1.373038695869166,-0.88802766834375091
-3.9830000000000001,-0.87154047755808195,-0.85623775312824868
-3.9824999999999999,-0.48741418268150688,-0.89862430674891836
-3.9820000000000002,-0.18864928666639288,-0.91981758355925325
-3.9815,0.099445434491038431,-0.84564111472308123
-3.9809999999999999,0.21681735792554749,-0.85623775312824868
-3.9805000000000001,0.19547700821018218,-0.88802766834375091
-3.98,0.17413665849481691,-0.88802766834375091
-3.9794999999999998,0.17413665849481691,-0.88802766834375091
-3.9790000000000001,0.19547700821018218,-0.57012851618872795
-3.9784999999999999,0.28083840707164331,0.18223281057815977
-3.9780000000000002,0.4835717293676135,1.0087706061812196
-3.9775,0.65429452709053582,1.5491991648447585
-3.9769999999999999,0.73965592595199681,1.2948798431207402
-3.9765000000000001,0.65429452709053582,0.83922439169854057
-3.976,0.50491207908297886,0.34118238665567124
-3.9754999999999998,0.38754015564846972,0.023283234500648287
-3.9750000000000001,0.29150858192932599,-0.13566634157686319
-3.9744999999999999,0.22748753278323011,-0.12506970317169577
-3.9740000000000002,0.19547700821018218,-0.0085066807148540119
-3.9735,0.18480683335249956,0.17163617217299235
-3.9729999999999999,0.20614718306786484,0.25640927941433178
-3.9725000000000001,0.25949805735627807,0.30939247144016896
-3.972,0.24882788249859539,0.50013196273318283
-3.9714999999999998,0.22748753278323011,0.70146809243136399
-3.9710000000000001,0.20614718306786484,0.87101430691404291
-3.9704999999999999,0.18480683335249956,0.82862775329337313
-3.9700000000000002,0.18480683335249956,0.23521600260399694
-3.9695,0.0034138607718946501,-0.52774196256805828
-3.9689999999999999,-0.24200016095480609,-1.01518732920576
-3.9685000000000001,0.32351910650237387,-0.94101086036958814
-3.968,1.1664629202593024,-0.71848145386107198
-3.9674999999999998,1.3158453682668594,-0.27342264084403983
-3.9670000000000001,1.0277506471094282,0.065669788121318018
-3.9664999999999999,0.59027347794443985,0.13984625695749003
-3.9660000000000002,-0.29535103524321932,-0.49595204735255594
-3.9655,-0.4980843575391895,-0.66549826183523486
-3.9649999999999999,-0.44473348325077627,-0.73967473067140688
-3.9645000000000001,-0.31669138495858457,-0.80325456110241145
-3.964,-0.08194753808956648,-0.73967473067140688
-3.9634999999999998,0.099445434491038431,-0.67609490024040231
-3.9630000000000001,0.13145595906408636,-0.67609490024040231
-3.9624999999999999,0.16346648363713429,-0.54893523937839306
-3.9620000000000002,0.19547700821018218,-0.061489872740691176
-3.9615,0.25949805735627807,0.62729162359519197
-3.9609999999999999,0.32351910650237387,1.1995100974742332
-3.9605000000000001,0.40888050536383502,1.1147369902328941
-3.96,0.45156120479456557,0.40476221708667587
-3.9594999999999998,0.43022085507920033,-0.24163272562853755
-3.9590000000000001,0.34485945621773917,-0.65490162343006741
-3.9584999999999999,0.27016823221396069,-0.82444783791274634
-3.9580000000000002,0.20614718306786484,-0.792657922697244
-3.9575,0.17413665849481691,-0.64430498502489997
-3.9569999999999999,0.17413665849481691,-0.41117894011121647
-3.9565000000000001,0.18480683335249956,-0.20984281041303524
-3.956,0.23815770764091276,-0.10387642636136091
-3.9554999999999998,0.24882788249859539,0.11865298014715518
-3.9550000000000001,0.22748753278323011,0.38356894027634103
-3.9544999999999999,0.20614718306786484,0.62729162359519197
-3.9540000000000002,0.15279630877945163,0.75445128445720111
-3.9535,-0.049937013516518552,0.30939247144016896
-3.9529999999999998,-0.41272295867772835,-0.37938902489571413
-3.9525000000000001,-0.96757205127722568,-0.9304142219644207
-3.952,-1.6397930673112322,-1.2695066509297783
-3.9514999999999998,-2.23732285934146,-1.3966663117917877
-3.9510000000000001,-1.9172176136109809,-0.97280077558509037
-3.9504999999999999,-1.1703053735731959,-0.27342264084403983
-3.9500000000000002,-0.51942470725455481,0.26700591781949923
-3.9495,-0.08194753808956648,0.52132523954351762
-3.9489999999999998,0.15279630877945163,0.53192187794868506
-3.9485000000000001,-0.17797911180871023,-0.029699957525188878
-3.948,-0.5621054066852853,-0.66549826183523486
-3.9474999999999998,-0.44473348325077627,-0.792657922697244
-3.9470000000000001,-0.33803173467394987,-0.88802766834375091
-3.9464999999999999,-0.14596858723566233,-0.86683439153341613
-3.9460000000000002,0.078105084775673142,-0.70788481545590454
-3.9455,0.29150858192932599,-0.19924617200786782
-3.9449999999999998,0.51558225394066137,0.47893868592284788
-3.9445000000000001,0.71831557623663156,1.0193672445863871
-3.944,0.80367697509809277,1.0511571598018894
-3.9434999999999998,0.71831557623663156,0.34118238665567124
-3.9430000000000001,0.55826295337139209,-0.37938902489571413
-3.9424999999999999,0.41955068022151765,-0.85623775312824868
-3.9420000000000002,0.30217875678700862,-1.0893637980419322
-3.9415,0.21681735792554749,-1.131750351662602
-3.9409999999999998,0.17413665849481691,-1.0257839676109275
-3.9405000000000001,0.15279630877945163,-0.81385119950757889
-3.9399999999999999,0.15279630877945163,-0.57012851618872795
-3.9394999999999998,0.23815770764091276,-0.47475877054222104
-3.9390000000000001,0.27016823221396069,-0.25222936403370499
-3.9384999999999999,0.25949805735627807,0.086863064931652884
-3.9380000000000002,0.22748753278323011,0.42595549389701071
-3.9375,0.19547700821018218,0.72266136924169888
-3.9369999999999998,0.18480683335249956,0.59550170837968963
-3.9365000000000001,0.12078578420640371,-0.029699957525188878
-3.9359999999999999,-0.22065981123944084,-0.63370834661973252
-3.9355000000000002,-0.57277558154296804,-0.89862430674891836
-3.9350000000000001,-0.65813698040442903,-0.38998566330088158
-3.9344999999999999,-1.0422632752810042,0.47893868592284788
-3.9340000000000002,-1.0422632752810042,0.86041766850887547
-3.9335,-0.69014750497747701,0.76504792286236856
-3.9329999999999998,-0.31669138495858457,0.47893868592284788
-3.9325000000000001,-0.039266838658835915,0.18223281057815977
-3.9319999999999999,0.12078578420640371,-0.061489872740691176
-3.9315000000000002,0.19547700821018218,-0.25222936403370499
-3.931,0.20614718306786484,-0.36879238649054674
-3.9304999999999999,0.11011560934872107,-0.52774196256805828
-3.9300000000000002,-0.54076505696992005,-1.2059268204987741
-3.9295,-0.58344575640065055,-1.2483133741194434
-3.9289999999999998,-0.39138260896236304,-0.80325456110241145
