Class_5_Move_Left_hand_Horiszontal/Class_5_Move_Left_hand_Horizontal_Turki_4.csv

#Digilent WaveForms Oscilloscope Acquisition
#Device Name: EExplorer
#Serial Number: SN:210151A2B84A
#Date Time: 2020-11-18 11:32:32.792
#Sample rate: 2000Hz
#Samples: 16384
#Trigger: Source: Channel 1 Type: Edge Condition: Rising Level: 0 V Hyst.: Auto HoldOff: 0 s
#Channel 1: Range: 1 V/div Offset: 0 V Attenuation: 1 X
#Channel 2: Range: 1 V/div Offset: 0 V Attenuation: 1 X
#Power Supplies: ON
#Fixed Supply: ON
#Voltage: 3.3 V Readback: 3.323 V
#Positive Supply: ON
#Voltage: 3.7 V Readback: 3.713 V
#Current: 500 mA Readback: 19 mA
#Negative Supply: ON
#Voltage: -3.7 V Readback: -3.701 V
#Current: -500 mA Readback: -6 mA
#Reference 1: ON
#Voltage: 0 V
#Reference 2: ON
#Voltage: 0 V

Time (s),Channel 1 (V),Channel 2 (V)
-4.096,0.3128489316446912,-0.1038764263613609
-4.0955,0.5369226036558228,0.2670059178191619
-4.095,0.536922603655949,0.4259554938970107
-4.0945,0.4515612047945656,0.4259554938970107
-4.094,0.376869980790855,0.3941655786815373
-4.0935,0.355529631075383,0.4047622170866469
-4.093,0.3128489316446912,0.3729723018711736
-4.0925,0.2808384070716724,0.3199891098453846
-4.092,0.2594980573562586,0.2881991946298245
-4.0915,0.2381577076409128,0.2776025562246667
-4.091,0.3128489316446912,0.3517790250608387
-4.0905,0.7289857510939552,0.8498210301037273
-4.09,0.3341892813600565,0.8710143069140429
-4.0895,-0.572775581542968,0.002089957690313421
-4.089,-1.116954499284288,-0.7078848154552588
-4.0885,-0.9782422261349084,-0.6337083466197325
-4.088,-0.5834457564006506,-0.2204394488182027
-4.0875,-0.2206598112397708,0.2034260873881091
-4.087,0.0247542104873861,0.5213252395437007
-4.0865,0.1634664836371343,0.7226613692416989
-4.086,0.216817357925499,0.8392243916984345
-4.0855,0.2168173579255378,0.8922075837243875
-4.085,0.2061471830678648,0.9028042221295453
-4.0845,0.184806833352519,0.9028042221295453
-4.084,0.1634664836371246,0.881610945319191
-4.0835,0.1527963087794516,0.8604176685088755
-4.083,0.1314559590640864,0.8074344764830383
-4.0825,-0.1566387620938981,0.4153588554910531
-4.082,-0.7648387289812555,-0.4535654937318862
-4.0815,-1.138294849000148,-1.280103289334946
-4.081,-1.309017646722915,-1.619195718299995
-4.0805,-0.9035510021311299,-1.0999604364471
-4.08,-0.2206598112394408,-0.4641621321370536
-4.0795,0.3021787567865331,0.002089957689889343
-4.079,0.5582629533714017,0.2881991946299594
-4.0785,0.5689331282290746,0.4259554938970107
-4.078,0.4942419042253641,0.415358855491853
-4.0775,0.3982103305062301,0.3517790250610218
-4.077,0.4835717293676135,0.55311515475902
-4.0765,0.5582629533713241,0.6908714540260712
-4.076,0.5155822539405838,0.5849050699743873
-4.0755,0.4302208550792003,0.4365521323021782
-4.075,0.3448594562177392,0.2987958330350016
-4.0745,0.3021787567873289,0.2564092794146691
-4.074,0.6542945270905358,0.627291623595192
-4.0735,0.7609962756673623,0.8922075837243778
-4.073,0.03542438534560244,0.1716361721736477
-4.0725,-0.8608703027003992,-0.7078848154559045
-4.072,-1.010252750707956,-0.8138511995075789
-4.0715,-0.722158029550787,-0.4111789401115827
-4.071,-0.3487019095313705,0.08686306493200947
-4.0705,-0.06060718837420119,0.4789386859228479
-4.07,0.1101156093485658,0.7332580076466351
-4.0695,0.1954770082102016,0.8710143069141008
-4.069,0.2168173579255475,0.9345941373450475
-4.0685,0.2168173579255475,0.9451907757502149
-4.068,0.1954770082101725,0.9345941373450282
-4.0675,0.1848068333524996,0.9134008605347127
-4.067,0.1527963087794516,0.8816109453192104
-4.0665,0.1314559590639408,0.8392243916983285
-4.066,-0.02859666380115328,0.6060983467848571
-4.0655,-0.6474668055467465,-0.1674562567923655
-4.065,-1.063603624995991,-1.046977244420462
-4.0645,-1.244996597576974,-1.735758740757146
-4.064,-1.042263275281004,-1.788741932782983
-4.0635,-0.4447334832513198,-1.099960436447726
-4.063,0.1101156093490025,-0.4005823017056539
-4.0625,0.4195506802215176,0.03387987290581572
-4.062,0.4942419042252282,0.2034260873883404
-4.0615,0.4515612047944976,0.2670059178194896
-4.061,0.3768699807907871,0.2564092794143318
-4.0605,0.3555296310754218,0.1504428953626575
-4.06,0.3555296310754024,0.05507314971616986
-4.0595,0.3341892813600565,0.07626642652648545
-4.059,0.3021787567870086,0.13984625695749
-4.0585,0.2594980573563169,0.2034260873884368
-4.058,0.2381577076409128,0.2670059178194992
-4.0575,0.5049120790829789,0.5743084315693548
-4.057,0.8250173248131669,1.104140351827245
-4.0565,0.09944543449103843,0.6908714540261965
-4.056,-0.9142211769888124,-0.07208651114585861
-4.0555,-1.34102817129573,-0.5065486857573283
-4.055,-1.074273799853625,-0.3793890248954057
-4.0545,-0.6047861061160158,-0.04029659593035631
-4.054,-0.2099896363821172,0.2987958330346931
-4.0535,0.04609456020275137,0.5531151547591742
-4.053,0.1848068333524996,0.7226613692416989
-4.0525,0.2274875327832301,0.8180311148882058
-4.052,0.2274875327832107,0.8604176685089043
-4.0515,0.2061471830678648,0.8922075837243778
-4.051,0.1848068333524996,0.8922075837243778
-4.0505,0.1634664836371537,0.88161094531922
-4.05,0.1527963087794516,0.8710143069140429
-4.0495,0.08877525963335578,0.7862411996727035
-4.049,-0.4874141826809829,0.1716361721735513
-4.0485,-1.266336947292806,-0.6972881770514214
-4.048,-1.778505340461106,-1.449649503817625
-4.0475,-1.810515865034125,-1.831128486403306
-4.047,-1.063603624995632,-1.32248984295496
-4.0465,-0.2526703358124887,-0.6019184314042303
-4.046,0.2808384070711581,-0.02969995752570931
-4.0455,0.4835717293676232,0.3305857482506388
-4.045,0.4942419042252961,0.4789386859228479
-4.0445,0.4302208550792003,0.4895353243280153
-4.044,0.3661998059331142,0.3729723018710194
-4.0435,0.3768699807907871,0.2034260873884947
-4.043,0.3875401556484697,0.13984625695749
-4.0425,0.3875401556484697,0.1292496185523322
-4.042,0.3555296310754218,0.1186529801471552
-4.0415,0.3128489316446912,0.1292496185523226
-4.041,0.4835717293674582,0.2246193641987428
-4.0405,0.9530594231051644,0.07626642652583973
-4.04,0.4195506802215176,-0.6337083466197325
-4.0395,-0.6047861061150841,-1.333086481360147
-4.039,-1.234326422719175,-1.576809164679181
-4.0385,-1.1062843244271,-1.078767159636765
-4.038,-0.6794773301201824,-0.389985663301508
-4.0375,-0.2740106855276017,0.17163617217332
-4.037,0.00341386077189465,0.5319218779486851
-4.0365,0.1634664836371343,0.7226613692416989
-4.036,0.2168173579255572,0.7968378380778806
-4.0355,0.2274875327832301,0.8074344764830383
-4.035,0.2168173579255475,0.7862411996727035
-4.0345,0.1954770082102016,0.7438546460520723
-4.034,0.1741366584948169,0.7120647308365314
-4.0335,0.1527963087794516,0.6696781772158616
-4.033,0.1421261339217787,0.6378882620003883
-4.0325,0.02475421048700762,0.4259554938963939
-4.032,-0.2526703358124887,-0.252229364033705
-4.0315,-0.6581369804040602,-1.068170521230855
-4.031,-0.9889124009923388,-1.280103289334522
-4.0305,-0.7114878546928423,-0.8138511995075789
-4.03,-0.2099896363822142,-0.3264058328703203
-4.0295,0.1954770082103569,0.01268659609564469
-4.029,0.3875401556484697,0.1928294489833272
-4.0285,0.4302208550792003,0.2670059178194992
-4.028,0.3982103305061136,0.2458126410091355
-4.0275,0.3555296310754218,0.2140227257936621
-4.027,0.4302208550792003,0.07626642652648545
-4.0265,0.4302208550792003,0.06566978812132765
-4.026,0.3768699807907871,0.13984625695749
-4.0255,0.3128489316446912,0.2458126410091644
-4.025,0.2701682322139995,0.3411823866555845
-4.0245,0.2808384070720509,0.4683420475181431
-4.024,0.7289857510943143,0.9769806909657173
-4.0235,0.7289857510943143,1.411442865577187
-4.023,-0.1886492866671498,0.7332580076459507
-4.0225,-1.020922925565639,-0.2734226408440398
-4.022,-1.074273799854004,-0.527741962567827
-4.0215,-0.7221580295501756,-0.2628260024385158
-4.021,-0.3380317346739499,0.1292496185523226
-4.0205,-0.04993701351651855,0.457745409112513
-4.02,0.1314559590641543,0.6908714540263218
-4.0195,0.2061471830678648,0.8286277532933731
-4.019,0.2274875327832301,0.9028042221295453
-4.0185,0.2168173579255572,0.9239974989398607
-4.018,0.1954770082101822,0.92399749893988
-4.0175,0.1741366584948169,0.9028042221295453
-4.017,0.152796308779471,0.8816109453192297
-4.0165,0.1421261339215749,0.8392243916982129
-4.016,-0.07127736323188383,0.4789386859228479
-4.0155,-0.7861790786959706,-0.3581957480846179
-4.015,-1.415719395300004,-1.174136905283802
-4.0145,-1.533091318734406,-1.75695201756748
-4.014,-1.159635198715853,-1.693372187136533
-4.0135,-0.4447334832502134,-1.02578396761032
-4.013,0.1741366584948169,-0.3581957480853793
-4.0125,0.5049120790829789,0.08686306493165288
-4.012,0.5796033030866992,0.2670059178195185
-4.0115,0.5155822539406614,0.2881991946298341
-4.011,0.4195506802215176,0.2564092794143318
-4.0105,0.35552963107548,0.2352160026040162
-4.01,0.3128489316446912,0.2140227257936621
-4.0095,0.2808384070716433,0.1716361721729923
-4.009,0.2594980573562975,0.139846256957519
-4.0085,0.2488278824985954,0.1186529801471648
-4.008,0.2488278824985954,0.1292496185523226
-4.0075,0.5475927785134376,0.4683420475173721
-4.007,0.6009436528013753,0.8604176685083261
-4.0065,-0.2206598112394408,0.2564092794143318
-4.006,-1.074273799854052,-0.6337083466197325
-4.0055,-1.159635198715183,-0.8032545611020645
-4.005,-0.7968492535543035,-0.4217755785163839
-4.0045,-0.3807124341046804,0.05507314971615059
-4.004,-0.07127736323170915,0.457745409112754
-4.0035,0.1207857842064037,0.7226613692416989
-4.003,0.2061471830678648,0.8604176685088755
-4.0025,0.2274875327832107,0.93459413734498
-4.002,0.2168173579255475,0.9557874141553824
-4.0015,0.2061471830678648,0.9557874141553824
-4.001,0.184806833352519,0.9239974989399089
-4.0005,0.1741366584948072,0.8922075837243393
-4,0.1634664836371343,0.849821030103708
-3.9995,0.01408403562957729,0.6590815388106942
-3.999,-0.6047861061160158,-0.09327978795619347
-3.9985,-0.9142211769888124,-0.9728007755850904
-3.998,-1.042263275281004,-1.650985633515806
-3.9975,-1.010252750707956,-1.852321763213987
-3.997,-0.4980843575391895,-1.269506650929778
-3.9965,0.02475421048725994,-0.6125150698093976
-3.996,0.3235191065023739,-0.1356663415768632
-3.9955,0.4302208550792003,0.13984625695749
-3.995,0.4195506802215176,0.2564092794143318
-3.9945,0.3661998059331045,0.2564092794143318
-3.994,0.3661998059331045,0.1716361721729923
-3.9935,0.4515612047945656,-0.008506680714854012
-3.993,0.4622313796522482,-0.04029659593035631
-3.9925,0.4195506802215176,0.002089957690313421
-3.992,0.3661998059331045,0.06566978812131802
-3.9915,0.3021787567870086,0.13984625695749
-3.991,0.4622313796522482,0.4153588554918433
-3.9905,0.8463576745288233,1.019367244586387
-3.99,0.2808384070716433,0.7968378380778709
-3.9895,-0.6367966306890638,-0.1462629799820306
-3.989,-0.9675720512772257,-0.6443049850249
-3.9885,-0.754168554123573,-0.4429688553267188
-3.988,-0.4127229586777283,-0.01910331912002144
-3.9875,-0.1139580626626144,0.3729723018711736
-3.987,0.08877525963335578,0.6590815388106942
-3.9865,0.1848068333524996,0.8392243916985406
-3.986,0.2168173579255475,0.9345941373450475
-3.9855,0.2168173579255475,0.9663840525605498
-3.985,0.1954770082101822,0.9769806909657173
-3.9845,0.1848068333524996,0.9557874141553824
-3.984,0.1634664836371343,0.92399749893988
-3.9835,0.1527963087794516,0.8922075837243778
-3.983,0.1101156093487211,0.8074344764830383
-3.9825,-0.3273615598162672,0.2352160026039969
-3.982,-1.020922925565639,-0.6654982618352349
-3.9815,-1.394379045584531,-1.449649503817625
-3.981,-1.533091318734406,-1.937094870455327
-3.9805,-0.9675720512772257,-1.47084278062796
-3.98,-0.2313299860971235,-0.718481453861072
-3.9795,0.2808384070716433,-0.1568596183871981
-3.979,0.5049120790829789,0.13984625695749
-3.9785,0.5155822539406614,0.2458126410091644
-3.978,0.4622313796522482,0.2776025562246667
-3.9775,0.3982103305061524,0.2246193641988295
-3.977,0.408880505363835,0.1716361721729923
-3.9765,0.3661998059331045,0.13984625695749
-3.976,0.3021787567870086,0.1080563417419877
-3.9755,0.2594980573562781,0.08686306493165288
-3.975,0.2381577076409128,0.09745970333682032
-3.9745,0.3448594562177392,0.2881991946298341
-3.974,0.9530594231056497,0.9557874141553824
-3.9735,1.262494493978446,1.390249588767247
-3.973,0.5902734779444399,0.7332580076468663
-3.9725,-0.4020527838200457,-0.02969995752518888
-3.972,-0.722158029550525,-0.2946159176543747
-3.9715,-0.572775581542968,-0.1356663415768632
-3.971,-0.3060212101009019,0.1610395337678249
-3.9705,-0.07127736323188383,0.4471487707073456
-3.97,0.08877525963335578,0.6590815388106942
-3.9695,0.1741366584948169,0.8180311148882058
-3.969,0.2061471830678648,0.9134008605347127
-3.9685,0.2061471830678648,0.9663840525605498
-3.968,0.1954770082101822,0.9981739677760521
-3.9675,0.1741366584948169,1.00877060618122
-3.967,0.1527963087794516,0.9981739677760521
-3.9665,0.142126133921769,0.9769806909657173
-3.966,-0.1139580626626144,0.701468092431364
-3.9655,-0.7648387289812555,-0.09327978795619347
-3.965,-1.084943974711735,-0.8774310299385835
-3.9645,-1.26633694729234,-1.492036057438295
-3.964,-0.9142211769888124,-1.375473034981453
-3.9635,-0.2526703358124887,-0.7608680074817418
-3.963,0.2701682322139607,-0.1568596183871981
-3.9625,0.5475927785137094,0.2246193641988295
-3.962,0.5689331282290746,0.3517790250608387
-3.9615,0.4835717293676135,0.3305857482505039
-3.961,0.3768699807907871,0.2670059178194992
-3.9605,0.4622313796522482,0.04447651131098315
-3.96,0.5475927785137094,-0.1674562567923655
-3.9595,0.5049120790829789,-0.1568596183871981
-3.959,0.4195506802215176,-0.08268314955102604
-3.9585,0.3235191065023739,-0.008506680714854012
-3.958,0.291508581929326,0.05507314971615059
-3.9575,0.6222840025174878,0.4259554938970107
-3.957,0.6756348768059011,0.9028042221295453
-3.9565,-0.1779791118087102,0.3729723018711736
-3.956,-1.127624674142465,-0.1038764263613609
-3.9555,-1.479740444445993,-0.3052125560595421
-3.955,-1.138294849000148,-0.2204394488182027
-3.9545,-0.6367966306890638,-0.02969995752518888
-3.954,-0.2099896363817582,0.1928294489833272
-3.9535,0.05676473506030786,0.3729723018711736
-3.953,0.1848068333524996,0.5107286011383502
-3.9525,0.2274875327832301,0.6166949851900245
-3.952,0.2381577076409128,0.701468092431364
-3.9515,0.2168173579255475,0.775644561267536
-3.951,0.1954770082101822,0.8286277532933731
-3.9505,0.1634664836371343,0.8710143069140429
-3.95,0.1527963087794516,0.8922075837243778
-3.9495,-0.01792648894347063,0.775644561267536
-3.949,-0.6794773301197943,0.09745970333682032
-3.9485,-1.010252750707956,-0.6654982618352349
-3.948,-1.1062843244271,-1.280103289334946
-3.9475,-1.010252750707956,-1.47084278062796
-3.947,-0.4127229586777283,-0.9516074987747555
-3.9465,0.1527963087794516,-0.2416327256285375
-3.946,0.4942419042252961,0.2881991946298341
-3.9455,0.5902734779444399,0.55311515475902
-3.945,0.5369226036560266,0.6166949851900245
-3.9445,0.4195506802215176,0.5955017083796896
-3.944,0.3768699807907871,0.5637117931641874
-3.9435,0.3982103305061524,0.5319218779486851
-3.943,0.3768699807907871,0.4153588554918433
-3.9425,0.3448594562177392,0.2670059178194992
-3.942,0.3021787567870086,0.13984625695749
-3.9415,0.2594980573562781,0.04447651131098315
-3.941,0.4515612047945656,0.1822328105781598
-3.9405,0.7289857510943143,0.7544512844572011
-3.94,-0.01792648894347063,0.5213252395435176
-3.9395,-1.052933450138687,-0.3899856633008816
-3.939,-1.490410619303675,-0.9728007755850904
-3.9385,-1.180975548430879,-0.8032545611024114
-3.938,-0.6688071552621118,-0.3475991096802118
-3.9375,-0.2420001609548061,0.07626642652648545
-3.937,0.04609456020262521,0.383568940276341
-3.9365,0.1848068333524996,0.5637117931641874
-3.936,0.2274875327832301,0.6590815388106942
-3.9355,0.2381577076409128,0.701468092431364
-3.935,0.2168173579255475,0.7120647308365314
-3.9345,0.1848068333524996,0.7120647308365314
-3.934,0.1634664836371343,0.701468092431364
-3.9335,0.1527963087794516,0.6908714540261965
-3.933,0.08877525963335578,0.627291623595192
-3.9325,-0.4340633083930936,0.05507314971615059
-3.932,-0.9569018764195432,-0.8032545611024114
-3.9315,-1.26633694729234,-1.545019249464132
-3.931,-1.319687821580753,-1.862918401619155
-3.9305,-0.754168554123573,-1.301296566145281
-3.93,-0.1032878878049318,-0.5383386009732256
-3.9295,0.3341892813600565,0.05507314971615059
-3.929,0.4942419042252961,0.3941655786815084
-3.9285,0.4942419042252961,0.5425185163538525
-3.928,0.4195506802215176,0.5107286011383502
-3.9275,0.3661998059331045,0.4153588554918433
-3.927,0.3661998059331045,0.383568940276341
-3.9265,0.3448594562177392,0.3199891098453364
-3.926,0.3128489316446912,0.2352160026039969
-3.9255,0.2808384070716433,0.1716361721729923
-3.925,0.2488278824985954,0.13984625695749
-3.9245,0.3875401556484697,0.01268659609548085
-3.924,0.9210488985326017,-0.5171453241628908
-3.9235,1.305175193409177,-1.227120097309109
-3.923,0.6969752265212663,-1.852321763213987
-3.9225,-0.07127736323188383,-1.968884785670829
-3.922,-0.3166913849585846,-1.269506650929778
-3.9215,-0.2633405106701714,-0.4853554089473885
-3.921,-0.1139580626626144,0.1186529801471552
-3.9205,0.02475421048725994,0.4895353243280153
-3.92,0.1207857842064037,0.6696781772158616
-3.9195,0.1741366584948169,0.7332580076468663
-3.919,0.1848068333524996,0.7332580076468663
-3.9185,0.1848068333524996,0.7120647308365314
-3.918,0.1848068333524996,0.6802748156210291
-3.9175,0.1634664836371343,0.6378882620003594
-3.917,0.1634664836371343,0.6060983467848571
-3.9165,0.142126133921769,0.5743084315693548
-3.916,-0.156638762093345,0.2458126410091644
-3.9155,-0.7328282044082075,-0.5913217929990628
-3.915,-1.031593100423322,-1.407262950196955
-3.9145,-1.26633694729234,-1.661582271920973
-3.914,-0.8822106524157645,-1.121153713257435
-3.9135,-0.2633405106701714,-0.474758770542221
-3.913,0.1741366584948169,-0.02969995752518888
-3.9125,0.3875401556484697,0.2140227257936621
-3.912,0.4302208550792003,0.2776025562246667
-3.9115,0.3982103305061524,0.2776025562246667
-3.911,0.3448594562177392,0.2670059178194992
-3.9105,0.3875401556484697,0.2352160026039969
-3.91,0.3982103305061524,0.2034260873884947
-3.9095,0.3875401556484697,0.1928294489833272
-3.909,0.3555296310754218,0.2034260873884947
-3.9085,0.3128489316446912,0.2246193641988295
-3.908,0.3021787567870086,0.2776025562246667
-3.9075,0.6542945270905358,0.6378882620003594
-3.907,0.6222840025174878,1.019367244586387
-3.9065,-0.2206598112394408,0.4047622170866759
-3.906,-1.06360362499637,-0.4959520473525559
-3.9055,-1.234326422719292,-0.8138511995075789
-3.905,-0.8822106524157645,-0.5171453241628908
-3.9045,-0.4447334832507763,-0.07208651114585861
-3.904,-0.1032878878049318,0.3199891098453364
-3.9035,0.09944543449103843,0.5955017083796896
-3.903,0.1954770082101822,0.7650479228623686
-3.9025,0.2274875327832301,0.849821030103708
-3.902,0.2168173579255475,0.8816109453192104
-3.9015,0.2061471830678648,0.8922075837243778
-3.901,0.1848068333524996,0.8922075837243778
-3.9005,0.1634664836371343,0.8710143069140429
-3.9,0.142126133921769,0.8286277532933731
-3.8995,0.03542438534494258,0.701468092431364
-3.899,-0.4980843575391895,0.2034260873884947
-3.8985,-0.9248913518464952,-0.6443049850249
-3.898,-1.298347471865388,-1.42845622700729
-3.8975,-1.148965023857831,-1.629792356705471
-3.897,-0.5087545323968721,-1.0999604364471
-3.8965,0.1101156093487211,-0.474758770542221
-3.896,0.4835717293676135,0.02328323450064829
-3.8955,0.5689331282290746,0.2670059178194992
-3.895,0.5155822539406614,0.309392471440169
-3.8945,0.408880505363835,0.2458126410091644
-3.894,0.408880505363835,0.1822328105781598
-3.8935,0.4835717293676135,0.2034260873884947
-3.893,0.4622313796522482,0.1716361721729923
-3.8925,0.408880505363835,0.1292496185523226
-3.892,0.3448594562177392,0.09745970333682032
-3.8915,0.3021787567870086,0.1080563417419877
-3.891,0.4302208550792003,0.2987958330350016
-3.8905,0.4515612047945656,0.1928294489833272
-3.89,-0.2526703358124887,-0.5383386009732256
-3.8895,-1.170305373573196,-1.121153713257435
-3.889,-1.490410619303675,-1.195330182093607
-3.8885,-1.138294849000148,-0.7078848154559045
-3.888,-0.6261264558313813,-0.1144730647665284
-3.8875,-0.1993194615240755,0.3517790250608387
-3.887,0.05676473506030786,0.6590815388106942
-3.8865,0.1954770082101822,0.8074344764830383
-3.886,0.2381577076409128,0.8710143069140429
