Class_5_Move_Left_hand_Horiszontal/Class_5_Move_Left_hand_Horizontal_Turki_8.csv

#Digilent WaveForms Oscilloscope Acquisition
#Device Name: EExplorer
#Serial Number: SN:210151A2B84A
#Date Time: 2020-12-15 14:04:31.277
#Sample rate: 2000Hz
#Samples: 16384
#Trigger: Source: Channel 1 Type: Edge Condition: Rising Level: 0 V Hyst.: Auto HoldOff: 0 s
#Channel 1: Range: 1 V/div Offset: 0 V Attenuation: 1 X
#Channel 2: Range: 1 V/div Offset: 0 V Attenuation: 1 X
#Power Supplies: ON
#Fixed Supply: ON
#Voltage: 3.3 V Readback: 3.316 V
#Positive Supply: ON
#Voltage: 3.7 V Readback: 3.715 V
#Current: 40 mA Readback: 19 mA
#Negative Supply: ON
#Voltage: -3.7 V Readback: -3.349 V
#Current: -40 mA Readback: -9 mA
#Reference 1: ON
#Voltage: 0 V
#Reference 2: ON
#Voltage: 0 V

Time (s),Channel 1 (V),Channel 2 (V)
-4.096,0.3128489316446912,0.1292496185523226
-4.0955,0.5689331282288417,0.5107286011380032
-4.095,0.472901554509203,0.7226613692410917
-4.0945,-0.3273615598162672,0.05507314971615059
-4.094,-1.084943974711046,-0.7184814538603684
-4.0935,-1.501080794161086,-1.248313374119251
-4.093,-1.202315898146244,-1.036380606016095
-4.0925,-0.668807155262597,-0.4641621321375741
-4.092,-0.1886492866661114,0.09745970333718655
-4.0915,0.1207857842064037,0.5001319627331828
-4.091,0.2808384070716433,0.7438546460520338
-4.0905,0.3448594562177392,0.8498210301037465
-4.09,0.3448594562177392,0.8922075837243778
-4.0895,0.3235191065023739,0.8816109453192104
-4.089,0.302178756787028,0.8498210301037369
-4.0885,0.291508581929326,0.8074344764830383
-4.088,0.2808384070716433,0.7650479228623686
-4.0875,0.1527963087795681,0.5955017083798438
-4.087,-0.4447334832512421,-0.08268314955177777
-4.0865,-0.9569018764195432,-0.9092209451540858
-4.086,-1.223656247861366,-1.566212526273869
-4.0855,-1.287677297007453,-1.725162102351525
-4.085,-1.010252750707956,-1.227120097309109
-4.0845,-0.4980843575396554,-0.6231117082151144
-4.084,-0.0392668386585739,-0.2204394488180484
-4.0835,0.2488278824985954,-0.05089323433552374
-4.083,0.3875401556484697,-0.02969995752518888
-4.0825,0.4515612047945656,-0.07208651114595499
-4.082,0.4515612047945656,-0.1780528951975329
-4.0815,0.4622313796522482,-0.2628260024388724
-4.081,0.4302208550792295,-0.2628260024388724
-4.0805,0.3768699807907871,-0.1992461720078678
-4.08,0.3341892813600565,-0.1144730647665284
-4.0795,0.3021787567870378,-0.01910331912010818
-4.079,0.4408910299370091,0.2246193641991764
-4.0785,0.5796033030867573,0.6060983467848571
-4.078,-0.03926683865827307,0.1292496185527564
-4.0775,-0.8395299529856259,-0.6443049850254493
-4.077,-1.490410619303675,-1.248313374119443
-4.0765,-1.501080794161348,-1.248313374119443
-4.076,-0.9675720512767211,-0.6654982618346373
-4.0755,-0.4127229586777283,-0.008506680714854012
-4.075,-0.007256314085787988,0.5107286011383502
-4.0745,0.2274875327833271,0.8286277532935177
-4.074,0.3341892813600565,0.9875773293708847
-4.0735,0.3555296310754218,1.051157159801889
-4.073,0.3448594562177489,1.040560521396731
-4.0725,0.3235191065023739,0.9981739677760521
-4.072,0.3021787567870086,0.9451907757502149
-4.0715,0.2915085819293357,0.8816109453192682
-4.071,0.2488278824981878,0.7756445612670637
-4.0705,-0.1993194615240755,0.2564092794143318
-4.07,-0.8502001278421247,-0.6019184314034497
-4.0695,-1.255666772434803,-1.364876396576623
-4.069,-1.415719395299897,-1.735758740757146
-4.0685,-1.159635198715513,-1.375473034981453
-4.068,-0.6367966306885979,-0.7820612842916621
-4.0675,-0.124628237520297,-0.326405832869877
-4.067,0.2381577076409128,-0.1356663415768632
-4.0665,0.4302208550792488,-0.1462629799820596
-4.066,0.4835717293676135,-0.1780528951975329
-4.0655,0.4729015545099309,-0.2098428104130352
-4.065,0.5262524287982956,-0.2310360872233508
-4.0645,0.5475927785137094,-0.1992461720078678
-4.064,0.4729015545099309,-0.1462629799820306
-4.0635,0.3982103305062203,-0.08268314955108387
-4.063,0.334189281360076,-0.008506680714738361
-4.0625,0.3555296310754218,0.1186529801471552
-4.062,0.6329541773749183,0.5743084315689404
-4.0615,0.1954770082094058,0.4047622170859916
-4.061,-0.658136980404429,-0.3475991096802118
-4.0605,-1.351698346153801,-1.004590690800593
-4.06,-1.629122892453142,-1.311893204550082
-4.0595,-1.180975548430879,-0.9092209451540858
-4.059,-0.6047861061160158,-0.2734226408440398
-4.0585,-0.1246282375207338,0.2776025562241656
-4.058,0.1634664836371343,0.6484849004055269
-4.0575,0.3128489316446912,0.8604176685088755
-4.057,0.355529631075383,0.9451907757501379
-4.0565,0.3555296310754218,0.9663840525605498
-4.056,0.3341892813600565,0.9345941373450475
-4.0555,0.3128489316447107,0.8922075837244163
-4.055,0.3021787567869989,0.8498210301036502
-4.0545,0.291508581929326,0.7862411996727035
-4.054,0.01408403562982957,0.4683420475179696
-4.0535,-0.5941159312587118,-0.3264058328706095
-4.053,-1.010252750707956,-1.131750351662602
-4.0525,-1.244996597576974,-1.682775548731308
-4.052,-1.244996597576596,-1.5874058030843
-4.0515,-0.8288597781273515,-1.036380606016095
-4.051,-0.2846808603855366,-0.5383386009732256
-4.0505,0.120785784206035,-0.1886495336030184
-4.05,0.3448594562177392,-0.01910331912002144
-4.0495,0.4515612047945656,0.01268659609548085
-4.049,0.4729015545099114,-0.04029659593030812
-4.0485,0.4942419042253349,-0.07208651114581043
-4.048,0.5369226036560266,-0.01910331912002144
-4.0475,0.483571729367662,-0.01910331912002144
-4.047,0.4088805053637865,-0.04029659593035631
-4.0465,0.3555296310754218,-0.04029659593035631
-4.046,0.323519106502403,0.002089957690274868
-4.0455,0.5582629533712756,0.3305857482506195
-4.045,0.4302208550792003,0.457745409112513
-4.0445,-0.2846808603855366,-0.1780528951975329
-4.044,-0.9675720512776527,-0.8562377531286535
-4.0435,-1.437059745015262,-1.301296566145281
-4.043,-1.202315898146244,-1.046977244421262
-4.0425,-0.6901475049779429,-0.4217755785169526
-4.042,-0.2099896363817582,0.1610395337678249
-4.0415,0.1101156093487211,0.5849050699745222
-4.041,0.280838407071488,0.8286277532931514
-4.0405,0.3448594562177489,0.9451907757502438
-4.04,0.3555296310754218,0.9769806909657173
-4.0395,0.334189281360076,0.9557874141554017
-4.039,0.3128489316446815,0.9239974989398319
-4.0385,0.3021787567870086,0.8710143069140429
-4.038,0.2915085819293357,0.8074344764830962
-4.0375,0.1527963087788985,0.6166949851893788
-4.037,-0.4554036581084589,-0.09327978795619347
-4.0365,-1.010252750707956,-0.9304142219644207
-4.036,-1.351698346153869,-1.587405803084898
-4.0355,-1.426389570157579,-1.693372187136476
-4.035,-1.1062843244271,-1.195330182093607
-4.0345,-0.615456280974145,-0.6549016234305589
-4.034,-0.1352984123779797,-0.2310360872233701
-4.0335,0.1848068333524996,0.002089957690313421
-4.033,0.3555296310752665,0.0444765113109446
-4.0325,0.4195506802215371,-0.02969995752526598
-4.032,0.4408910299368829,-0.1144730647665284
-4.0315,0.4942419042252476,-0.1462629799820017
-4.031,0.4729015545098824,-0.1144730647664898
-4.0305,0.4195506802215176,-0.07208651114585861
-4.03,0.366199805933153,-0.01910331912006964
-4.0295,0.3235191065025,0.03387987290601811
-4.029,0.4622313796522482,0.2564092794143318
-4.0285,0.5902734779444399,0.627291623595192
-4.028,-0.03926683865950552,0.1292496185516384
-4.0275,-0.7755089038389382,-0.6231117082145651
-4.027,-1.415719395299897,-1.163540266878104
-4.0265,-1.351698346153859,-1.163540266878104
-4.026,-0.839529952985034,-0.6231117082145651
-4.0255,-0.3273615598162672,-0.01910331912002144
-4.025,0.04609456020228553,0.4471487707069216
-4.0245,0.2594980573563557,0.7332580076470012
-4.024,0.3448594562177392,0.8816109453192104
-4.0235,0.366199805933085,0.9239974989398415
-4.023,0.3555296310754024,0.9239974989398512
-4.0225,0.3341892813600565,0.8922075837243778
-4.022,0.3128489316447107,0.8498210301037465
-4.0215,0.3021787567869698,0.7968378380777842
-4.021,0.2594980573562781,0.701468092431364
-4.0205,-0.2206598112394408,0.6166949851900245
-4.02,-0.9675720512776818,0.1928294489825947
-4.0195,-1.46907026958831,-0.6125150698093976
-4.019,-1.543761493592088,-1.174136905283272
-4.0185,-1.202315898146554,-1.131750351662641
-4.018,-0.5621054066852853,-0.7290780922662394
-4.0175,-0.01792648894347063,-0.3158091944647096
-4.017,0.3128489316443904,-0.06148987274092249
-4.0165,0.462231379652287,0.01268659609548085
-4.016,0.5049120790829789,0.01268659609548085
-4.0155,0.4942419042253058,0.002089957690323059
-4.015,0.5049120790829692,-0.09327978795624166
-4.0145,0.4942419042252961,-0.1462629799820306
-4.014,0.4302208550792586,-0.1356663415768728
-4.0135,0.3768699807907483,-0.09327978795613565
-4.013,0.3341892813600565,-0.02969995752518888
-4.0125,0.3661998059331045,0.09745970333682032
-4.012,0.6649647019478302,0.542518516353708
-4.0115,0.2381577076409128,0.383568940276341
-4.011,-0.658136980404429,-0.3687923864905467
-4.0105,-1.447729919872226,-0.9833974139896988
-4.01,-1.661133417026597,-1.237716735714276
-4.0095,-1.148965023857831,-0.8138511995075789
-4.009,-0.5514352318281462,-0.1992461720084269
-4.0085,-0.08194753808931417,0.3199891098456544
-4.008,0.1954770082101822,0.6696781772158616
-4.0075,0.3341892813599304,0.8604176685087019
-4.007,0.3768699807907774,0.9451907757502149
-4.0065,0.3661998059331045,0.9451907757502149
-4.006,0.3448594562177392,0.92399749893988
-4.0055,0.3235191065023642,0.8816109453191718
-4.005,0.3128489316446912,0.8392243916985406
-4.0045,0.3021787567870086,0.775644561267536
-4.004,0.02475421048667767,0.4577454091117998
-4.0035,-0.6154562809736985,-0.326405832869877
-4.003,-1.074273799854052,-1.131750351662602
-4.0025,-1.255666772434492,-1.672178910325649
-4.002,-1.06360362499637,-1.492036057438295
-4.0015,-0.5941159312583333,-0.9304142219644207
-4.001,-0.09261771294770527,-0.4323722169220043
-4.0005,0.2701682322141257,-0.1674562567922595
-4,0.4515612047945656,-0.05089323433552374
-3.9995,0.4942419042252961,0.002089957690313421
-3.999,0.4835717293676135,0.002089957690313421
-3.9985,0.4942419042252961,-0.07208651114585861
-3.998,0.5475927785137094,-0.1674562567923655
-3.9975,0.4942419042252961,-0.1462629799820306
-3.997,0.4195506802215176,-0.08268314955102604
-3.9965,0.3661998059331045,0.01268659609548085
-3.996,0.3235191065023739,0.09745970333682032
-3.9955,0.4729015545099309,0.4683420475176805
-3.995,0.2701682322139607,0.55311515475902
-3.9945,-0.5194247072545548,-0.1356663415768632
-3.994,-1.277007122150022,-0.8668343915334161
-3.9935,-1.67180359188428,-1.333086481360783
-3.993,-1.277007122150022,-1.089363798041932
-3.9925,-0.6688071552621118,-0.4853554089473885
-3.992,-0.1673089369510276,0.09745970333682032
-3.9915,0.1527963087794516,0.5107286011383502
-3.991,0.3128489316446912,0.7332580076468663
-3.9905,0.3661998059331045,0.8392243916985406
-3.99,0.3768699807907871,0.8710143069140429
-3.9895,0.3555296310754218,0.849821030103708
-3.989,0.3341892813600565,0.8074344764830383
-3.9885,0.3128489316446912,0.7650479228623686
-3.988,0.3021787567870086,0.7120647308365314
-3.9875,0.1741366584948169,0.5213252395435176
-3.987,-0.423393133535411,-0.1780528951975329
-3.9865,-0.9995825758502737,-0.9833974139902578
-3.986,-1.26633694729234,-1.629792356705471
-3.9855,-1.351698346153801,-1.693372187136476
-3.985,-1.010252750707956,-1.142346990067769
-3.9845,-0.423393133535411,-0.5489352393783931
-3.984,0.05676473506030786,-0.1356663415768632
-3.9835,0.3341892813600565,0.06566978812131802
-3.983,0.4515612047945656,0.09745970333682032
-3.9825,0.4729015545099309,0.08686306493165288
-3.982,0.4515612047945656,0.04447651131098315
-3.9815,0.5049120790829789,0.01268659609548085
-3.981,0.4835717293676135,-0.01910331912002144
-3.9805,0.4195506802215176,-0.02969995752518888
-3.98,0.3768699807907871,-0.008506680714854012
-3.9795,0.3341892813600565,0.03387987290581572
-3.979,0.4835717293676135,0.2670059178194992
-3.9785,0.6542945270905358,0.6378882620003594
-3.978,-0.02859666380115328,0.13984625695749
-3.9775,-0.8288597781273515,-0.6337083466197325
-3.977,-1.394379045584531,-1.237716735714276
-3.9765,-1.351698346153801,-1.248313374119443
-3.976,-0.8502001278427167,-0.6760949002404023
-3.9755,-0.3380317346739499,-0.05089323433552374
-3.975,0.04609456020262521,0.4471487707073456
-3.9745,0.2594980573562781,0.7438546460520338
-3.974,0.3448594562177392,0.9028042221295453
-3.9735,0.3768699807907871,0.9557874141553824
-3.973,0.3555296310754218,0.9557874141553824
-3.9725,0.3341892813600565,0.9134008605347127
-3.972,0.3235191065023739,0.8710143069140429
-3.9715,0.3128489316446912,0.8180311148882058
-3.971,0.2701682322139607,0.701468092431364
-3.9705,-0.1993194615240755,0.1292496185523226
-3.97,-0.7968492535543035,-0.718481453861072
-3.9695,-1.234326422719292,-1.449649503817625
-3.969,-1.415719395299897,-1.672178910326141
-3.9685,-1.170305373573196,-1.163540266878104
-3.968,-0.6367966306890638,-0.6337083466197325
-3.9675,-0.124628237520297,-0.2416327256285375
-3.967,0.2381577076409128,-0.01910331912002144
-3.9665,0.4302208550792003,0.04447651131098315
-3.966,0.5049120790829789,0.04447651131098315
-3.9655,0.4835717293676135,-0.04029659593035631
-3.965,0.5155822539406614,-0.1992461720078678
-3.9645,0.5155822539406614,-0.252229364033705
-3.964,0.4515612047945656,-0.1780528951975329
-3.9635,0.3875401556484697,-0.06148987274069118
-3.963,0.3448594562177392,0.05507314971615059
-3.9625,0.3875401556484697,0.2140227257936621
-3.962,0.7289857510943143,0.6590815388106942
-3.9615,0.291508581929326,0.4365521323021782
-3.961,-0.5300948821122373,-0.326405832869877
-3.9605,-1.170305373573196,-0.8986243067489184
-3.96,-1.490410619303675,-1.248313374119443
-3.9595,-1.116954499284783,-0.9092209451540858
-3.959,-0.572775581542968,-0.3052125560595421
-3.9585,-0.1139580626626144,0.2246193641988295
-3.958,0.1741366584948169,0.5955017083796896
-3.9575,0.3235191065023739,0.8074344764830383
-3.957,0.3768699807907871,0.9028042221295453
-3.9565,0.3768699807907871,0.9134008605347127
-3.956,0.3555296310754218,0.8922075837243778
-3.9555,0.3341892813600565,0.8604176685088755
-3.955,0.3128489316446912,0.8180311148882058
-3.9545,0.3021787567870086,0.7544512844572011
-3.954,0.02475421048725994,0.4365521323021782
-3.9535,-0.6154562809736985,-0.3475991096802118
-3.953,-1.1062843244271,-1.142346990067769
-3.9525,-1.319687821580753,-1.682775548731308
-3.952,-1.298347471865388,-1.545019249464132
-3.9515,-0.9248913518464952,-1.004590690800593
-3.951,-0.423393133535411,-0.5277419625680583
-3.9505,-0.01792648894347063,-0.1674562567923655
-3.95,0.2488278824985954,0.002089957690313421
-3.9495,0.3875401556484697,0.06566978812131802
-3.949,0.4408910299368829,0.02328323450064829
-3.9485,0.4835717293676135,-0.08268314955102604
-3.948,0.5475927785137094,-0.1462629799820306
-3.9475,0.5049120790829789,-0.1462629799820306
-3.947,0.4302208550792003,-0.1038764263613609
-3.9465,0.3768699807907871,-0.05089323433552374
-3.946,0.3448594562177392,0.02328323450064829
-3.9455,0.6222840025174878,0.4047622170866759
-3.945,0.408880505363835,0.4895353243280153
-3.9445,-0.4127229586777283,-0.1886495336027004
-3.944,-1.159635198715513,-0.8774310299385835
-3.9435,-1.565101843307454,-1.322489842955616
-3.943,-1.234326422719292,-1.068170521231597
-3.9425,-0.658136980404429,-0.4535654937318862
-3.942,-0.1673089369510276,0.1186529801471552
-3.9415,0.1527963087794516,0.5319218779486851
-3.941,0.3128489316446912,0.7650479228623686
-3.9405,0.3768699807907871,0.8816109453192104
-3.94,0.3768699807907871,0.9028042221295453
-3.9395,0.3661998059331045,0.8922075837243778
-3.939,0.3448594562177392,0.849821030103708
-3.9385,0.3235191065023739,0.8074344764830383
-3.938,0.3128489316446912,0.7650479228623686
-3.9375,0.1954770082101822,0.6060983467848571
-3.937,-0.4127229586777283,-0.06148987274069118
-3.9365,-1.052933450138687,-0.8880276683437509
-3.936,-1.522421143876723,-1.555615887869299
-3.9355,-1.67180359188428,-1.703968825541643
-3.935,-1.287677297007705,-1.227120097309109
-3.9345,-0.6047861061160158,-0.6654982618352349
-3.934,-0.01792648894347063,-0.2416327256285375
-3.9335,0.3341892813600565,-0.008506680714854012
-3.933,0.4835717293676135,0.04447651131098315
-3.9325,0.5155822539406614,-0.02969995752518888
-3.932,0.4942419042252961,-0.1144730647665284
-3.9315,0.5475927785137094,-0.1992461720078678
-3.931,0.5155822539406614,-0.1568596183871981
-3.9305,0.4515612047945656,-0.06148987274069118
-3.93,0.3875401556484697,0.03387987290581572
-3.9295,0.3448594562177392,0.1292496185523226
-3.929,0.4622313796522482,0.3729723018711736
-3.9285,0.5582629533713921,0.6696781772158616
-3.928,-0.1139580626626144,0.1292496185523226
-3.9275,-0.8822106524157645,-0.6654982618352349
-3.927,-1.490410619303675,-1.269506650929778
-3.9265,-1.458400094730627,-1.290699927740113
-3.926,-0.9248913518464952,-0.718481453861072
-3.9255,-0.3700422592469978,-0.09327978795619347
-3.925,0.03542438534494258,0.3941655786815084
-3.9245,0.2594980573562781,0.6908714540261965
-3.924,0.3661998059331045,0.849821030103708
-3.9235,0.3875401556484697,0.8922075837243778
-3.923,0.3768699807907871,0.8816109453192104
-3.9225,0.3555296310754218,0.849821030103708
-3.922,0.3341892813600565,0.8074344764830383
-3.9215,0.3235191065023739,0.7544512844572011
-3.921,0.2808384070716433,0.6802748156210291
-3.9205,-0.1673089369510276,0.2776025562246667
-3.92,-0.807519428411986,-0.4959520473525559
-3.9195,-1.287677297007705,-1.248313374119443
-3.919,-1.458400094730627,-1.629792356705471
-3.9185,-1.30901764672307,-1.354279758171118
-3.918,-0.8288597781273515,-0.8244478379127463
-3.9175,-0.3060212101009019,-0.3687923864905467
-3.917,0.1207857842064037,-0.09327978795619347
-3.9165,0.3768699807907871,0.02328323450064829
-3.916,0.4729015545099309,0.03387987290581572
-3.9155,0.4835717293676135,0.002089957690313421
-3.915,0.5369226036560266,0.03387987290581572
-3.9145,0.5369226036560266,0.04447651131098315
-3.914,0.4835717293676135,0.03387987290581572
-3.9135,0.4195506802215176,0.03387987290581572
-3.913,0.3661998059331045,0.05507314971615059
-3.9125,0.3982103305061524,0.1504428953626575
-3.912,0.6756348768059011,0.5849050699745222
-3.9115,0.2381577076409128,0.4365521323021782
-3.911,-0.5194247072545548,-0.3158091944647096
-3.9105,-1.234326422719292,-0.9622041371799229
-3.91,-1.458400094730627,-1.237716735714276
-3.9095,-1.031593100423322,-0.8350444763179138
-3.909,-0.4874141826815069,-0.2098428104130352
-3.9085,-0.04993701351651855,0.3305857482505039
-3.908,0.2168173579255475,0.6908714540261965
-3.9075,0.3448594562177392,0.8922075837243778
-3.907,0.3875401556484697,0.9769806909657173
-3.9065,0.3875401556484697,0.9981739677760521
-3.906,0.3661998059331045,0.9769806909657173
-3.9055,0.3448594562177392,0.9345941373450475
-3.905,0.3341892813600565,0.8922075837243778
-3.9045,0.3128489316446912,0.8180311148882058
-3.904,0.04609456020262521,0.6378882620003594
-3.9035,-0.5300948821122373,0.06566978812131802
-3.903,-0.8715404775580819,-0.7608680074817418
-3.9025,-1.06360362499637,-1.364876396576285
-3.902,-0.9142211769888124,-1.34368311976595
-3.9015,-0.4554036581084589,-0.8986243067489184
-3.901,0.00341386077189465,-0.4641621321370536
-3.9005,0.3235191065023739,-0.1250697031716958
-3.9,0.4835717293676135,0.07626642652648545
-3.8995,0.5262524287983441,0.09745970333682032
-3.899,0.5155822539406614,0.03387987290581572
-3.8985,0.5369226036560266,-0.1038764263613609
-3.898,0.6542945270905358,-0.252229364033705
-3.8975,0.6222840025174878,-0.1992461720078678
-3.897,0.5155822539406614,-0.08268314955102604
-3.8965,0.4195506802215176,0.03387987290581572
-3.896,0.3768699807907871,0.1504428953626575
-3.8955,0.6222840025174878,0.5107286011383502
-3.895,0.4195506802215176,0.5637117931641874
-3.8945,-0.3593720843893152,-0.1568596183871981
-3.894,-1.095614149569417,-0.8880276683437509
-3.8935,-1.501080794161358,-1.354279758171118
-3.893,-1.170305373573196,-1.089363798041932
-3.8925,-0.6154562809736985,-0.4959520473525559
-3.892,-0.1459685872356623,0.05507314971615059
-3.8915,0.1634664836371343,0.4471487707073456
-3.891,0.3235191065023739,0.6590815388106942
-3.8905,0.3875401556484697,0.7544512844572011
-3.89,0.3875401556484697,0.7862411996727035
-3.8895,0.3661998059331045,0.7650479228623686
-3.889,0.3448594562177392,0.7332580076468663
-3.8885,0.3341892813600565,0.701468092431364
-3.888,0.3235191065023739,0.6590815388106942
