Class_5_Move_Left_hand_Horiszontal/Class_5_Move_Left_Hand_Horizontal_Zakour_4.csv

#Digilent WaveForms Oscilloscope Acquisition
#Device Name: EExplorer
#Serial Number: SN:210151A2B84A
#Date Time: 2020-11-18 11:39:07.330
#Sample rate: 2000Hz
#Samples: 16384
#Trigger: Source: Channel 1 Type: Edge Condition: Rising Level: 0 V Hyst.: Auto HoldOff: 0 s
#Channel 1: Range: 1 V/div Offset: 0 V Attenuation: 1 X
#Channel 2: Range: 1 V/div Offset: 0 V Attenuation: 1 X
#Power Supplies: ON
#Fixed Supply: ON
#Voltage: 3.3 V Readback: 3.323 V
#Positive Supply: ON
#Voltage: 3.7 V Readback: 3.714 V
#Current: 500 mA Readback: 21 mA
#Negative Supply: ON
#Voltage: -3.7 V Readback: -3.703 V
#Current: -500 mA Readback: -8 mA
#Reference 1: ON
#Voltage: 0 V
#Reference 2: ON
#Voltage: 0 V

Time (s),Channel 1 (V),Channel 2 (V)
-4.096,-0.4127229586777283,-0.7714646458869092
-4.0955,-0.8715404775576647,-1.142346990067432
-4.095,-0.7008176798348104,-0.7608680074812213
-4.0945,-0.3166913849585846,-0.1886495336027004
-4.094,0.01408403562927646,0.2987958330345583
-4.0935,0.2488278824987021,0.6272916235953655
-4.093,0.3661998059331045,0.8180311148882058
-4.0925,0.4088805053637962,0.913400860534626
-4.092,0.4088805053638253,0.9345941373450475
-4.0915,0.3982103305061524,0.9345941373450475
-4.091,0.3768699807907871,0.8922075837243778
-4.0905,0.366199805933085,0.8286277532933056
-4.09,0.3448594562177392,0.7544512844572011
-4.0895,0.2701682322139607,0.5849050699745222
-4.089,-0.2313299860966673,-0.0720865111452611
-4.0885,-0.9782422261349084,-0.9304142219644207
-4.088,-1.714484291315011,-1.629792356705471
-4.0875,-1.597112367880608,-1.915901593644732
-4.087,-0.8181896032690379,-1.534422611058348
-4.0865,-0.124628237520297,-0.8562377531282487
-4.086,0.3235191065019662,-0.262826002439412
-4.0855,0.5475927785137675,0.1186529801474058
-4.085,0.6116138276598051,0.3941655786815084
-4.0845,0.6009436528021322,0.5213252395434019
-4.084,0.568933128229162,0.5425185163539489
-4.0835,0.6649647019482183,0.6484849004055269
-4.083,0.6542945270905358,0.6378882620003594
-4.0825,0.6116138276597469,0.563711793164091
-4.082,0.5475927785137094,0.457745409112513
-4.0815,0.4942419042252961,0.3623756634660061
-4.081,0.4622313796522773,0.4471487707072685
-4.0805,0.1314559590640864,0.55311515475902
-4.08,-0.6154562809736985,-0.04029659593035631
-4.0795,-1.287677297007094,-0.8774310299378221
-4.079,-1.362368521011057,-1.121153713257039
-4.0785,-0.8928808272734472,-0.6866915386455698
-4.078,-0.3487019095321274,-0.1250697031722066
-4.0775,0.05676473506052136,0.3411823866559411
-4.077,0.291508581929326,0.6378882620003594
-4.0765,0.4088805053637283,0.7968378380777263
-4.076,0.4302208550792003,0.8710143069140526
-4.0755,0.4302208550792003,0.8816109453192104
-4.075,0.3982103305061524,0.8710143069140429
-4.0745,0.3768699807907774,0.8392243916984924
-4.074,0.3661998059331045,0.7862411996727035
-4.0735,0.3448594562177392,0.7226613692416989
-4.073,0.3341892813600663,0.6378882620004365
-4.0725,0.01408403562957729,0.2140227257936621
-4.072,-0.6688071552621118,-0.6231117082145651
-4.0715,-1.415719395299218,-1.4178595886014
-4.071,-1.938557963326084,-1.979481424075852
-4.0705,-1.650463242168915,-1.820531847998485
-4.07,-0.8928808272741362,-1.163540266878702
-4.0695,-0.2099896363813506,-0.5383386009727245
-4.069,0.2381577076409128,0.01268659609548085
-4.0685,0.4622313796522482,0.3729723018711736
-4.068,0.5475927785137094,0.4895353243280057
-4.0675,0.5475927785137094,0.4789386859228479
-4.067,0.6329541773751706,0.4047622170866759
-4.0665,0.6969752265212372,0.2987958330349726
-4.066,0.6649647019482183,0.2670059178194992
-4.0655,0.5796033030867573,0.2670059178194992
-4.065,0.5049120790830468,0.2881991946298149
-4.0645,0.4835717293676135,0.3729723018711736
-4.064,0.79300680024041,0.7650479228623686
-4.0635,0.8890383739594664,0.7544512844572108
-4.063,0.1101156093480321,-0.09327978795689702
-4.0625,-0.6474668055467465,-0.8668343915334161
-4.062,-0.7114878546927841,-0.8032545611024693
-4.0615,-0.4127229586774275,-0.3264058328694144
-4.061,-0.08194753808956648,0.1822328105781598
-4.0605,0.1741366584948169,0.55311515475902
-4.06,0.3235191065024321,0.7862411996728191
-4.0595,0.3875401556484697,0.9134008605347127
-4.059,0.408880505363835,0.9557874141553824
-4.0585,0.3982103305061621,0.9663840525605402
-4.058,0.3875401556484697,0.9345941373450475
-4.0575,0.3661998059331045,0.9028042221295453
-4.057,0.3555296310754315,0.860417668508914
-4.0565,0.3555296310754218,0.7862411996727035
-4.056,0.2381577076409128,0.5955017083796896
-4.0555,-0.4447334832501552,-0.1356663415761982
-4.055,-1.244996597577508,-1.025783967611573
-4.0545,-1.83185621474952,-1.735758740757146
-4.054,-1.778505340461155,-1.884111678429355
-4.0535,-1.031593100422633,-1.375473034980875
-4.053,-0.274010685527854,-0.7396747306714069
-4.0525,0.2488278824985954,-0.326405832869877
-4.052,0.5262524287984121,-0.01910331911983833
-4.0515,0.6009436528021226,0.1822328105781598
-4.051,0.5902734779444399,0.2776025562246667
-4.0505,0.5902734779444399,0.3729723018710869
-4.05,0.6756348768059011,0.5319218779486851
-4.0495,0.6542945270905358,0.5319218779486851
-4.049,0.6009436528021711,0.5213252395435273
-4.0485,0.5262524287982956,0.4471487707073167
-4.048,0.4729015545099309,0.4153588554918433
-4.0475,0.3021787567871639,0.7014680924311038
-4.047,-0.3593720843900236,1.210106735878967
-4.0465,-1.138294849000148,0.7332580076468663
-4.046,-1.661133417026122,-0.2946159176534399
-4.0455,-1.586442193022285,-0.8032545611021802
-4.045,-0.9995825758502737,-0.5489352393783931
-4.0445,-0.3807124341046804,-0.07208651114585861
-4.044,0.05676473506054076,0.3729723018714531
-4.0435,0.3128489316446912,0.6802748156210291
-4.043,0.4195506802215176,0.8604176685088755
-4.0425,0.4515612047945364,0.9557874141552957
-4.042,0.4302208550792003,0.9875773293708847
-4.0415,0.408880505363835,0.9769806909657173
-4.041,0.3768699807908162,0.9239974989399282
-4.0405,0.3555296310754121,0.8604176685087888
-4.04,0.3448594562177392,0.7650479228623686
-4.0395,0.2915085819293745,0.6166949851901594
-4.039,-0.2846808603863227,-0.008506680715634657
-4.0385,-1.148965023857831,-0.8668343915334161
-4.038,-1.885207089037263,-1.619195718299619
-4.0375,-2.16263163533708,-2.085447808127411
-4.037,-1.501080794161358,-1.79933857118815
-4.0365,-0.6688071552621118,-1.068170521231597
-4.036,-0.01792648894312127,-0.4217755785159309
-4.0355,0.3661998059331045,0.07626642652648545
-4.035,0.5475927785137094,0.3941655786815084
-4.0345,0.590273477944401,0.4895353243279286
-4.034,0.5796033030867573,0.4683420475176805
-4.0335,0.6542945270905358,0.4047622170866759
-4.033,0.6436243522328627,0.3411823866557291
-4.0325,0.5902734779443913,0.3093924714401593
-4.032,0.5369226036560266,0.2987958330350016
-4.0315,0.4942419042253349,0.2776025562246859
-4.031,0.3768699807904474,0.2881991946296317
-4.0305,0.00341386077189465,0.06566978812131802
-4.03,-0.6794773301191732,-0.5595318777829918
-4.0295,-1.394379045584764,-1.258910012524861
-4.029,-1.650463242168915,-1.534422611058964
-4.0285,-1.212986073003927,-1.078767159636765
-4.028,-0.5941159312578674,-0.4005823017055382
-4.0275,-0.08194753808956648,0.1610395337678249
-4.027,0.2381577076409128,0.5213252395435176
-4.0265,0.3982103305060068,0.7226613692415158
-4.026,0.4408910299368829,0.8074344764830383
-4.0255,0.4408910299368829,0.8180311148882058
-4.025,0.4195506802215371,0.807434476483048
-4.0245,0.398210330506133,0.7756445612674975
-4.024,0.3768699807907871,0.7332580076468663
-4.0235,0.3555296310754412,0.6802748156210773
-4.023,0.3555296310753636,0.6378882620001859
-4.0225,0.291508581929326,0.4471487707073456
-4.022,-0.03926683865853509,-0.2946159176537
-4.0215,-0.7114878546934246,-1.142346990068367
-4.021,-1.351698346153801,-1.79933857118815
-4.0205,-1.490410619303675,-2.000674700886331
-4.02,-0.9248913518459226,-1.502632695842788
-4.0195,-0.2953510352432193,-0.7608680074817418
-4.019,0.1848068333524996,-0.08268314955102604
-4.0185,0.4622313796519959,0.3411823866552858
-4.018,0.5689331282290746,0.6060983467848571
-4.0175,0.5796033030867573,0.701468092431364
-4.017,0.622284002517449,0.7438546460519952
-4.0165,0.6436243522328142,0.73325800764677
-4.016,0.6009436528021226,0.627291623595192
-4.0155,0.5262524287984121,0.4789386859229828
-4.015,0.4835717293675844,0.3941655786814602
-4.0145,0.4515612047945656,0.3411823866556712
-4.014,0.2274875327834339,0.2352160026040933
-4.0135,-0.4767440078245618,-0.3475991096809154
-4.013,-1.287677297007705,-1.121153713257435
-4.0125,-1.906547438753298,-1.735758740757146
-4.012,-1.735824641029745,-1.598002441489304
-4.0115,-1.042263275281004,-0.8668343915334161
-4.011,-0.3807124341046804,-0.1568596183871981
-4.0105,0.07810508477525585,0.3623756634655338
-4.01,0.3341892813600565,0.6590815388106942
-4.0095,0.4408910299368829,0.7862411996727035
-4.009,0.4622313796522288,0.8180311148881769
-4.0085,0.4408910299368539,0.7968378380778324
-4.008,0.408880505363835,0.7544512844572011
-4.0075,0.3875401556484891,0.7014680924314122
-4.007,0.3661998059330948,0.648484900405469
-4.0065,0.3555296310754218,0.5849050699745222
-4.006,0.2701682322139607,0.4153588554918433
-4.0055,-0.3593720843901109,-0.2522293640344664
-4.005,-1.234326422719292,-1.089363798041932
-4.0045,-1.895877263895616,-1.703968825541643
-4.004,-1.479740444445255,-1.725162102351477
-4.0035,-0.6688071552621118,-1.174136905283272
-4.003,0.00341386077189465,-0.4959520473525559
-4.0025,0.3982103305057934,0.0338798729053339
-4.002,0.5796033030867573,0.383568940276341
-4.0015,0.6116138276598051,0.5319218779486851
-4.001,0.5902734779444593,0.5531151547590006
-4.0005,0.5902734779445369,0.5743084315694801
-4,0.6969752265212663,0.7120647308365314
-3.9995,0.6756348768059011,0.6590815388106942
-3.999,0.5902734779444399,0.5425185163538525
-3.9985,0.5049120790829789,0.4259554938970107
-3.998,0.4408910299368829,0.3623756634660061
-3.9975,0.2061471830678648,0.3623756634660061
-3.997,-0.5087545323968721,-0.01910331912002144
-3.9965,-1.330357996438436,-0.7502713690765743
-3.996,-1.789175515318789,-1.417859588602123
-3.9955,-1.533091318734406,-1.333086481360783
-3.995,-0.8715404775580819,-0.7078848154559045
-3.9945,-0.2633405106701714,-0.07208651114585861
-3.994,0.142126133921769,0.4047622170866759
-3.9935,0.3661998059331045,0.6802748156210291
-3.993,0.4515612047945656,0.8180311148882058
-3.9925,0.4622313796522482,0.8604176685088755
-3.992,0.4408910299368829,0.849821030103708
-3.9915,0.408880505363835,0.8074344764830383
-3.991,0.3768699807907871,0.7544512844572011
-3.9905,0.3661998059331045,0.7120647308365314
-3.99,0.3661998059331045,0.6590815388106942
-3.9895,0.3128489316446912,0.5213252395435176
-3.989,-0.1459685872356623,-0.05089323433552374
-3.9885,-0.9995825758502737,-0.8986243067489184
-3.988,-1.799845690176472,-1.608599079895136
-3.9875,-2.301343908487556,-2.000674700886331
-3.987,-1.703814116457328,-1.619195718300304
-3.9865,-0.8181896032696687,-0.9092209451540858
-3.986,-0.08194753808956648,-0.252229364033705
-3.9855,0.3555296310754218,0.1928294489833272
-3.985,0.5582629533713921,0.4047622170866759
-3.9845,0.6222840025174878,0.4683420475176805
-3.984,0.6116138276598051,0.4365521323021782
-3.9835,0.7503261008096795,0.5955017083796896
-3.983,0.7716664505250448,0.627291623595192
-3.9825,0.6756348768059011,0.5107286011383502
-3.982,0.5582629533713921,0.3941655786815084
-3.9815,0.4729015545099309,0.2987958330350016
-3.981,0.4622313796522482,0.2881991946298341
-3.9805,0.8463576745288233,0.6802748156210291
-3.98,0.8143471499557753,0.5425185163538525
-3.9795,-0.08194753808956648,-0.3158091944647096
-3.979,-0.839529952985034,-0.9728007755850904
-3.9785,-0.8288597781273515,-0.8032545611024114
-3.978,-0.4660738329661415,-0.2840192792492073
-3.9775,-0.09261771294724913,0.2352160026039969
-3.977,0.1848068333524996,0.6166949851900245
-3.9765,0.3448594562177392,0.849821030103708
-3.976,0.408880505363835,0.9663840525605498
-3.9755,0.4302208550792003,1.019367244586387
-3.975,0.4195506802215176,1.019367244586387
-3.9745,0.3982103305061524,0.9875773293708847
-3.974,0.3768699807907871,0.92399749893988
-3.9735,0.3555296310754218,0.8604176685088755
-3.973,0.3448594562177392,0.7438546460520338
-3.9725,0.00341386077189465,0.2564092794143318
-3.972,-0.839529952985034,-0.6125150698093976
-3.9715,-1.543761493592088,-1.407262950196955
-3.971,-1.906547438753298,-2.021867977696666
-3.9705,-1.575772018165136,-2.117237723343173
-3.97,-0.7968492535543035,-1.619195718300304
-3.9695,-0.1139580626626144,-0.9092209451540858
-3.969,0.3448594562177392,-0.2628260024388724
-3.9685,0.5689331282290746,0.1292496185523226
-3.968,0.6222840025174878,0.309392471440169
-3.9675,0.5902734779444399,0.3411823866556712
-3.967,0.6329541773751706,0.4471487707073456
-3.9665,0.6969752265212663,0.5743084315693548
-3.966,0.6542945270905358,0.5107286011383502
-3.9655,0.6009436528021226,0.4471487707073456
-3.965,0.5475927785137094,0.4047622170866759
-3.9645,0.4942419042252961,0.4047622170866759
-3.964,0.1634664836371343,0.2987958330350016
-3.9635,-0.4980843575391895,-0.3899856633008816
-3.963,-1.223656247861609,-1.184733543688439
-3.9625,-1.479740444445993,-1.555615887869299
-3.962,-1.084943974711735,-1.089363798041932
-3.9615,-0.5087545323968721,-0.3793890248957141
-3.961,-0.03926683865883591,0.2352160026039969
-3.9605,0.2488278824985954,0.6378882620003594
-3.96,0.3982103305061524,0.8710143069140429
-3.9595,0.4515612047945656,0.9663840525605498
-3.959,0.4408910299368829,0.9875773293708847
-3.9585,0.4195506802215176,0.9769806909657173
-3.958,0.3982103305061524,0.9345941373450475
-3.9575,0.3768699807907871,0.8710143069140429
-3.957,0.3661998059331045,0.7862411996727035
-3.9565,0.3555296310754218,0.6802748156210291
-3.956,0.2381577076409128,0.3941655786815084
-3.9555,-0.4340633083930936,-0.3793890248957141
-3.955,-1.298347471865388,-1.216523458903942
-3.9545,-1.938557963326346,-1.820531847998485
-3.954,-1.533091318734406,-1.809935209593318
-3.9535,-0.7008176798351597,-1.301296566145281
-3.953,-0.02859666380115328,-0.6231117082145651
-3.9525,0.3875401556484697,-0.1038764263613609
-3.952,0.5689331282290746,0.13984625695749
-3.9515,0.6222840025174878,0.2458126410091644
-3.951,0.6009436528021226,0.2458126410091644
-3.9505,0.5796033030867573,0.2352160026039969
-3.95,0.6329541773751706,0.4153588554918433
-3.9495,0.6329541773751706,0.4895353243280153
-3.949,0.6116138276598051,0.5425185163538525
-3.9485,0.5689331282290746,0.5319218779486851
-3.948,0.5369226036560266,0.5001319627331828
-3.9475,0.3341892813600565,0.6802748156210291
-3.947,-0.3487019095316325,0.9769806909657173
-3.9465,-1.170305373573196,0.309392471440169
-3.946,-1.575772018165136,-0.6549016234300674
-3.9455,-1.533091318734406,-1.163540266878104
-3.945,-0.9889124009925911,-0.8456411147230812
-3.9445,-0.391382608962363,-0.252229364033705
-3.944,0.04609456020262521,0.2987958330350016
-3.9435,0.3128489316446912,0.6802748156210291
-3.943,0.4302208550792003,0.9028042221295453
-3.9425,0.4622313796522482,1.019367244586387
-3.942,0.4408910299368829,1.051157159801889
-3.9415,0.4195506802215176,1.051157159801889
-3.941,0.3982103305061524,0.9981739677760521
-3.9405,0.3661998059331045,0.8922075837243778
-3.94,0.3555296310754218,0.775644561267536
-3.9395,0.3341892813600565,0.6378882620003594
-3.939,0.03542438534494258,0.1080563417419877
-3.9385,-0.4660738329661415,-0.7608680074817418
-3.938,-1.212986073003927,-1.534422611058964
-3.9375,-1.885207089037933,-2.074851169722503
-3.937,-1.725154466172693,-2.032464616101834
-3.9365,-0.9782422261349084,-1.375473034981453
-3.936,-0.274010685527854,-0.6760949002404023
-3.9355,0.2274875327832301,-0.1356663415768632
-3.935,0.4835717293676135,0.2352160026039969
-3.9345,0.5796033030867573,0.383568940276341
-3.934,0.5796033030867573,0.4047622170866759
-3.9335,0.6756348768059011,0.5637117931641874
-3.933,0.6969752265212663,0.5955017083796896
-3.9325,0.6222840025174878,0.4789386859228479
-3.932,0.5475927785137094,0.3517790250608387
-3.9315,0.4942419042252961,0.2776025562246667
-3.931,0.4302208550792003,0.2670059178194992
-3.9305,-0.01792648894347063,0.2776025562246667
-3.93,-0.8181896032696687,-0.2946159176543747
-3.9295,-1.30901764672307,-1.068170521231597
-3.929,-1.501080794161358,-1.51322933424863
-3.9285,-1.1062843244271,-1.152943628472937
-3.928,-0.5194247072545548,-0.474758770542221
-3.9275,-0.04993701351651855,0.1186529801471552
-3.927,0.2488278824985954,0.5425185163538525
-3.9265,0.408880505363835,0.775644561267536
-3.926,0.4515612047945656,0.8922075837243778
-3.9255,0.4515612047945656,0.92399749893988
-3.925,0.4302208550792003,0.92399749893988
-3.9245,0.3982103305061524,0.8922075837243778
-3.924,0.3768699807907871,0.8286277532933731
-3.9235,0.3661998059331045,0.775644561267536
-3.923,0.3661998059331045,0.6908714540261965
-3.9225,0.2381577076409128,0.3199891098453364
-3.922,-0.06060718837420119,-0.5065486857577234
-3.9215,-0.7008176798351597,-1.311893204550448
-3.921,-1.351698346153801,-1.926498232050159
-3.9205,-1.543761493592088,-2.032464616101834
-3.92,-1.020922925565639,-1.42845622700729
-3.9195,-0.3380317346739499,-0.8138511995075789
-3.919,0.1741366584948169,-0.3158091944647096
-3.9185,0.4622313796522482,0.07626642652648545
-3.918,0.5902734779444399,0.3517790250608387
-3.9175,0.6009436528021226,0.4683420475176805
-3.917,0.6542945270905358,0.5955017083796896
-3.9165,0.7289857510943143,0.6802748156210291
-3.916,0.6969752265212663,0.627291623595192
-3.9155,0.6222840025174878,0.4683420475176805
-3.915,0.5262524287983441,0.309392471440169
-3.9145,0.4408910299368829,0.2246193641988295
-3.914,0.00341386077189465,-0.04029659593035631
-3.9135,-0.7114878546928423,-0.7502713690765743
-3.913,-1.405049220442214,-1.460246142222792
-3.9125,-1.821186039891837,-1.88411167842949
-3.912,-1.650463242168915,-1.629792356705471
-3.9115,-0.9889124009925911,-0.8668343915334161
-3.911,-0.3487019095316325,-0.1250697031716958
-3.9105,0.09944543449103843,0.3941655786815084
-3.91,0.3448594562177392,0.6802748156210291
-3.9095,0.4515612047945656,0.8074344764830383
-3.909,0.4729015545099309,0.8286277532933731
-3.9085,0.4515612047945656,0.8074344764830383
-3.908,0.4302208550792003,0.7544512844572011
-3.9075,0.3982103305061524,0.6802748156210291
-3.907,0.3768699807907871,0.6166949851900245
-3.9065,0.3661998059331045,0.5637117931641874
-3.906,0.3128489316446912,0.4259554938970107
-3.9055,-0.2633405106701714,-0.1780528951975329
-3.905,-1.116954499284783,-1.01518732920576
-3.9045,-1.842526389607202,-1.650985633515806
-3.904,-1.67180359188428,-1.714565463946811
-3.9035,-0.8822106524157645,-1.131750351662602
-3.903,-0.1673089369510276,-0.5171453241628908
-3.9025,0.3021787567870086,-0.07208651114585861
-3.902,0.5262524287983441,0.2140227257936621
-3.9015,0.6009436528021226,0.3199891098453364
-3.901,0.6009436528021226,0.3411823866556712
-3.9005,0.5796033030867573,0.309392471440169
-3.9,0.6329541773751706,0.1822328105781598
-3.8995,0.6116138276598051,0.1716361721729923
-3.899,0.5902734779444399,0.2776025562246667
-3.8985,0.6116138276598051,0.5001319627331828
-3.898,0.5689331282290746,0.5743084315693548
-3.8975,0.408880505363835,0.5001319627331828
-3.897,-0.1673089369510276,-0.09327978795619347
-3.8965,-0.9035510021311299,-0.9198175835592532
-3.896,-1.373038695869166,-1.576809164679634
-3.8955,-1.362368521011484,-1.598002441489969
-3.895,-0.8608703027003992,-0.9410108603695881
-3.8945,-0.3060212101009019,-0.2204394488182027
-3.894,0.09944543449103843,0.3305857482505039
-3.8935,0.3341892813600565,0.6590815388106942
-3.893,0.4408910299368829,0.8180311148882058
-3.8925,0.4622313796522482,0.8710143069140429
-3.892,0.4515612047945656,0.8604176685088755
-3.8915,0.4302208550792003,0.8286277532933731
-3.891,0.408880505363835,0.775644561267536
-3.8905,0.3875401556484697,0.7120647308365314
-3.89,0.3768699807907871,0.6378882620003594
-3.8895,0.3555296310754218,0.5425185163538525
-3.889,-0.07127736323188383,0.01268659609548085
-3.8885,-0.9035510021311299,-0.8350444763179138
-3.888,-1.682473766741963,-1.555615887869299
-3.8875,-2.066600061618538,-1.958288147265661
-3.887,-1.501080794161358,-1.555615887869299
-3.8865,-0.6688071552621118,-0.8774310299385835
-3.886,0.00341386077189465,-0.2416327256285375
