Class_5_Move_Left_hand_Horiszontal/Class_5_Move_leftt_hand_horizontal_Basim_3.csv

#Digilent WaveForms Oscilloscope Acquisition
#Device Name: EExplorer
#Serial Number: SN:210151A2B84A
#Date Time: 2020-11-04 11:02:29.873
#Sample rate: 2000Hz
#Samples: 16384
#Trigger: Source: Channel 1 Type: Edge Condition: Rising Level: 0 V Hyst.: Auto HoldOff: 0 s
#Channel 1: Range: 1 V/div Offset: 0 V Attenuation: 1 X
#Channel 2: Range: 1 V/div Offset: 0 V Attenuation: 1 X
#Power Supplies: ON
#Fixed Supply: ON
#Voltage: 3.3 V Readback: 3.317 V
#Positive Supply: ON
#Voltage: 3.7 V Readback: 3.717 V
#Current: 500 mA Readback: 16 mA
#Negative Supply: ON
#Voltage: -3.7 V Readback: -3.726 V
#Current: -500 mA Readback: -4 mA
#Reference 1: ON
#Voltage: 0 V
#Reference 2: ON
#Voltage: 0 V

Time (s),Channel 1 (V),Channel 2 (V)
-4.096,0.3021787567870086,-0.4217755785163839
-4.0955,0.4515612047944297,-0.04029659593070323
-4.095,0.4622313796521997,0.1292496185523515
-4.0945,0.408880505363835,0.1610395337678249
-4.094,0.3448594562177974,0.1504428953626671
-4.0935,0.3555296310755576,0.2034260873887163
-4.093,0.5049120790829789,0.4471487707073456
-4.0925,0.5049120790829789,0.478938685922819
-4.092,0.4302208550791227,0.4259554938969722
-4.0915,0.3448594562177392,0.383568940276341
-4.091,0.2168173579255475,0.457745409112513
-4.0905,-0.3700422592476092,0.7226613692411592
-4.09,-1.042263275281004,0.1292496185523226
-4.0895,-1.51175096901904,-0.7714646458869092
-4.089,-1.906547438752939,-1.470842780627324
-4.0885,-1.682473766741963,-1.42845622700729
-4.088,-1.020922925565639,-0.7290780922662394
-4.0875,-0.4127229586782815,0.03387987290512184
-4.087,0.01408403562978109,0.6060983467851847
-4.0865,0.2381577076409128,0.9663840525605498
-4.086,0.3341892813599692,1.135930267043074
-4.0855,0.3448594562177197,1.188913459069056
-4.085,0.3235191065023739,1.178316820663898
-4.0845,0.302178756787028,1.104140351827794
-4.084,0.2808384070716239,0.9875773293707595
-4.0835,0.2594980573562781,0.849821030103708
-4.083,0.2701682322139607,0.6908714540261965
-4.0825,0.4088805053637477,0.1504428953618383
-4.082,0.3128489316446912,-0.7502713690765743
-4.0815,-0.4447334832507763,-1.534422611058964
-4.081,-0.978242226134423,-1.990078062480749
-4.0805,-0.5941159312583333,-1.958288147265661
-4.08,-0.06060718837420119,-1.333086481360783
-4.0795,0.2808384070713328,-0.7396747306719466
-4.079,0.4195506802215371,-0.2840192792489567
-4.0785,0.4408910299368829,-0.008506680714854012
-4.078,0.3982103305061912,0.1292496185521974
-4.0775,0.3448594562177101,0.1610395337678346
-4.077,0.3128489316446912,0.1716361721729923
-4.0765,0.4302208550790936,0.394165578681306
-4.076,0.4729015545098921,0.4895353243279671
-4.0755,0.4302208550792003,0.4365521323021782
-4.075,0.3555296310754218,0.3623756634660061
-4.0745,0.2915085819289475,0.3517790250611182
-4.074,-0.124628237520297,0.6590815388106942
-4.0735,-0.9462317015618604,0.3623756634660061
-4.073,-1.554431668449218,-0.4959520473517753
-4.0725,-1.927887788468663,-1.068170521231597
-4.072,-2.03458953704549,-1.407262950196955
-4.0715,-1.458400094731151,-1.015187329206117
-4.071,-0.7434983792653856,-0.315809194464141
-4.0705,-0.1886492866663929,0.309392471440169
-4.07,0.1527963087791411,0.7438546460516386
-4.0695,0.31284893164473,0.9875773293709907
-4.069,0.3555296310754218,1.104140351827727
-4.0685,0.3448594562177392,1.125333628638062
-4.068,0.3235191065023448,1.093543713422463
-4.0675,0.291508581929326,0.9875773293708847
-4.067,0.2701682322139607,0.8604176685088755
-4.0665,0.2701682322140577,0.7332580076465772
-4.066,0.3768699807907871,0.4153588554918433
-4.0655,0.8997085488172365,-0.400582301706049
-4.065,0.7396559259521424,-1.248313374118672
-4.0645,-0.1352984123779797,-1.852321763213987
-4.064,-0.2206598112394408,-2.000674700886331
-4.0635,0.06743490991772849,-1.555615887869704
-4.063,0.291508581929423,-0.8350444763173933
-4.0625,0.3982103305061524,-0.2628260024388724
-4.062,0.4088805053638253,0.07626642652617704
-4.0615,0.3768699807907483,0.2246193641988584
-4.061,0.3341892813600565,0.2564092794143318
-4.0605,0.3021787567870086,0.2458126410091644
-4.06,0.3982103305062882,0.3623756634661603
-4.0595,0.5475927785137094,0.5319218779486851
-4.059,0.5155822539406614,0.5001319627331828
-4.0585,0.430220855079278,0.4153588554919204
-4.058,0.3448594562177392,0.3517790250608387
-4.0575,0.09944543449103843,0.5425185163538525
-4.057,-0.6261264558307214,0.5637117931641681
-4.0565,-1.362368521011484,-0.2098428104130352
-4.056,-1.83185621474952,-0.9939940523954253
-4.0555,-2.151961460479708,-1.523825972653315
-4.055,-1.767835165602754,-1.36487639657563
-4.0545,-1.031593100423322,-0.6443049850249
-4.054,-0.3807124341052723,0.08686306493098783
-4.0535,0.04609456020282901,0.616694985190304
-4.053,0.2701682322139607,0.92399749893988
-4.0525,0.3555296310754218,1.061753798207057
-4.052,0.3555296310754024,1.104140351827698
-4.0515,0.3341892813600565,1.072350436612224
-4.051,0.3021787567870086,0.9875773293708847
-4.0505,0.2808384070716627,0.8498210301038334
-4.05,0.2701682322139607,0.7226613692416989
-4.0495,0.291508581929326,0.5425185163538525
-4.049,0.5262524287981306,-0.1250697031710886
-4.0485,0.5902734779437411,-1.004590690801229
-4.048,-0.1779791118087102,-1.703968825541643
-4.0475,-0.5087545323965712,-1.979481424075746
-4.047,-0.1673089369507171,-1.714565463946174
-4.0465,0.1741366584948169,-1.01518732920576
-4.046,0.3555296310752568,-0.3793890248962923
-4.0455,0.4088805053638253,0.03387987290599884
-4.045,0.3982103305061524,0.2352160026039969
-4.0445,0.3555296310754218,0.2987958330350016
-4.044,0.3235191065023836,0.2881991946298438
-4.0435,0.3341892813600565,0.2987958330350016
-4.043,0.5155822539406614,0.5001319627331828
-4.0425,0.5262524287983344,0.5107286011383405
-4.042,0.4622313796522482,0.4365521323021782
-4.0415,0.3661998059331045,0.3517790250608387
-4.041,0.2488278824987021,0.3835689402763121
-4.0405,-0.3166913849593221,0.6378882619998583
-4.04,-1.127624674142465,0.08686306493165288
-4.0395,-1.671803591883785,-0.7502713690758129
-4.039,-2.055929886760739,-1.333086481360889
-4.0385,-1.927887788468663,-1.449649503817625
-4.038,-1.234326422719923,-0.8668343915339461
-4.0375,-0.5407650569694736,-0.1356663415763428
-4.037,-0.04993701351651855,0.4365521323021782
-4.0365,0.2274875327832301,0.8074344764830383
-4.036,0.3448594562177586,0.9875773293709522
-4.0355,0.3661998059331045,1.061753798207057
-4.035,0.3448594562177392,1.051157159801889
-4.0345,0.3128489316447204,0.9875773293709426
-4.034,0.291508581929326,0.8710143069140429
-4.0335,0.2701682322139607,0.7438546460520338
-4.033,0.2808384070716336,0.6166949851901402
-4.0325,0.3448594562177586,0.1292496185515323
-4.032,0.3661998059331045,-0.7396747306714069
-4.0315,-0.1032878878045048,-1.513229334247926
-4.031,-0.466073832965763,-2.074851169722706
-4.0305,-0.04993701351651855,-2.297380576231019
-4.03,0.3661998059327259,-1.756952017567972
-4.0295,0.5582629533714017,-0.9728007755845122
-4.029,0.5689331282290746,-0.3370024712750445
-4.0285,0.4942419042252961,0.07626642652648545
-4.028,0.4088805053637768,0.2776025562247149
-4.0275,0.3448594562177392,0.3305857482505039
-4.027,0.3021787567870086,0.3305857482505039
-4.0265,0.4622313796521026,0.5213252395433441
-4.026,0.5582629533713921,0.6060983467848571
-4.0255,0.5049120790829789,0.5213252395435176
-4.025,0.4195506802215953,0.4153588554919397
-4.0245,0.3341892813597266,0.3517790250610507
-4.024,-0.02859666380115328,0.5849050699745222
-4.0235,-0.8395299529842966,0.3411823866558929
-4.023,-1.575772018165612,-0.4959520473530956
-4.0225,-2.098610586191586,-1.089363798041932
-4.022,-2.344024607918063,-1.460246142222455
-4.0215,-1.7038141164566,-1.121153713256808
-4.021,-0.9035510021311299,-0.4323722169215513
-4.0205,-0.2633405106701714,0.2034260873884947
-4.02,0.1314559590642513,0.6378882620005907
-4.0195,0.3128489316446912,0.8922075837243778
-4.019,0.3768699807907871,0.9981739677760521
-4.0185,0.3661998059331142,1.029963882991526
-4.018,0.3341892813600565,0.9981739677760521
-4.0175,0.3021787567870086,0.9134008605347127
-4.017,0.2808384070716627,0.8074344764831347
-4.0165,0.2808384070716918,0.6802748156207689
-4.016,0.3341892813600565,0.3941655786815084
-4.0155,0.6969752265209364,-0.3899856633001683
-4.015,0.6649647019475196,-1.237716735714816
-4.0145,-0.1032878878049318,-1.831128486403653
-4.014,-0.1459685872356235,-1.979481424075861
-4.0135,0.1848068333526839,-1.703968825541017
-4.013,0.3875401556484697,-1.01518732920576
-4.0125,0.4515612047945656,-0.4111789401112165
-4.012,0.4302208550791615,-0.01910331911983833
-4.0115,0.3875401556484697,0.1822328105781598
-4.011,0.3341892813600565,0.2458126410091644
-4.0105,0.3021787567870378,0.2564092794143221
-4.01,0.3661998059331045,0.3729723018711736
-4.0095,0.5155822539406614,0.5849050699745222
-4.009,0.5049120790829885,0.542518516353891
-4.0085,0.4302208550791227,0.4365521323021107
-4.008,0.3448594562177392,0.3623756634660061
-4.0075,0.1421261339219534,0.5107286011382153
-4.007,-0.5514352318282336,0.6060983467841728
-4.0065,-1.244996597576974,-0.1462629799820306
-4.006,-1.83185621474952,-1.025783967610927
-4.0055,-2.205312334767976,-1.62979235670523
-4.005,-1.725154466172693,-1.364876396576285
-4.0045,-0.9675720512772257,-0.5913217929990628
-4.004,-0.3273615598158888,0.1504428953631297
-4.0035,0.08877525963335578,0.6696781772158616
-4.003,0.291508581929326,0.9769806909657173
-4.0025,0.3661998059330365,1.114736990232769
-4.002,0.3661998059331045,1.146526905448396
-4.0015,0.3341892813600565,1.114736990232894
-4.001,0.3021787567870378,1.019367244586474
-4.0005,0.2915085819293163,0.8816109453190755
-4,0.2808384070716433,0.7332580076468663
-3.9995,0.3021787567870086,0.5425185163538525
-3.999,0.5262524287983441,-0.1038764263613609
-3.9985,0.5689331282290746,-0.9728007755850904
-3.998,-0.007256314085787988,-1.703968825541643
-3.9975,-0.2206598112394408,-2.17022091536901
-3.997,0.142126133921769,-2.21260746898968
-3.9965,0.4302208550792003,-1.51322933424863
-3.996,0.5369226036560266,-0.7290780922662394
-3.9955,0.5262524287983441,-0.1780528951975329
-3.995,0.4622313796522482,0.09745970333682032
-3.9945,0.3875401556484697,0.1928294489833272
-3.994,0.3235191065023739,0.1928294489833272
-3.9935,0.3235191065023739,0.2246193641988295
-3.993,0.5155822539406614,0.457745409112513
-3.9925,0.5582629533713921,0.5107286011383502
-3.992,0.4835717293676135,0.4365521323021782
-3.9915,0.3875401556484697,0.3623756634660061
-3.991,0.2701682322139607,0.4047622170866759
-3.9905,-0.2526703358124887,0.6908714540261965
-3.99,-1.06360362499637,0.2034260873884947
-3.9895,-1.67180359188428,-0.6972881770507372
-3.989,-2.098610586191586,-1.439052865412457
-3.9885,-1.885207089037933,-1.545019249464132
-3.988,-1.170305373573196,-0.8774310299385835
-3.9875,-0.4874141826815069,-0.09327978795619347
-3.987,-0.01792648894347063,0.5213252395435176
-3.9865,0.2488278824985954,0.9028042221295453
-3.986,0.3555296310754218,1.093543713422559
-3.9855,0.3661998059331045,1.157123543853563
-3.985,0.3448594562177392,1.146526905448396
-3.9845,0.3128489316446912,1.072350436612224
-3.984,0.291508581929326,0.9451907757502149
-3.9835,0.2808384070716433,0.8074344764830383
-3.983,0.2808384070716433,0.6590815388106942
-3.9825,0.3982103305061524,0.2034260873884947
-3.982,0.4195506802215176,-0.6654982618352349
-3.9815,-0.2526703358124887,-1.47084278062796
-3.981,-0.8822106524157645,-1.88411167842949
-3.9805,-0.6367966306890638,-1.703968825541643
-3.98,-0.1352984123779797,-1.0999604364471
-3.9795,0.2168173579255475,-0.5171453241628908
-3.979,0.3768699807907871,-0.1250697031716958
-3.9785,0.408880505363835,0.08686306493165288
-3.978,0.3875401556484697,0.1610395337678249
-3.9775,0.3555296310754218,0.1716361721729923
-3.977,0.3235191065023739,0.1716361721729923
-3.9765,0.4622313796522482,0.383568940276341
-3.976,0.5689331282290746,0.5319218779486851
-3.9755,0.5155822539406614,0.5001319627331828
-3.975,0.4195506802215176,0.4259554938970107
-3.9745,0.3341892813600565,0.3941655786815084
-3.974,-0.02859666380115328,0.627291623595192
-3.9735,-0.839529952985034,0.4259554938970107
-3.973,-1.629122892453549,-0.4323722169215513
-3.9725,-2.226652684483777,-1.258910012524611
-3.972,-2.280003558772191,-1.629792356705471
-3.9715,-1.51175096901904,-1.121153713257435
-3.971,-0.7328282044082075,-0.326405832869877
-3.9705,-0.1459685872356623,0.3729723018711736
-3.97,0.1954770082101822,0.8286277532933731
-3.9695,0.3448594562177392,1.072350436612224
-3.969,0.3875401556484697,1.167720182258731
-3.9685,0.3661998059331045,1.178316820663898
-3.968,0.3341892813600565,1.125333628638062
-3.9675,0.3021787567870086,1.019367244586387
-3.967,0.2808384070716433,0.8710143069140429
-3.9665,0.2808384070716433,0.7226613692416989
-3.966,0.3235191065023739,0.457745409112513
-3.9655,0.6969752265212663,-0.3158091944647096
-3.965,0.7823366253827275,-1.174136905283272
-3.9645,0.04609456020262521,-1.79933857118815
-3.964,-0.124628237520297,-1.947691508860494
-3.9635,0.142126133921769,-1.598002441489969
-3.963,0.3448594562177392,-0.9833974139902578
-3.9625,0.4302208550792003,-0.4323722169215513
-3.962,0.4302208550792003,-0.07208651114585861
-3.9615,0.3875401556484697,0.1186529801471552
-3.961,0.3448594562177392,0.1716361721729923
-3.9605,0.3128489316446912,0.1610395337678249
-3.96,0.3875401556484697,0.2352160026039969
-3.9595,0.5902734779444399,0.4683420475176805
-3.959,0.5902734779444399,0.457745409112513
-3.9585,0.4942419042252961,0.383568940276341
-3.958,0.3875401556484697,0.3199891098453364
-3.9575,0.1741366584948169,0.457745409112513
-3.957,-0.572775581542968,0.5319218779486851
-3.9565,-1.437059745015262,-0.1992461720078678
-3.956,-1.981238662757077,-0.9622041371799229
-3.9555,-2.312014083345239,-1.407262950196955
-3.955,-1.87453691418025,-1.269506650929778
-3.9545,-1.084943974711735,-0.570128516188728
-3.954,-0.4020527838200457,0.1504428953626575
-3.9535,0.05676473506030786,0.6802748156210291
-3.953,0.2808384070716433,0.9875773293708847
-3.9525,0.3768699807907871,1.135930267043229
-3.952,0.3768699807907871,1.178316820663898
-3.9515,0.3555296310754218,1.146526905448396
-3.951,0.3128489316446912,1.051157159801889
-3.9505,0.291508581929326,0.9028042221295453
-3.95,0.2808384070716433,0.7544512844572011
-3.9495,0.3021787567870086,0.5637117931641874
-3.949,0.6222840025174878,-0.02969995752518888
-3.9485,1.049090996824793,-0.8880276683437509
-3.948,0.7183155762366316,-1.566212526274467
-3.9475,0.4835717293676135,-2.021867977696666
-3.947,0.6436243522328531,-2.064254531317336
-3.9465,0.6969752265212663,-1.407262950196955
-3.946,0.6222840025174878,-0.6866915386455698
-3.9455,0.5049120790829789,-0.1780528951975329
-3.945,0.408880505363835,0.08686306493165288
-3.9445,0.3341892813600565,0.1822328105781598
-3.944,0.291508581929326,0.2034260873884947
-3.9435,0.3021787567870086,0.2140227257936621
-3.943,0.5262524287983441,0.4471487707073456
-3.9425,0.5796033030867573,0.5107286011383502
-3.942,0.5049120790829789,0.4471487707073456
-3.9415,0.408880505363835,0.383568940276341
-3.941,0.3021787567870086,0.4047622170866759
-3.9405,-0.2099896363817582,0.6802748156210291
-3.94,-0.9995825758502737,0.2034260873884947
-3.9395,-1.586442193022819,-0.6760949002404023
-3.939,-2.045259711903173,-1.354279758171118
-3.9385,-1.970568487899394,-1.51322933424863
-3.938,-1.287677297007705,-0.8880276683437509
-3.9375,-0.5834457564006506,-0.1038764263613609
-3.937,-0.07127736323188383,0.5213252395435176
-3.9365,0.2168173579255475,0.9134008605347127
-3.936,0.3448594562177392,1.114736990232894
-3.9355,0.3661998059331045,1.188913459069066
-3.935,0.3555296310754218,1.178316820663898
-3.9345,0.3235191065023739,1.104140351827727
-3.934,0.291508581929326,0.9769806909657173
-3.9335,0.2808384070716433,0.8286277532933731
-3.933,0.2808384070716433,0.6696781772158616
-3.9325,0.3875401556484697,0.2458126410091644
-3.932,0.79300680024041,-0.6231117082145651
-3.9315,0.5475927785137094,-1.42845622700729
-3.931,-0.1779791118087102,-1.905304955239825
-3.9305,-0.156638762093345,-1.84172512480882
-3.93,0.1207857842064037,-1.269506650929778
-3.9295,0.3235191065023739,-0.6231117082145651
-3.929,0.3982103305061524,-0.1674562567923655
-3.9285,0.408880505363835,0.07626642652648545
-3.928,0.3768699807907871,0.1610395337678249
-3.9275,0.3341892813600565,0.1610395337678249
-3.927,0.3128489316446912,0.1504428953626575
-3.9265,0.4195506802215176,0.3305857482505039
-3.926,0.5155822539406614,0.4789386859228479
-3.9255,0.4835717293676135,0.4365521323021782
-3.925,0.3982103305061524,0.383568940276341
-3.9245,0.3235191065023739,0.3623756634660061
-3.924,0.01408403562957729,0.6166949851900245
-3.9235,-0.7648387289812555,0.4789386859228479
-3.923,-1.383708870726849,-0.3581957480853793
-3.9225,-1.746494815888059,-1.078767159636765
-3.922,-1.938557963326346,-1.481439419033127
-3.9215,-1.458400094730627,-1.089363798041932
-3.921,-0.7755089038389382,-0.3475991096802118
-3.9205,-0.2206598112394408,0.3305857482505039
-3.92,0.1314559590640864,0.7968378380778709
-3.9195,0.3021787567870086,1.061753798207057
-3.919,0.3661998059331045,1.167720182258731
-3.9185,0.3555296310754218,1.178316820663898
-3.918,0.3341892813600565,1.135930267043229
-3.9175,0.3021787567870086,1.019367244586387
-3.917,0.2808384070716433,0.8710143069140429
-3.9165,0.2808384070716433,0.7226613692416989
-3.916,0.3341892813600565,0.4683420475176805
-3.9155,0.5369226036560266,-0.2840192792492073
-3.915,0.1634664836371343,-1.152943628472937
-3.9145,-0.6794773301197943,-1.79933857118815
-3.914,-0.7861790786966207,-1.926498232050159
-3.9135,-0.3166913849585846,-1.576809164679634
-3.913,0.1207857842064037,-0.9728007755850904
-3.9125,0.3555296310754218,-0.4429688553267188
-3.912,0.4302208550792003,-0.06148987274069118
-3.9115,0.4195506802215176,0.13984625695749
-3.911,0.3768699807907871,0.2034260873884947
-3.9105,0.3341892813600565,0.2034260873884947
-3.91,0.3661998059331045,0.2776025562246667
-3.9095,0.4942419042252961,0.457745409112513
-3.909,0.4942419042252961,0.4471487707073456
-3.9085,0.4195506802215176,0.4047622170866759
-3.908,0.3448594562177392,0.3623756634660061
-3.9075,0.1741366584948169,0.5213252395435176
-3.907,-0.4874141826815069,0.7226613692416989
-3.9065,-1.212986073003927,0.03387987290581572
-3.906,-1.703814116457328,-0.8562377531282487
-3.9055,-2.098610586191586,-1.51322933424863
-3.905,-1.821186039891837,-1.449649503817625
-3.9045,-1.095614149569417,-0.7396747306714069
-3.904,-0.4340633083930936,0.01268659609548085
-3.9035,0.02475421048725994,0.5849050699745222
-3.903,0.2701682322139607,0.92399749893988
-3.9025,0.3661998059331045,1.082947075017392
-3.902,0.3768699807907871,1.125333628638062
-3.9015,0.3555296310754218,1.104140351827727
-3.901,0.3235191065023739,1.019367244586387
-3.9005,0.3021787567870086,0.8922075837243778
-3.9,0.2808384070716433,0.7438546460520338
-3.8995,0.3021787567870086,0.5637117931641874
-3.899,0.6009436528021226,-0.008506680714854012
-3.8985,1.113112045970889,-0.8880276683437509
-3.898,0.6116138276598051,-1.619195718300304
-3.8975,-0.01792648894347063,-2.000674700886331
-3.897,0.08877525963335578,-1.84172512480882
-3.8965,0.3021787567870086,-1.184733543688439
-3.896,0.4302208550792003,-0.5595318777835605
-3.8955,0.4515612047945656,-0.1144730647665284
-3.895,0.4195506802215176,0.1186529801471552
-3.8945,0.3661998059331045,0.2034260873884947
-3.894,0.3341892813600565,0.2034260873884947
-3.8935,0.3235191065023739,0.2140227257936621
-3.893,0.5049120790829789,0.4365521323021782
-3.8925,0.5582629533713921,0.5107286011383502
-3.892,0.4942419042252961,0.457745409112513
-3.8915,0.3982103305061524,0.383568940276341
-3.891,0.3021787567870086,0.3729723018711736
-3.8905,-0.1673089369510276,0.6484849004055269
-3.89,-0.8928808272734472,0.2670059178194992
-3.8895,-1.522421143876723,-0.6019184314042303
-3.889,-1.991908837614759,-1.333086481360783
-3.8885,-2.03458953704549,-1.598002441489969
-3.888,-1.373038695869166,-1.046977244421262
-3.8875,-0.658136980404429,-0.2628260024388724
-3.887,-0.1139580626626144,0.3941655786815084
-3.8865,0.1954770082101822,0.8180311148882058
-3.886,0.3341892813600565,1.040560521396722
-3.8855,0.3768699807907871,1.125333628638062
-3.885,0.3555296310754218,1.135930267043229
