Class_5_Move_Left_hand_Horiszontal/Class_5_Move_Left_hand_Horizontal_Turki_10.csv

#Digilent WaveForms Oscilloscope Acquisition
#Device Name: EExplorer
#Serial Number: SN:210151A2B84A
#Date Time: 2020-12-21 15:25:45.905
#Sample rate: 2000Hz
#Samples: 16384
#Trigger: Source: Channel 1 Type: Edge Condition: Rising Level: 0 V Hyst.: Auto HoldOff: 0 s
#Channel 1: Range: 1 V/div Offset: 0 V
#Channel 2: Range: 1 V/div Offset: 0 V

Time (s),Channel 1 (V),Channel 2 (V)
-4.0960000000000001,0.54759277851370936,0.23521600260399694
-4.0955000000000004,0.64362435223276571,0.22461936419883913
-4.0949999999999998,0.67563487680600787,0.12924961855239009
-4.0945,0.79300680024041004,0.20342608738849466
-4.0940000000000003,0.79300680024041004,0.23521600260396802
-4.0934999999999997,0.69697522652116928,0.22461936419879094
-4.093,0.59027347794443985,0.18223281057815977
-4.0925000000000002,0.51558225394072932,0.17163617217300198
-4.0919999999999996,0.41955068022113917,0.1504428953624069
-4.0914999999999999,0.0034138607718946501,-0.12506970317169577
-4.0910000000000002,-0.79684925355430347,-0.792657922697244
-4.0904999999999996,-1.5117509690195743,-1.4602461422232067
-4.0899999999999999,-2.0986105861915858,-1.9159015936449921
-4.0895000000000001,-2.0666000616185376,-1.8523217632139874
-4.0890000000000004,-1.2983474718660863,-1.0257839676116793
-4.0884999999999998,-0.53009488211223732,-0.12506970317169577
-4.0880000000000001,0.035424385344942577,0.5637117931641874
-4.0875000000000004,0.36619980593280366,0.97698069096534135
-4.0869999999999997,0.50491207908300795,1.1783168206639465
-4.0865,0.53692260365602662,1.2313000126897355
-4.0860000000000003,0.52625242879835377,1.21010673587942
-4.0854999999999997,0.49424190422526704,1.1465269054483382
-4.085,0.4622313796522482,1.0829470750173917
-4.0845000000000002,0.44089102993690238,0.99817396777612921
-4.0839999999999996,0.41955068022117797,0.92399749893956196
-4.0834999999999999,0.046094560202625215,0.57430843156935485
-4.0830000000000002,-0.75416855412357298,-0.30521255605954212
-4.0824999999999996,-1.277007122150265,-1.1953301820940692
-4.0819999999999999,-1.5437614935920885,-1.7039688255416432
-4.0815000000000001,-1.4263895701575793,-1.523825972653797
-4.0810000000000004,-0.83952995298556776,-0.88802766834432911
-4.0804999999999998,-0.20998963638175816,-0.34759910968021185
-4.0800000000000001,0.25949805735627807,-0.04029659593035631
-4.0795000000000003,0.52625242879810141,0.033879872905748259
-4.0789999999999997,0.63295417737519966,0.055073149716102394
-4.0785,0.66496470194821833,0.0020899576903134209
-4.0780000000000003,0.62228400251752669,0.0020899576903134209
-4.0774999999999997,0.60094365280208373,0.12924961855238043
-4.077,0.55826295337139209,0.19282944898332721
-4.0765000000000002,0.51558225394070023,0.24581264100911621
-4.0759999999999996,0.48357172936760379,0.31998910984529788
-4.0754999999999999,0.47290155450993088,0.27760255622466667
-4.0750000000000002,0.32351910650237387,0.29879583303500157
-4.0744999999999996,0.024754210486794121,0.33058574824991593
-4.0739999999999998,-0.48741418268150688,-0.31580919446470956
-4.0735000000000001,-1.0315931004233216,-1.0893637980419322
-4.0730000000000004,-1.4477299198725659,-1.5662125262740332
-4.0724999999999998,-1.1489650238578306,-1.1847335436884392
-4.0720000000000001,-0.57277558154296804,-0.41117894011121647
-4.0715000000000003,-0.071277363232339908,0.30939247143951365
-4.0709999999999997,0.27016823221411596,0.80743447648329858
-4.0705,0.44089102993688295,1.0935437134225592
-4.0700000000000003,0.50491207908292068,1.2313000126896103
-4.0694999999999997,0.51558225394064194,1.263089927905209
-4.069,0.49424190422529612,1.2313000126897355
-4.0685000000000002,0.47290155450993088,1.1889134590690658
-4.0679999999999996,0.45156120479454614,1.1465269054483382
-4.0674999999999999,0.43022085507920033,1.0829470750173917
-4.0670000000000002,0.29150858192932599,0.81803111488820579
-4.0664999999999996,-0.17797911180926337,-0.040296595931223693
-4.0659999999999998,-0.78617907869662074,-0.99399405239542526
-4.0655000000000001,-1.1062843244271001,-1.7039688255416432
-4.0650000000000004,-1.0956141495694272,-1.7993385711880634
-4.0644999999999998,-0.63679663068906378,-1.2059268204987741
-4.0640000000000001,-0.071277363231883828,-0.53833860097322561
-4.0635000000000003,0.33418928135968778,-0.12506970317207161
-4.0629999999999997,0.55826295337146969,0.076266426526552911
-4.0625,0.64362435223285308,0.15044289536265748
-4.0620000000000003,0.65429452709052616,0.055073149716237321
-4.0614999999999997,0.7076454013790946,-0.072086511145974266
-4.0609999999999999,0.86769802424418851,-0.19924617200786782
-4.0605000000000002,0.82501732481345802,-0.15685961838719809
-4.0599999999999996,0.70764540137884224,-0.04029659593024066
-4.0594999999999999,0.59027347794443985,0.086863064931652884
-4.0590000000000002,0.50491207908297886,0.20342608738849466
-4.0585000000000004,0.64362435223272696,0.45774540911228173
-4.0579999999999998,1.1024418711132067,1.0723504366122243
-4.0575000000000001,0.66496470194821833,1.0087706061812196
-4.0570000000000004,-0.18864928666561653,0.22461936419954265
-4.0564999999999998,-0.95690187641954316,-0.52774196256805828
-4.056,-1.4797404444459925,-1.1105570748522671
-4.0555000000000003,-1.1916457232888231,-0.86683439153363784
-4.0549999999999997,-0.61545628097322302,-0.24163272562799784
-4.0545,-0.092617712947249131,0.35177902506083869
-4.0540000000000003,0.24882788249828486,0.77564456126715053
-4.0534999999999997,0.43022085507926827,1.0405605213968376
-4.0529999999999999,0.50491207908297886,1.1677201822587309
-4.0525000000000002,0.50491207908297886,1.2101067358794007
-4.0519999999999996,0.48357172936759407,1.2207033742845488
-4.0514999999999999,0.4622313796522482,1.1995100974742332
-4.0510000000000002,0.41955068022151765,1.1995100974742332
-4.0505000000000004,0.25949805735642362,1.1677201822587597
-4.0499999999999998,-0.24200016095480609,0.92399749893988004
-4.0495000000000001,-0.86087030270039921,0.16103953376782493
-4.0490000000000004,-1.3730386958687002,-0.81385119950669216
-4.0484999999999998,-1.5437614935917778,-1.4072629501967431
-4.048,-1.2023158981462438,-1.1741369052832717
-4.0475000000000003,-0.56210540668586761,-0.63370834662022402
-4.0469999999999997,0.024754210487619003,-0.14626297998177043
-4.0465,0.41955068022151765,0.13984625695749003
-4.0460000000000003,0.62228400251730343,0.20342608738843682
-4.0454999999999997,0.6863050516635838,0.10805634174188174
-4.0449999999999999,0.6863050516635838,-0.0085066807148540119
-4.0445000000000002,0.82501732481345802,-0.10387642636136091
-4.0439999999999996,0.83568749967104372,-0.11447306476648017
-4.0434999999999999,0.72898575109431429,-0.061489872740691176
-4.0430000000000001,0.62228400251748783,0.023283234500648287
-4.0425000000000004,0.52625242879843148,0.12924961855222622
-4.0419999999999998,0.50491207908297886,0.24581264100916439
-4.0415000000000001,0.77166645052504479,0.62729162359519197
-4.0410000000000004,1.4545576414161128,1.3266697583356066
-4.0404999999999998,1.3158453682659181,1.43263614238704
-4.04,0.28083840707164331,0.46834204751768049
-4.0395000000000003,-0.55143523182684584,-0.4641621321362055
-4.0389999999999997,-0.60478610611576344,-0.52774196256769201
-4.0385,-0.32736155981626724,-0.12506970317169577
-4.0380000000000003,-0.0072563140860791298,0.35177902506040493
-4.0374999999999996,0.23815770764104863,0.74385464605228435
-4.0369999999999999,0.38754015564846972,1.0193672445863871
-4.0365000000000002,0.45156120479456557,1.1783168206638983
-4.0359999999999996,0.47290155450992116,1.2524932895000993
-4.0354999999999999,0.4622313796522482,1.2842832047155728
-4.0350000000000001,0.44089102993688295,1.2948798431207402
-4.0345000000000004,0.43022085507921004,1.2842832047155823
-4.0339999999999998,0.40888050536383502,1.2524932895000704
-4.0335000000000001,0.11011560934872107,0.98757732937088472
-4.0330000000000004,-0.66880715526140333,0.21402272579436565
-4.0324999999999998,-1.4370597450154852,-0.70788481545645388
-4.032,-1.6824737667419627,-1.3118932045504481
-4.0315000000000003,-1.3303579964387557,-1.1317503516627658
-4.0309999999999997,-0.65813698040388557,-0.63370834661935671
-4.0305,-0.06060718837420119,-0.22043944881820265
-4.0300000000000002,0.34485945621737041,0.0020899576901110273
-4.0294999999999996,0.5475927785137773,0.076266426526485451
-4.0289999999999999,0.62228400251748783,0.076266426526485451
-4.0285000000000002,0.63295417737517057,0.055073149716150585
-4.0279999999999996,0.72898575109441133,-0.11447306476664401
-4.0274999999999999,0.83568749967114075,-0.24163272562853755
-4.0270000000000001,0.76099627566736228,-0.15685961838719809
-4.0265000000000004,0.64362435223295988,-0.029699957525304549
-4.0259999999999998,0.53692260365602662,0.076266426526485451
-4.0255000000000001,0.4835717293676135,0.16103953376782493
-4.0250000000000004,0.70764540137874521,0.45774540911224321
-4.0244999999999997,0.70764540137832799,0.2776025562239342
-4.024,0.024754210487259936,-0.52774196256805828
-4.0235000000000003,-0.83952995298424793,-1.3330864813600507
-4.0229999999999997,-1.4690702695881257,-1.831128486403296
-4.0225,-1.2663369472923398,-1.4390528654124575
-4.0220000000000002,-0.69014750497800104,-0.64430498502562283
-4.0214999999999996,-0.156638762093015,0.065669788121761344
-4.0209999999999999,0.20614718306786484,0.55311515475901996
-4.0205000000000002,0.40888050536383502,0.81803111488820579
-4.0199999999999996,0.48357172936762322,0.92399749893988969
-4.0194999999999999,0.49424190422529612,0.93459413734504748
-4.0190000000000001,0.4835717293676135,0.89220758372437781
-4.0185000000000004,0.45156120479459472,0.84982103010374654
-4.0179999999999998,0.43022085507920033,0.81803111488820579
-4.0175000000000001,0.3982103305061524,0.81803111488820579
-4.0170000000000003,0.32351910650244181,0.82862775329336347
-4.0164999999999997,-0.1673089369516487,0.98757732937040288
-4.016,-0.8502001278427167,0.45774540911251305
-4.0155000000000003,-1.3090176467226531,-0.48535540894653073
-4.0149999999999997,-1.3730386958687488,-0.93041422196423762
-4.0145,-0.91422117698881245,-0.72907809226623943
-4.0140000000000002,-0.31669138495912807,-0.34759910968055879
-4.0134999999999996,0.16346648363742541,-0.0085066807146998106
-4.0129999999999999,0.4835717293676135,0.16103953376782493
-4.0125000000000002,0.63295417737517057,0.13984625695749003
-4.0119999999999996,0.65429452709053582,0.0974597033368685
-4.0114999999999998,0.65429452709053582,0.15044289536265748
-4.0110000000000001,0.73965592595199681,0.38356894027634103
-4.0105000000000004,0.70764540137897813,0.43655213230212997
-4.0099999999999998,0.6116138276598051,0.40476221708667587
-4.0095000000000001,0.53692260365602662,0.38356894027634103
-4.0090000000000003,0.47290155450998911,0.39416557868149876
-4.0084999999999997,0.59027347794495422,0.59550170838023897
-4.008,1.1557927454016199,1.1995100974742332
-4.0075000000000003,1.123782220828601,1.3902495887670738
-4.0069999999999997,0.35552963107445135,0.53192187794769241
-4.0065,-0.71148785469284226,-0.55953187778356051
-4.0060000000000002,-1.2770071221500223,-1.1953301820936066
-4.0054999999999996,-1.0315931004228558,-0.90922094515349794
-4.0049999999999999,-0.51942470725455481,-0.26282600243887239
-4.0045000000000002,-0.049937013516518552,0.34118238665567124
-4.0039999999999996,0.24882788249874097,0.77564456126776726
-4.0034999999999998,0.40888050536383502,1.0299638829915545
-4.0030000000000001,0.47290155450993088,1.1571235438535634
-4.0025000000000004,0.47290155450993088,1.1995100974741946
-4.0019999999999998,0.45156120479456557,1.1889134590690658
-4.0015000000000001,0.43022085507920033,1.1677201822587309
-4.0010000000000003,0.40888050536385445,1.1359302670432574
-4.0004999999999997,0.35552963107500452,1.0723504366117425
-4,-0.10328788780493176,0.54251851635385251
-3.9994999999999998,-0.90355100213112993,-0.40058230170604903
-3.9990000000000001,-1.6931439415996454,-1.2801032893349458
-3.9984999999999999,-2.1199509359069508,-1.7039688255416432
-3.9980000000000002,-1.6077825427381842,-1.333086481360783
-3.9975000000000001,-0.78617907869662074,-0.72907809226623943
-3.9969999999999999,-0.10328788780493176,-0.2310360872233701
-3.9965000000000002,0.35552963107542179,0.044476511310983152
-3.996,0.60094365280212259,0.13984625695749003
-3.9954999999999998,0.6863050516635838,0.086863064931652884
-3.9950000000000001,0.6863050516635838,0.0020899576903134209
-3.9944999999999999,0.50491207908297886,0.13984625695749003
-3.9940000000000002,0.36619980593310447,0.23521600260399694
-3.9935,0.33418928136005654,0.17163617217299235
-3.9929999999999999,0.35552963107542179,0.076266426526485451
-3.9925000000000002,0.38754015564846972,0.033879872905815719
-3.992,0.36619980593310447,0.0020899576903134209
-3.9914999999999998,0.024754210487259936,-0.43237221692155131
-3.9910000000000001,-0.69014750497747701,-1.1105570748522671
-3.9904999999999999,-1.373038695869166,-1.7039688255416432
-3.9900000000000002,-2.0025790124724421,-2.0748511697225034
-3.9895,-2.1092807610492685,-1.9688847856708289
-3.9889999999999999,-1.405049220442214,-1.1105570748522671
-3.9885000000000002,-0.62612645583138127,-0.14626297998203064
-3.988,-0.039266838658835915,0.58490506997452218
-3.9874999999999998,0.31284893164469124,1.0405605213967219
-3.9870000000000001,0.4835717293676135,1.2524932895000704
-3.9864999999999999,0.52625242879834411,1.3054764815259077
-3.9860000000000002,0.50491207908297886,1.2630899279052379
-3.9855,0.47290155450993088,1.1889134590690658
-3.9849999999999999,0.44089102993688295,1.1041403518277266
-3.9845000000000002,0.41955068022151765,0.99817396777605205
-3.984,0.40888050536383502,0.90280422212954525
-3.9834999999999998,0.38754015564846972,0.90280422212954525
-3.9830000000000001,0.34485945621773917,1.1571235438535634
-3.9824999999999999,-0.11395806266261441,0.68027481562102909
-3.9820000000000002,-0.72215802955052499,-0.25222936403370499
-3.9815,-0.92489135184649518,-0.67609490024040231
-3.9809999999999999,-0.55143523182760279,-0.57012851618872795
-3.9805000000000001,-0.06060718837420119,-0.3581957480853793
-3.98,0.32351910650237387,-0.20984281041303524
-3.9794999999999998,0.52625242879834411,-0.082683149551026042
-3.9790000000000001,0.6116138276598051,-0.019103319120021445
-3.9784999999999999,0.63295417737517057,-0.0085066807148540119
-3.9780000000000002,0.72898575109431429,-0.11447306476652835
-3.9775,0.8997085488172365,-0.30521255605954212
-3.9769999999999999,0.83568749967114075,-0.18864953360270037
-3.9765000000000001,0.69697522652126631,0.065669788121318018
-3.976,0.5689331282290746,0.29879583303500157
-3.9754999999999998,0.47290155450993088,0.45774540911251305
-3.9750000000000001,0.05676473506030786,0.18223281057815977
-3.9744999999999999,-0.82885977812735145,-0.59132179299906285
-3.9740000000000002,-1.6824737667419627,-1.3118932045504481
-3.9735,-2.3120140833452387,-1.7675486559726479
-3.9729999999999999,-2.6001088045026699,-1.9794814240759964
-3.9725000000000001,-2.1733018101953641,-1.6297923567054711
-3.972,-1.1916457232885611,-0.76086800748174177
-3.9714999999999998,-0.39138260896236304,0.033879872905815719
-3.9710000000000001,0.13145595906408636,0.5637117931641874
-3.9704999999999999,0.41955068022151765,0.83922439169854057
-3.9700000000000002,0.52625242879834411,0.92399749893988004
-3.9695,0.53692260365602662,0.89220758372437781
-3.9689999999999999,0.50491207908297886,0.80743447648303834
-3.9685000000000001,0.47290155450993088,0.71206473083653143
-3.968,0.44089102993688295,0.61669498519002452
-3.9674999999999998,0.41955068022151765,0.54251851635385251
-3.9670000000000001,0.31284893164469124,0.40476221708667587
-3.9664999999999999,-0.31669138495858457,-0.20984281041303524
-3.9660000000000002,-0.98891240099259115,-1.0469772444212624
-3.9655,-1.4797404444459925,-1.7145654639468106
-3.9649999999999999,-1.8958772638956156,-2.043061254507001
-3.9645000000000001,-1.6397930673112322,-1.4920360574382947
-3.964,-0.91422117698881245,-0.6972881770507372
-3.9634999999999998,-0.22065981123944084,-0.082683149551026042
-3.9630000000000001,0.27016823221396069,0.20342608738849466
-3.9624999999999999,0.5689331282290746,0.30939247144016896
-3.9620000000000002,0.70764540137894905,0.27760255622466667
-3.9615,0.76099627566736228,0.15044289536265748
-3.9609999999999999,0.93171907339028448,-0.019103319120021445
-3.9605000000000001,0.88903837395955376,-0.029699957525188878
-3.96,0.75032610080967954,0.055073149716150585
-3.9594999999999998,0.6116138276598051,0.15044289536265748
-3.9590000000000001,0.51558225394066137,0.23521600260399694
-3.9584999999999999,0.44089102993688295,0.30939247144016896
-3.9580000000000002,0.43022085507920033,0.2246193641988295
-3.9575,-0.039266838658835915,-0.42177557851638392
-3.9569999999999999,-0.77550890383893822,-1.1847335436884392
-3.9565000000000001,-1.554431668449771,-1.7781452943778153
-3.956,-1.8211860398918371,-1.9370948704553266
-3.9554999999999998,-1.2876772970077051,-1.2483133741194434
-3.9550000000000001,-0.59411593125833329,-0.40058230170604903
-3.9544999999999999,-0.049937013516518552,0.25640927941433178
-3.9540000000000002,0.29150858192932599,0.66967817721586165
-3.9535,0.4622313796522482,0.86041766850887547
-3.9529999999999998,0.51558225394066137,0.9134008605347127
-3.9525000000000001,0.50491207908297886,0.88161094531921036
-3.952,0.47290155450993088,0.82862775329337313
-3.9514999999999998,0.44089102993688295,0.775644561267536
-3.9510000000000001,0.41955068022151765,0.73325800764686633
-3.9504999999999999,0.3982103305061524,0.68027481562102909
-3.9500000000000002,0.47290155450993088,0.78624119967270345
-3.9495,0.93171907339028448,1.1995100974742332
-3.9489999999999998,0.71831557623663156,0.81803111488820579
-3.9485000000000001,-0.11395806266261441,-0.15685961838719809
-3.948,-0.5621054066852853,-0.72907809226623943
-3.9474999999999998,-0.3700422592469978,-0.64430498502489997
-3.9470000000000001,-0.028596663801153277,-0.3581957480853793
-3.9464999999999999,0.27016823221396069,-0.072086511145858609
-3.9460000000000002,0.44089102993688295,0.12924961855232261
-3.9455,0.54759277851370936,0.19282944898332721
-3.9449999999999998,0.57960330308675734,0.19282944898332721
-3.9445000000000001,0.69697522652126631,0.17163617217299235
-3.944,0.81434714995577528,0.076266426526485451
-3.9434999999999998,0.73965592595199681,0.086863064931652884
-3.9430000000000001,0.63295417737517057,0.16103953376782493
-3.9424999999999999,0.53692260365602662,0.24581264100916439
-3.9420000000000002,0.44089102993688295,0.33058574825050385
-3.9415,0.067434909917990504,0.52132523954351762
-3.9409999999999998,-0.6047861061160158,0.21402272579366208
-3.9405000000000001,-1.1169544992847826,-0.55953187778356051
-3.9399999999999999,-1.2663369472923398,-1.1741369052832717
-3.9394999999999998,-1.5971123678805015,-1.5980024414899687
-3.9390000000000001,-1.373038695869166,-1.3224898429556156
-3.9384999999999999,-0.76483872898125549,-0.55953187778356051
-3.9380000000000002,-0.19931946152407554,0.17163617217299235
-3.9375,0.18480683335249956,0.69087145402619654
-3.9369999999999998,0.3982103305061524,0.96638405256054982
-3.9365000000000001,0.4835717293676135,1.0723504366122243
-3.9359999999999999,0.49424190422529612,1.0723504366122243
-3.9355000000000002,0.4835717293676135,1.0193672445863871
-3.9350000000000001,0.45156120479456557,0.94519077575021493
-3.9344999999999999,0.43022085507920033,0.87101430691404291
-3.9340000000000002,0.40888050536383502,0.7968378380778709
-3.9335,0.21681735792554749,0.62729162359519197
-3.9329999999999998,-0.50875453239687207,0.15044289536265748
-3.9325000000000001,-1.3303579964384356,-0.66549826183523486
-3.9319999999999999,-1.7891755153187892,-1.3012965661452807
-3.9315000000000002,-1.7464948158880587,-1.1423469900677694
-3.931,-1.1489650238578306,-0.67609490024040231
-3.9304999999999999,-0.40205278382004572,-0.2310360872233701
-3.9300000000000002,0.18480683335249956,0.033879872905815719
-3.9295,0.50491207908297886,0.13984625695749003
-3.9289999999999998,0.63295417737517057,0.097459703336820316
-3.9285000000000001,0.67563487680590106,0.012686596095480854
-3.9279999999999999,0.71831557623663156,-0.12506970317169577
