Class_5_Move_Left_hand_Horiszontal/Class_5_Move_leftt_hand_horizontal_Basim_1.csv

#Digilent WaveForms Oscilloscope Acquisition
#Device Name: EExplorer
#Serial Number: SN:210151A2B84A
#Date Time: 2020-10-20 13:03:28.502
#Sample rate: 2000Hz
#Samples: 16384
#Trigger: Source: Channel 1 Type: Edge Condition: Rising Level: 0 V Hyst.: Auto HoldOff: 0 s
#Channel 1: Range: 1 V/div Offset: 0 V
#Channel 2: Range: 1 V/div Offset: 0 V

Time (s),Channel 1 (V),Channel 2 (V)
-4.0960000000000001,0.33418928136005654,0.775644561267536
-4.0955000000000004,0.19547700821030833,0.47893868592311772
-4.0949999999999998,-0.38071243410421463,-0.36879238649116353
-4.0945,0.13145595906408636,-1.0469772444212624
-4.0940000000000003,1.2198137945467256,-1.9264982320493593
-4.0934999999999997,2.1161084825933001,-2.6046830899808846
-4.093,2.3828628540351238,-2.6152797283860423
-4.0925000000000002,2.0840979580202816,-1.9794814240765746
-4.0919999999999996,1.4225471168431425,-1.1529436284723587
-4.0914999999999999,0.82501732481345802,-0.51714532416289083
-4.0910000000000002,0.43022085507920033,-0.11447306476652835
-4.0904999999999996,0.21681735792548926,0.0974597033368685
-4.0899999999999999,0.15279630877945163,0.15044289536265748
-4.0895000000000001,0.16346648363713429,0.15044289536265748
-4.0890000000000004,0.19547700821015307,0.13984625695749967
-4.0884999999999998,0.16346648363713429,0.30939247144016896
-4.0880000000000001,0.13145595906408636,0.40476221708667587
-4.0875000000000004,0.15279630877943223,0.35177902506088687
-4.0869999999999997,0.18480683335250928,0.28819919462981486
-4.0865,0.19547700821018218,0.26700591781949923
-4.0860000000000003,-0.15663876209302471,0.64848490040517992
-4.0854999999999997,-1.0315931004240593,1.33726639674194
-4.085,-1.8425263896072024,1.9200815090256187
-4.0845000000000002,-2.5040772307829244,1.8035184865688831
-4.0839999999999996,-2.9308842250905989,0.57430843156839106
-4.0834999999999999,-2.6748000285064482,-0.48535540894738849
-4.0830000000000002,-1.6291228924535495,-0.60191843140423029
-4.0824999999999996,-0.72215802954996211,-0.2522293640332906
-4.0819999999999999,-0.10328788780493176,0.20342608738849466
-4.0815000000000001,0.23815770764091276,0.57430843156935485
-4.0810000000000004,0.37686998079066092,0.83922439169829965
-4.0804999999999998,0.3982103305061524,0.99817396777605205
-4.0800000000000001,0.36619980593310447,1.0617537982070568
-4.0795000000000003,0.33418928136008563,1.0193672445864257
-4.0789999999999997,0.33418928136005654,0.92399749893974514
-4.0785,0.33418928136005654,0.775644561267536
-4.0780000000000003,0.49424190422515057,0.45774540911280215
-4.0774999999999997,1.2091436196903824,-0.24163272562961696
-4.077,1.593269914566608,-1.42845622700729
-4.0765000000000002,1.6679611385703186,-2.307977214635387
-4.0759999999999996,1.5185786905623833,-1.9370948704546616
-4.0754999999999999,1.0277506471094282,-1.2059268204987741
-4.0750000000000002,0.66496470194821833,-0.50654868575772338
-4.0744999999999996,0.46223137965208322,0.023283234500821762
-4.0739999999999998,0.28083840707164331,0.21402272579366208
-4.0735000000000001,0.18480683335249956,0.2246193641988295
-4.0730000000000004,0.16346648363715369,0.17163617217304053
-4.0724999999999998,0.17413665849481691,0.097459703336820316
-4.0720000000000001,0.17413665849481691,0.12924961855232261
-4.0715000000000003,0.17413665849481691,0.18223281057811158
-4.0709999999999997,0.19547700821020159,0.1504428953626093
-4.0705,0.21681735792554749,0.097459703336820316
-4.0700000000000003,0.2274875327832204,0.055073149716189138
-4.0694999999999997,0.046094560201945904,0.27760255622530278
-4.069,-0.70081767983515975,0.97698069096571727
-4.0685000000000002,-1.6291228924535495,1.6657621873016004
-4.0679999999999996,-2.3867053073495605,1.718745379326474
-4.0674999999999999,-2.9842350993792448,0.6590815388106942
-4.0670000000000002,-2.9949052742369275,-0.60191843140423029
-4.0664999999999996,-2.2053123347674517,-0.94101086036926052
-4.0659999999999998,-1.1489650238578306,-0.5807251545938954
-4.0655000000000001,-0.3700422592469978,-0.050893234335523743
-4.0650000000000004,0.11011560934828435,0.40476221708626148
-4.0644999999999998,0.33418928136005654,0.72266136924169888
-4.0640000000000001,0.40888050536383502,0.92399749893988004
-4.0635000000000003,0.39821033050616211,1.0087706061811426
-4.0629999999999997,0.36619980593308504,0.96638405256046311
-4.0625,0.34485945621773917,0.87101430691404291
-4.0620000000000003,0.32351910650239329,0.73325800764699167
-4.0614999999999997,0.37686998079127232,0.54251851635332249
-4.0609999999999999,0.91037872367491923,-0.04029659593035631
-4.0605000000000002,1.742652362574165,-0.80325456110241145
-4.0599999999999996,2.2441505808847251,-1.4708427806284321
-4.0594999999999999,1.6679611385703865,-1.9900780624811638
-4.0590000000000002,0.97439977282101498,-1.4390528654124575
-4.0585000000000004,0.49424190422573283,-0.82444783791330534
-4.0579999999999998,0.24882788249859539,-0.33700247127504446
-4.0575000000000001,0.22748753278323011,0.023283234500648287
-4.0570000000000004,0.2168173579255572,0.11865298014706845
-4.0564999999999998,0.18480683335249956,0.065669788121318018
-4.056,0.18480683335249956,0.0020899576903134209
-4.0555000000000003,0.18480683335249956,-0.0085066807148443738
-4.0549999999999997,0.17413665849483631,0.097459703336849224
-4.0545,0.19547700821018218,0.12924961855232261
-4.0540000000000003,0.21681735792552809,0.12924961855232261
-4.0534999999999997,0.21681735792546986,0.16103953376795985
-4.0529999999999999,0.13145595906408636,0.30939247144016896
-4.0525000000000002,-0.4554036581084589,0.89220758372437781
-4.0519999999999996,-1.3303579964389596,1.5915857184657656
-4.0514999999999999,-1.9065474387532981,1.9624680626462885
-4.0510000000000002,-2.0879404113339031,1.2207033742845681
-4.0505000000000004,-2.3013439084873619,-0.093279787954998472
-4.0499999999999998,-1.8211860398918371,-0.68669153864556975
-4.0495000000000001,-1.0315931004233216,-0.49595204735255594
-4.0490000000000004,-0.37004225924759948,-0.050893234335928517
-4.0484999999999998,0.0674349099181943,0.39416557868181684
-4.048,0.29150858192932599,0.73325800764686633
-4.0475000000000003,0.36619980593303653,0.94519077575002219
-4.0469999999999997,0.36619980593308504,1.0617537982070762
-4.0465,0.34485945621773917,1.0829470750173917
-4.0460000000000003,0.33418928136006626,1.0193672445864448
-4.0454999999999997,0.32351910650240295,0.90280422212936218
-4.0449999999999999,0.35552963107542179,0.70146809243136399
-4.0445000000000002,0.50491207908297886,-0.019103319120021445
-4.0439999999999996,0.75032610081059181,-1.3966663117924911
-4.0434999999999999,1.7533225374318477,-2.1702209153690104
-4.0430000000000001,2.3081716300313451,-2.4775234291188659
-4.0425000000000004,2.0094067340165029,-1.7781452943784513
-4.0419999999999998,1.4758979911320991,-0.792657922697244
-4.0415000000000001,0.93171907339028448,-0.13566634157686319
-4.0410000000000004,0.48357172936802106,0.13984625695723946
-4.0404999999999998,0.23815770764082542,0.19282944898327903
-4.04,0.14212613392176898,0.13984625695749003
-4.0395000000000003,0.14212613392176898,0.05507314971622769
-4.0389999999999997,0.17413665849479751,-0.0085066807147383613
-4.0385,0.15279630877945163,0.11865298014715518
-4.0380000000000003,0.16346648363712457,0.17163617217294416
-4.0374999999999996,0.18480683335251896,0.12924961855227443
-4.0369999999999999,0.20614718306786484,0.076266426526485451
-4.0365000000000002,0.19547700821018218,0.055073149716150585
-4.0359999999999996,-0.20998963638260246,0.43655213230239981
-4.0354999999999999,-1.1382948490001481,0.68027481562102909
-4.0350000000000001,-2.0452597119031726,-0.072086511145858609
-4.0345000000000004,-2.8028421267979509,-1.0999604364461648
-4.0339999999999998,-2.9735649245215625,-1.9053049552398247
-4.0335000000000001,-2.7601614273679096,-2.043061254507001
-4.0330000000000004,-1.693143941600616,-1.2906999277407976
-4.0324999999999998,-0.76483872898067318,-0.41117894011058037
-4.032,-0.12462823752029703,0.28819919462983412
-4.0315000000000003,0.23815770764058278,0.71206473083614585
-4.0309999999999997,0.37686998079080652,0.93459413734510532
-4.0305,0.3982103305061524,0.99817396777605205
-4.0300000000000002,0.37686998079080652,0.93459413734510532
-4.0294999999999996,0.36619980593311419,0.71206473083629052
-4.0289999999999999,0.3768699807907871,0.4471487707073456
-4.0285000000000002,0.47290155450993088,0.086863064931652884
-4.0279999999999996,0.61161382766027095,-0.25222936403431218
-4.0274999999999999,1.1237822208285719,-0.91981758355925325
-4.0270000000000001,1.1664629202593024,-2.0324646161018336
-4.0265000000000004,1.2624944939783589,-2.5305066211442497
-4.0259999999999998,1.2304839694053984,-2.456330152308531
-4.0255000000000001,0.99574012253638022,-1.8311284864036526
-4.0250000000000004,0.77166645052524863,-1.0257839676116598
-4.0244999999999997,0.50491207908277502,-0.49595204735226683
-4.024,0.28083840707164331,-0.17805289519753292
-4.0235000000000003,0.18480683335258691,-0.029699957525323811
-4.0229999999999997,0.163466483637144,0.012686596095500128
-4.0225,0.17413665849481691,0.033879872905815719
-4.0220000000000002,0.163466483637144,0.17163617217286709
-4.0214999999999996,0.12078578420642312,0.34118238665569051
-4.0209999999999999,0.14212613392176898,0.36237566346600614
-4.0205000000000002,0.17413665849481691,0.31998910984533641
-4.0199999999999996,0.19547700821010455,0.29879583303515578
-4.0194999999999999,0.11011560934872107,0.46834204751768049
-4.0190000000000001,-0.32736155981626724,0.88161094531921036
-4.0185000000000004,-1.1062843244263916,0.77564456126763237
-4.0179999999999998,-1.7785053404611064,-0.082683149551026042
-4.0175000000000001,-2.386705307349017,-1.0363806060160949
-4.0170000000000003,-2.546757930214111,-1.5450192494636692
-4.0164999999999997,-1.682473766741196,-1.1423469900671142
-4.016,-0.83952995298503397,-0.42177557851638392
-4.0155000000000003,-0.2099896363823307,0.2140227257930839
-4.0149999999999997,0.16346648363727986,0.63788826200057147
-4.0145,0.32351910650237387,0.87101430691404291
-4.0140000000000002,0.37686998079073858,0.95578741415530533
-4.0134999999999996,0.35552963107540236,0.94519077575012822
-4.0129999999999999,0.33418928136005654,0.84982103010370802
-4.0125000000000002,0.32351910650237387,0.69087145402619654
-4.0119999999999996,0.32351910650198568,0.48953532432728286
-4.0114999999999998,-0.10328788780493176,-0.31580919446470956
-4.0110000000000001,0.24882788249859539,-1.333086481360783
-4.0105000000000004,1.3691962425542537,-2.1702209153682492
-4.0099999999999998,2.2868312803159796,-2.7954225812738889
-4.0095000000000001,2.5109049523273153,-2.562296536360205
-4.0090000000000003,2.0307470837320332,-1.693372187137266
-4.0084999999999997,1.3158453682663063,-0.83504447631742229
-4.008,0.70764540137894905,-0.29461591765437467
-4.0075000000000003,0.34485945621806913,0.0020899576900435535
-4.0069999999999997,0.17413665849478779,0.11865298014715518
-4.0065,0.14212613392176898,0.11865298014715518
-4.0060000000000002,0.15279630877945163,0.097459703336820316
-4.0054999999999996,0.18480683335247045,0.15044289536283095
-4.0049999999999999,0.15279630877945163,0.34118238665567124
-4.0045000000000002,0.16346648363713429,0.36237566346600614
-4.0039999999999996,0.18480683335250928,0.30939247144011112
-4.0034999999999998,0.19547700821018218,0.24581264100916439
-4.0030000000000001,0.15279630877945163,0.33058574825050385
-4.0025000000000004,-0.43406330839255991,0.89220758372386699
-4.0019999999999998,-1.373038695869166,1.5597958032499259
-4.0015000000000001,-2.1839719850530468,1.7717285713532749
-4.0010000000000003,-2.8882035256594607,0.87101430691486215
-4.0004999999999997,-2.9522245748055371,-0.3899856633012671
-4,-2.2266526844837773,-0.81385119950757889
-3.9994999999999998,-1.1703053735731959,-0.52774196256805828
-3.9990000000000001,-0.39138260896236304,-0.029699957525188878
-3.9984999999999999,0.08877525963335578,0.41535885549184332
-3.9980000000000002,0.32351910650237387,0.74385464605203377
-3.9975000000000001,0.38754015564846972,0.94519077575021493
-3.9969999999999999,0.3768699807907871,1.0511571598018894
-3.9965000000000002,0.34485945621773917,1.0829470750173917
-3.996,0.32351910650237387,1.0087706061812196
-3.9954999999999998,0.32351910650237387,0.87101430691404291
-3.9950000000000001,0.34485945621773917,0.69087145402619654
-3.9944999999999999,0.72898575109431429,0.17163617217299235
-3.9940000000000002,1.3691962425552726,-0.61251506980939763
-3.9935,1.0917716962555239,-1.8311284864036526
-3.9929999999999999,1.1344523956862547,-2.4775234291188659
-3.9925000000000002,1.1131120459708892,-2.2443973842051821
-3.992,0.79300680024041004,-1.4178595886021226
-3.9914999999999998,0.57960330308675734,-0.52774196256805828
-3.9910000000000001,0.40888050536383502,0.033879872905815719
-3.9904999999999999,0.24882788249859539,0.20342608738849466
-3.9900000000000002,0.17413665849481691,0.20342608738849466
-3.9895,0.16346648363713429,0.13984625695749003
-3.9889999999999999,0.17413665849481691,0.065669788121318018
-3.9885000000000002,0.14212613392176898,0.16103953376782493
-3.988,0.15279630877945163,0.16103953376782493
-3.9874999999999998,0.17413665849481691,0.10805634174198775
-3.9870000000000001,0.20614718306786484,0.055073149716150585
-3.9864999999999999,0.18480683335249956,-0.029699957525188878
-3.9860000000000002,-0.25267033581248871,0.012686596095480854
-3.9855,-1.1276246741424654,-0.25222936403370499
-3.9849999999999999,-1.9705684878993939,-1.0257839676109275
-3.9845000000000002,-2.7068105530794964,-1.7781452943778153
-3.984,-2.9415543999485143,-2.3291704914465217
-3.9834999999999998,-2.5574281050719394,-2.0854478081276708
-3.9830000000000001,-1.4797404444459925,-1.131750351662602
-3.9824999999999999,-0.61545628097369853,-0.2310360872233701
-3.9820000000000002,-0.039266838658835915,0.40476221708667587
-3.9815,0.25949805735627807,0.775644561267536
-3.9809999999999999,0.3768699807907871,0.94519077575021493
-3.9805000000000001,0.38754015564846972,0.98757732937088472
-3.98,0.35552963107542179,0.92399749893988004
-3.9794999999999998,0.33418928136005654,0.7968378380778709
-3.9790000000000001,0.32351910650237387,0.62729162359519197
-3.9784999999999999,0.34485945621773917,0.40476221708667587
-3.9780000000000002,0.54759277851370936,-0.019103319120021445
-3.9775,0.97439977282101498,-1.0045906908005926
-3.9769999999999999,1.2838348436938116,-2.2232041073948472
-3.9765000000000001,1.9560558597278179,-2.7212461124377167
-3.976,1.9133751602970874,-2.5093133443343683
-3.9754999999999998,1.4225471168436858,-1.6933721871364757
-3.9750000000000001,0.98506994767869771,-0.82444783791274634
-3.9744999999999999,0.57960330308675734,-0.29461591765437467
-3.9740000000000002,0.29150858192932599,-0.029699957525188878
-3.9735,0.17413665849481691,0.076266426526485451
-3.9729999999999999,0.14212613392176898,0.10805634174198775
-3.9725000000000001,0.16346648363713429,0.097459703336820316
-3.972,0.14212613392176898,0.25640927941433178
-3.9714999999999998,0.11011560934872107,0.42595549389701071
-3.9710000000000001,0.14212613392176898,0.40476221708667587
-3.9704999999999999,0.18480683335249956,0.33058574825050385
-3.9700000000000002,0.20614718306786484,0.27760255622466667
-3.9695,-0.028596663801153277,0.55311515475901996
-3.9689999999999999,-0.8502001278427167,1.2207033742845681
-3.9685000000000001,-1.7144842913150107,1.8035184865687772
-3.968,-2.1199509359069508,1.6445689104912655
-3.9674999999999998,-2.3440246079182865,0.46834204751768049
-3.9670000000000001,-2.2800035587721905,-0.62311170821456507
-3.9664999999999999,-1.5117509690190405,-0.75027136907657432
-3.9660000000000002,-0.72215802955052499,-0.3581957480853793
-3.9655,-0.14596858723566233,0.12924961855232261
-3.9649999999999999,0.18480683335249956,0.54251851635385251
-3.9645000000000001,0.33418928136005654,0.81803111488820579
-3.964,0.36619980593310447,0.98757732937088472
-3.9634999999999998,0.34485945621773917,1.0511571598018894
-3.9630000000000001,0.32351910650237387,1.0299638829915545
-3.9624999999999999,0.31284893164469124,0.93459413734504748
-3.9620000000000002,0.34485945621773917,0.74385464605203377
-3.9615,0.62228400251748783,0.23521600260399694
-3.9609999999999999,1.2838348436938116,-0.49595204735255594
-3.9605000000000001,1.1771330951169852,-1.6191957183003036
-3.96,0.86769802424418851,-2.3927503218775263
-3.9594999999999998,0.8997085488172365,-2.159624276963843
-3.9590000000000001,0.6863050516635838,-1.3224898429556156
-3.9584999999999999,0.50491207908297886,-0.50654868575772338
-3.9580000000000002,0.40888050536383502,0.012686596095480854
-3.9575,0.29150858192932599,0.18223281057815977
-3.9569999999999999,0.20614718306786484,0.17163617217299235
-3.9565000000000001,0.18480683335249956,0.10805634174198775
-3.956,0.18480683335249956,0.033879872905815719
-3.9554999999999998,0.17413665849481691,0.065669788121318018
-3.9550000000000001,0.099445434491038431,0.2246193641988295
-3.9544999999999999,0.12078578420640371,0.21402272579366208
-3.9540000000000002,0.16346648363713429,0.15044289536265748
-3.9535,0.18480683335249956,0.097459703336820316
-3.9529999999999998,0.11011560934872107,0.19282944898332721
-3.9525000000000001,-0.46607383296614152,0.7968378380778709
-3.952,-1.0956141495694174,1.146526905448396
-3.9514999999999998,-1.6504632421689147,0.5637117931641874
-3.9510000000000001,-2.1092807610492685,-0.54893523937839306
-3.9504999999999999,-2.4934070559258434,-1.4814394190331273
-3.9500000000000002,-1.9598983130417114,-1.4814394190331273
-3.9495,-1.1169544992847826,-0.82444783791274634
-3.9489999999999998,-0.40205278382004572,-0.093279787956193475
-3.9485000000000001,0.046094560202625215,0.46834204751768049
-3.948,0.28083840707164331,0.81803111488820579
-3.9474999999999998,0.36619980593310447,1.0087706061812196
-3.9470000000000001,0.36619980593310447,1.0829470750173917
-3.9464999999999999,0.34485945621773917,1.0723504366122243
-3.9460000000000002,0.32351910650237387,0.96638405256054982
-3.9455,0.31284893164469124,0.80743447648303834
-3.9449999999999998,0.3768699807907871,0.54251851635385251
-3.9445000000000001,0.82501732481345802,-0.061489872740691176
-3.944,1.6466207888550213,-0.82444783791274634
-3.9434999999999998,2.3401821546043928,-1.5344226110589645
-3.9430000000000001,2.0414172585892789,-2.2020108305845123
-3.9424999999999999,1.5292488654205123,-1.7887419327829828
-3.9420000000000002,0.96372959796333246,-1.0999604364470996
-3.9415,0.54759277851370936,-0.50654868575772338
-3.9409999999999998,0.38754015564846972,-0.04029659593035631
-3.9405000000000001,0.24882788249859539,0.11865298014715518
-3.9399999999999999,0.17413665849481691,0.11865298014715518
-3.9394999999999998,0.15279630877945163,0.076266426526485451
-3.9390000000000001,0.16346648363713429,0.044476511310983152
-3.9384999999999999,0.12078578420640371,0.19282944898332721
-3.9380000000000002,0.12078578420640371,0.23521600260399694
-3.9375,0.16346648363713429,0.20342608738849466
-3.9369999999999998,0.19547700821018218,0.17163617217299235
-3.9365000000000001,0.18480683335249956,0.21402272579366208
-3.9359999999999999,-0.24200016095480609,0.64848490040552687
-3.9355000000000002,-1.1596351987155133,0.72266136924169888
-3.9350000000000001,-2.0239193621878071,-0.10387642636136091
-3.9344999999999999,-2.6961403782218136,-0.96220413717992292
-3.9340000000000002,-2.8561930010870533,-1.650985633515806
-3.9335,-2.4934070559258434,-1.6827755487313083
-3.9329999999999998,-1.4263895701575793,-0.99399405239542526
-3.9325000000000001,-0.59411593125833329,-0.22043944881820265
-3.9319999999999999,-0.028596663801153277,0.38356894027634103
-3.9315000000000002,0.25949805735627807,0.74385464605203377
-3.931,0.36619980593310447,0.92399749893988004
-3.9304999999999999,0.36619980593310447,0.98757732937088472
-3.9300000000000002,0.34485945621773917,0.96638405256054982
-3.9295,0.32351910650237387,0.87101430691404291
-3.9289999999999998,0.31284893164469124,0.72266136924169888
-3.9285000000000001,0.34485945621773917,0.51072860113835017
-3.9279999999999999,0.30217875678700862,-0.26282600243887239
-3.9275000000000002,0.52625242879834411,-1.6191957183003036
