Class_5_Move_Left_hand_Horiszontal/Class_5_Move_Left_hand_Horiszontal_UZ_9.csv

#Digilent WaveForms Oscilloscope Acquisition
#Device Name: EExplorer
#Serial Number: SN:210151A2B84A
#Date Time: 2020-12-21 13:37:33.459
#Sample rate: 2000Hz
#Samples: 16384
#Trigger: Source: Channel 1 Type: Edge Condition: Rising Level: 0 V Hyst.: Auto HoldOff: 0 s
#Channel 1: Range: 1 V/div Offset: 0 V
#Channel 2: Range: 1 V/div Offset: 0 V

Time (s),Channel 1 (V),Channel 2 (V)
-4.0960000000000001,0.78233662538272752,0.023283234500648287
-4.0955000000000004,0.75032610080970863,-0.33700247127471677
-4.0949999999999998,0.61161382765964978,-0.57012851618885318
-4.0945,0.44089102993688295,-0.70788481545590454
-4.0940000000000003,0.30217875678713479,-0.73967473067137801
-4.0934999999999997,0.30217875678701833,-0.71848145386098528
-4.093,0.31284893164469124,-0.62311170821456507
-4.0925000000000002,0.25949805735632658,-0.46416213213719815
-4.0919999999999996,0.20614718306782601,-0.26282600243867965
-4.0914999999999999,0.16346648363713429,-0.050893234335523743
-4.0910000000000002,0.046094560202625215,0.055073149716150585
-4.0904999999999996,-0.45540365810911881,-0.072086511146167015
-4.0899999999999999,-1.1809755484308786,-0.41117894011121647
-4.0895000000000001,-1.6504632421689147,-0.792657922697244
-4.0890000000000004,-2.0772702364758322,-1.0363806060158733
-4.0884999999999998,-2.0772702364762203,-1.0469772444212624
-4.0880000000000001,-1.373038695869166,-0.53833860097322561
-4.0875000000000004,-0.70081767983577115,0.065669788120768624
-4.0869999999999997,-0.20998963638149615,0.48953532432819846
-4.0865,0.078105084775673142,0.69087145402619654
-4.0860000000000003,0.19547700821007544,0.72266136924167002
-4.0854999999999997,0.2274875327832204,0.61669498518987997
-4.085,0.21681735792554749,0.45774540911251305
-4.0845000000000002,0.19547700821020159,0.25640927941451486
-4.0839999999999996,0.17413665849482662,0.055073149715986744
-4.0834999999999999,0.18480683335249956,-0.12506970317169577
-4.0830000000000002,0.23815770764091276,-0.26282600243887239
-4.0824999999999996,0.35552963107555763,-0.23103608722300387
-4.0819999999999999,0.50491207908297886,0.17163617217299235
-4.0815000000000001,0.8997085488172365,0.73325800764686633
-4.0810000000000004,1.1237822208283681,0.98757732937065335
-4.0804999999999998,1.1878032699746677,0.71206473083653143
-4.0800000000000001,1.1451225705439372,0.15044289536265748
-4.0795000000000003,1.0384208219672078,-0.44296885532617908
-4.0789999999999997,0.84635767452860977,-0.87743102993883404
-4.0785,0.6116138276598051,-1.1529436284729369
-4.0780000000000003,0.41955068022169234,-1.2695066509296724
-4.0774999999999997,0.28083840707168212,-1.2059268204987836
-4.077,0.32351910650237387,-1.2165234589039415
-4.0765000000000002,0.39821033050608445,-1.1211537132575213
-4.0759999999999996,0.34485945621767122,-0.79265792269687774
-4.0754999999999999,0.27016823221396069,-0.38998566330088158
-4.0750000000000002,0.19547700821018218,-0.029699957525188878
-4.0744999999999996,0.12078578420605435,0.26700591781950889
-4.0739999999999998,-0.26334051067017139,0.27760255622466667
-4.0735000000000001,-1.0209229255656389,-0.10387642636136091
-4.0730000000000004,-1.671803591883688,-0.57012851618830385
-4.0724999999999998,-2.0986105861915858,-0.87743102993858346
-4.0720000000000001,-2.3440246079182865,-0.67609490024040231
-4.0715000000000003,-1.6718035918848915,-0.061489872741250173
-4.0709999999999997,-0.92489135184597115,0.45774540911280215
-4.0705,-0.34870190953163249,0.775644561267536
-4.0700000000000003,0.0034138607715744063,0.8710143069139562
-4.0694999999999997,0.17413665849486543,0.8180311148880709
-4.069,0.22748753278323011,0.66967817721586165
-4.0685000000000002,0.22748753278323011,0.46834204751768049
-4.0679999999999996,0.19547700821017247,0.24581264100897163
-4.0674999999999999,0.18480683335249956,0.033879872905815719
-4.0670000000000002,0.17413665849481691,-0.15685961838719809
-4.0664999999999996,0.20614718306816568,-0.32640583286966496
-4.0659999999999998,0.53692260365602662,-0.093279787956193475
-4.0655000000000001,1.2945050185514941,0.50013196273318283
-4.0650000000000004,2.0734277831616188,1.0299638829910727
-4.0644999999999998,2.3615225043197583,1.2948798431207402
-4.0640000000000001,2.2014698814545186,1.2313000126897355
-4.0635000000000003,1.9027049854396765,0.97698069096594864
-4.0629999999999997,1.4972383408471246,0.23521600260328376
-4.0625,1.1237822208285719,-0.54893523937839306
-4.0620000000000003,0.77166645052536498,-1.068170521231125
-4.0614999999999997,0.50491207908280422,-1.2695066509297108
-4.0609999999999999,0.31284893164469124,-1.1953301820936066
-4.0605000000000002,0.23815770764091276,-1.0787671596367647
-4.0599999999999996,0.24882788249857599,-0.95160749877449524
-4.0594999999999999,0.22748753278323011,-0.66549826183523486
-4.0590000000000002,0.18480683335249956,-0.32640583286987701
-4.0585000000000004,0.15279630877948075,-0.0085066807151431001
-4.0579999999999998,0.12078578420640371,0.27760255622466667
-4.0575000000000001,-0.13529841237797968,0.26700591781949923
-4.0570000000000004,-0.79684925355370184,-0.19924617200744377
-4.0564999999999998,-1.5330913187344057,-0.68669153864556975
-4.056,-2.1839719850530468,-0.96220413717992292
-4.0555000000000003,-2.5360877553562537,-0.58072515459424234
-4.0549999999999997,-2.2693333839136831,0.076266426526745659
-4.0545,-1.3623685210114835,0.36237566346600614
-4.0540000000000003,-0.6367966306897237,0.3941655786814795
-4.0534999999999997,-0.14596858723542944,0.30939247144006293
-4.0529999999999999,0.11011560934872107,0.19282944898332721
-4.0525000000000002,0.21681735792554749,0.076266426526485451
-4.0519999999999996,0.22748753278321071,-0.019103319120088908
-4.0514999999999999,0.20614718306786484,-0.093279787956193475
-4.0510000000000002,0.17413665849481691,-0.15685961838719809
-4.0505000000000004,0.163466483637144,-0.20984281041298705
-4.0499999999999998,0.17413665849481691,-0.2310360872233701
-4.0495000000000001,0.25949805735627807,-0.18864953360270037
-4.0490000000000004,0.82501732481294365,0.23521600260361142
-4.0484999999999998,1.2091436196894509,0.76504792286274437
-4.048,0.5689331282290746,1.1783168206638983
-4.0475000000000003,-0.049937013515955697,1.2207033742845295
-4.0469999999999997,0.088775259633646908,1.0193672445858764
-4.0465,0.40888050536383502,0.45774540911251305
-4.0460000000000003,0.61161382765962069,-0.12506970317116572
-4.0454999999999997,0.65429452709046787,-0.52774196256825101
-4.0449999999999999,0.57960330308675734,-0.73967473067140688
-4.0445000000000002,0.44089102993688295,-0.76086800748174177
-4.0439999999999996,0.33418928136009535,-0.69728817705078538
-4.0434999999999999,0.3768699807907871,-0.75027136907657432
-4.0430000000000001,0.35552963107542179,-0.64430498502489997
-4.0425000000000004,0.28083840707171126,-0.38998566330111289
-4.0419999999999998,0.20614718306786484,-0.10387642636136091
-4.0415000000000001,0.15279630877945163,0.17163617217299235
-4.0410000000000004,0.078105084775741074,0.3835689402761483
-4.0404999999999998,-0.34870190953225355,0.37297230187088448
-4.04,-1.0315931004233216,0.055073149716150585
-4.0395000000000003,-1.5757720181646413,-0.34759910967984564
-4.0389999999999997,-2.1199509359071156,-0.32640583286937586
-4.0385,-2.301343908487556,0.2246193641988295
-4.0380000000000003,-1.5757720181657962,0.47893868592261657
-4.0374999999999996,-0.83952995298453903,0.44714877070722031
-4.0369999999999999,-0.29535103524321932,0.30939247144016896
-4.0365000000000002,0.024754210487259936,0.16103953376782493
-4.0359999999999996,0.17413665849485574,0.023283234500551912
-4.0354999999999999,0.21681735792554749,-0.082683149551026042
-4.0350000000000001,0.20614718306786484,-0.1674562567923655
-4.0345000000000004,0.18480683335251896,-0.22043944881815447
-4.0339999999999998,0.17413665849481691,-0.25222936403370499
-4.0335000000000001,0.17413665849481691,-0.27342264084403983
-4.0330000000000004,0.20614718306783572,-0.28401927924919762
-4.0324999999999998,0.50491207908340585,0.0020899576908434882
-4.032,0.97439977282101498,0.58490506997452218
-4.0315000000000003,0.76099627566755634,1.1465269054478853
-4.0309999999999997,0.11011560934871137,1.5280058880345295
-4.0305,0.099445434491038431,1.6445689104912655
-4.0300000000000002,0.3768699807905348,1.3478630351468472
-4.0294999999999996,0.6116138276598827,0.76504792286175172
-4.0289999999999999,0.69697522652126631,0.086863064931652884
-4.0285000000000002,0.64362435223285308,-0.43237221692155131
-4.0279999999999996,0.52625242879822764,-0.75027136907666103
-4.0274999999999999,0.3982103305061524,-0.84564111472308123
-4.0270000000000001,0.29150858192932599,-0.78206128429207655
-4.0265000000000004,0.20614718306794247,-0.62311170821470963
-4.0259999999999998,0.15279630877945163,-0.36879238649054674
-4.0255000000000001,0.12078578420640371,-0.082683149551026042
-4.0250000000000004,0.11011560934873077,0.17163617217276103
-4.0244999999999997,0.056764735059939092,0.3835689402761579
-4.024,-0.34870190953163249,0.18223281057815977
-4.0235000000000003,-0.96757205127666279,-0.31580919446425659
-4.0229999999999997,-1.5971123678809673,-0.78206128429214405
-4.0225,-2.1092807610492685,-0.85623775312824868
-4.0220000000000002,-2.4934070559254939,-0.20984281041362307
-4.0214999999999996,-1.9172176136102239,0.29879583303506901
-4.0209999999999999,-1.0849439747117349,0.37297230187117358
-4.0205000000000002,-0.4554036581084589,0.26700591781949923
-4.0199999999999996,-0.049937013516334165,0.10805634174185283
-4.0194999999999999,0.15279630877945163,-0.04029659593035631
-4.0190000000000001,0.21681735792554749,-0.14626297998203064
-4.0185000000000004,0.2274875327832204,-0.22043944881813521
-4.0179999999999998,0.19547700821018218,-0.26282600243887239
-4.0175000000000001,0.17413665849481691,-0.29461591765437467
-4.0170000000000003,0.17413665849481691,-0.29461591765437467
-4.0164999999999997,0.18480683335262571,-0.30521255605943609
-4.016,0.32351910650237387,-0.18864953360270037
-4.0155000000000003,0.87836819910136654,0.30939247143971599
-4.0149999999999997,0.98506994767828038,0.80743447648314437
-4.0145,0.52625242879834411,0.92399749893988004
-4.0140000000000002,0.46223137965230643,0.84982103010377552
-4.0134999999999996,0.66496470194834445,0.61669498518960042
-4.0129999999999999,0.80367697509809277,0.15044289536265748
-4.0125000000000002,0.81434714995577528,-0.27342264084403983
-4.0119999999999996,0.69697522652111099,-0.60191843140435553
-4.0114999999999998,0.52625242879834411,-0.73967473067140688
-4.0110000000000001,0.38754015564846972,-0.76086800748174177
-4.0105000000000004,0.33418928136010506,-0.71848145386111051
-4.0099999999999998,0.49424190422529612,-0.78206128429207655
-4.0095000000000001,0.47290155450993088,-0.63370834661973252
-4.0090000000000003,0.36619980593320151,-0.34759910968047208
-4.0084999999999997,0.24882788249852747,-0.040296595930105733
-4.008,0.17413665849481691,0.23521600260399694
-4.0075000000000003,-0.028596663800968897,0.3199891098452593
-4.0069999999999997,-0.65813698040495305,-0.093279787956665722
-4.0065,-1.2343264227192918,-0.61251506980939763
-4.0060000000000002,-1.7251544661726932,-0.792657922697244
-4.0054999999999996,-2.2693333839146144,-0.20984281041237987
-4.0049999999999999,-2.386705307349017,0.51072860113835017
-4.0045000000000002,-1.6077825427381842,0.60609834678485708
-4.0039999999999996,-0.85020012784221211,0.35177902506055919
-4.0034999999999998,-0.29535103524321932,0.044476511310983152
-4.0030000000000001,0.035424385344942577,-0.18864953360270037
-4.0025000000000004,0.1848068333523637,-0.32640583286975172
-4.0019999999999998,0.22748753278323011,-0.38998566330088158
-4.0015000000000001,0.21681735792554749,-0.38998566330088158
-4.0010000000000003,0.19547700821020159,-0.35819574808540822
-4.0004999999999997,0.17413665849481691,-0.30521255605947467
-4,0.17413665849481691,-0.2310360872233701
-3.9994999999999998,0.22748753278323011,-0.12506970317169577
-3.9990000000000001,0.6116138276598051,0.27760255622466667
-3.9984999999999999,1.1451225705439372,0.88161094531921036
-3.9980000000000002,0.82501732481345802,1.3478630351465775
-3.9975000000000001,0.30217875678700862,1.4538294191982519
-3.9969999999999999,0.44089102993688295,1.3478630351465775
-3.9965000000000002,0.64362435223285308,0.93459413734504748
-3.996,0.75032610080967954,0.35177902506083869
-3.9954999999999998,0.73965592595199681,-0.1674562567923655
-3.9950000000000001,0.62228400251748783,-0.51714532416289083
-3.9944999999999999,0.4835717293676135,-0.63370834661973252
-3.9940000000000002,0.34485945621773917,-0.57012851618872795
-3.9935,0.47290155450993088,-0.64430498502489997
-3.9929999999999999,0.52625242879834411,-0.57012851618872795
-3.9925000000000002,0.43022085507920033,-0.28401927924920728
-3.992,0.30217875678700862,0.033879872905815719
-3.9914999999999998,0.19547700821018218,0.31998910984533641
-3.9910000000000001,0.11011560934872107,0.52132523954351762
-3.9904999999999999,-0.27401068552785401,0.43655213230217815
-3.9900000000000002,-0.99958257585027366,-0.019103319120021445
-3.9895,-1.5971123678805015,-0.54893523937839306
-3.9889999999999999,-2.0025790124724421,-0.40058230170604903
-3.9885000000000002,-2.322684258202921,0.27760255622466667
-3.988,-1.7464948158880587,0.52132523954351762
-3.9874999999999998,-0.99958257585027366,0.31998910984533641
-3.9870000000000001,-0.41272295867772835,0.012686596095480854
-3.9864999999999999,-0.039266838658835915,-0.24163272562853755
-3.9860000000000002,0.15279630877945163,-0.41117894011121647
-3.9855,0.21681735792554749,-0.49595204735255594
-3.9849999999999999,0.21681735792554749,-0.51714532416289083
-3.9845000000000002,0.19547700821018218,-0.49595204735255594
-3.984,0.18480683335249956,-0.42177557851638392
-3.9834999999999998,0.19547700821018218,-0.32640583286987701
-3.9830000000000001,0.22748753278323011,-0.22043944881820265
-3.9824999999999999,0.3768699807907871,0.0020899576903134209
-3.9820000000000002,0.55826295337139209,0.5637117931641874
-3.9815,0.16346648363713429,1.1571235438535634
-3.9809999999999999,-0.39138260896236304,1.5597958032499259
-3.9805000000000001,-0.20998963638175816,1.75053529454294
-3.98,0.29150858192932599,1.6127789952757632
-3.9794999999999998,0.65429452709053582,1.0087706061812196
-3.9790000000000001,0.75032610080967954,0.36237566346600614
-3.9784999999999999,0.66496470194821833,-0.050893234335523743
-3.9780000000000002,0.53692260365602662,-0.27342264084403983
-3.9775,0.38754015564846972,-0.30521255605954212
-3.9769999999999999,0.27016823221396069,-0.1674562567923655
-3.9765000000000001,0.20614718306786484,0.0020899576903134209
-3.976,0.16346648363713429,0.17163617217299235
-3.9754999999999998,0.14212613392176898,0.30939247144016896
-3.9750000000000001,0.12078578420640371,0.42595549389701071
-3.9744999999999999,0.067434909917990504,0.46834204751768049
-3.9740000000000002,-0.33803173467394987,0.12924961855232261
-3.9735,-1.0209229255656389,-0.55953187778356051
-3.9729999999999999,-1.6291228924535495,-1.1741369052832717
-3.9725000000000001,-2.1199509359069508,-1.5132293342486296
-3.972,-2.5040772307835262,-1.0045906908005926
-3.9714999999999998,-2.0025790124724421,-0.32640583286987701
-3.9710000000000001,-1.1489650238578306,-0.050893234335523743
-3.9704999999999999,-0.4980843575391895,-0.029699957525188878
-3.9700000000000002,-0.071277363231883828,-0.13566634157686319
-3.9695,0.14212613392176898,-0.27342264084403983
-3.9689999999999999,0.21681735792554749,-0.40058230170604903
-3.9685000000000001,0.22748753278323011,-0.49595204735255594
-3.968,0.20614718306786484,-0.57012851618872795
-3.9674999999999998,0.18480683335249956,-0.59132179299906285
-3.9670000000000001,0.17413665849481691,-0.5807251545938954
-3.9664999999999999,0.19547700821018218,-0.52774196256805828
-3.9660000000000002,0.31284893164469124,-0.40058230170604903
-3.9655,0.857027849386506,0.17163617217299235
-3.9649999999999999,0.84635767452882327,0.90280422212954525
-3.9645000000000001,0.05676473506030786,1.4008462271724147
-3.964,-0.08194753808956648,1.3160731199310751
-3.9634999999999998,0.31284893164469124,1.2101067358794007
-3.9630000000000001,0.65429452709053582,0.78624119967270345
-3.9624999999999999,0.78233662538272752,0.21402272579366208
-3.9620000000000002,0.73965592595199681,-0.18864953360270037
-3.9615,0.60094365280212259,-0.3581957480853793
-3.9609999999999999,0.44089102993688295,-0.37938902489571413
-3.9605000000000001,0.29150858192932599,-0.34759910968021185
-3.96,0.22748753278323011,-0.49595204735255594
-3.9594999999999998,0.19547700821018218,-0.37938902489571413
-3.9590000000000001,0.15279630877945163,-0.10387642636136091
-3.9584999999999999,0.13145595906408636,0.18223281057815977
-3.9580000000000002,0.12078578420640371,0.42595549389701071
-3.9575,0.0034138607718946501,0.55311515475901996
-3.9569999999999999,-0.51942470725455481,0.34118238665567124
-3.9565000000000001,-1.1596351987155133,-0.22043944881820265
-3.956,-1.6611334170265974,-0.75027136907657432
-3.9554999999999998,-2.151961460479999,-0.57012851618872795
-3.9550000000000001,-2.0666000616185376,0.033879872905815719
-3.9544999999999999,-1.3303579964384356,0.26700591781949923
-3.9540000000000002,-0.66880715526211176,0.23521600260399694
-3.9535,-0.18864928666639288,0.097459703336820316
-3.9529999999999998,0.08877525963335578,-0.061489872740691176
-3.9525000000000001,0.19547700821018218,-0.20984281041303524
-3.952,0.22748753278323011,-0.33700247127504446
-3.9514999999999998,0.20614718306786484,-0.43237221692155131
-3.9510000000000001,0.18480683335249956,-0.49595204735255594
-3.9504999999999999,0.17413665849481691,-0.52774196256805828
-3.9500000000000002,0.17413665849481691,-0.52774196256805828
-3.9495,0.21681735792554749,-0.47475877054222104
-3.9489999999999998,0.60094365280212259,-0.10387642636136091
-3.9485000000000001,1.0597611716824762,0.60609834678485708
-3.948,0.57960330308675734,1.2524932895000704
-3.9474999999999998,-0.0072563140857879876,1.2207033742845681
-3.9470000000000001,0.21681735792554749,0.60609834678485708
-3.9464999999999999,0.5689331282290746,0.26700591781949923
-3.9460000000000002,0.77166645052504479,-0.061489872740691176
-3.9455,0.77166645052504479,-0.22043944881820265
-3.9449999999999998,0.63295417737517057,-0.2310360872233701
-3.9445000000000001,0.47290155450993088,-0.19924617200786782
-3.944,0.33418928136005654,-0.1674562567923655
-3.9434999999999998,0.35552963107542179,-0.28401927924920728
-3.9430000000000001,0.3768699807907871,-0.29461591765437467
-3.9424999999999999,0.31284893164469124,-0.13566634157686319
-3.9420000000000002,0.22748753278323011,0.065669788121318018
-3.9415,0.17413665849481691,0.23521600260399694
-3.9409999999999998,0.08877525963335578,0.34118238665567124
-3.9405000000000001,-0.34870190953163249,0.27760255622466667
-3.9399999999999999,-1.0636036249963696,-0.082683149551026042
-3.9394999999999998,-1.6397930673112322,-0.6972881770507372
-3.9390000000000001,-2.1733018101953641,-0.94101086036958814
-3.9384999999999999,-2.4400561816374302,-0.3581957480853793
-3.9380000000000002,-1.7251544661726932,0.012686596095480854
-3.9375,-0.93556152670417769,0.033879872905815719
-3.9369999999999998,-0.34870190953163249,-0.093279787956193475
-3.9365000000000001,0.0034138607718946501,-0.24163272562853755
-3.9359999999999999,0.17413665849481691,-0.3581957480853793
-3.9355000000000002,0.22748753278323011,-0.44296885532671876
-3.9350000000000001,0.22748753278323011,-0.48535540894738849
-3.9344999999999999,0.19547700821018218,-0.49595204735255594
-3.9340000000000002,0.18480683335249956,-0.4641621321370536
-3.9335,0.18480683335249956,-0.42177557851638392
-3.9329999999999998,0.19547700821018218,-0.3581957480853793
-3.9325000000000001,0.38754015564846972,-0.15685961838719809
-3.9319999999999999,1.1024418711132067,0.45774540911251305
-3.9315000000000002,1.9133751602970874,1.1253336286380615
-3.931,2.3828628540351238,1.5915857184654283
-3.9304999999999999,2.5109049523273153,1.8141151249739442
-3.9300000000000002,2.2121400563122013,1.5068126112240887
-3.9295,1.6999716631434345,0.7968378380778709
-3.9289999999999998,1.1878032699746677,0.097459703336820316
