Class_5_Move_Left_hand_Horiszontal/Class_5_Move_Left_Hand_Horizontal_Zakour_9.csv

#Digilent WaveForms Oscilloscope Acquisition
#Device Name: EExplorer
#Serial Number: SN:210151A2B84A
#Date Time: 2021-01-28 09:51:04.849
#Sample rate: 2000Hz
#Samples: 16384
#Trigger: Source: Channel 1 Type: Edge Condition: Rising Level: 0 V Hyst.: Auto HoldOff: 0 s
#Channel 1: Range: 1 V/div Offset: 0 V Attenuation: 1 X
#Channel 2: Range: 1 V/div Offset: 0 V Attenuation: 1 X
#Power Supplies: ON
#Fixed Supply: ON
#Voltage: 3.3 V Readback: 3.33 V
#Positive Supply: ON
#Voltage: 3.7 V Readback: 3.713 V
#Current: 40 mA Readback: 20 mA
#Negative Supply: ON
#Voltage: -3.7 V Readback: -3.352 V
#Current: -40 mA Readback: -8 mA
#Reference 1: ON
#Voltage: 0 V
#Reference 2: ON
#Voltage: 0 V

Time (s),Channel 1 (V),Channel 2 (V)
-4.096,0.02475421048725994,-0.5065486857577234
-4.0955,-0.1779791118085259,-0.3899856633009876
-4.095,-0.2420001609547867,0.05507314971659391
-4.0945,-0.2206598112394408,0.5425185163538525
-4.094,-0.188649286666422,0.9451907757498488
-4.0935,-0.1459685872356623,1.220703374284684
-4.093,-0.1459685872356623,1.347863035146577
-4.0925,-0.2846808603854105,1.051157159802159
-4.092,-0.5727755815433465,0.4047622170860783
-4.0915,-0.9889124009925911,-0.252229364033705
-4.091,-1.362368521011484,-0.4217755785163839
-4.0905,-0.668807155260986,0.1504428953633707
-4.09,0.5689331282290746,0.9345941373450475
-4.0895,1.635950613997339,1.528005888034424
-4.089,1.60394008942432,1.231300012690005
-4.0885,0.3875401556484697,0.1080563417419877
-4.088,-0.9462317015618604,-1.004590690800593
-4.0875,-1.607782542737583,-1.629792356704902
-4.087,-1.394379045584075,-1.714565463946705
-4.0865,-0.8928808272734472,-1.598002441489969
-4.086,-0.4127229586781651,-1.396666311791971
-4.0855,-0.0819475380895956,-1.280103289334975
-4.085,-0.1139580626626144,-1.311893204550448
-4.0845,-0.177979111808652,-1.184733543688555
-4.084,-0.1673089369510082,-0.9622041371797205
-4.0835,-0.1459685872356623,-0.7396747306714069
-4.083,-0.1032878878049318,-0.5171453241628908
-4.0825,0.3661998059338711,0.002089957691007327
-4.082,1.209143619690033,0.7650479228623686
-4.0815,1.966726034585501,1.42203950398275
-4.081,2.329511979746381,1.729342017732326
-4.0805,1.539919040278195,0.9981739677760521
-4.08,0.5902734779444399,0.1186529801471552
-4.0795,0.03542438534544712,-0.1144730647663163
-4.079,-0.2099896363818164,0.03387987290608557
-4.0785,-0.274010685527854,0.3305857482505039
-4.078,-0.2526703358125081,0.6378882620000799
-4.0775,-0.1993194615240367,0.9134008605348958
-4.077,-0.156638762093345,1.114736990232894
-4.0765,-0.1352984123779991,1.241896651094787
-4.076,-0.1993194615242502,1.114736990232441
-4.0755,-0.391382608962363,0.6166949851900245
-4.075,-0.8288597781273515,-0.04029659593035631
-4.0745,-1.426389570157337,-0.4747587705419801
-4.074,-1.159635198715513,-0.2098428104130352
-4.0735,0.04609456020262521,0.5637117931641874
-4.073,1.26249449397734,1.305476481525233
-4.0725,1.753322537431848,1.42203950398275
-4.072,0.8036769750980928,0.4683420475176805
-4.0715,-0.5621054066840432,-0.6866915386445194
-4.071,-1.575772018165204,-1.513229334248755
-4.0705,-1.650463242168915,-1.650985633515806
-4.07,-1.191645723288978,-1.43905286541265
-4.0695,-0.6367966306886368,-1.205926820498707
-4.069,-0.1673089369510276,-1.131750351662602
-4.0685,-0.04993701351651855,-1.184733543688439
-4.068,-0.1459685872356817,-1.184733543688275
-4.0675,-0.1673089369510276,-1.004590690800593
-4.067,-0.156638762093345,-0.792657922697244
-4.0665,-0.1352984123777177,-0.601918431403893
-4.066,0.1527963087794516,-0.2310360872233701
-4.0655,0.942389248247967,0.5107286011383502
-4.065,1.75332253743111,1.252493289499396
-4.0645,2.308171630031345,1.761131932948107
-4.064,1.838683936293309,1.411442865577582
-4.0635,0.4835717293688462,0.2881991946308557
-4.063,-0.370042259247221,-0.5171453241629969
-4.0625,-0.6154562809736985,-0.6337083466197325
-4.062,-0.5621054066853338,-0.2734226408443675
-4.0615,-0.4127229586775925,0.2776025562251293
-4.061,-0.2633405106701714,0.7862411996727035
-4.0605,-0.1673089369510276,1.146526905448396
-4.06,-0.1139580626626435,1.347863035146568
-4.0595,-0.1459685872356623,1.33726639674141
-4.059,-0.3273615598162672,0.8816109453192104
-4.0585,-0.6261264558311095,0.1928294489839536
-4.058,-1.116954499284783,-0.3793890248957141
-4.0575,-1.255666772434657,-0.3370024712750445
-4.057,-0.2846808603864197,0.3305857482498966
-4.0565,0.942389248247967,1.082947075017392
-4.056,1.796003236862578,1.496215972818921
-4.0555,1.251824319121259,0.8604176685094537
-4.055,-0.09261771294839426,-0.2946159176552999
-4.0545,-1.351698346153801,-1.311893204550448
-4.054,-2.322684258202038,-2.117237723342441
-4.0535,-2.376035132490616,-2.191414192178786
-4.053,-1.586442193022819,-1.576809164679634
-4.0525,-0.8502001278427167,-1.174136905283272
-4.052,-0.3593720843892375,-1.004590690800573
-4.0515,-0.274010685527854,-0.9833974139902578
-4.051,-0.1993194615240755,-0.8774310299385835
-4.0505,-0.1352984123780379,-0.75027136907669
-4.05,-0.1032878878049318,-0.6443049850249
-4.0495,0.04609456020262521,-0.474758770542221
-4.049,0.7289857510936932,0.1292496185517733
-4.0485,1.561259389994152,0.8498210301042285
-4.048,2.212140056312201,1.42203950398275
-4.0475,2.286831280315912,1.517409249629169
-4.047,1.497238340846766,0.7544512844565072
-4.0465,0.7289857510943143,-0.008506680714854012
-4.046,0.2061471830683403,-0.4641621321366392
-4.0455,-0.08194753808966353,-0.4429688553264103
-4.045,-0.1886492866663929,-0.1038764263613609
-4.0445,-0.2099896363817582,0.2987958330350016
-4.044,-0.1886492866663638,0.6590815388109351
-4.0435,-0.156638762093345,0.92399749893988
-4.043,-0.1459685872356623,1.082947075017392
-4.0425,-0.2633405106700646,0.8816109453193934
-4.042,-0.5834457564006506,0.3199891098453364
-4.0415,-1.127624674142465,-0.2946159176543747
-4.041,-1.479740444445672,-0.4535654937317417
-4.0405,-0.7114878546916777,0.1080563417427202
-4.04,0.5689331282290746,0.9134008605347127
-4.0395,1.646620788854041,1.538602526439022
-4.039,1.62528043913854,1.252493289499059
-4.0385,0.3982103305061524,0.13984625695749
-4.038,-0.9569018764183106,-0.9833974139892361
-4.0375,-2.00257901247252,-1.831128486403768
-4.037,-2.087940411333903,-1.958288147265661
-4.0365,-1.415719395299897,-1.449649503817625
-4.036,-0.7328282044077611,-0.9410108603692797
-4.0355,-0.2420001609548061,-0.6019184314042303
-4.035,-0.1993194615240755,-0.570128516188728
-4.0345,-0.1993194615240755,-0.4959520473526234
-4.034,-0.1673089369510276,-0.3899856633008816
-4.0335,-0.1352984123779797,-0.2840192792492073
-4.033,-0.07127736323194206,-0.1886495336027871
-4.0325,0.4408910299376496,0.1928294489838958
-4.032,1.283834843693812,0.8180311148882058
-4.0315,2.020076908873244,1.369056311956411
-4.031,2.340182154603549,1.602182356869883
-4.0305,1.411876941986003,0.8180311148882058
-4.03,0.07810508477688627,-0.3264058328688362
-4.0295,-0.5621054066853727,-1.00459069080066
-4.029,-0.658136980404429,-1.078767159636765
-4.0285,-0.5407650569699201,-0.6972881770507372
-4.028,-0.3700422592468716,-0.1356663415764199
-4.0275,-0.2313299860971235,0.3517790250608387
-4.027,-0.1459685872356623,0.701468092431364
-4.0265,-0.1139580626626435,0.9028042221293622
-4.026,-0.1886492866663929,0.7968378380778709
-4.0255,-0.4554036581084589,0.2458126410091644
-4.025,-0.8822106524153763,-0.4323722169209345
-4.0245,-1.426389570157356,-0.7926579226968585
-4.024,-1.180975548430879,-0.3687923864905467
-4.0235,0.003413860770817623,0.5001319627323926
-4.023,1.241154144263547,1.284283204715727
-4.0225,1.753322537431848,1.453829419198252
-4.022,0.8356874996719753,0.5213252395443657
-4.0215,-0.5300948821132174,-0.6443049850256999
-4.021,-1.607782542738184,-1.523825972653797
-4.0205,-1.735824641030376,-1.693372187136476
-4.02,-1.24499659757646,-1.396666311791489
-4.0195,-0.6794773301197943,-1.068170521231597
-4.019,-0.2099896363817582,-0.792657922697244
-4.0185,-0.1459685872357206,-0.7502713690766128
-4.018,-0.274010685527854,-0.7290780922662394
-4.0175,-0.2633405106701714,-0.5595318777835605
-4.017,-0.2099896363818067,-0.379389024895878
-4.0165,-0.1459685872354003,-0.2522293640334544
-4.016,0.142126133921769,0.02328323450064829
-4.0155,0.9317190733895664,0.6272916235946426
-4.015,1.753322537432362,1.220703374284954
-4.0145,2.318841804889028,1.644568910491266
-4.014,1.988066384301167,1.273686566310743
-4.0135,1.134452395685643,0.5319218779483188
-4.013,0.4622313796522482,0.1292496185523226
-4.0125,0.04609456020262521,0.03387987290581572
-4.012,-0.1459685872357206,0.1186529801473094
-4.0115,-0.2099896363817582,0.2881991946298341
-4.011,-0.1993194615240755,0.4789386859228479
-4.0105,-0.1673089369510567,0.6590815388105303
-4.01,-0.1459685872356623,0.8074344764830383
-4.0095,-0.156638762093345,0.849821030103708
-4.009,-0.3487019095314578,0.4683420475180274
-4.0085,-0.6581369804049531,-0.125069703172168
-4.008,-1.234326422719292,-0.6443049850249
-4.0075,-1.319687821580675,-0.4959520473526908
-4.007,-0.2953510352420742,0.2776025562254281
-4.0065,0.9637295979633325,1.114736990232894
-4.006,1.817343586577944,1.591585718465428
-4.0055,1.262494493977214,0.9769806909646475
-4.005,-0.09261771294724913,-0.1992461720078678
-4.0045,-1.362368521011484,-1.258910012524611
-4.004,-2.20531233476816,-1.926498232050043
-4.0035,-1.927887788468663,-1.79933857118815
-4.003,-1.180975548430879,-1.42845622700729
-4.0025,-0.5407650569705024,-1.046977244421609
-4.002,-0.1779791118087102,-0.8456411147230812
-4.0015,-0.1993194615240755,-0.792657922697244
-4.001,-0.1993194615240755,-0.6125150698095615
-4.0005,-0.1566387620933158,-0.4005823017059045
-4,-0.124628237520297,-0.2416327256285375
-3.9995,0.02475421048725994,-0.06148987274069118
-3.999,0.7183155762366316,0.4365521323021782
-3.9985,1.56125938999356,1.019367244586387
-3.998,2.212140056312201,1.496215972818921
-3.9975,2.180129531739154,1.443232780793084
-3.997,1.241154144263081,0.5001319627331828
-3.9965,0.4729015545099309,-0.1886495336027004
-3.996,0.02475421048725994,-0.3687923864905467
-3.9955,-0.1779791118087102,-0.2098428104130352
-3.995,-0.2313299860971235,0.07626642652648545
-3.9945,-0.2206598112394408,0.3729723018711736
-3.994,-0.1779791118087102,0.6060983467848571
-3.9935,-0.1459685872356623,0.7862411996727035
-3.993,-0.1459685872356623,0.8710143069140429
-3.9925,-0.2953510352432193,0.5849050699745222
-3.992,-0.5834457564006506,-0.05089323433552374
-3.9915,-0.9995825758502737,-0.6760949002404023
-3.991,-1.362368521011484,-0.6866915386455698
-3.9905,-0.6047861061160158,0.1080563417419877
-3.99,0.6436243522328531,0.9981739677760521
-3.9895,1.689301488285752,1.602182356870596
-3.989,1.582599739708926,1.284283204715573
-3.9885,0.3341892813600565,0.1504428953626575
-3.988,-1.010252750707956,-0.9939940523954253
-3.9875,-2.087940411333903,-1.852321763213987
-3.987,-2.301343908487556,-2.085447808127671
-3.9865,-1.533091318734406,-1.566212526274467
-3.986,-0.7434983792658902,-0.9833974139902578
-3.9855,-0.2206598112394408,-0.5277419625680583
-3.985,-0.1352984123779797,-0.4217755785163839
-3.9845,-0.1352984123779797,-0.326405832869877
-3.984,-0.1139580626626144,-0.2416327256285375
-3.9835,-0.1032878878049318,-0.1674562567923655
-3.983,-0.04993701351651855,-0.1038764263613609
-3.9825,0.4408910299368829,0.2458126410091644
-3.982,1.283834843693812,0.8074344764830383
-3.9815,2.020076908873914,1.305476481525908
-3.981,2.340182154604393,1.517409249629256
-3.9805,1.51857869056283,0.7862411996727035
-3.98,0.5689331282290746,-0.1462629799820306
-3.9795,0.02475421048725994,-0.4535654937318862
-3.979,-0.2099896363817582,-0.3158091944647096
-3.9785,-0.274010685527854,-0.01910331912002144
-3.978,-0.2420001609548061,0.2881991946298341
-3.9775,-0.1993194615240755,0.5425185163538525
-3.977,-0.1459685872356623,0.7438546460520338
-3.9765,-0.1352984123779797,0.8710143069140429
-3.976,-0.1993194615240755,0.7544512844572011
-3.9755,-0.4447334832507763,0.2140227257936621
-3.975,-0.8181896032696687,-0.4429688553267188
-3.9745,-1.341028171296118,-0.7714646458869092
-3.974,-0.9889124009925911,-0.1886495336027004
-3.9735,0.1954770082101822,0.7120647308365314
-3.973,1.369196242555273,1.443232780793084
-3.9725,1.796003236862578,1.496215972818921
-3.972,0.8036769750980928,0.5001319627331828
-3.9715,-0.5834457564006506,-0.6760949002404023
-3.971,-1.746494815888059,-1.619195718300304
-3.9705,-2.376035132491334,-2.117237723343173
-3.97,-1.821186039891837,-1.703968825541643
-3.9695,-1.06360362499637,-1.205926820498774
-3.969,-0.423393133535411,-0.792657922697244
-3.9685,-0.1673089369510276,-0.6231117082145651
-3.968,-0.1459685872356623,-0.5489352393783931
-3.9675,-0.1139580626626144,-0.400582301706049
-3.967,-0.09261771294724913,-0.2734226408440398
-3.9665,-0.08194753808956648,-0.1674562567923655
-3.966,0.2168173579255475,0.07626642652648545
-3.9655,1.006410297394063,0.6166949851900245
-3.965,1.806673411720261,1.146526905448396
-3.9645,2.340182154604393,1.538602526439591
-3.964,1.945385684870135,1.167720182258731
-3.9635,1.091771696255524,0.4789386859228479
-3.963,0.4302208550792003,0.09745970333682032
-3.9625,0.02475421048725994,-0.01910331912002144
-3.962,-0.156638762093345,0.04447651131098315
-3.9615,-0.2099896363817582,0.2034260873884947
-3.961,-0.1993194615240755,0.3941655786815084
-3.9605,-0.1673089369510276,0.5743084315693548
-3.96,-0.1459685872356623,0.7332580076468663
-3.9595,-0.1673089369510276,0.7650479228623686
-3.959,-0.3380317346739499,0.3729723018711736
-3.9585,-0.6154562809736985,-0.2204394488182027
-3.958,-1.020922925565639,-0.7502713690765743
-3.9575,-1.095614149569417,-0.7290780922662394
-3.957,-0.124628237520297,0.04447651131098315
-3.9565,1.070431346540159,0.9451907757502149
-3.956,1.838683936293309,1.464426057603419
-3.9555,1.19847344483235,0.849821030103708
-3.955,-0.1673089369510276,-0.3052125560595421
-3.9545,-1.394379045584531,-1.311893204550448
-3.954,-1.83185621474952,-1.703968825541643
-3.9535,-1.415719395299897,-1.439052865412457
-3.953,-0.8288597781273515,-1.0999604364471
-3.9525,-0.3273615598162672,-0.7608680074817418
-3.952,-0.09261771294724913,-0.5277419625680583
-3.9515,-0.1459685872356623,-0.4959520473525559
-3.951,-0.1673089369510276,-0.3899856633008816
-3.9505,-0.1459685872356623,-0.2840192792492073
-3.95,-0.124628237520297,-0.1992461720078678
-3.9495,0.03542438534494258,-0.06148987274069118
-3.949,0.7183155762366316,0.4047622170866759
-3.9485,1.571929564851243,0.9769806909657173
-3.948,2.222810231169884,1.443232780793084
-3.9475,2.180129531739154,1.390249588767247
-3.947,1.134452395686255,0.4153588554918433
-3.9465,0.3128489316446912,-0.4217755785163839
-3.946,-0.1139580626626144,-0.8032545611024114
-3.9455,-0.2633405106701714,-0.7714646458869092
-3.945,-0.274010685527854,-0.3899856633008816
-3.9445,-0.2313299860971235,0.06566978812131802
-3.944,-0.1779791118087102,0.457745409112513
-3.9435,-0.1459685872356623,0.7332580076468663
-3.943,-0.1352984123779797,0.8710143069140429
-3.9425,-0.2633405106701714,0.6166949851900245
-3.942,-0.5087545323968721,0.02328323450064829
-3.9415,-0.9995825758502737,-0.6125150698093976
-3.941,-1.447729919872945,-0.8668343915334161
-3.9405,-0.7648387289812555,-0.3052125560595421
-3.94,0.5049120790829789,0.6166949851900245
-3.9395,1.582599739708926,1.347863035146577
-3.939,1.507908515705147,1.114736990232894
-3.9385,0.291508581929326,0.04447651131098315
-3.938,-1.031593100423322,-1.036380606016095
-3.9375,-1.970568487899394,-1.820531847998485
-3.937,-1.87453691418025,-1.820531847998485
-3.9365,-1.244996597576974,-1.333086481360783
-3.936,-0.6261264558313813,-0.8032545611024114
-3.9355,-0.1886492866663929,-0.4323722169215513
-3.935,-0.1886492866663929,-0.4323722169215513
-3.9345,-0.2099896363817582,-0.400582301706049
-3.934,-0.1886492866663929,-0.3052125560595421
-3.9335,-0.1459685872356623,-0.2204394488182027
-3.933,-0.08194753808956648,-0.1462629799820306
-3.9325,0.4195506802215176,0.2034260873884947
-3.932,1.262494493978446,0.7544512844572011
-3.9315,2.009406734016231,1.25249328950007
-3.931,2.329511979746711,1.464426057603419
-3.9305,1.56125938999356,0.7120647308365314
-3.93,0.6756348768059011,-0.1356663415768632
-3.9295,0.1207857842064037,-0.3793890248957141
-3.929,-0.1459685872356623,-0.2734226408440398
-3.9285,-0.2313299860971235,-0.01910331912002144
-3.928,-0.2313299860971235,0.2458126410091644
-3.9275,-0.1886492866663929,0.4789386859228479
-3.927,-0.156638762093345,0.6590815388106942
-3.9265,-0.1352984123779797,0.7862411996727035
-3.926,-0.2206598112394408,0.6484849004055269
-3.9255,-0.4554036581084589,0.1186529801471552
-3.925,-0.7755089038389382,-0.5065486857577234
-3.9245,-1.255666772434657,-0.8668343915334161
-3.924,-0.9462317015618604,-0.474758770542221
-3.9235,0.2061471830678648,0.4153588554918433
-3.923,1.369196242555273,1.241896651094903
-3.9225,1.742652362574165,1.390249588767247
-3.922,0.7289857510943143,0.4471487707073456
-3.9215,-0.6474668055467465,-0.6972881770507372
-3.921,-1.799845690176472,-1.619195718300304
-3.9205,-2.44005618163743,-2.180817553774178
-3.92,-1.83185621474952,-1.735758740757146
-3.9195,-1.042263275281004,-1.089363798041932
-3.919,-0.423393133535411,-0.570128516188728
-3.9185,-0.2099896363817582,-0.4111789401112165
-3.918,-0.2099896363817582,-0.400582301706049
-3.9175,-0.1779791118087102,-0.2946159176543747
-3.917,-0.1352984123779797,-0.2098428104130352
-3.9165,-0.09261771294724913,-0.1462629799820306
-3.916,0.2168173579255475,0.07626642652648545
-3.9155,1.027750647109428,0.6060983467848571
-3.915,1.828013761435626,1.125333628638062
-3.9145,2.340182154604393,1.496215972818921
-3.914,1.838683936293309,1.029963882991555
-3.9135,0.8143471499557753,0.1080563417419877
-3.913,0.1634664836371343,-0.2946159176543747
-3.9125,-0.156638762093345,-0.3052125560595421
-3.912,-0.2633405106701714,-0.1250697031716958
-3.9115,-0.2526703358124887,0.1186529801471552
-3.911,-0.2099896363817582,0.3411823866556712
-3.9105,-0.156638762093345,0.5319218779486851
-3.91,-0.124628237520297,0.6802748156210291
-3.9095,-0.156638762093345,0.701468092431364
-3.909,-0.3380317346739499,0.309392471440169
-3.9085,-0.6688071552621118,-0.326405832869877
-3.908,-1.212986073003927,-0.8562377531282487
-3.9075,-1.255666772434657,-0.6866915386455698
-3.907,-0.1993194615240755,0.1610395337678249
-3.9065,1.038420821967111,1.051157159801889
-3.906,1.828013761435626,1.559795803249926
-3.9055,1.219813794547716,0.9451907757502149
-3.905,-0.1459685872356623,-0.2204394488182027
-3.9045,-1.394379045584531,-1.269506650929778
-3.904,-1.981238662757077,-1.79933857118815
-3.9035,-1.607782542738184,-1.492036057438295
-3.903,-0.9995825758502737,-0.9833974139902578
-3.9025,-0.4447334832507763,-0.6549016234300674
-3.902,-0.1673089369510276,-0.4429688553267188
-3.9015,-0.2313299860971235,-0.4429688553267188
-3.901,-0.2206598112394408,-0.3581957480853793
-3.9005,-0.1779791118087102,-0.2628260024388724
-3.9,-0.1352984123779797,-0.1780528951975329
-3.8995,0.02475421048725994,-0.02969995752518888
-3.899,0.7183155762366316,0.4683420475176805
-3.8985,1.571929564851243,1.029963882991555
-3.898,2.222810231169884,1.496215972818921
-3.8975,2.190799706596836,1.453829419198252
-3.897,1.145122570543937,0.4683420475176805
-3.8965,0.3235191065023739,-0.4323722169215513
-3.896,-0.1032878878049318,-0.7608680074817418
-3.8955,-0.2633405106701714,-0.6019184314042303
-3.895,-0.274010685527854,-0.1886495336027004
-3.8945,-0.2313299860971235,0.2352160026039969
-3.894,-0.1779791118087102,0.5743084315693548
-3.8935,-0.1352984123779797,0.8074344764830383
-3.893,-0.1352984123779797,0.8922075837243778
-3.8925,-0.2846808603855366,0.5743084315693548
-3.892,-0.5621054066852853,-0.08268314955102604
-3.8915,-1.084943974711735,-0.718481453861072
-3.891,-1.437059745015262,-0.7396747306714069
-3.8905,-0.6154562809736985,0.01268659609548085
-3.89,0.6649647019482183,0.9134008605347127
-3.8895,1.710641838001117,1.549199164844759
-3.889,1.593269914566608,1.220703374284568
-3.8885,0.3341892813600565,0.08686306493165288
-3.888,-1.010252750707956,-1.025783967610927
-3.8875,-1.863866739322568,-1.767548655972648
-3.887,-1.735824641030376,-1.640388995110639
