Class_5_Move_Left_hand_Horiszontal/Class_5_Move_Left_hand_Horiszontal_SH_8.csv

#Digilent WaveForms Oscilloscope Acquisition
#Device Name: EExplorer
#Serial Number: SN:210151A2B84A
#Date Time: 2020-12-22 11:47:49.452
#Sample rate: 2000Hz
#Samples: 16384
#Trigger: Source: Channel 1 Type: Edge Condition: Rising Level: 0 V Hyst.: Auto HoldOff: 0 s
#Channel 1: Range: 1 V/div Offset: 0 V Attenuation: 1 X
#Channel 2: Range: 1 V/div Offset: 0 V Attenuation: 1 X
#Power Supplies: ON
#Fixed Supply: ON
#Voltage: 3.3 V Readback: 3.319 V
#Positive Supply: ON
#Voltage: 3.7 V Readback: 3.67 V
#Current: 40 mA Readback: 18 mA
#Negative Supply: ON
#Voltage: -3.7 V Readback: -4.06 V
#Current: -40 mA Readback: -7 mA
#Reference 1: ON
#Voltage: 0 V
#Reference 2: ON
#Voltage: 0 V

Time (s),Channel 1 (V),Channel 2 (V)
-4.096,1.582599739708926,-2.265590661015517
-4.0955,1.145122570544335,-2.074851169722677
-4.095,0.7289857510940717,-1.110557074851371
-4.0945,0.4622313796522482,-0.1250697031716958
-4.094,0.334189281360173,0.5955017083790343
-4.0935,0.291508581929326,0.9981739677762159
-4.093,0.291508581929326,1.178316820663898
-4.0925,0.3021787567869989,1.210106735879372
-4.092,0.3235191065023836,1.157123543853486
-4.0915,0.3341892813600565,1.072350436612224
-4.091,0.3341892813600565,0.9769806909657173
-4.0905,0.3448594562177392,0.8922075837243103
-4.09,0.3448594562177392,0.8180311148882058
-4.0895,0.3448594562177392,0.7650479228623686
-4.089,0.6756348768056002,1.019367244586156
-4.0885,1.219813794547716,1.104140351827727
-4.088,0.9317190733902845,0.3411823866556712
-4.0875,0.2488278824992165,-0.4959520473517945
-4.087,-0.1673089369510567,-0.5807251545935966
-4.0865,-0.1993194615240755,-0.252229364033705
-4.086,-0.04993701351665442,0.0762664265261867
-4.0855,0.08877525963345283,0.2776025562247341
-4.085,0.1954770082101822,0.3517790250608387
-4.0845,0.06743490991810697,0.1186529801473672
-4.084,-0.1993194615241823,-0.2734226408442036
-4.0835,-0.3166913849585846,-0.4535654937318862
-4.083,-0.1352984123779797,-0.2840192792492073
-4.0825,0.0460945602028193,-0.0614898727404406
-4.082,0.2594980573562781,0.2140227257936621
-4.0815,0.3341892813600565,0.3729723018711736
-4.081,0.4088805053637671,0.3093924714402268
-4.0805,0.8997085488172365,-0.474758770542221
-4.08,1.497238340847464,-1.42845622700729
-4.0795,1.273164668836333,-2.106641084937389
-4.079,0.4515612047941386,-2.35036376825623
-4.0785,-0.01792648894347063,-1.661582271920973
-4.078,-0.08194753808950825,-0.5913217930000363
-4.0775,0.01408403562968404,0.2987958330355124
-4.077,0.1314559590640864,0.8604176685088755
-4.0765,0.2381577076408157,1.135930267042978
-4.076,0.3021787567870377,1.210106735879362
-4.0755,0.3341892813600565,1.167720182258731
-4.075,0.3448594562177392,1.072350436612224
-4.0745,0.3448594562177295,0.955787414155286
-4.074,0.3341892813600565,0.849821030103708
-4.0735,0.3341892813600565,0.7544512844572011
-4.073,0.3235191065023836,0.71206473083657
-4.0725,0.1527963087794516,0.6802748156210291
-4.072,-0.4980843575391895,0.05507314971615059
-4.0715,-0.8075194284117045,-0.7820612842913152
-4.071,-0.8288597781272059,-1.311893204550188
-4.0705,-0.6688071552621118,-1.025783967610927
-4.07,-0.3487019095319236,-0.48535540894788
-4.0695,-0.03926683865867094,-0.0720865111455984
-4.069,0.142126133921769,0.2140227257936621
-4.0685,0.2274875327832301,0.2881991946298341
-4.068,0.2915085819293648,0.235216002603968
-4.0675,0.3341892813600565,0.2034260873884947
-4.067,0.1741366584948169,-0.01910331912002144
-4.0665,-0.1352984123782514,-0.3475991096804528
-4.066,-0.4340633083930936,-0.6125150698093976
-4.0655,-0.2206598112394408,-0.326405832869877
-4.065,-0.02859666380132797,-0.05089323433577431
-4.0645,0.2168173579255475,0.2670059178194992
-4.064,0.6222840025174878,0.7120647308365314
-4.0635,1.315845368266229,0.6060983467849534
-4.063,1.326515543123902,-0.2628260024397783
-4.0625,0.6222840025174878,-1.258910012524611
-4.062,0.1848068333528975,-1.703968825541238
-4.0615,0.0887752596333946,-1.174136905282549
-4.061,0.1314559590640864,-0.3793890248957141
-4.0605,0.1954770082101822,0.2987958330350016
-4.06,0.2594980573563169,0.7438546460522458
-4.0595,0.3021787567870086,0.9769806909657173
-4.059,0.3128489316446912,1.072350436612224
-4.0585,0.3235191065023642,1.072350436612224
-4.058,0.3235191065023739,1.051157159801889
-4.0575,0.3235191065023739,1.00877060618122
-4.057,0.3235191065023739,0.9663840525605883
-4.0565,0.3235191065023739,0.92399749893988
-4.056,0.2808384070716433,0.849821030103708
-4.0555,-0.2099896363813117,0.2140227257942403
-4.055,-0.7541685541239126,-0.7502713690772682
-4.0545,-1.127624674142465,-1.51322933424863
-4.054,-1.106284324427119,-1.375473034981578
-4.0535,-0.7755089038385888,-0.6337083466192796
-4.053,-0.391382608962363,-0.1356663415768632
-4.0525,-0.08194753808956648,0.09745970333682032
-4.052,0.1421261339218951,0.224619364198868
-4.0515,0.2808384070716433,0.2670059178194992
-4.051,0.3661998059331045,0.1928294489833272
-4.0505,0.3875401556484503,0.1398462569575382
-4.05,0.3875401556484697,0.1928294489833272
-4.0495,0.2701682322139607,0.1080563417419877
-4.049,0.1634664836372313,0.01268659609556759
-4.0485,-0.4233931335352848,-0.5595318777834063
-4.048,-0.2846808603855366,-0.3899856633008816
-4.0475,-0.231329986097172,-0.580725154593722
-4.047,-0.3166913849591086,-1.290699927740701
-4.0465,-0.8928808272734472,-1.937094870455327
-4.046,-1.607782542737534,-2.435136875497743
-4.0455,-1.575772018164486,-2.678859558816469
-4.045,-0.8608703027003992,-2.043061254507001
-4.0445,-0.2526703358124887,-0.8986243067489184
-4.044,0.1314559590642707,0.09745970333742748
-4.0435,0.3341892813600565,0.7650479228623686
-4.043,0.4195506802215176,1.114736990232894
-4.0425,0.4302208550791906,1.241896651094787
-4.042,0.3982103305061524,1.210106735879401
-4.0415,0.3661998059331045,1.114736990232894
-4.041,0.3341892813600856,0.9981739677761581
-4.0405,0.3235191065023739,0.8922075837243008
-4.04,0.3235191065023739,0.8074344764830383
-4.0395,0.312848931644701,0.7120647308366181
-4.039,-0.113958062663119,0.2034260873876851
-4.0385,-0.6688071552621118,-0.6866915386455698
-4.038,-0.8181896032695328,-1.4072629501963
-4.0375,-1.09561414956967,-1.926498232049697
-4.037,-1.373038695869166,-1.417859588602123
-4.0365,-1.138294849000148,-0.5595318777835605
-4.036,-0.6794773301194061,0.04447651131130119
-4.0355,-0.2526703358124887,0.3941655786815084
-4.035,0.07810508477567314,0.4683420475176805
-4.0345,0.280838407071459,0.3729723018712603
-4.034,0.3661998059331045,0.2246193641988295
-4.0335,0.5049120790829789,0.06566978812131802
-4.033,0.5369226036559975,0.00208995769037125
-4.0325,0.483571729367565,0.04447651131106025
-4.032,0.4302208550792003,0.1292496185523226
-4.0315,0.3768699807908356,0.214022725793585
-4.031,0.2061471830679619,0.02328323450000257
-4.0305,0.3128489316446912,-0.6866915386455698
-4.03,0.5796033030865146,-1.364876396575669
-4.0295,0.3661998059325125,-1.841725124809186
-4.029,-0.2846808603855366,-2.244397384205182
-4.0285,-0.3807124341046804,-1.968884785670829
-4.028,-0.1886492866662376,-1.036380606015305
-4.0275,-0.01792648894347063,-0.1674562567923655
-4.027,0.142126133921769,0.4895353243280153
-4.0265,0.2488278824984984,0.871014306913696
-4.026,0.3021787567870086,1.061753798207057
-4.0255,0.3341892813600565,1.114736990232894
-4.025,0.3448594562177295,1.104140351827736
-4.0245,0.3555296310754218,1.061753798207009
-4.024,0.3555296310754218,1.00877060618122
-4.0235,0.334189281360076,0.9557874141554306
-4.023,0.3235191065022477,0.8922075837241658
-4.0225,0.1848068333524996,0.6590815388106942
-4.022,-0.4020527838195119,-0.209842810412245
-4.0215,-0.9569018764197663,-1.174136905283782
-4.021,-1.202315898146244,-1.735758740757146
-4.0205,-1.170305373573196,-1.534422611058964
-4.02,-0.7541685541231266,-0.8350444763173644
-4.0195,-0.2633405106701714,-0.2310360872233701
-4.019,0.1101156093487211,0.2034260873884947
-4.0185,0.3021787567868339,0.3729723018710194
-4.018,0.3768699807907871,0.3517790250608387
-4.0175,0.408880505363835,0.2564092794143318
-4.017,0.408880505363835,0.2140227257937006
-4.0165,0.3875401556484406,0.2140227257936235
-4.016,0.3555296310754218,0.1716361721729923
-4.0155,0.3448594562177489,0.1504428953626767
-4.015,0.3341892813600565,0.1610395337678346
-4.0145,0.3341892813600565,0.1716361721729923
-4.014,0.3128489316447107,-0.1674562567920571
-4.0135,0.515582253941001,-0.8668343915339751
-4.013,0.8890383739595538,-1.481439419033127
-4.0125,0.4195506802215176,-2.021867977696666
-4.012,0.9743997728212964,-1.905304955239429
-4.0115,1.283834843693812,-1.47084278062796
-4.011,1.177133095116985,-0.5171453241628908
-4.0105,0.8890383739598158,0.2987958330342595
-4.01,0.5689331282290746,0.8074344764830383
-4.0095,0.3768699807907871,1.072350436612224
-4.009,0.2808384070717307,1.178316820663802
-4.0085,0.2594980573562781,1.188913459069018
-4.008,0.2594980573562781,1.135930267043229
-4.0075,0.2808384070716239,1.072350436612282
-4.007,0.3128489316446912,0.9981739677759942
-4.0065,0.3128489316446912,0.9345941373450475
-4.006,0.3021787567870086,0.849821030103708
-4.0055,0.1101156093484688,0.3941655786806892
-4.005,-0.1673089369510276,-0.5065486857577234
-4.0045,-0.5621054066852853,-1.311893204550448
-4.004,-0.6367966306888503,-1.258910012524071
-4.0035,-0.4020527838200457,-0.6654982618352349
-4.003,-0.1352984123779797,-0.1780528951975329
-4.0025,0.088775259633152,0.08686306493141199
-4.002,0.2274875327832301,0.2034260873884947
-4.0015,0.2808384070716433,0.2140227257936621
-4.001,0.3021787567869892,0.1822328105781887
-4.0005,0.323519106502403,0.15044289536259
-4,0.3555296310754218,0.07626642652648545
-3.9995,0.3555296310754218,0.08686306493165288
-3.999,0.3341892813600565,0.1504428953626575
-3.9985,0.3235191065023739,0.2352160026039969
-3.998,0.3235191065023739,0.3305857482505039
-3.9975,0.5475927785137094,0.1716361721729923
-3.997,1.177133095116985,-0.4959520473525559
-3.9965,1.166462920259302,-1.269506650929778
-3.996,0.05676473506030786,-2.074851169722503
-3.9955,0.2488278824985954,-2.043061254507001
-3.995,0.7183155762366316,-1.714565463946811
-3.9945,0.8143471499557753,-0.7820612842920766
-3.994,0.7396559259519968,0.1292496185523226
-3.9935,0.5262524287983441,0.6908714540261965
-3.993,0.3768699807907871,0.9769806909657173
-3.9925,0.291508581929326,1.093543713422559
-3.992,0.2594980573562781,1.093543713422559
-3.9915,0.2594980573562781,1.029963882991555
-3.991,0.2701682322139607,0.9557874141553824
-3.9905,0.291508581929326,0.8816109453192104
-3.99,0.3021787567870086,0.8074344764830383
-3.9895,0.2808384070716433,0.7120647308365314
-3.989,-0.1673089369510276,0.2140227257936621
-3.9885,-0.7861790786966207,-0.7608680074817418
-3.988,-1.180975548430879,-1.619195718300304
-3.9875,-1.351698346153801,-1.75695201756748
-3.987,-1.052933450138687,-1.068170521231597
-3.9865,-0.6261264558313813,-0.3581957480853793
-3.986,-0.2313299860971235,0.1292496185523226
-3.9855,0.03542438534494258,0.3517790250608387
-3.985,0.2168173579255475,0.383568940276341
-3.9845,0.3235191065023739,0.3305857482505039
-3.984,0.3661998059331045,0.2564092794143318
-3.9835,0.3555296310754218,0.01268659609548085
-3.983,0.3128489316446912,-0.1250697031716958
-3.9825,0.291508581929326,-0.06148987274069118
-3.982,0.291508581929326,0.06566978812131802
-3.9815,0.291508581929326,0.2034260873884947
-3.981,0.3235191065023739,0.2564092794143318
-3.9805,0.7289857510943143,0.06566978812131802
-3.98,0.9637295979633325,-0.5277419625680583
-3.9795,0.5155822539406614,-1.322489842955616
-3.979,-0.03926683865883591,-2.096044446532838
-3.9785,0.4515612047945656,-2.000674700886331
-3.978,0.5796033030867573,-1.269506650929778
-3.9775,0.5796033030867573,-0.3158091944647096
-3.977,0.5155822539406614,0.4259554938970107
-3.9765,0.3768699807907871,0.7968378380778709
-3.976,0.291508581929326,0.9663840525605498
-3.9755,0.2594980573562781,1.019367244586387
-3.975,0.2488278824985954,0.9981739677760521
-3.9745,0.2594980573562781,0.9451907757502149
-3.974,0.2808384070716433,0.9028042221295453
-3.9735,0.291508581929326,0.8392243916985406
-3.973,0.3021787567870086,0.7968378380778709
-3.9725,0.1207857842064037,0.6908714540261965
-3.972,-0.5621054066852853,0.2352160026039969
-3.9715,-1.362368521011484,-0.6549016234300674
-3.971,-1.46907026958831,-1.227120097309109
-3.9705,-1.1062843244271,-1.036380606016095
-3.97,-0.6261264558313813,-0.5171453241628908
-3.9695,-0.2206598112394408,-0.06148987274069118
-3.969,0.05676473506030786,0.1928294489833272
-3.9685,0.2168173579255475,0.2881991946298341
-3.968,0.3021787567870086,0.2564092794143318
-3.9675,0.3235191065023739,0.2140227257936621
-3.967,0.2808384070716433,0.1610395337678249
-3.9665,0.2061471830678648,0.1292496185523226
-3.966,0.2061471830678648,0.1928294489833272
-3.9655,0.2274875327832301,0.2881991946298341
-3.965,0.2594980573562781,0.383568940276341
-3.9645,0.2808384070716433,0.4789386859228479
-3.964,0.6009436528021226,0.849821030103708
-3.9635,1.070431346540159,1.093543713422559
-3.963,0.6542945270905358,0.3941655786815084
-3.9625,-0.2313299860971235,-0.7502713690765743
-3.962,-0.6474668055467465,-1.75695201756748
-3.9615,-0.4660738329661415,-1.51322933424863
-3.961,-0.1993194615240755,-0.7608680074817418
-3.9605,0.04609456020262521,0.002089957690313421
-3.96,0.2594980573562781,0.5849050699745222
-3.9595,0.3021787567870086,0.849821030103708
-3.959,0.291508581929326,0.9451907757502149
-3.9585,0.2808384070716433,0.9663840525605498
-3.958,0.2808384070716433,0.9557874141553824
-3.9575,0.2808384070716433,0.92399749893988
-3.957,0.2808384070716433,0.9028042221295453
-3.9565,0.291508581929326,0.8922075837243778
-3.956,0.2168173579255475,0.8074344764830383
-3.9555,-0.4447334832507763,0.05507314971615059
-3.955,-1.074273799854052,-1.004590690800593
-3.9545,-1.277007122150022,-1.788741932782983
-3.954,-1.234326422719292,-1.926498232050159
-3.9535,-0.9462317015618604,-1.269506650929778
-3.953,-0.5194247072545548,-0.5277419625680583
-3.9525,-0.1352984123779797,0.03387987290581572
-3.952,0.142126133921769,0.2670059178194992
-3.9515,0.2594980573562781,0.3199891098453364
-3.951,0.3021787567870086,0.2987958330350016
-3.9505,0.291508581929326,0.2246193641988295
-3.95,0.2168173579255475,0.1504428953626575
-3.9495,0.2168173579255475,0.13984625695749
-3.949,0.2274875327832301,0.1610395337678249
-3.9485,0.2594980573562781,0.2140227257936621
-3.948,0.2808384070716433,0.2881991946298341
-3.9475,0.3448594562177392,0.13984625695749
-3.947,0.7823366253827275,-0.474758770542221
-3.9465,1.187803269974668,-1.110557074852267
-3.946,0.6649647019482183,-1.576809164679634
-3.9455,-0.08194753808956648,-1.619195718300304
-3.945,-0.4340633083930936,-1.046977244421262
-3.9445,-0.4767440078238243,-0.3793890248957141
-3.944,-0.7328282044082075,-0.1780528951975329
-3.9435,-0.3807124341046804,0.4047622170866759
-3.943,-0.1032878878049318,0.7438546460520338
-3.9425,0.1634664836371343,0.9981739677760521
-3.942,0.291508581929326,1.061753798207057
-3.9415,0.291508581929326,0.9875773293708847
-3.941,0.291508581929326,0.8922075837243778
-3.9405,0.2808384070716433,0.7968378380778709
-3.94,0.2808384070716433,0.7332580076468663
-3.9395,0.2701682322139607,0.6696781772158616
-3.939,0.00341386077189465,0.5319218779486851
-3.9385,-0.6474668055467465,-0.2734226408440398
-3.938,-0.9889124009925911,-1.258910012524611
-3.9375,-1.244996597576974,-1.958288147265661
-3.937,-1.383708870726849,-1.661582271920973
-3.9365,-1.084943974711735,-0.8562377531282487
-3.936,-0.6367966306890638,-0.1780528951975329
-3.9355,-0.2206598112394408,0.2246193641988295
-3.935,0.08877525963335578,0.3729723018711736
-3.9345,0.2488278824985954,0.3623756634660061
-3.934,0.3128489316446912,0.309392471440169
-3.9335,0.1954770082101822,0.4365521323021782
-3.933,0.1207857842064037,0.5107286011383502
-3.9325,0.142126133921769,0.4365521323021782
-3.932,0.1954770082101822,0.3623756634660061
-3.9315,0.2381577076409128,0.309392471440169
-3.931,0.3341892813600565,0.1928294489833272
-3.9305,0.7396559259519968,-0.400582301706049
-3.93,1.177133095116985,-1.0999604364471
-3.9295,0.8463576745288233,-1.650985633515806
-3.929,0.7183155762366316,-1.968884785670829
-3.9285,0.974399772821015,-1.650985633515806
-3.928,0.8997085488172365,-0.7502713690765743
-3.9275,0.6542945270905358,0.03387987290581572
-3.927,0.2274875327832301,0.383568940276341
-3.9265,-0.423393133535411,0.1822328105781598
-3.926,-0.3060212101009019,0.5001319627331828
-3.9255,-0.1673089369510276,0.6696781772158616
-3.925,0.03542438534494258,0.8286277532933731
-3.9245,0.2274875327832301,0.9345941373450475
-3.924,0.2594980573562781,0.8816109453192104
-3.9235,0.2594980573562781,0.8180311148882058
-3.923,0.2701682322139607,0.7438546460520338
-3.9225,0.1207857842064037,0.55311515475902
-3.922,-0.6154562809736985,-0.06148987274069118
-3.9215,-1.191645723288561,-1.025783967610927
-3.921,-1.26633694729234,-1.629792356705471
-3.9205,-0.9995825758502737,-1.195330182093607
-3.92,-0.572775581542968,-0.5065486857577234
-3.9195,-0.1993194615240755,-0.05089323433552374
-3.919,0.03542438534494258,0.1610395337678249
-3.9185,0.1848068333524996,0.2352160026039969
-3.918,0.291508581929326,0.2776025562246667
-3.9175,0.3448594562177392,0.2776025562246667
-3.917,0.3555296310754218,0.1822328105781598
-3.9165,0.3448594562177392,0.08686306493165288
-3.916,0.3235191065023739,0.09745970333682032
-3.9155,0.3021787567870086,0.1610395337678249
-3.915,0.291508581929326,0.2458126410091644
-3.9145,0.2808384070716433,0.2987958330350016
-3.914,0.2274875327832301,-0.07208651114585861
-3.9135,0.4942419042252961,-0.7502713690765743
-3.913,0.3128489316446912,-1.34368311976595
-3.9125,0.01408403562957729,-1.75695201756748
-3.912,0.408880505363835,-1.820531847998485
-3.9115,0.6436243522328531,-1.0999604364471
-3.911,0.6222840025174878,-0.2310360872233701
-3.9105,0.5155822539406614,0.4683420475176805
-3.91,0.3982103305061524,0.8922075837243778
-3.9095,0.2594980573562781,1.040560521396722
-3.909,0.04609456020262521,0.92399749893988
-3.9085,-0.5300948821122373,0.3305857482505039
-3.908,-0.3380317346739499,0.4471487707073456
-3.9075,-0.1779791118087102,0.5213252395435176
-3.907,0.03542438534494258,0.6484849004055269
-3.9065,0.2274875327832301,0.775644561267536
-3.906,0.2381577076409128,0.7968378380778709
-3.9055,0.2274875327832301,0.6378882620003594
-3.905,0.1314559590640864,-0.09327978795619347
-3.9045,-0.2313299860971235,-1.025783967610927
-3.904,-1.084943974711735,-1.725162102351978
-3.9035,-1.490410619303675,-1.237716735714276
-3.903,-1.212986073003927,-0.474758770542221
-3.9025,-0.7114878546928423,0.02328323450064829
-3.902,-0.2846808603855366,0.2670059178194992
-3.9015,0.00341386077189465,0.3411823866556712
-3.901,0.1848068333524996,0.2776025562246667
-3.9005,0.291508581929326,0.1610395337678249
-3.9,0.3555296310754218,-0.06148987274069118
-3.8995,0.3555296310754218,-0.04029659593035631
-3.899,0.3341892813600565,0.08686306493165288
-3.8985,0.3128489316446912,0.2352160026039969
-3.898,0.3128489316446912,0.3623756634660061
-3.8975,0.5262524287983441,0.1716361721729923
-3.897,1.219813794547716,-0.5595318777835605
-3.8965,2.009406734016231,-1.301296566145281
-3.896,2.169459356881471,-1.640388995110639
-3.8955,1.646620788855021,-1.174136905283272
-3.895,1.049090996824793,-0.3899856633008816
-3.8945,0.6009436528021226,0.2881991946298341
-3.894,0.3341892813600565,0.7226613692416989
-3.8935,0.2168173579255475,0.9557874141553824
-3.893,0.1848068333524996,1.029963882991555
-3.8925,0.1954770082101822,1.019367244586387
-3.892,0.2168173579255475,0.9663840525605498
-3.8915,0.2381577076409128,0.9028042221295453
-3.891,0.2488278824985954,0.8286277532933731
-3.8905,0.0674349099179905,0.5955017083796896
-3.89,-0.3380317346739499,0.1292496185523226
-3.8895,-0.4767440078238243,-0.08268314955102604
-3.889,-0.5087545323968721,-0.3475991096802118
-3.8885,-0.9142211769888124,-1.142346990067769
-3.888,-1.212986073003927,-1.809935209593318
-3.8875,-1.405049220442214,-2.25499402261035
-3.887,-1.255666772434657,-1.862918401619155
-3.8865,-0.8181896032696687,-0.9833974139902578
-3.886,-0.3593720843893152,-0.2734226408440398
-3.8855,-0.03926683865883591,0.1610395337678249
