Class_5_Move_Left_hand_Horiszontal/Class_5_Move_leftt_hand_horizontal_Basim_8.csv

#Digilent WaveForms Oscilloscope Acquisition
#Device Name: EExplorer
#Serial Number: SN:210151A2B84A
#Date Time: 2020-12-16 09:16:43.748
#Sample rate: 2000Hz
#Samples: 16384
#Trigger: Source: Channel 1 Type: Edge Condition: Rising Level: 0 V Hyst.: Auto HoldOff: 0 s
#Channel 1: Range: 1 V/div Offset: 0 V Attenuation: 1 X
#Channel 2: Range: 1 V/div Offset: 0 V Attenuation: 1 X
#Power Supplies: ON
#Fixed Supply: ON
#Voltage: 3.3 V Readback: 3.324 V
#Positive Supply: ON
#Voltage: 3.7 V Readback: 3.719 V
#Current: 40 mA Readback: 18 mA
#Negative Supply: ON
#Voltage: -3.7 V Readback: -3.347 V
#Current: -40 mA Readback: -6 mA
#Reference 1: ON
#Voltage: 0 V
#Reference 2: ON
#Voltage: 0 V

Time (s),Channel 1 (V),Channel 2 (V)
-4.096,-1.479740444445993,1.305476481525908
-4.0955,-1.735824641030143,1.48561933441359
-4.095,-1.255666772434036,1.029963882990899
-4.0945,-0.572775581542968,0.309392471440169
-4.094,-0.01792648894397519,-0.2522293640331942
-4.0935,0.3341892813602118,-0.559531877783628
-4.093,0.5049120790829789,-0.6337083466197325
-4.0925,0.5689331282290164,-0.559531877783628
-4.092,0.5689331282290552,-0.4217755785162201
-4.0915,0.5475927785137094,-0.2416327256285375
-4.091,0.5155822539406614,-0.07208651114585861
-4.0905,0.5049120790829692,0.07626642652661074
-4.09,0.4942419042252961,0.2140227257936621
-4.0895,0.4835717293676135,0.309392471440169
-4.089,0.4195506802215759,0.2881991946298534
-4.0885,-0.124628237520297,0.309392471440169
-4.088,-0.9035510021311299,0.7226613692416989
-4.0875,-1.501080794160814,1.10414035182738
-4.087,-1.277007122149382,0.8604176685083454
-4.0865,-0.572775581542968,0.2776025562246667
-4.086,0.05676473505973534,-0.2310360872229075
-4.0855,0.4622313796524132,-0.5807251545940593
-4.085,0.6436243522328531,-0.7608680074817418
-4.0845,0.6863050516635449,-0.8138511995075307
-4.084,0.6649647019481892,-0.7502713690764876
-4.0835,0.6329541773751706,-0.6549016234300674
-4.083,0.6116138276598051,-0.5807251545938954
-4.0825,0.5689331282290455,-0.4641621321369476
-4.082,0.5369226036560266,-0.3475991096802118
-4.0815,0.5049120790829789,-0.2416327256285375
-4.081,0.4942419042253058,-0.1568596183872752
-4.0805,0.2168173579255475,0.1080563417419877
-4.08,-0.5194247072545548,0.6484849004055269
-4.0795,-1.277007122149333,1.146526905447943
-4.079,-1.767835165603259,1.453829419198079
-4.0785,-1.586442193022819,1.263089927905238
-4.078,-0.882210652416405,0.5637117931648234
-4.0775,-0.2420001609543985,-0.1038764263617368
-4.077,0.2061471830678648,-0.5171453241628908
-4.0765,0.4515612047943424,-0.6866915386454155
-4.076,0.5582629533714017,-0.6760949002402963
-4.0755,0.5689331282290746,-0.5595318777835605
-4.075,0.5582629533713921,-0.3899856633008816
-4.0745,0.5262524287983247,-0.2204394488180484
-4.074,0.5049120790829789,-0.05089323433552374
-4.0735,0.4942419042252961,0.08686306493165288
-4.073,0.4835717293676232,0.2140227257935464
-4.0725,0.4729015545099309,0.2670059178194992
-4.072,0.1848068333524996,0.2458126410091644
-4.0715,-0.5514352318269332,0.5955017083793717
-4.071,-1.298347471865591,1.061753798207086
-4.0705,-1.522421143876723,1.093543713422559
-4.07,-0.8928808272740197,0.5425185163543537
-4.0695,-0.1886492866659271,-0.05089323433589961
-4.069,0.3235191065023739,-0.4641621321370536
-4.0685,0.5902734779444399,-0.6760949002404023
-4.068,0.6863050516635741,-0.750271369076584
-4.0675,0.6756348768059011,-0.7608680074817418
-4.067,0.6542945270905358,-0.718481453861072
-4.0665,0.6863050516635838,-0.5701285161885931
-4.066,0.6863050516635838,-0.4217755785163839
-4.0655,0.6222840025174878,-0.326405832869877
-4.065,0.5582629533714503,-0.2416327256286147
-4.0645,0.5155822539406614,-0.1674562567923655
-4.064,0.408880505363835,-0.02969995752518888
-4.0635,-0.1779791118081765,0.4471487707069119
-4.063,-0.9675720512777595,0.998173967776399
-4.0625,-1.554431668449771,1.37965295036208
-4.062,-1.757164990745557,1.464426057603342
-4.0615,-1.202315898145623,0.9239974989392247
-4.061,-0.5194247072545548,0.2034260873884947
-4.0605,0.02475421048725994,-0.326405832869877
-4.06,0.3555296310755673,-0.591321792999111
-4.0595,0.5155822539406614,-0.6443049850249
-4.059,0.5689331282290746,-0.5595318777835605
-4.0585,0.5689331282290746,-0.4111789401113514
-4.058,0.5369226036560266,-0.2416327256285375
-4.0575,0.5155822539406614,-0.07208651114585861
-4.057,0.4942419042253156,0.08686306493150832
-4.0565,0.4835717293676135,0.2034260873884947
-4.056,0.4835717293676135,0.2987958330350016
-4.0555,0.2808384070718277,0.3835689402762639
-4.055,-0.3700422592474539,0.7120647308369169
-4.0545,-0.8715404775580819,1.135930267043229
-4.054,-1.020922925565503,1.263089927905122
-4.0535,-0.5621054066847807,0.6060983467841824
-4.053,-0.007256314085787988,-0.1356663415768632
-4.0525,0.3768699807907871,-0.5913217929990628
-4.052,0.5796033030868155,-0.7926579226972922
-4.0515,0.6436243522328531,-0.8456411147230812
-4.051,0.6436243522328531,-0.8032545611024114
-4.0505,0.6222840025175073,-0.7290780922663069
-4.05,0.6116138276598051,-0.6337083466197325
-4.0495,0.6116138276598051,-0.5807251545938954
-4.049,0.5796033030867864,-0.4641621321371596
-4.0485,0.5369226036560072,-0.3370024712749384
-4.048,0.5155822539406614,-0.2204394488182027
-4.0475,0.4729015545099697,-0.1144730647666247
-4.047,0.02475421048654181,0.26700591782001
-4.0465,-0.7648387289812555,0.8286277532933731
-4.046,-1.405049220441632,1.273686566310001
-4.0455,-1.661133417026238,1.475022696008201
-4.045,-1.26633694729234,1.051157159801889
-4.0445,-0.6154562809736985,0.3199891098453364
-4.044,-0.0499370135161886,-0.2840192792495157
-4.0435,0.3128489316446912,-0.6231117082145651
-4.043,0.4942419042252961,-0.7290780922662394
-4.0425,0.5582629533713339,-0.6866915386456083
-4.042,0.5582629533713921,-0.5489352393783931
-4.0415,0.5369226036560266,-0.3793890248957141
-4.041,0.5155822539406808,-0.1992461720080317
-4.0405,0.4942419042252961,-0.04029659593023102
-4.04,0.4942419042252961,0.09745970333682032
-4.0395,0.4835717293676232,0.2034260873883983
-4.039,0.4195506802210324,0.2458126410092897
-4.0385,-0.1139580626626144,0.383568940276341
-4.038,-0.9035510021304118,0.8074344764826529
-4.0375,-1.57577201816501,1.199510097474069
-4.037,-1.437059745015262,1.019367244586387
-4.0365,-0.7114878546928423,0.3729723018711736
-4.036,-0.06060718837381301,-0.2098428104133629
-4.0355,0.3661998059331045,-0.570128516188728
-4.035,0.5796033030867573,-0.7396747306714069
-4.0345,0.6542945270904679,-0.782061284292038
-4.034,0.6542945270905358,-0.7396747306714069
-4.0335,0.6329541773751706,-0.6337083466197325
-4.033,0.6436243522328434,-0.5807251545939436
-4.0325,0.6116138276597662,-0.4641621321369283
-4.032,0.5689331282290746,-0.326405832869877
-4.0315,0.526252428798383,-0.1992461720079835
-4.031,0.4942419042250438,-0.10387642636112
-4.0305,0.2168173579255475,0.1610395337678249
-4.03,-0.5194247072538852,0.6908714540257148
-4.0295,-1.287677297008229,1.167720182258991
-4.029,-1.863866739322568,1.453829419198252
-4.0285,-1.703814116457328,1.231300012689736
-4.028,-0.9462317015612588,0.5213252395429008
-4.0275,-0.2846808603855366,-0.1568596183871981
-4.027,0.1848068333524996,-0.5913217929990628
-4.0265,0.4515612047943229,-0.7714646458867453
-4.026,0.5582629533713921,-0.7608680074817418
-4.0255,0.5689331282290746,-0.6443049850249
-4.025,0.5582629533714017,-0.485355408947533
-4.0245,0.5262524287983247,-0.3052125560593879
-4.024,0.5049120790829789,-0.1356663415768632
-4.0235,0.4942419042253058,0.01268659609534592
-4.023,0.4835717293676038,0.1398462569575864
-4.0225,0.4729015545099309,0.2458126410091644
-4.022,0.110115609349051,0.4153588554916891
-4.0215,-0.6581369804051084,0.8286277532937489
-4.021,-1.405049220442214,1.241896651094903
-4.0205,-1.575772018165136,1.167720182258731
-4.02,-0.871540477557422,0.5213252395429586
-4.0195,-0.1459685872356623,-0.09327978795619347
-4.019,0.3448594562177392,-0.4853554089473885
-4.0185,0.6009436528018897,-0.6866915386453867
-4.018,0.6863050516635838,-0.7502713690765743
-4.0175,0.6756348768059011,-0.6972881770507372
-4.017,0.6436243522328822,-0.5807251545940014
-4.0165,0.6649647019482183,-0.5489352393783449
-4.016,0.6649647019482183,-0.4959520473525559
-4.0155,0.6116138276598536,-0.3475991096803468
-4.015,0.5582629533713532,-0.1992461720077618
-4.0145,0.5155822539406614,-0.08268314955102604
-4.014,0.4088805053639321,0.05507314971602531
-4.0135,-0.1993194615247937,0.4683420475181527
-4.013,-0.9889124009925911,0.9875773293708847
-4.0125,-1.67180359188428,1.347863035146577
-4.012,-1.895877263895014,1.37965295036153
-4.0115,-1.234326422719292,0.775644561267536
-4.011,-0.5087545323968721,0.04447651131098315
-4.0105,0.03542438534444758,-0.4959520473520644
-4.01,0.3661998059331045,-0.7714646458869092
-4.0095,0.5262524287983441,-0.8350444763179138
-4.009,0.5689331282290357,-0.7714646458869671
-4.0085,0.5582629533713727,-0.6231117082144109
-4.008,0.5369226036560266,-0.4535654937318862
-4.0075,0.5155822539406808,-0.2840192792493615
-4.007,0.4942419042252864,-0.1250697031715705
-4.0065,0.4835717293676135,0.01268659609548085
-4.006,0.4835717293676135,0.13984625695749
-4.0055,0.3768699807902534,0.2140227257939608
-4.005,-0.2099896363817582,0.5425185163538525
-4.0045,-0.9675720512772257,1.00877060618122
-4.004,-1.46907026958798,1.252493289499646
-4.0035,-1.1062843244271,0.7862411996727035
-4.003,-0.423393133535411,0.13984625695749
-4.0025,0.1421261339212546,-0.326405832869453
-4.002,0.4835717293676135,-0.570128516188728
-4.0015,0.6329541773751706,-0.6337083466197325
-4.001,0.6649647019481892,-0.6549016234300481
-4.0005,0.6436243522328337,-0.6125150698092916
-4,0.6222840025174878,-0.4959520473525559
-3.9995,0.6222840025174878,-0.3687923864905467
-3.999,0.5796033030867573,-0.2416327256285375
-3.9985,0.5369226036560266,-0.1356663415768632
-3.998,0.5155822539406614,-0.04029659593035631
-3.9975,0.4729015545099309,0.04447651131098315
-3.997,0.0674349099179905,0.383568940276341
-3.9965,-0.722158029550525,0.8922075837243778
-3.996,-1.383708870726849,1.29487984312074
-3.9955,-1.67180359188428,1.475022696008586
-3.995,-1.287677297007705,1.051157159801889
-3.9945,-0.6261264558313813,0.2987958330350016
-3.994,-0.07127736323188383,-0.3158091944647096
-3.9935,0.3021787567870086,-0.6760949002404023
-3.993,0.4942419042252961,-0.8032545611024114
-3.9925,0.5582629533713921,-0.7714646458869092
-3.992,0.5582629533713921,-0.6443049850249
-3.9915,0.5475927785137094,-0.474758770542221
-3.991,0.5155822539406614,-0.3052125560595421
-3.9905,0.4942419042252961,-0.1462629799820306
-3.99,0.4835717293676135,0.002089957690313421
-3.9895,0.4835717293676135,0.1186529801471552
-3.989,0.4408910299368829,0.1716361721729923
-3.9885,-0.01792648894347063,0.309392471440169
-3.988,-0.7328282044082075,0.7544512844572011
-3.9875,-1.255666772434657,1.178316820663898
-3.987,-1.159635198715513,1.019367244586387
-3.9865,-0.5407650569699201,0.4153588554918433
-3.986,0.04609456020262521,-0.1356663415768632
-3.9855,0.4302208550792003,-0.4959520473525559
-3.985,0.6116138276598051,-0.6760949002404023
-3.9845,0.6649647019482183,-0.718481453861072
-3.984,0.6542945270905358,-0.6866915386455698
-3.9835,0.6222840025174878,-0.5595318777835605
-3.983,0.6009436528021226,-0.4853554089473885
-3.9825,0.5582629533713921,-0.3793890248957141
-3.982,0.5262524287983441,-0.2628260024388724
-3.9815,0.5049120790829789,-0.1674562567923655
-3.981,0.4835717293676135,-0.09327978795619347
-3.9805,0.2594980573562781,0.13984625695749
-3.98,-0.4554036581084589,0.6484849004055269
-3.9795,-1.223656247861609,1.125333628638062
-3.979,-1.87453691418025,1.42203950398275
-3.9785,-1.789175515318789,1.241896651094903
-3.978,-1.031593100423322,0.5319218779486851
-3.9775,-0.3273615598162672,-0.1462629799820306
-3.977,0.1634664836371343,-0.6019184314042303
-3.9765,0.4302208550792003,-0.792657922697244
-3.976,0.5475927785137094,-0.792657922697244
-3.9755,0.5796033030867573,-0.6866915386455698
-3.975,0.5582629533713921,-0.5277419625680583
-3.9745,0.5262524287983441,-0.3475991096802118
-3.974,0.5049120790829789,-0.1780528951975329
-3.9735,0.4942419042252961,-0.01910331912002144
-3.973,0.4835717293676135,0.1080563417419877
-3.9725,0.4729015545099309,0.2034260873884947
-3.972,0.1527963087794516,0.2564092794143318
-3.9715,-0.5941159312583333,0.6060983467848571
-3.971,-1.244996597576974,1.072350436612224
-3.9705,-1.405049220442214,1.061753798207057
-3.97,-0.8181896032696687,0.4259554938970107
-3.9695,-0.1779791118087102,-0.1780528951975329
-3.969,0.2808384070716433,-0.5595318777835605
-3.9685,0.5369226036560266,-0.7290780922662394
-3.968,0.6436243522328531,-0.7502713690765743
-3.9675,0.6542945270905358,-0.7290780922662394
-3.967,0.6222840025174878,-0.6125150698093976
-3.9665,0.6222840025174878,-0.5065486857577234
-3.966,0.6329541773751706,-0.4429688553267188
-3.9655,0.5902734779444399,-0.3370024712750445
-3.965,0.5475927785137094,-0.2310360872233701
-3.9645,0.5155822539406614,-0.1462629799820306
-3.964,0.4195506802215176,-0.02969995752518888
-3.9635,-0.1352984123779797,0.4047622170866759
-3.963,-0.9248913518464952,0.9345941373450475
-3.9625,-1.501080794161358,1.316073119931075
-3.962,-1.67180359188428,1.390249588767247
-3.9615,-1.127624674142465,0.8074344764830383
-3.961,-0.4767440078238243,0.07626642652648545
-3.9605,0.04609456020262521,-0.474758770542221
-3.96,0.3661998059331045,-0.7714646458869092
-3.9595,0.5155822539406614,-0.8350444763179138
-3.959,0.5582629533713921,-0.7608680074817418
-3.9585,0.5582629533713921,-0.6231117082145651
-3.958,0.5369226036560266,-0.4429688553267188
-3.9575,0.5155822539406614,-0.2734226408440398
-3.957,0.4942419042252961,-0.1038764263613609
-3.9565,0.4835717293676135,0.03387987290581572
-3.956,0.4835717293676135,0.1504428953626575
-3.9555,0.3341892813600565,0.2034260873884947
-3.955,-0.3060212101009019,0.4471487707073456
-3.9545,-0.8822106524157645,0.9134008605347127
-3.954,-1.159635198715513,1.188913459069066
-3.9535,-0.8181896032696687,0.775644561267536
-3.953,-0.2313299860971235,0.1504428953626575
-3.9525,0.2488278824985954,-0.3475991096802118
-3.952,0.5262524287983441,-0.6125150698093976
-3.9515,0.6329541773751706,-0.6760949002404023
-3.951,0.6542945270905358,-0.6125150698093976
-3.9505,0.6329541773751706,-0.5489352393783931
-3.95,0.6116138276598051,-0.4959520473525559
-3.9495,0.5796033030867573,-0.4323722169215513
-3.949,0.5475927785137094,-0.326405832869877
-3.9485,0.5155822539406614,-0.2204394488182027
-3.948,0.4942419042252961,-0.1250697031716958
-3.9475,0.4729015545099309,-0.04029659593035631
-3.947,0.1101156093487211,0.2670059178194992
-3.9465,-0.658136980404429,0.7968378380778709
-3.946,-1.405049220442214,1.231300012689736
-3.9455,-2.002579012472442,1.443232780793084
-3.945,-1.639793067311232,1.061753798207057
-3.9445,-0.8502001278427167,0.3199891098453364
-3.944,-0.1886492866663929,-0.3158091944647096
-3.9435,0.2488278824985954,-0.6972881770507372
-3.943,0.4729015545099309,-0.8350444763179138
-3.9425,0.5582629533713921,-0.8032545611024114
-3.942,0.5689331282290746,-0.6760949002404023
-3.9415,0.5475927785137094,-0.5171453241628908
-3.941,0.5262524287983441,-0.3370024712750445
-3.9405,0.4942419042252961,-0.1780528951975329
-3.94,0.4835717293676135,-0.01910331912002144
-3.9395,0.4835717293676135,0.09745970333682032
-3.939,0.4408910299368829,0.1928294489833272
-3.9385,-0.03926683865883591,0.4153588554918433
-3.938,-0.6794773301197943,0.8604176685088755
-3.9375,-1.042263275281004,1.25249328950007
-3.937,-0.8715404775580819,0.9557874141553824
-3.9365,-0.3166913849585846,0.2034260873884947
-3.936,0.1741366584948169,-0.3687923864905467
-3.9355,0.4729015545099309,-0.6443049850249
-3.935,0.6116138276598051,-0.718481453861072
-3.9345,0.6436243522328531,-0.7078848154559045
-3.934,0.6222840025174878,-0.6231117082145651
-3.9335,0.6009436528021226,-0.4959520473525559
-3.933,0.6222840025174878,-0.4429688553267188
-3.9325,0.6116138276598051,-0.3475991096802118
-3.932,0.5689331282290746,-0.2416327256285375
-3.9315,0.5262524287983441,-0.1462629799820306
-3.931,0.4942419042252961,-0.06148987274069118
-3.9305,0.3021787567870086,0.1080563417419877
-3.93,-0.3807124341046804,0.5955017083796896
-3.9295,-1.127624674142465,1.082947075017392
-3.929,-1.51175096901904,1.400846227172415
-3.9285,-1.533091318734406,1.33726639674141
-3.928,-0.9675720512772257,0.6802748156210291
-3.9275,-0.3487019095316325,-0.06148987274069118
-3.927,0.1101156093487211,-0.5807251545938954
-3.9265,0.3982103305061524,-0.8244478379127463
-3.926,0.5262524287983441,-0.8668343915334161
-3.9255,0.5582629533713921,-0.7820612842920766
-3.925,0.5475927785137094,-0.6231117082145651
-3.9245,0.5262524287983441,-0.4429688553267188
-3.924,0.5049120790829789,-0.2628260024388724
-3.9235,0.4835717293676135,-0.1038764263613609
-3.923,0.4835717293676135,0.04447651131098315
-3.9225,0.4729015545099309,0.1504428953626575
-3.922,0.2381577076409128,0.2776025562246667
-3.9215,-0.4554036581084589,0.6908714540261965
-3.921,-1.074273799854052,1.135930267043229
-3.9205,-1.180975548430879,1.241896651094903
-3.92,-0.658136980404429,0.701468092431364
-3.9195,-0.04993701351651855,0.06566978812131802
-3.919,0.3661998059331045,-0.3793890248957141
-3.9185,0.5902734779444399,-0.6125150698093976
-3.918,0.6649647019482183,-0.6760949002404023
-3.9175,0.6542945270905358,-0.6549016234300674
-3.917,0.6222840025174878,-0.5171453241628908
-3.9165,0.6222840025174878,-0.3158091944647096
-3.916,0.6116138276598051,-0.1992461720078678
-3.9155,0.5689331282290746,-0.1250697031716958
-3.915,0.5262524287983441,-0.07208651114585861
-3.9145,0.4942419042252961,-0.01910331912002144
-3.914,0.4195506802215176,0.06566978812131802
-3.9135,-0.1459685872356623,0.4683420475176805
-3.913,-0.9355615267041777,0.9663840525605498
-3.9125,-1.522421143876723,1.33726639674141
-3.912,-1.693143941599645,1.42203950398275
-3.9115,-1.170305373573196,0.8710143069140429
-3.911,-0.5087545323968721,0.1186529801471552
-3.9105,0.01408403562957729,-0.4535654937318862
-3.91,0.3448594562177392,-0.7608680074817418
-3.9095,0.5049120790829789,-0.8350444763179138
-3.909,0.5582629533713921,-0.7714646458869092
-3.9085,0.5582629533713921,-0.6337083466197325
-3.908,0.5262524287983441,-0.4535654937318862
-3.9075,0.5049120790829789,-0.2840192792492073
-3.907,0.4835717293676135,-0.1144730647665284
-3.9065,0.4835717293676135,0.02328323450064829
-3.906,0.4729015545099309,0.1504428953626575
-3.9055,0.3448594562177392,0.2140227257936621
-3.905,-0.2953510352432193,0.5001319627331828
-3.9045,-0.8928808272734472,0.9557874141553824
-3.904,-1.202315898146244,1.25249328950007
-3.9035,-0.8608703027003992,0.8180311148882058
-3.903,-0.2526703358124887,0.2034260873884947
-3.9025,0.2168173579255475,-0.2734226408440398
-3.902,0.5049120790829789,-0.570128516188728
-3.9015,0.6222840025174878,-0.7078848154559045
-3.901,0.6542945270905358,-0.6654982618352349
-3.9005,0.6329541773751706,-0.5807251545938954
-3.9,0.6222840025174878,-0.4535654937318862
-3.8995,0.6329541773751706,-0.3687923864905467
-3.899,0.6009436528021226,-0.3052125560595421
-3.8985,0.5475927785137094,-0.2416327256285375
-3.898,0.5049120790829789,-0.1780528951975329
-3.8975,0.4729015545099309,-0.1144730647665284
-3.897,0.1101156093487211,0.1928294489833272
-3.8965,-0.658136980404429,0.7332580076468663
-3.896,-1.330357996438436,1.188913459069066
-3.8955,-1.629122892453549,1.432636142387917
-3.895,-1.319687821580753,1.093543713422559
-3.8945,-0.6688071552621118,0.3729723018711736
-3.894,-0.1139580626626144,-0.252229364033705
-3.8935,0.2701682322139607,-0.6125150698093976
-3.893,0.4729015545099309,-0.7502713690765743
-3.8925,0.5475927785137094,-0.7078848154559045
-3.892,0.5475927785137094,-0.5807251545938954
-3.8915,0.5369226036560266,-0.4111789401112165
-3.891,0.5155822539406614,-0.2416327256285375
-3.8905,0.4942419042252961,-0.08268314955102604
-3.89,0.4835717293676135,0.06566978812131802
-3.8895,0.4729015545099309,0.1822328105781598
-3.889,0.4408910299368829,0.2458126410091644
-3.8885,-0.02859666380115328,0.383568940276341
-3.888,-0.8181896032696687,0.7968378380778709
-3.8875,-1.522421143876723,1.199510097474233
-3.887,-1.575772018165136,1.082947075017392
