Class_5_Move_Left_hand_Horiszontal/Class_5_Move_Left_hand_Horiszontal_Suko_4.csv

#Digilent WaveForms Oscilloscope Acquisition
#Device Name: EExplorer
#Serial Number: SN:210151A2B84A
#Date Time: 2020-12-15 14:13:18.375
#Sample rate: 2000Hz
#Samples: 16384
#Trigger: Source: Channel 1 Type: Edge Condition: Rising Level: 0 V Hyst.: Auto HoldOff: 0 s
#Channel 1: Range: 1 V/div Offset: 0 V Attenuation: 1 X
#Channel 2: Range: 1 V/div Offset: 0 V Attenuation: 1 X
#Power Supplies: ON
#Fixed Supply: ON
#Voltage: 3.3 V Readback: 3.325 V
#Positive Supply: ON
#Voltage: 3.7 V Readback: 3.714 V
#Current: 40 mA Readback: 19 mA
#Negative Supply: ON
#Voltage: -3.7 V Readback: -3.347 V
#Current: -40 mA Readback: -6 mA
#Reference 1: ON
#Voltage: 0 V
#Reference 2: ON
#Voltage: 0 V

Time (s),Channel 1 (V),Channel 2 (V)
-4.096,0.2274875327832301,1.114736990232894
-4.0955,-0.764838728980353,1.347863035146365
-4.095,-1.170305373572973,1.17831682066331
-4.0945,-0.9248913518464952,0.5319218779486851
-4.094,-0.5087545323972505,-0.1144730647659404
-4.0935,-0.1459685872354488,-0.5383386009734183
-4.093,0.08877525963335578,-0.7502713690765743
-4.0925,0.216817357925431,-0.7820612842920477
-4.092,0.2594980573562781,-0.7290780922661334
-4.0915,0.2594980573562781,-0.6125150698093976
-4.091,0.2274875327832301,-0.4641621321370536
-4.0905,0.184806833352451,-0.2946159176542205
-4.09,0.1314559590640864,-0.1250697031716958
-4.0895,0.09944543449103843,0.09745970333682032
-4.089,-0.2740106855275143,0.4895353243276587
-4.0885,-1.010252750707956,0.9663840525605498
-4.088,-1.746494815888059,1.326669758336243
-4.0875,-1.991908837614536,1.358459673551716
-4.087,-1.116954499283997,0.9981739677754257
-4.0865,-0.2526703358124887,0.309392471440169
-4.086,0.3448594562171957,-0.3370024712744565
-4.0855,0.6329541773752094,-0.7396747306715321
-4.085,0.6756348768059011,-0.8774310299385835
-4.0845,0.6009436528021905,-0.8774310299385835
-4.084,0.504912079083037,-0.7714646458868996
-4.0835,0.5689331282290746,-0.7608680074817418
-4.083,0.6969752265212663,-0.7714646458869092
-4.0825,0.611613827659679,-0.5383386009729654
-4.082,0.4729015545099309,-0.252229364033705
-4.0815,0.3555296310754218,0.01268659609548085
-4.081,0.2915085819293842,0.2246193641986368
-4.0805,0.6329541773751706,0.5001319627331828
-4.08,1.113112045970889,0.9028042221295453
-4.0795,0.5155822539412048,1.26308992790491
-4.079,-0.5087545323975611,1.411442865577563
-4.0785,-1.26633694729234,1.390249588767247
-4.078,-1.212986073003975,0.8498210301041995
-4.0775,-0.7755089038385307,0.1822328105776972
-4.077,-0.3273615598162672,-0.326405832869877
-4.0765,-0.00725631408607913,-0.6019184314039797
-4.076,0.1741366584948848,-0.6760949002403638
-4.0755,0.2488278824985954,-0.6337083466197325
-4.075,0.2701682322139607,-0.5383386009732256
-4.0745,0.2488278824985566,-0.4005823017058948
-4.074,0.2061471830678648,-0.2310360872233701
-4.0735,0.1634664836371343,-0.06148987274069118
-4.073,0.1421261339217884,0.1292496185521491
-4.0725,-0.03926683865883591,0.3941655786815084
-4.072,-0.7008176798351597,0.8180311148882058
-4.0715,-1.458400094729938,1.210106735879044
-4.071,-2.066600061618052,1.411442865577389
-4.0705,-1.533091318734406,1.199510097474233
-4.07,-0.6154562809745331,0.595501708380239
-4.0695,0.1207857842067725,-0.1250697031721777
-4.069,0.5262524287983441,-0.6549016234300674
-4.0685,0.6649647019482183,-0.8668343915334161
-4.068,0.6329541773750735,-0.888027668343722
-4.0675,0.5262524287983441,-0.8562377531282487
-4.067,0.4729015545099309,-0.792657922697244
-4.0665,0.6009436528020935,-0.8774310299384389
-4.066,0.5689331282290746,-0.718481453861072
-4.0655,0.4622313796522482,-0.4429688553267188
-4.065,0.3555296310755188,-0.1674562567926161
-4.0645,0.2808384070716433,0.05507314971615059
-4.064,0.4195506802215176,0.13984625695749
-4.0635,0.9530594231051644,0.3093924714400147
-4.063,0.5902734779435374,0.7438546460524096
-4.0625,-0.4020527838200457,1.157123543853563
-4.062,-1.277007122149227,1.422039503982509
-4.0615,-1.394379045584143,1.114736990232287
-4.061,-0.9675720512772257,0.4471487707073456
-4.0605,-0.4660738329661415,-0.1462629799820306
-4.06,-0.08194753808936268,-0.5065486857578583
-4.0595,0.142126133921769,-0.6549016234300674
-4.059,0.2488278824985954,-0.6443049850249
-4.0585,0.2701682322139413,-0.5489352393784798
-4.058,0.2701682322139607,-0.4217755785163839
-4.0575,0.2274875327832301,-0.2628260024388724
-4.057,0.1741366584948654,-0.08268314955118988
-4.0565,0.142126133921769,0.1292496185523226
-4.056,0.05676473506030786,0.3941655786815084
-4.0555,-0.466073832965666,0.8074344764826624
-4.055,-1.223656247862259,1.199510097474455
-4.0545,-1.938557963326346,1.443232780793084
-4.054,-1.799845690176598,1.305476481526033
-4.0535,-0.8715404775573735,0.6802748156203352
-4.053,-0.09261771294724913,-0.08268314955102604
-4.0525,0.3768699807907871,-0.6866915386455698
-4.052,0.568933128229094,-0.9728007755851097
-4.0515,0.5902734779444399,-0.9939940523954253
-4.051,0.5262524287983441,-0.9092209451540858
-4.0505,0.4515612047946335,-0.8138511995076656
-4.05,0.6222840025174878,-0.9304142219644207
-4.0495,0.6863050516635838,-0.8774310299385835
-4.049,0.5796033030868544,-0.6019184314044809
-4.0485,0.4408910299367762,-0.2946159176541338
-4.048,0.3235191065023739,-0.02969995752518888
-4.0475,0.3341892813600468,0.2034260873882827
-4.047,0.8356874996711602,0.5425185163542476
-4.0465,0.857027849386506,0.9769806909657173
-4.046,-0.03926683865802083,1.263089927904978
-4.0455,-0.9889124009930278,1.135930267043084
-4.045,-1.46907026958831,0.9769806909657173
-4.0445,-1.180975548430879,0.4683420475176805
-4.044,-0.6794773301193867,-0.07208651114618629
-4.0435,-0.2313299860971235,-0.4323722169215513
-4.043,0.0674349099179905,-0.5913217929990628
-4.0425,0.2168173579254116,-0.6231117082145362
-4.042,0.2701682322139607,-0.5595318777835605
-4.0415,0.2808384070716433,-0.4535654937318862
-4.041,0.2488278824986245,-0.3264058328699927
-4.0405,0.1954770082101337,-0.1674562567922017
-4.04,0.142126133921769,0.01268659609548085
-4.0395,0.1101156093487502,0.3199891098450569
-4.039,-0.263340510670841,0.7438546460524
-4.0385,-0.9995825758502737,1.146526905448396
-4.038,-1.735824641029706,1.432636142387657
-4.0375,-2.087940411333137,1.411442865577148
-4.037,-1.244996597576974,0.9345941373450475
-4.0365,-0.3593720843893152,0.2034260873884947
-4.036,0.2701682322142324,-0.4429688553270946
-4.0355,0.5689331282290746,-0.8562377531282487
-4.035,0.6436243522328531,-1.078767159636765
-4.0345,0.6116138276598342,-1.09996043644708
-4.034,0.5049120790829789,-0.9516074987747555
-4.0335,0.5262524287983441,-0.8668343915334161
-4.033,0.6436243522327463,-0.8350444763179427
-4.0325,0.5689331282289581,-0.6019184314039604
-4.032,0.4408910299368829,-0.3052125560595421
-4.0315,0.3448594562178265,-0.0402965959305972
-4.031,0.2808384070718762,0.1716361721731947
-4.0305,0.5369226036560266,0.3941655786815084
-4.03,0.9530594231052713,0.7756445612671891
-4.0295,0.3661998059322505,1.157123543853486
-4.029,-0.572775581542968,1.072350436612224
-4.0285,-1.30901764672307,0.8922075837243778
-4.028,-1.277007122149624,0.5319218779482128
-4.0275,-0.839529952985034,0.01268659609548085
-4.027,-0.3593720843893152,-0.3793890248957141
-4.0265,-0.01792648894378118,-0.5913217929988701
-4.026,0.1741366584948169,-0.6549016234300674
-4.0255,0.2594980573562781,-0.6231117082145651
-4.025,0.2808384070716239,-0.5383386009733027
-4.0245,0.2594980573562393,-0.432372216921426
-4.024,0.2168173579255475,-0.2946159176543747
-4.0235,0.1848068333525287,-0.1462629799821656
-4.023,0.1527963087792769,0.01268659609573143
-4.0225,-0.03926683865883591,0.2881991946298341
-4.022,-0.7008176798345581,0.754451284456777
-4.0215,-1.4584000947312,1.178316820664101
-4.021,-2.087940411333903,1.400846227172415
-4.0205,-1.51175096901904,1.210106735879401
-4.02,-0.5514352318269429,0.5955017083790825
-4.0195,0.1741366584948169,-0.07208651114585861
-4.019,0.5582629533713921,-0.5913217929990628
-4.0185,0.6649647019481213,-0.8880276683434811
-4.018,0.6222840025174878,-0.9833974139902578
-4.0175,0.5049120790829789,-0.8880276683437509
-4.017,0.4515612047946141,-0.7502713690766996
-4.0165,0.6222840025174878,-0.8350444763177692
-4.016,0.6222840025174878,-0.6760949002404023
-4.0155,0.5049120790830857,-0.3899856633011418
-4.015,0.3875401556483921,-0.1038764263611585
-4.0145,0.3021787567870086,0.1186529801471552
-4.014,0.3875401556483921,0.3199891098451533
-4.0135,0.846357674528503,0.637888262000716
-4.013,0.4942419042252961,1.029963882991555
-4.0125,-0.4020527838200457,1.167720182258731
-4.012,-1.202315898146448,0.765047922862118
-4.0115,-1.426389570157579,0.4895353243280153
-4.011,-1.042263275281004,0.04447651131098315
-4.0105,-0.5300948821127032,-0.3370024712746975
-4.01,-0.124628237520297,-0.570128516188728
-4.0095,0.1207857842064037,-0.6654982618352349
-4.009,0.238157707640806,-0.6549016234300771
-4.0085,0.2808384070716336,-0.6019184314041436
-4.008,0.2701682322139607,-0.5065486857577234
-4.0075,0.2381577076409419,-0.3899856633009876
-4.007,0.1954770082101434,-0.2628260024387278
-4.0065,0.1527963087794516,-0.1038764263613609
-4.006,0.08877525963335578,0.1186529801471552
-4.0055,-0.4233931335361,0.5531151547594441
-4.005,-1.180975548430879,1.019367244586387
-4.0045,-1.917217613610981,1.347863035146577
-4.004,-1.895877263894762,1.326669758335809
-4.0035,-0.9569018764195432,0.849821030103708
-4.003,-0.1352984123779797,0.1186529801471552
-4.0025,0.3982103305056671,-0.4959520473519969
-4.002,0.6116138276598051,-0.8668343915334161
-4.0015,0.6329541773751706,-0.9939940523954253
-4.001,0.55826295337146,-0.9410108603696363
-4.0005,0.4515612047946529,-0.7820612842920669
-4,0.5475927785137094,-0.7714646458869092
-3.9995,0.5902734779444399,-0.6654982618352349
-3.999,0.5049120790829789,-0.4217755785163839
-3.9985,0.3875401556484697,-0.1780528951975329
-3.998,0.3128489316446912,0.03387987290581572
-3.9975,0.3021787567870086,0.1716361721729923
-3.997,0.7716664505250448,0.002089957690313421
-3.9965,1.027750647109428,0.1292496185523226
-3.996,0.2594980573562781,0.55311515475902
-3.9955,-0.6367966306890638,0.7650479228623686
-3.995,-1.330357996438436,0.9663840525605498
-3.9945,-1.277007122150022,0.6696781772158616
-3.994,-0.807519428411986,0.1186529801471552
-3.9935,-0.3487019095316325,-0.3581957480853793
-3.993,-0.007256314085787988,-0.6443049850249
-3.9925,0.1848068333524996,-0.7502713690765743
-3.992,0.2594980573562781,-0.7396747306714069
-3.9915,0.2808384070716433,-0.6654982618352349
-3.991,0.2594980573562781,-0.5383386009732256
-3.9905,0.2061471830678648,-0.3793890248957141
-3.99,0.1741366584948169,-0.1992461720078678
-3.9895,0.1207857842064037,0.04447651131098315
-3.989,-0.2206598112394408,0.457745409112513
-3.9885,-0.9248913518464952,0.9451907757502149
-3.988,-1.661133417026597,1.316073119931075
-3.9875,-2.07727023647622,1.411442865577582
-3.987,-1.319687821580753,1.114736990232894
-3.9865,-0.4554036581084589,0.4471487707073456
-3.986,0.1634664836371343,-0.1674562567923655
-3.9855,0.5262524287983441,-0.6231117082145651
-3.985,0.6222840025174878,-0.8668343915334161
-3.9845,0.5689331282290746,-0.8880276683437509
-3.984,0.4622313796522482,-0.7608680074817418
-3.9835,0.4729015545099309,-0.5595318777835605
-3.983,0.5689331282290746,-0.3052125560595421
-3.9825,0.5155822539406614,-0.09327978795619347
-3.982,0.4195506802215176,0.07626642652648545
-3.9815,0.3341892813600565,0.2140227257936621
-3.981,0.2808384070716433,0.3199891098453364
-3.9805,0.5689331282290746,0.4365521323021782
-3.98,1.038420821967111,0.6908714540261965
-3.9795,0.4835717293676135,1.051157159801889
-3.979,-0.5194247072545548,1.273686566310405
-3.9785,-1.30901764672307,1.369056311956912
-3.978,-1.30901764672307,0.9345941373450475
-3.9775,-0.8608703027003992,0.2458126410091644
-3.977,-0.3807124341046804,-0.3158091944647096
-3.9765,-0.02859666380115328,-0.6549016234300674
-3.976,0.1741366584948169,-0.7820612842920766
-3.9755,0.2701682322139607,-0.7714646458869092
-3.975,0.2808384070716433,-0.6866915386455698
-3.9745,0.2701682322139607,-0.570128516188728
-3.974,0.2274875327832301,-0.400582301706049
-3.9735,0.1848068333524996,-0.2204394488182027
-3.973,0.1527963087794516,-0.008506680714854012
-3.9725,-0.01792648894347063,0.3199891098453364
-3.972,-0.6474668055467465,0.7862411996727035
-3.9715,-1.394379045584531,1.199510097474233
-3.971,-2.055929886760855,1.411442865577582
-3.9705,-1.597112367880501,1.082947075017392
-3.97,-0.6367966306890638,0.5213252395435176
-3.9695,0.09944543449103843,-0.08268314955102604
-3.969,0.5369226036560266,-0.5171453241628908
-3.9685,0.6969752265212663,-0.7608680074817418
-3.968,0.6969752265212663,-0.8138511995075789
-3.9675,0.6009436528021226,-0.718481453861072
-3.967,0.5049120790829789,-0.5489352393783931
-3.9665,0.6222840025174878,-0.2946159176543747
-3.966,0.5902734779444399,-0.1462629799820306
-3.9655,0.4835717293676135,-0.06148987274069118
-3.965,0.3768699807907871,0.01268659609548085
-3.9645,0.3021787567870086,0.09745970333682032
-3.964,0.3768699807907871,0.2458126410091644
-3.9635,0.8463576745288233,0.5955017083796896
-3.963,0.5582629533713921,1.019367244586387
-3.9625,-0.3593720843893152,1.199510097474233
-3.962,-1.212986073003927,1.072350436612224
-3.9615,-1.415719395299897,0.8286277532933731
-3.961,-1.020922925565639,0.2776025562246667
-3.9605,-0.5087545323968721,-0.2204394488182027
-3.96,-0.1139580626626144,-0.5171453241628908
-3.9595,0.1314559590640864,-0.6443049850249
-3.959,0.2488278824985954,-0.6337083466197325
-3.9585,0.2808384070716433,-0.5595318777835605
-3.958,0.2808384070716433,-0.4429688553267188
-3.9575,0.2488278824985954,-0.3052125560595421
-3.957,0.1954770082101822,-0.1462629799820306
-3.9565,0.1527963087794516,0.03387987290581572
-3.956,0.09944543449103843,0.2670059178194992
-3.9555,-0.391382608962363,0.6696781772158616
-3.955,-1.148965023857831,1.093543713422559
-3.9545,-1.885207089037933,1.37965295036208
-3.954,-1.938557963326346,1.284283204715573
-3.9535,-1.010252750707956,0.6696781772158616
-3.953,-0.1779791118087102,-0.1250697031716958
-3.9525,0.3661998059331045,-0.7290780922662394
-3.952,0.5902734779444399,-1.036380606016095
-3.9515,0.6116138276598051,-1.110557074852267
-3.951,0.5262524287983441,-1.025783967610927
-3.9505,0.4302208550792003,-0.8562377531282487
-3.95,0.5475927785137094,-0.8986243067489184
-3.9495,0.6329541773751706,-0.8456411147230812
-3.949,0.5582629533713921,-0.6019184314042303
-3.9485,0.4302208550792003,-0.3052125560595421
-3.948,0.3341892813600565,-0.04029659593035631
-3.9475,0.3128489316446912,0.1716361721729923
-3.947,0.7716664505250448,0.5319218779486851
-3.9465,0.857027849386506,0.9769806909657173
-3.946,0.01408403562957729,1.305476481525908
-3.9455,-0.9462317015618604,1.411442865577582
-3.945,-1.458400094730627,1.316073119931075
-3.9445,-1.191645723288561,0.701468092431364
-3.944,-0.6794773301197943,0.04447651131098315
-3.9435,-0.2313299860971235,-0.4111789401112165
-3.943,0.0674349099179905,-0.6337083466197325
-3.9425,0.2274875327832301,-0.6866915386455698
-3.942,0.2808384070716433,-0.6231117082145651
-3.9415,0.291508581929326,-0.5065486857577234
-3.941,0.2594980573562781,-0.3581957480853793
-3.9405,0.2061471830678648,-0.1886495336027004
-3.94,0.1634664836371343,-0.008506680714854012
-3.9395,0.142126133921769,0.2352160026039969
-3.939,-0.1673089369510276,0.6166949851900245
-3.9385,-0.8715404775580819,1.029963882991555
-3.938,-1.607782542738184,1.347863035146577
-3.9375,-2.023919362187807,1.369056311956912
-3.937,-1.170305373573196,0.7862411996727035
-3.9365,-0.2526703358124887,0.002089957690313421
-3.936,0.3661998059331045,-0.6125150698093976
-3.9355,0.6436243522328531,-0.9092209451540858
-3.935,0.6863050516635838,-1.004590690800593
-3.9345,0.6116138276598051,-0.9622041371799229
-3.934,0.5155822539406614,-0.7820612842920766
-3.9335,0.5262524287983441,-0.718481453861072
-3.933,0.6863050516635838,-0.8138511995075789
-3.9325,0.6436243522328531,-0.6549016234300674
-3.932,0.5049120790829789,-0.400582301706049
-3.9315,0.3875401556484697,-0.1568596183871981
-3.931,0.3021787567870086,0.03387987290581572
-3.9305,0.5369226036560266,0.2776025562246667
-3.93,1.102441871113207,0.7226613692416989
-3.9295,0.6649647019482183,1.135930267043229
-3.929,-0.3380317346739499,1.33726639674141
-3.9285,-1.202315898146244,1.390249588767247
-3.928,-1.277007122150022,0.9557874141553824
-3.9275,-0.8715404775580819,0.2776025562246667
-3.927,-0.4020527838200457,-0.2734226408440398
-3.9265,-0.03926683865883591,-0.6019184314042303
-3.926,0.1634664836371343,-0.7078848154559045
-3.9255,0.2594980573562781,-0.6866915386455698
-3.925,0.291508581929326,-0.5807251545938954
-3.9245,0.2701682322139607,-0.4535654937318862
-3.924,0.2381577076409128,-0.2840192792492073
-3.9235,0.1954770082101822,-0.09327978795619347
-3.923,0.1634664836371343,0.1080563417419877
-3.9225,0.02475421048725994,0.3941655786815084
-3.922,-0.572775581542968,0.8180311148882058
-3.9215,-1.330357996438436,1.199510097474233
-3.921,-2.002579012472442,1.400846227172415
-3.9205,-1.586442193022819,1.263089927905238
-3.92,-0.6474668055467465,0.701468092431364
-3.9195,0.08877525963335578,-0.02969995752518888
-3.919,0.5155822539406614,-0.6337083466197325
-3.9185,0.6756348768059011,-0.9410108603695881
-3.918,0.6542945270905358,-1.025783967610927
-3.9175,0.5475927785137094,-0.9622041371799229
-3.917,0.4622313796522482,-0.8350444763179138
-3.9165,0.6436243522328531,-0.9198175835592532
-3.916,0.6542945270905358,-0.7608680074817418
-3.9155,0.5475927785137094,-0.474758770542221
-3.915,0.4195506802215176,-0.1674562567923655
-3.9145,0.3235191065023739,0.07626642652648545
-3.914,0.3875401556484697,0.2564092794143318
-3.9135,0.9210488985326017,0.55311515475902
-3.913,0.7183155762366316,0.9557874141553824
-3.9125,-0.2206598112394408,1.157123543853563
-3.912,-1.116954499284783,0.6378882620003594
-3.9115,-1.341028171296118,0.2352160026039969
-3.911,-0.9782422261349084,-0.1462629799820306
-3.9105,-0.4874141826815069,-0.4111789401112165
-3.91,-0.1032878878049318,-0.5383386009732256
-3.9095,0.142126133921769,-0.570128516188728
-3.909,0.2488278824985954,-0.5383386009732256
-3.9085,0.291508581929326,-0.474758770542221
-3.908,0.2808384070716433,-0.400582301706049
-3.9075,0.2488278824985954,-0.3158091944647096
-3.907,0.1954770082101822,-0.2098428104130352
-3.9065,0.1634664836371343,-0.1038764263613609
-3.906,0.09944543449103843,0.08686306493165288
-3.9055,-0.391382608962363,0.5107286011383502
-3.905,-1.159635198715513,0.9769806909657173
-3.9045,-1.885207089037933,1.305476481525908
-3.904,-2.055929886760855,1.347863035146577
-3.9035,-1.180975548430879,0.92399749893988
-3.903,-0.3060212101009019,0.1080563417419877
-3.9025,0.2701682322139607,-0.6019184314042303
-3.902,0.5262524287983441,-1.025783967610927
-3.9015,0.5796033030867573,-1.174136905283272
-3.901,0.5262524287983441,-1.131750351662602
-3.9005,0.4515612047945656,-1.004590690800593
-3.9,0.6009436528021226,-1.068170521231597
-3.8995,0.7183155762366316,-1.05757388282643
-3.899,0.6329541773751706,-0.7714646458869092
-3.8985,0.4942419042252961,-0.4323722169215513
-3.898,0.3661998059331045,-0.1144730647665284
-3.8975,0.3128489316446912,0.1292496185523226
-3.897,0.6649647019482183,0.4365521323021782
-3.8965,0.7823366253827275,0.8604176685088755
-3.896,-0.01792648894347063,1.231300012689736
-3.8955,-0.9782422261349084,1.432636142387917
-3.895,-1.426389570157579,1.347863035146577
-3.8945,-1.138294849000148,0.7332580076468663
-3.894,-0.6261264558313813,0.08686306493165288
-3.8935,-0.1993194615240755,-0.3475991096802118
-3.893,0.08877525963335578,-0.5595318777835605
-3.8925,0.2381577076409128,-0.5913217929990628
-3.892,0.291508581929326,-0.5171453241628908
-3.8915,0.291508581929326,-0.400582301706049
-3.891,0.2594980573562781,-0.252229364033705
-3.8905,0.2168173579255475,-0.08268314955102604
-3.89,0.1634664836371343,0.1080563417419877
-3.8895,0.142126133921769,0.3411823866556712
-3.889,-0.124628237520297,0.6696781772158616
-3.8885,-0.8181896032696687,1.051157159801889
-3.888,-1.565101843307454,1.347863035146577
-3.8875,-2.087940411333903,1.464426057603419
-3.887,-1.415719395299897,1.231300012689736
