Class_5_Move_Left_hand_Horiszontal/Class_5_Move_Left_hand_Horiszontal_AM_10.csv

#Digilent WaveForms Oscilloscope Acquisition
#Device Name: EExplorer
#Serial Number: SN:210151A2B84A
#Date Time: 2021-01-19 10:04:09.524
#Sample rate: 2000Hz
#Samples: 16384
#Trigger: Source: Channel 1 Type: Edge Condition: Rising Level: 0 V Hyst.: Auto HoldOff: 0 s
#Channel 1: Range: 1 V/div Offset: 0 V Attenuation: 1 X
#Channel 2: Range: 1 V/div Offset: 0 V Attenuation: 1 X
#Power Supplies: ON
#Fixed Supply: ON
#Voltage: 3.3 V Readback: 3.375 V
#Positive Supply: ON
#Voltage: 3.7 V Readback: 3.71 V
#Current: 40 mA Readback: 18 mA
#Negative Supply: ON
#Voltage: -3.7 V Readback: -3.319 V
#Current: -40 mA Readback: -4 mA
#Reference 1: ON
#Voltage: 0 V
#Reference 2: ON
#Voltage: 0 V

Time (s),Channel 1 (V),Channel 2 (V)
-4.096,0.2274875327832301,-0.3052125560595421
-4.0955,0.5155822539403994,0.2246193641983477
-4.095,0.6329541773751802,0.6272916235954329
-4.0945,0.6436243522328531,0.8922075837243778
-4.094,0.6009436528021614,1.008770606181114
-4.0935,0.6542945270906911,0.9239974989396295
-4.093,0.825017324813458,0.6484849004055269
-4.0925,0.7930068002404391,0.4683420475178444
-4.092,0.6756348768057943,0.3517790250607327
-4.0915,0.5582629533713921,0.2352160026039969
-4.091,0.4408910299368829,0.1504428953626575
-4.0905,0.05676473505965766,0.4895353243283044
-4.09,-0.658136980404429,0.8074344764830383
-4.0895,-1.383708870726849,0.2246193641988295
-4.089,-2.002579012471879,-0.2310360872229557
-4.0885,-2.141291285622316,0.09745970333682032
-4.088,-1.447729919872945,0.2670059178194992
-4.0875,-0.6581369804051471,0.1398462569576057
-4.087,-0.06060718837388094,-0.05089323433565867
-4.0865,0.291508581929326,-0.1992461720078678
-4.086,0.4622313796520929,-0.2840192792491302
-4.0855,0.5155822539406517,-0.2946159176543361
-4.085,0.5049120790829789,-0.252229364033705
-4.0845,0.4835717293676329,-0.1780528951976004
-4.084,0.4515612047945461,-0.08268314955092966
-4.0835,0.4302208550792003,0.02328323450064829
-4.083,0.408880505363835,0.1186529801471552
-4.0825,0.1527963087788208,-0.06148987274121161
-4.082,-0.5407650569699201,-0.6337083466197325
-4.0815,-1.244996597576974,-1.184733543688439
-4.081,-1.671803591883892,-1.492036057438015
-4.0805,-1.255666772434657,-1.184733543688439
-4.08,-0.4660738329661415,-0.7820612842920766
-4.0795,0.1634664836365617,-0.3264058328702914
-4.079,0.5369226036561527,0.1292496185526696
-4.0785,0.6756348768059011,0.5107286011383502
-4.078,0.6969752265212469,0.7968378380776107
-4.0775,0.6329541773751415,0.9663840525606173
-4.077,0.6009436528021226,1.040560521396722
-4.0765,0.8036769750979084,1.157123543853458
-4.076,0.8356874996710437,1.019367244586127
-4.0755,0.7289857510943143,0.7332580076468663
-4.075,0.6009436528021226,0.4365521323021782
-4.0745,0.4942419042250826,0.1822328105782272
-4.074,0.2594980573562781,0.2564092794143318
-4.0735,-0.3593720843893152,0.701468092431364
-4.073,-1.116954499284094,0.4047622170869457
-4.0725,-1.682473766741963,-0.3581957480853793
-4.072,-2.066600061618538,-0.4641621321370536
-4.0715,-1.885207089038098,0.01268659609504713
-4.071,-1.084943974711094,0.1504428953625804
-4.0705,-0.3807124341046804,0.06566978812131802
-4.07,0.1101156093482746,-0.05089323433541773
-4.0695,0.3768699807908938,-0.1356663415768921
-4.069,0.4942419042252961,-0.1674562567923655
-4.0685,0.5155822539406614,-0.1462629799820306
-4.068,0.4942419042252767,-0.09327978795610674
-4.0675,0.4729015545099309,0.002089957690313421
-4.067,0.4408910299368829,0.09745970333682032
-4.0665,0.4302208550791033,0.1928294489833079
-4.066,0.3235191065023739,0.1716361721729923
-4.0655,-0.2420001609548061,-0.3158091944647096
-4.065,-0.9675720512765658,-0.9304142219638617
-4.0645,-1.565101843307454,-1.375473034981453
-4.064,-1.661133417026597,-1.481439419033127
-4.0635,-0.9675720512778565,-1.269506650929971
-4.063,-0.2099896363812729,-0.8562377531276897
-4.0625,0.3235191065023739,-0.2416327256285375
-4.062,0.6009436528018703,0.2564092794138788
-4.0615,0.6863050516635741,0.6908714540264183
-4.061,0.6756348768059011,0.9345941373450475
-4.0605,0.6116138276598051,1.00877060618122
-4.06,0.7823366253828925,1.125333628638042
-4.0595,0.9637295979633325,1.104140351827727
-4.059,0.8783681991018712,0.7968378380778709
-4.0585,0.7183155762367771,0.425955493897348
-4.058,0.5796033030867573,0.1186529801471552
-4.0575,0.4515612047945656,0.01268659609548085
-4.057,0.4835717293675844,0.4577454091121083
-4.0565,0.01408403562957729,0.7332580076468663
-4.056,-0.7434983792658902,0.13984625695749
-4.0555,-1.362368521010921,-0.1250697031714549
-4.055,-1.757164990745343,0.3093924714403039
-4.0545,-1.319687821580753,0.457745409112513
-4.054,-0.6474668055473579,0.3093924714403039
-4.0535,-0.09261771294692889,0.1186529801470299
-4.053,0.2594980573562781,-0.01910331912002144
-4.0525,0.4408910299368829,-0.06148987274069118
-4.052,0.5049120790829789,-0.02969995752512141
-4.0515,0.5049120790829789,0.04447651131098315
-4.051,0.4835717293676135,0.13984625695749
-4.0505,0.4515612047945947,0.245812641009068
-4.05,0.4302208550792003,0.3411823866556712
-4.0495,0.3982103305061524,0.3941655786815084
-4.049,0.003413860772253696,0.04447651131130115
-4.0485,-0.7221580295511266,-0.5913217929995447
-4.048,-1.383708870726849,-1.121153713257435
-4.0475,-1.693143941599364,-1.290699927739959
-4.047,-1.127624674141747,-1.004590690800265
-4.0465,-0.3380317346739499,-0.6443049850249
-4.046,0.2381577076403887,-0.2098428104134303
-4.0455,0.5475927785138162,0.2034260873888031
-4.045,0.6649647019482183,0.5425185163538525
-4.0445,0.6649647019482183,0.8074344764830383
-4.044,0.6222840025175363,0.9239974989399379
-4.0435,0.6756348768059011,0.9875773293708847
-4.043,0.9317190733902845,1.082947075017392
-4.0425,0.9103787236749387,0.8392243916987623
-4.042,0.7716664505250448,0.4789386859228479
-4.0415,0.6116138276598051,0.13984625695749
-4.041,0.48357172936773,-0.09327978795598144
-4.0405,0.1101156093480806,0.1716361721733875
-4.04,-0.5941159312583333,0.6060983467848571
-4.0395,-1.330357996437766,0.1716361721733874
-4.039,-1.895877263895868,-0.5383386009731581
-4.0385,-2.173301810195364,-0.4641621321370536
-4.038,-1.693143941600082,-0.06148987274105738
-4.0375,-0.8608703026997976,0.05507314971614095
-4.037,-0.1993194615240755,0.04447651131098315
-4.0365,0.2168173579255475,0.01268659609548085
-4.036,0.4408910299369509,-0.008506680714834737
-4.0355,0.5155822539406614,0.01268659609548085
-4.035,0.5155822539406614,0.06566978812131802
-4.0345,0.4942419042253156,0.1292496185522648
-4.034,0.4622313796522482,0.2140227257936621
-4.0335,0.4408910299368829,0.2881991946298341
-4.033,0.4195506802215371,0.3411823866556231
-4.0325,0.2168173579249458,0.1610395337672852
-4.032,-0.4447334832507763,-0.4323722169215513
-4.0315,-1.191645723287882,-1.036380606015546
-4.031,-1.799845690176287,-1.417859588602036
-4.0305,-1.597112367880501,-1.322489842955616
-4.03,-0.7755089038396855,-1.046977244421513
-4.0295,-0.02859666380073599,-0.6019184314037966
-4.029,0.4302208550792003,-0.1250697031716958
-4.0285,0.6436243522328531,0.3729723018711736
-4.028,0.6863050516635547,0.7438546460521687
-4.0275,0.6542945270905358,0.8922075837243778
-4.027,0.6116138276598051,0.92399749893988
-4.0265,0.8890383739593015,1.072350436612089
-4.026,0.974399772821015,0.9451907757502149
-4.0255,0.8463576745288233,0.6166949851900245
-4.025,0.6756348768060563,0.2776025562249751
-4.0245,0.5475927785137288,0.002089957690361609
-4.024,0.5689331282290746,0.05507314971615059
-4.0235,0.7183155762364957,0.6166949851895137
-4.023,0.08877525963260853,0.5743084315688248
-4.0225,-0.7328282044082075,-0.008506680714854012
-4.022,-1.426389570156948,0.1716361721728285
-4.0215,-1.586442193022314,0.5637117931641392
-4.021,-1.031593100423322,0.5107286011383502
-4.0205,-0.423393133535411,0.2776025562246667
-4.02,0.05676473506056018,0.07626642652638907
-4.0195,0.3341892813600565,-0.02969995752518888
-4.019,0.4622313796522482,-0.04029659593035631
-4.0185,0.50491207908294,0.02328323450059046
-4.018,0.4942419042252961,0.1186529801471552
-4.0175,0.4729015545099309,0.2352160026039969
-4.017,0.4408910299369121,0.3411823866555749
-4.0165,0.430220855079113,0.4365521323021589
-4.016,0.3341892813600565,0.4153588554918433
-4.0155,-0.2099896363812632,-0.07208651114541531
-4.015,-0.9462317015624524,-0.6972881770511516
-4.0145,-1.597112367880501,-1.152943628472937
-4.014,-1.821186039891633,-1.322489842955461
-4.0135,-1.116954499284035,-1.269506650929537
-4.013,-0.2953510352432193,-1.004590690800593
-4.0125,0.3021787567870086,-0.5065486857577234
-4.012,0.6009436528022002,0.01268659609589527
-4.0115,0.6863050516635838,0.4683420475176805
-4.011,0.6649647019482183,0.7544512844572011
-4.0105,0.6116138276598536,0.8286277532933056
-4.01,0.707645401378949,0.8922075837243778
-4.0095,0.8783681991018712,0.8816109453192104
-4.009,0.8143471499558335,0.637888262000581
-4.0085,0.6756348768057943,0.3305857482502533
-4.008,0.5582629533713921,0.05507314971615059
-4.0075,0.4515612047946626,-0.04029659593026957
-4.007,0.5262524287979947,0.4153588554921132
-4.0065,0.142126133921769,0.7120647308365314
-4.006,-0.6047861061160158,0.1186529801471552
-4.0055,-1.244996597577382,-0.4323722169212429
-4.005,-1.693143941599645,-0.09327978795619347
-4.0045,-1.341028171296118,0.1822328105781598
-4.004,-0.6901475049769724,0.1716361721729056
-4.0035,-0.1352984123779797,0.07626642652648545
-4.003,0.2274875327832301,0.002089957690313421
-4.0025,0.419550680221343,-0.01910331912000217
-4.002,0.4942419042252961,0.002089957690313421
-4.0015,0.5049120790829789,0.06566978812131802
-4.001,0.4835717293676329,0.1504428953625804
-4.0005,0.4515612047945461,0.2352160026040837
-4,0.4302208550792003,0.3305857482505039
-3.9995,0.408880505363835,0.3729723018711736
-3.999,0.05676473506030786,0.06566978812131802
-3.9985,-0.6688071552621118,-0.570128516188728
-3.998,-1.351698346153801,-1.121153713257435
-3.9975,-1.67180359188428,-1.396666311791788
-3.997,-1.223656247861609,-1.311893204550448
-3.9965,-0.4447334832507763,-0.9622041371799229
-3.996,0.1848068333524996,-0.4429688553267188
-3.9955,0.5475927785137094,0.08686306493165288
-3.995,0.6969752265212663,0.4683420475176805
-3.9945,0.707645401378949,0.701468092431364
-3.994,0.6542945270905358,0.8392243916985406
-3.9935,0.6436243522328531,0.9663840525605498
-3.993,0.825017324813458,1.082947075017392
-3.9925,0.8036769750980928,0.8710143069140429
-3.992,0.6863050516635838,0.5213252395435176
-3.9915,0.5689331282290746,0.1928294489833272
-3.991,0.4835717293676135,-0.06148987274069118
-3.9905,0.6649647019482183,0.1186529801471552
-3.99,0.6542945270905358,0.6166949851900245
-3.9895,-0.08194753808956648,0.309392471440169
-3.989,-0.8608703027003992,-0.3899856633008816
-3.9885,-1.490410619303675,-0.3899856633008816
-3.988,-1.458400094730627,-0.008506680714854012
-3.9875,-0.8822106524157645,0.07626642652648545
-3.987,-0.2953510352432193,0.03387987290581572
-3.9865,0.1207857842064037,-0.04029659593035631
-3.986,0.3661998059331045,-0.07208651114585861
-3.9855,0.4729015545099309,-0.05089323433552374
-3.985,0.5049120790829789,-0.008506680714854012
-3.9845,0.4835717293676135,0.07626642652648545
-3.984,0.4622313796522482,0.1610395337678249
-3.9835,0.4408910299368829,0.2458126410091644
-3.983,0.4195506802215176,0.3199891098453364
-3.9825,0.2381577076409128,0.1822328105781598
-3.982,-0.391382608962363,-0.3793890248957141
-3.9815,-1.1062843244271,-0.9728007755850904
-3.981,-1.661133417026597,-1.364876396576285
-3.9805,-1.501080794161358,-1.407262950196955
-3.98,-0.722158029550525,-1.216523458903942
-3.9795,-0.01792648894347063,-0.792657922697244
-3.979,0.4302208550792003,-0.2310360872233701
-3.9785,0.6329541773751706,0.3729723018711736
-3.978,0.6756348768059011,0.7968378380778709
-3.9775,0.6436243522328531,0.9557874141553824
-3.977,0.6009436528021226,0.9663840525605498
-3.9765,0.857027849386506,1.093543713422559
-3.976,0.9637295979633325,0.9769806909657173
-3.9755,0.8463576745288233,0.6484849004055269
-3.975,0.6863050516635838,0.2881991946298341
-3.9745,0.5475927785137094,0.01268659609548085
-3.974,0.3341892813600565,0.04447651131098315
-3.9735,-0.2526703358124887,0.5637117931641874
-3.973,-1.020922925565639,0.457745409112513
-3.9725,-1.682473766741963,-0.1674562567923655
-3.972,-2.151961460479999,0.002089957690313421
-3.9715,-2.055929886760855,0.5213252395435176
-3.971,-1.255666772434657,0.55311515475902
-3.9705,-0.4874141826815069,0.3305857482505039
-3.97,0.04609456020262521,0.1080563417419877
-3.9695,0.3555296310754218,-0.02969995752518888
-3.969,0.4942419042252961,-0.07208651114585861
-3.9685,0.5262524287983441,-0.02969995752518888
-3.968,0.5049120790829789,0.05507314971615059
-3.9675,0.4729015545099309,0.1610395337678249
-3.967,0.4515612047945656,0.2776025562246667
-3.9665,0.4302208550792003,0.3729723018711736
-3.966,0.3555296310754218,0.3941655786815084
-3.9655,-0.1459685872356623,-0.06148987274069118
-3.965,-0.8928808272734472,-0.6866915386455698
-3.9645,-1.554431668449771,-1.163540266878104
-3.964,-1.714484291315011,-1.269506650929778
-3.9635,-1.042263275281004,-0.9516074987747555
-3.963,-0.2526703358124887,-0.6019184314042303
-3.9625,0.291508581929326,-0.1356663415768632
-3.962,0.5796033030867573,0.4153588554918433
-3.9615,0.6756348768059011,0.7332580076468663
-3.961,0.6756348768059011,0.8604176685088755
-3.9605,0.6329541773751706,0.9028042221295453
-3.96,0.7503261008096795,0.9451907757502149
-3.9595,0.942389248247967,0.9345941373450475
-3.959,0.8676980242441885,0.6802748156210291
-3.9585,0.7183155762366316,0.3517790250608387
-3.958,0.5796033030867573,0.06566978812131802
-3.9575,0.4302208550792003,-0.08268314955102604
-3.957,-0.04993701351651855,0.3305857482505039
-3.9565,-0.807519428411986,0.5637117931641874
-3.956,-1.51175096901904,-0.04029659593035631
-3.9555,-2.03458953704549,-0.5171453241628908
-3.955,-2.162631635337682,-0.1144730647665284
-3.9545,-1.51175096901904,0.1822328105781598
-3.954,-0.7008176798351597,0.1716361721729923
-3.9535,-0.09261771294724913,0.05507314971615059
-3.953,0.2808384070716433,-0.02969995752518888
-3.9525,0.4729015545099309,-0.07208651114585861
-3.952,0.5262524287983441,-0.05089323433552374
-3.9515,0.5155822539406614,0.002089957690313421
-3.951,0.4942419042252961,0.08686306493165288
-3.9505,0.4622313796522482,0.1822328105781598
-3.95,0.4408910299368829,0.2670059178194992
-3.9495,0.408880505363835,0.3305857482505039
-3.949,0.0674349099179905,0.04447651131098315
-3.9485,-0.6688071552621118,-0.5807251545938954
-3.948,-1.394379045584531,-1.121153713257435
-3.9475,-1.863866739322568,-1.38606967338662
-3.947,-1.383708870726849,-1.152943628472937
-3.9465,-0.5300948821122373,-0.8032545611024114
-3.946,0.142126133921769,-0.2734226408440398
-3.9455,0.5049120790829789,0.2246193641988295
-3.945,0.6436243522328531,0.5743084315693548
-3.9445,0.6542945270905358,0.7862411996727035
-3.944,0.6116138276598051,0.8604176685088755
-3.9435,0.6329541773751706,0.8710143069140429
-3.943,0.825017324813458,0.8286277532933731
-3.9425,0.8143471499557753,0.6590815388106942
-3.942,0.6969752265212663,0.457745409112513
-3.9415,0.5796033030867573,0.2564092794143318
-3.941,0.4942419042252961,0.08686306493165288
-3.9405,0.5689331282290746,0.2881991946298341
-3.94,0.5155822539406614,0.8074344764830383
-3.9395,-0.2206598112394408,0.5319218779486851
-3.939,-0.9782422261349084,0.04447651131098315
-3.9385,-1.607782542738184,0.383568940276341
-3.938,-1.597112367880501,0.6802748156210291
-3.9375,-0.9675720512772257,0.4895353243280153
-3.937,-0.3487019095316325,0.1610395337678249
-3.9365,0.1101156093487211,-0.1038764263613609
-3.936,0.3661998059331045,-0.2416327256285375
-3.9355,0.4835717293676135,-0.2734226408440398
-3.935,0.5155822539406614,-0.2204394488182027
-3.9345,0.4942419042252961,-0.1144730647665284
-3.934,0.4729015545099309,0.002089957690313421
-3.9335,0.4515612047945656,0.13984625695749
-3.933,0.4302208550792003,0.2564092794143318
-3.9325,0.2808384070716433,0.2034260873884947
-3.932,-0.3487019095316325,-0.3158091944647096
-3.9315,-0.9569018764195432,-0.8880276683437509
-3.931,-1.394379045584531,-1.248313374119443
-3.9305,-1.234326422719292,-1.152943628472937
-3.93,-0.5621054066852853,-0.8032545611024114
-3.9295,0.08877525963335578,-0.3899856633008816
-3.929,0.4729015545099309,0.13984625695749
-3.9285,0.6542945270905358,0.6378882620003594
-3.928,0.6969752265212663,0.9663840525605498
-3.9275,0.6542945270905358,1.114736990232894
-3.927,0.6009436528021226,1.082947075017392
-3.9265,0.7716664505250448,0.7862411996727035
-3.926,0.8356874996711408,0.5001319627331828
-3.9255,0.7396559259519968,0.3305857482505039
-3.925,0.6222840025174878,0.1822328105781598
-3.9245,0.5155822539406614,0.05507314971615059
-3.924,0.3235191065023739,0.1186529801471552
-3.9235,-0.274010685527854,0.6166949851900245
-3.923,-1.031593100423322,0.55311515475902
-3.9225,-1.67180359188428,-0.09327978795619347
-3.922,-2.109280761049269,0.04447651131098315
-3.9215,-1.970568487899394,0.5107286011383502
-3.921,-1.159635198715513,0.4683420475176805
-3.9205,-0.423393133535411,0.1928294489833272
-3.92,0.08877525963335578,-0.08268314955102604
-3.9195,0.3768699807907871,-0.252229364033705
-3.919,0.5049120790829789,-0.3158091944647096
-3.9185,0.5262524287983441,-0.3052125560595421
-3.918,0.5155822539406614,-0.2310360872233701
-3.9175,0.4835717293676135,-0.1144730647665284
-3.917,0.4515612047945656,0.002089957690313421
-3.9165,0.4302208550792003,0.1186529801471552
-3.916,0.3768699807907871,0.1716361721729923
-3.9155,-0.09261771294724913,-0.2098428104130352
-3.915,-0.839529952985034,-0.8032545611024114
-3.9145,-1.533091318734406,-1.258910012524611
-3.914,-1.778505340461106,-1.375473034981453
-3.9135,-1.127624674142465,-1.152943628472937
-3.913,-0.3166913849585846,-0.7608680074817418
-3.9125,0.2808384070716433,-0.252229364033705
-3.912,0.6009436528021226,0.1822328105781598
-3.9115,0.707645401378949,0.55311515475902
-3.911,0.6969752265212663,0.8286277532933731
-3.9105,0.6329541773751706,0.9451907757502149
-3.91,0.707645401378949,1.061753798207057
-3.9095,0.9210488985326017,1.093543713422559
-3.909,0.8783681991018712,0.8392243916985406
-3.9085,0.7289857510943143,0.4789386859228479
-3.908,0.5902734779444399,0.1610395337678249
-3.9075,0.5155822539406614,-0.02969995752518888
-3.907,0.7503261008096795,0.3199891098453364
-3.9065,0.4942419042252961,0.7120647308365314
-3.906,-0.3380317346739499,0.2140227257936621
-3.9055,-1.1062843244271,-0.4641621321370536
-3.905,-1.565101843307454,-0.3158091944647096
-3.9045,-1.223656247861609,-0.07208651114585861
-3.904,-0.6154562809736985,-0.01910331912002144
-3.9035,-0.09261771294724913,-0.05089323433552374
-3.903,0.2488278824985954,-0.07208651114585861
-3.9025,0.4302208550792003,-0.07208651114585861
-3.902,0.4942419042252961,-0.05089323433552374
-3.9015,0.5049120790829789,0.002089957690313421
-3.901,0.4835717293676135,0.07626642652648545
-3.9005,0.4622313796522482,0.1504428953626575
-3.9,0.4408910299368829,0.2352160026039969
-3.8995,0.4195506802215176,0.2881991946298341
-3.899,0.1527963087794516,0.05507314971615059
-3.8985,-0.5300948821122373,-0.5595318777835605
-3.898,-1.223656247861609,-1.142346990067769
-3.8975,-1.661133417026597,-1.481439419033127
-3.897,-1.30901764672307,-1.42845622700729
-3.8965,-0.5300948821122373,-1.174136905283272
-3.896,0.1207857842064037,-0.7078848154559045
-3.8955,0.5049120790829789,-0.1992461720078678
-3.895,0.6649647019482183,0.2564092794143318
-3.8945,0.6756348768059011,0.5637117931641874
-3.894,0.6329541773751706,0.7544512844572011
-3.8935,0.6116138276598051,0.7862411996727035
-3.893,0.857027849386506,0.4895353243280153
-3.8925,0.8783681991018712,0.309392471440169
-3.892,0.7609962756673623,0.2352160026039969
-3.8915,0.6222840025174878,0.1716361721729923
-3.891,0.5155822539406614,0.1080563417419877
-3.8905,0.6436243522328531,0.3411823866556712
-3.89,0.6863050516635838,0.8604176685088755
-3.8895,-0.02859666380115328,0.6060983467848571
-3.889,-0.839529952985034,0.03387987290581572
-3.8885,-1.501080794161358,0.3199891098453364
-3.888,-1.607782542738184,0.6802748156210291
-3.8875,-1.020922925565639,0.5319218779486851
-3.887,-0.4020527838200457,0.2034260873884947
