Class_5_Move_Left_hand_Horiszontal/Class_5_Move_Left_hand_Horizontal_Turki_1.csv

#Digilent WaveForms Oscilloscope Acquisition
#Device Name: EExplorer
#Serial Number: SN:210151A2B84A
#Date Time: 2020-10-20 13:17:27.601
#Sample rate: 2000Hz
#Samples: 16384
#Trigger: Source: Channel 1 Type: Edge Condition: Rising Level: 0 V Hyst.: Auto HoldOff: 0 s
#Channel 1: Range: 1 V/div Offset: 0 V
#Channel 2: Range: 1 V/div Offset: 0 V

Time (s),Channel 1 (V),Channel 2 (V)
-4.0960000000000001,0.035424385344942577,-0.11447306476652835
-4.0955000000000004,-0.32736155981593729,-0.33700247127484206
-4.0949999999999998,-0.48741418268153597,-0.35819574808528293
-4.0945,-0.51942470725455481,-0.25222936403370499
-4.0940000000000003,-0.50875453239688173,-0.093279787956338012
-4.0934999999999997,-0.47674400782379517,0.065669788121433675
-4.093,-0.44473348325077627,0.19282944898332721
-4.0925000000000002,-0.41272295867775743,0.28819919462974741
-4.0919999999999996,-0.34870190953136077,0.24581264100891381
-4.0914999999999999,-0.049937013516518552,-0.029699957525188878
-4.0910000000000002,0.52625242879834411,-0.44296885532671876
-4.0904999999999996,1.1664629202593024,-0.43237221692137784
-4.0899999999999999,1.1664629202593024,-0.24163272562853755
-4.0895000000000001,0.71831557623663156,-0.12506970317169577
-4.0890000000000004,0.21681735792600354,-0.040296595930433415
-4.0884999999999998,-0.14596858723566233,0.023283234500648287
-4.0880000000000001,-0.3700422592469978,0.065669788121318018
-4.0875000000000004,-0.47674400782372722,0.055073149716160223
-4.0869999999999997,-0.49808435753917979,-0.0085066807149503879
-4.0865,-0.48741418268150688,-0.11447306476652835
-4.0860000000000003,-0.45540365810848804,-0.22043944881810629
-4.0854999999999997,-0.43406330839308394,-0.29461591765450962
-4.085,-0.42339313353541097,-0.44296885532671876
-4.0845000000000002,-0.42339313353541097,-0.59132179299892795
-4.0839999999999996,-0.42339313353539154,-0.72907809226631648
-4.0834999999999999,-0.40205278382004572,-0.81385119950757889
-4.0830000000000002,-0.4980843575391895,-0.97280077558509037
-4.0824999999999996,-0.55143523182701082,-0.73967473067052991
-4.0819999999999999,0.099445434491038431,0.2246193641988295
-4.0815000000000001,0.32351910650237387,0.9134008605347127
-4.0810000000000004,0.37686998079073858,1.4962159728183912
-4.0804999999999998,0.18480683335249956,1.6869554641119353
-4.0800000000000001,-0.13529841237797968,1.0723504366122243
-4.0795000000000003,-0.35937208438911139,0.35177902506149406
-4.0789999999999997,-0.46607383296617061,-0.11447306476671147
-4.0785,-0.4980843575391895,-0.31580919446470956
-4.0780000000000003,-0.48741418268151659,-0.29461591765439393
-4.0774999999999997,-0.45540365810842981,-0.16745625679221129
-4.077,-0.42339313353541097,0.0020899576903134209
-4.0765000000000002,-0.39138260896239219,0.16103953376768038
-4.0759999999999996,-0.38071243410468042,0.26700591781953775
-4.0754999999999999,-0.38071243410468042,0.30939247144016896
-4.0750000000000002,-0.26334051067017139,0.19282944898332721
-4.0744999999999996,0.16346648363774566,-0.18864953360275818
-4.0739999999999998,0.83568749967114075,-0.25222936403370499
-4.0735000000000001,1.3478558928399074,-0.2310360872233701
-4.0730000000000004,1.1557927454017947,-0.19924617200789674
-4.0724999999999998,0.63295417737517057,-0.10387642636136091
-4.0720000000000001,0.13145595906408636,0.023283234500648287
-4.0715000000000003,-0.20998963638144763,0.11865298014706845
-4.0709999999999997,-0.39138260896243099,0.12924961855227443
-4.0705,-0.46607383296614152,0.076266426526485451
-4.0700000000000003,-0.47674400782381454,-0.019103319119934709
-4.0694999999999997,-0.48741418268160391,-0.14626297998200172
-4.069,-0.59411593125833329,-0.11447306476652835
-4.0685000000000002,-0.61545628097369853,-0.2310360872233701
-4.0679999999999996,-0.57277558154290986,-0.44296885532690189
-4.0674999999999999,-0.50875453239687207,-0.64430498502489997
-4.0670000000000002,-0.44473348325077627,-0.73967473067140688
-4.0664999999999996,-0.017926488942771903,-0.31580919446403494
-4.0659999999999998,0.75032610080967954,0.42595549389701071
-4.0655000000000001,1.1131120459708892,1.0723504366122243
-4.0650000000000004,1.0490909968248516,1.2630899279050645
-4.0644999999999998,0.45156120479456557,1.0723504366122243
-4.0640000000000001,0.0034138607718946501,1.1995100974742332
-4.0635000000000003,-0.41272295867734987,0.68027481562150138
-4.0629999999999997,-0.57277558154290986,0.11865298014691424
-4.0625,-0.50875453239687207,-0.14626297998203064
-4.0620000000000003,-0.49808435753919922,-0.29461591765423978
-4.0614999999999997,-0.49808435753917979,-0.28401927924910125
-4.0609999999999999,-0.48741418268150688,-0.1674562567923655
-4.0605000000000002,-0.4554036581084589,0.012686596095480854
-4.0599999999999996,-0.43406330839307422,0.20342608738864887
-4.0594999999999999,-0.41272295867772835,0.37297230187117358
-4.0590000000000002,-0.39138260896236304,0.46834204751768049
-4.0585000000000004,-0.27401068552796076,0.29879583303515578
-4.0579999999999998,0.27016823221396069,-0.42177557851638392
-4.0575000000000001,0.84635767452882327,-1.0681705212315973
-4.0570000000000004,0.95305942310555269,-0.82444783791296805
-4.0564999999999998,0.80367697509809277,-0.5807251545938954
-4.056,0.41955068022151765,-0.37938902489571413
-4.0555000000000003,0.046094560202964874,-0.17805289519771603
-4.0549999999999997,-0.23132998609725933,-0.040296595930317758
-4.0545,-0.38071243410468042,0.0020899576903134209
-4.0540000000000003,-0.44473348325071804,-0.040296595930317758
-4.0534999999999997,-0.4554036581084589,-0.12506970317181143
-4.0529999999999999,-0.4554036581084589,-0.25222936403370499
-4.0525000000000002,-0.51942470725455481,-0.34759910968021185
-4.0519999999999996,-0.55143523182758336,-0.45356549373200183
-4.0514999999999999,-0.53009488211223732,-0.5807251545938954
-4.0510000000000002,-0.48741418268150688,-0.68669153864556975
-4.0505000000000004,-0.45540365810848804,-0.76086800748167427
-4.0499999999999998,-0.22065981123944084,-0.68669153864556975
-4.0495000000000001,0.55826295337139209,-0.12506970317169577
-4.0490000000000004,1.4012067671275541,0.63788826199966553
-4.0484999999999998,1.6572909637123256,1.029963882991805
-4.048,1.2411541442630809,1.3054764815259077
-4.0475000000000003,0.39821033050691901,1.5068126112239055
-4.0469999999999997,-0.87154047755846042,0.59550170837902461
-4.0465,-1.2876772970077051,-0.13566634157686319
-4.0460000000000003,-1.2343264227193405,-0.49595204735222825
-4.0454999999999997,-1.0636036249960978,-0.62311170821440121
-4.0449999999999999,-0.76483872898125549,-0.44296885532671876
-4.0445000000000002,-0.51942470725455481,-0.1674562567923655
-4.0439999999999996,-0.44473348325075684,0.023283234500773575
-4.0434999999999999,-0.42339313353541097,0.16103953376782493
-4.0430000000000001,-0.41272295867772835,0.27760255622466667
-4.0425000000000004,-0.39138260896238247,0.29879583303498231
-4.0419999999999998,-0.30602121010090194,0.12924961855232261
-4.0415000000000001,0.19547700821018218,-0.62311170821456507
-4.0410000000000004,0.94238924824728765,-1.4920360574375044
-4.0404999999999998,1.4865681659898011,-1.8099352095929804
-4.04,1.5079085157051471,-1.4390528654124575
-4.0395000000000003,0.99574012253684607,-0.91981758355972554
-4.0389999999999997,0.40888050536342746,-0.3899856633005539
-4.0385,-0.039266838658835915,-0.029699957525188878
-4.0380000000000003,-0.3060212101006593,0.15044289536249367
-4.0374999999999996,-0.43406330839313245,0.17163617217290561
-4.0369999999999999,-0.47674400782382426,0.076266426526485451
-4.0365000000000002,-0.47674400782382426,-0.093279787956193475
-4.0359999999999996,-0.48741418268153597,-0.3475991096804335
-4.0354999999999999,-0.51942470725455481,-0.59132179299906285
-4.0350000000000001,-0.4980843575391895,-0.73967473067140688
-4.0345000000000004,-0.46607383296617066,-0.84564111472298487
-4.0339999999999998,-0.44473348325077627,-0.9304142219644207
-4.0335000000000001,-0.38071243410468042,-0.83504447631791379
-4.0330000000000004,-0.0072563140861276465,-0.1780528951981305
-4.0324999999999998,0.71831557623702946,0.59550170838018113
-4.032,1.1557927454016199,1.1359302670432285
-4.0315000000000003,1.0597611716825635,1.4326361423876472
-4.0309999999999997,0.38754015564789718,1.5915857184650428
-4.0305,-0.24200016095480609,1.1677201822587309
-4.0300000000000002,-0.53009488211197531,0.45774540911315875
-4.0294999999999996,-0.60478610611602546,-0.082683149551315172
-4.0289999999999999,-0.61545628097369853,-0.40058230170604903
-4.0285000000000002,-1.1489650238578306,-1.0257839676109275
-4.0279999999999996,-1.2343264227191366,-1.057573882826131
-4.0274999999999999,-1.0636036249963696,-0.72907809226623943
-4.0270000000000001,-0.90355100213112993,-0.37938902489571413
-4.0265000000000004,-0.64746680554697944,0.02328323450028208
-4.0259999999999998,-0.43406330839309365,0.30939247144016896
-4.0255000000000001,-0.38071243410468042,0.41535885549184332
-4.0250000000000004,-0.081947538089838234,0.02328323450100489
-4.0244999999999997,0.67563487680656098,-0.8986243067495544
-4.024,1.4012067671283206,-1.5980024414899687
-4.0235000000000003,1.7853330620045464,-1.5662125262744957
-4.0229999999999997,1.4225471168431036,-1.0469772444207035
-4.0225,0.78233662538272752,-0.43237221692155131
-4.0220000000000002,0.21681735792606183,0.033879872905391684
-4.0214999999999996,-0.1673089369512217,0.26700591781952815
-4.0209999999999999,-0.38071243410468042,0.29879583303500157
-4.0205000000000002,-0.47674400782382426,0.20342608738849466
-4.0199999999999996,-0.48741418268146808,0.03387987290564224
-4.0194999999999999,-0.44473348325077627,-0.15685961838719809
-4.0190000000000001,-0.38071243410468042,-0.32640583286987701
-4.0185000000000004,-0.3593720843893346,-0.5277419625678752
-4.0179999999999998,-0.3700422592469978,-0.72907809226623943
-4.0175000000000001,-0.39138260896236304,-0.89862430674891836
-4.0170000000000003,-0.39138260896236304,-1.0363806060159697
-4.0164999999999997,-0.11395806266188657,-1.2165234589036331
-4.016,0.6863050516635838,-0.87743102993858346
-4.0155000000000003,1.4545576414160351,-0.072086511146591037
-4.0149999999999997,1.241154144261897,0.50013196273366467
-4.0145,-0.06060718837420119,1.0299638829915545
-4.0140000000000002,-1.0209229255647654,1.1041403518276591
-4.0134999999999996,-1.2129860730037809,0.59550170837917882
-4.0129999999999999,-1.0529334501386869,0.033879872905815719
-4.0125000000000002,-0.80751942841198598,-0.29461591765437467
-4.0119999999999996,-0.60478610611589934,-0.41117894011115863
-4.0114999999999998,-0.47674400782382426,-0.34759910968021185
-4.0110000000000001,-0.41272295867772835,-0.18864953360270037
-4.0105000000000004,-0.39138260896238247,0.0020899576901399486
-4.0099999999999998,-0.57277558154296804,-0.050893234335523743
-4.0095000000000001,-1.1703053735731959,-0.53833860097322561
-4.0090000000000003,-1.1169544992848313,-0.32640583287006975
-4.0084999999999997,-0.89288082727295226,-0.27342264084448314
-4.008,-0.34870190953163249,-0.76086800748174177
-4.0075000000000003,0.61161382765893169,-0.78206128429205723
-4.0069999999999997,1.4012067671282429,-0.13566634157665117
-4.0065,1.3158453682668594,0.097459703336820316
-4.0060000000000002,0.76099627566736228,0.076266426526485451
-4.0054999999999996,0.20614718306751548,0.044476511310973514
-4.0049999999999999,-0.17797911180871023,0.033879872905815719
-4.0045000000000002,-0.38071243410468042,0.023283234500648287
-4.0039999999999996,-0.4554036581084589,-0.0085066807148925627
-4.0034999999999998,-0.4554036581084589,-0.050893234335523743
-4.0030000000000001,-0.44473348325077627,-0.13566634157686319
-4.0025000000000004,-0.48741418268146808,-0.14626297998202101
-4.0019999999999998,-0.50875453239687207,-0.25222936403370499
-4.0015000000000001,-0.48741418268150688,-0.42177557851638392
-4.0010000000000003,-0.45540365810848804,-0.57012851618859306
-4.0004999999999997,-0.42339313353517805,-0.65490162342976865
-4,-0.16730893695102761,-0.32640583286987701
-3.9994999999999998,0.60094365280212259,0.38356894027634103
-3.9990000000000001,1.4438874665590511,1.0617537982070568
-3.9984999999999999,1.7213120128587998,1.5174092496292562
-3.9980000000000002,0.80367697509809277,1.8035184865687772
-3.9975000000000001,-0.43406330839309365,1.7823252097584423
-3.9969999999999999,-0.94623170156186043,1.1677201822587309
-3.9965000000000002,-0.96757205127722568,0.46834204751768049
-3.996,-0.81818960326966872,-0.0085066807148540119
-3.9954999999999998,-0.63679663068906378,-0.22043944881820265
-3.9950000000000001,-0.4980843575391895,-0.22043944881820265
-3.9944999999999999,-0.43406330839309365,-0.11447306476652835
-3.9940000000000002,-0.40205278382004572,0.044476511310983152
-3.9935,-0.39138260896236304,0.21402272579366208
-3.9929999999999999,-0.38071243410468042,0.29879583303500157
-3.9925000000000002,-0.3700422592469978,0.30939247144016896
-3.992,-0.35937208438931517,0.36237566346600614
-3.9914999999999998,-0.20998963638175816,0.076266426526485451
-3.9910000000000001,-0.38071243410468042,-1.131750351662602
-3.9904999999999999,-0.17797911180871023,-1.5980024414899687
-3.9900000000000002,0.046094560202625215,-1.6615822719209734
-3.9895,-0.028596663801153277,-1.3118932045504481
-3.9889999999999999,-0.10328788780493176,-0.67609490024040231
-3.9885000000000002,-0.22065981123944084,-0.19924617200786782
-3.988,-0.35937208438931517,-0.0085066807148540119
-3.9874999999999998,-0.43406330839309365,0.023283234500648287
-3.9870000000000001,-0.4554036581084589,-0.029699957525188878
-3.9864999999999999,-0.4554036581084589,-0.15685961838719809
-3.9860000000000002,-0.44473348325077627,-0.24163272562853755
-3.9855,-0.4554036581084589,-0.29461591765437467
-3.9849999999999999,-0.43406330839309365,-0.44296885532671876
-3.9845000000000002,-0.41272295867772835,-0.61251506980939763
-3.984,-0.41272295867772835,-0.77146464588690922
-3.9834999999999998,-0.30602121010090194,-0.82444783791274634
-3.9830000000000001,0.32351910650237387,-0.43237221692155131
-3.9824999999999999,1.1984734448323504,0.31998910984533641
-3.9820000000000002,1.742652362574165,0.94519077575021493
-3.9815,1.2945050185514941,1.33726639674141
-3.9809999999999999,0.0034138607718946501,1.6127789952757632
-3.9805000000000001,-0.92489135184649518,1.3902495887672472
-3.98,-1.1169544992847826,0.73325800764686633
-3.9794999999999998,-0.97824222613490841,0.15044289536265748
-3.9790000000000001,-0.75416855412357298,-0.17805289519753292
-3.9784999999999999,-0.5621054066852853,-0.27342264084403983
-3.9780000000000002,-0.4554036581084589,-0.19924617200786782
-3.9775,-0.39138260896236304,-0.04029659593035631
-3.9769999999999999,-0.3700422592469978,0.12924961855232261
-3.9765000000000001,-0.3700422592469978,0.29879583303500157
-3.976,-0.3700422592469978,0.40476221708667587
-3.9754999999999998,-0.34870190953163249,0.35177902506083869
-3.9750000000000001,-0.19931946152407554,0.46834204751768049
-3.9744999999999999,0.29150858192932599,0.90280422212954525
-3.9740000000000002,0.94238924824796699,1.3690563119569124
-3.9735,0.87836819910187125,1.0299638829915545
-3.9729999999999999,0.29150858192932599,0.10805634174198775
-3.9725000000000001,-0.092617712947249131,-0.50654868575772338
-3.972,-0.41272295867772835,-0.89862430674891836
-3.9714999999999998,-0.50875453239687207,-0.95160749877475548
-3.9710000000000001,-0.4554036581084589,-0.792657922697244
-3.9704999999999999,-0.4554036581084589,-0.67609490024040231
-3.9700000000000002,-0.46607383296614152,-0.57012851618872795
-3.9695,-0.46607383296614152,-0.44296885532671876
-3.9689999999999999,-0.48741418268150688,-0.27342264084403983
-3.9685000000000001,-0.47674400782382426,-0.12506970317169577
-3.968,-0.44473348325077627,-0.0085066807148540119
-3.9674999999999998,-0.40205278382004572,0.11865298014715518
-3.9670000000000001,-0.32736155981626724,0.27760255622466667
-3.9664999999999999,0.13145595906408636,0.69087145402619654
-3.9660000000000002,0.97439977282101498,1.2101067358794007
-3.9655,1.7213120128587998,1.6339722720860981
-3.9649999999999999,2.2014698814545186,1.8988882322152838
-3.9645000000000001,2.3615225043197583,2.0154512546721257
-3.964,1.8280137614356262,1.7081487409222702
-3.9634999999999998,0.97439977282101498,0.96638405256054982
-3.9630000000000001,0.27016823221396069,0.29879583303500157
-3.9624999999999999,-0.18864928666639288,-0.10387642636136091
-3.9620000000000002,-0.41272295867772835,-0.26282600243887239
-3.9615,-0.4980843575391895,-0.24163272562853755
-3.9609999999999999,-0.4980843575391895,-0.12506970317169577
-3.9605000000000001,-0.46607383296614152,0.023283234500648287
-3.96,-0.43406330839309365,0.13984625695749003
-3.9594999999999998,-0.41272295867772835,0.23521600260399694
-3.9590000000000001,-0.39138260896236304,0.34118238665567124
-3.9584999999999999,-0.33803173467394987,0.40476221708667587
-3.9580000000000002,-0.039266838658835915,0.23521600260399694
-3.9575,0.54759277851370936,-0.072086511145858609
-3.9569999999999999,0.857027849386506,-0.4641621321370536
-3.9565000000000001,0.75032610080967954,-0.68669153864556975
-3.956,0.38754015564846972,-0.53833860097322561
-3.9554999999999998,-0.4980843575391895,-0.80325456110241145
-3.9550000000000001,-0.95690187641954316,-0.78206128429207655
-3.9544999999999999,-0.96757205127722568,-0.53833860097322561
-3.9540000000000002,-0.8928808272734472,-0.40058230170604903
-3.9535,-0.66880715526211176,-0.24163272562853755
-3.9529999999999998,-0.47674400782382426,-0.1674562567923655
-3.9525000000000001,-0.4980843575391895,-0.18864953360270037
-3.952,-0.51942470725455481,-0.30521255605954212
-3.9514999999999998,-0.4980843575391895,-0.48535540894738849
-3.9510000000000001,-0.4554036581084589,-0.65490162343006741
-3.9504999999999999,-0.42339313353541097,-0.80325456110241145
-3.9500000000000002,-0.29535103524321932,-0.94101086036958814
-3.9495,0.21681735792554749,-0.59132179299906285
-3.9489999999999998,1.0384208219671107,0.23521600260399694
-3.9485000000000001,1.4865681659897818,0.93459413734504748
-3.948,1.2091436196900331,1.432636142387917
-3.9474999999999998,0.21681735792554749,1.6763588257067679
-3.9470000000000001,-0.48741418268150688,1.2630899279052379
-3.9464999999999999,-0.71148785469284226,0.55311515475901996
-3.9460000000000002,-0.70081767983515975,0.0020899576903134209
-3.9455,-0.6047861061160158,-0.29461591765437467
-3.9449999999999998,-0.50875453239687207,-0.36879238649054674
-3.9445000000000001,-0.44473348325077627,-0.28401927924920728
-3.944,-0.40205278382004572,-0.12506970317169577
-3.9434999999999998,-0.38071243410468042,0.044476511310983152
-3.9430000000000001,-0.3700422592469978,0.19282944898332721
-3.9424999999999999,-0.3700422592469978,0.29879583303500157
-3.9420000000000002,-0.34870190953163249,0.37297230187117358
-3.9415,-0.17797911180871023,0.58490506997452218
-3.9409999999999998,0.22748753278323011,0.25640927941433178
-3.9405000000000001,0.78233662538272752,0.023283234500648287
-3.9399999999999999,0.94238924824796699,0.097459703336820316
-3.9394999999999998,0.65429452709053582,0.086863064931652884
-3.9390000000000001,0.23815770764091276,0.10805634174198775
-3.9384999999999999,-0.13529841237797968,0.086863064931652884
-3.9380000000000002,-0.93556152670417769,-0.51714532416289083
-3.9375,-1.1169544992847826,-0.63370834661973252
-3.9369999999999998,-1.0209229255656389,-0.55953187778356051
-3.9365000000000001,-0.87154047755808195,-0.49595204735255594
-3.9359999999999999,-0.62612645583138127,-0.34759910968021185
-3.9355000000000002,-0.4554036581084589,-0.26282600243887239
-3.9350000000000001,-0.42339313353541097,-0.3581957480853793
-3.9344999999999999,-0.41272295867772835,-0.48535540894738849
-3.9340000000000002,-0.40205278382004572,-0.5807251545938954
-3.9335,-0.27401068552785401,-0.49595204735255594
-3.9329999999999998,0.3982103305061524,0.076266426526485451
-3.9325000000000001,1.2518243191207636,0.78624119967270345
-3.9319999999999999,1.657290963712704,1.2313000126897355
-3.9315000000000002,0.79300680024041004,1.432636142387917
-3.931,-0.71148785469284226,1.5809890800602608
-3.9304999999999999,-1.405049220442214,1.1889134590690658
-3.9300000000000002,-1.3516983461538008,0.48953532432801533
