Class_5_Move_Left_hand_Horiszontal/Class_5_Move_Left_hand_Horiszontal_AM_3.csv

#Digilent WaveForms Oscilloscope Acquisition
#Device Name: EExplorer
#Serial Number: SN:210151A2B84A
#Date Time: 2020-11-08 09:38:03.039
#Sample rate: 2000Hz
#Samples: 16384
#Trigger: Source: Channel 1 Type: Edge Condition: Rising Level: 0 V Hyst.: Auto HoldOff: 0 s
#Channel 1: Range: 1 V/div Offset: 0 V Attenuation: 1 X
#Channel 2: Range: 1 V/div Offset: 0 V Attenuation: 1 X
#Power Supplies: ON
#Fixed Supply: ON
#Voltage: 3.3 V Readback: 3.317 V
#Positive Supply: ON
#Voltage: 3.7 V Readback: 3.703 V
#Current: 40 mA Readback: 24 mA
#Negative Supply: ON
#Voltage: -3.7 V Readback: -3.697 V
#Current: -40 mA Readback: 0 A
#Reference 1: ON
#Voltage: 0 V
#Reference 2: ON
#Voltage: 0 V

Time (s),Channel 1 (V),Channel 2 (V)
-4.096,1.603940089424291,-1.619195718300304
-4.0955,1.699971663143347,-0.835044476318627
-4.095,1.475897991131885,-0.3158091944644301
-4.0945,1.241154144263081,-0.008506680714854012
-4.094,1.070431346540314,0.1398462569573551
-4.0935,1.081101521397871,0.1398462569573744
-4.093,1.113112045970889,0.01268659609548085
-4.0925,1.017080472251833,-0.06148987274062372
-4.092,0.8997085488171589,-0.06148987274065262
-4.0915,0.8143471499557753,-0.01910331912002144
-4.091,0.6436243522328531,0.2034260873884947
-4.0905,0.3661998059326969,0.9345941373458089
-4.09,-0.08194753808956648,1.771728571353275
-4.0895,-0.8928808272734472,2.322753768421981
-4.089,-1.554431668449169,1.75053529454346
-4.0885,-2.109280761049269,0.3623756634660061
-4.088,-2.418715831922065,-0.8350444763179138
-4.0875,-2.386705307349046,-1.545019249463486
-4.087,-2.183971985052173,-1.619195718299562
-4.0865,-1.223656247861609,-0.8032545611024114
-4.086,-0.3060212101017364,0.1928294489824213
-4.0855,0.3341892813603768,0.9769806909661606
-4.085,0.6863050516635838,1.464426057603419
-4.0845,0.8143471499556588,1.676358825706575
-4.084,0.8250173248134192,1.6869554641118
-4.0835,0.7823366253827275,1.538602526439591
-4.083,0.707645401378949,1.241896651094903
-4.0825,0.3341892813601245,0.5531151547582875
-4.082,0.408880505363835,-0.252229364033705
-4.0815,0.5796033030867573,-0.9198175835592532
-4.081,0.1421261339221669,-1.650985633515141
-4.0805,0.3555296310754218,-2.371557045067191
-4.08,1.145122570543937,-2.58348981317054
-4.0795,1.497238340847144,-2.551699897955066
-4.079,1.55058921513581,-1.905304955239073
-4.0785,1.475897991132099,-1.078767159636765
-4.078,1.241154144263295,-0.5171453241634016
-4.0775,1.027750647109331,-0.1992461720077425
-4.077,0.9210488985326017,-0.06148987274069118
-4.0765,0.9317190733902748,0.07626642652636018
-4.076,0.8890383739595052,0.08686306493162398
-4.0755,0.8356874996711408,0.05507314971615059
-4.075,0.7823366253827275,0.03387987290581572
-4.0745,0.6756348768054061,0.1504428953632454
-4.074,0.1314559590640864,0.7968378380778709
-4.0735,-0.7968492535543035,1.644568910491266
-4.073,-1.69314394159883,2.05783780829242
-4.0725,-2.205312334768412,1.559795803249926
-4.072,-2.226652684483777,0.3623756634660061
-4.0715,-2.322684258202834,-0.8350444763168247
-4.071,-2.386705307348959,-1.650985633516172
-4.0705,-2.322684258202921,-2.053657892912168
-4.07,-1.62912289245418,-1.545019249464595
-4.0695,-0.6581369804037497,-0.4959520473516982
-4.069,0.08877525963335578,0.4471487707073456
-4.0685,0.5475927785137094,1.114736990232894
-4.068,0.7609962756674108,1.48561933441386
-4.0675,0.8143471499557753,1.602182356870596
-4.067,0.79300680024041,1.559795803249926
-4.0665,0.7503261008094564,1.379652950361636
-4.066,0.5049120790829789,0.8922075837243778
-4.0655,0.3021787567870086,0.09745970333682032
-4.065,0.5689331282288319,-0.6337083466190675
-4.0645,0.2168173579255475,-1.311893204550448
-4.064,0.01408403562957729,-2.21260746898968
-4.0635,0.75032610080901,-2.509313344334098
-4.063,1.230483969405583,-2.541103259549331
-4.0625,1.433217291701369,-1.947691508860494
-4.062,1.47589799113206,-1.099960436447871
-4.0615,1.337185717982031,-0.5489352393781425
-4.061,1.123782220828572,-0.2734226408440398
-4.0605,0.974399772821015,-0.1886495336027004
-4.06,1.027750647109409,-0.1780528951975137
-4.0595,1.006410297394063,-0.1568596183871981
-4.059,0.9210488985326017,-0.1356663415768632
-4.0585,0.8356874996712184,-0.07208651114591644
-4.058,0.7716664505250448,0.03387987290581572
-4.0575,0.6329541773751706,0.4683420475176805
-4.057,0.9743997728207044,1.305476481525146
-4.0565,1.006410297394063,2.068434446697963
-4.056,0.1207857842064037,2.227384022775475
-4.0555,-0.9355615267032169,1.135930267044221
-4.055,-1.842526389607688,-0.2098428104139123
-4.0545,-2.376035132491334,-1.174136905283272
-4.054,-2.365364957633662,-1.650985633515372
-4.0535,-2.162631635336789,-1.492036057437456
-4.053,-1.180975548430879,-0.570128516188728
-4.0525,-0.274010685527854,0.4365521323021782
-4.052,0.3448594562180303,1.188913459069461
-4.0515,0.6649647019482183,1.623375633680931
-4.051,0.7823366253827275,1.782325209758442
-4.0505,0.7930068002404004,1.718745379327495
-4.05,0.7503261008096795,1.496215972818921
-4.0495,0.5796033030867573,1.019367244586387
-4.049,0.280838407071915,0.2140227257943945
-4.0485,0.4729015545100279,-0.9304142219652303
-4.048,0.5796033030867573,-1.820531847998485
-4.0475,0.8463576745285806,-2.08544780812743
-4.047,1.550589215136305,-2.339767129851574
-4.0465,2.020076908873914,-2.21260746898968
-4.046,2.030747083731587,-1.523825972654423
-4.0455,1.699971663143105,-0.8668343915330017
-4.045,1.337185717982225,-0.4111789401112165
-4.0445,1.091771696255524,-0.09327978795619347
-4.044,0.9423892482479767,0.1080563417421323
-4.0435,0.9530594231056497,0.2670059178194992
-4.043,1.006410297394063,0.3729723018711736
-4.0425,0.9423892482480252,0.2564092794144378
-4.042,0.8463576745288233,0.1080563417419877
-4.0415,0.7609962756673623,0.02328323450064829
-4.041,0.5689331282292494,-0.1250697031715609
-4.0405,0.5689331282295501,-0.05089323433480093
-4.04,1.091771696255524,0.7438546460520338
-4.0395,0.9103787236750842,1.358459673551186
-4.039,0.0887752596325212,1.008770606180352
-4.0385,-0.8288597781273515,0.05507314971615059
-4.038,-1.629122892452822,-0.8032545611016308
-4.0375,-2.141291285622258,-1.33308648136087
-4.037,-2.07727023647622,-1.42845622700729
-4.0365,-1.298347471865388,-0.7396747306714069
-4.036,-0.4127229586771461,0.1610395337684899
-4.0355,0.2274875327832301,0.8922075837243778
-4.035,0.5902734779444399,1.358459673551745
-4.0345,0.7183155762365151,1.538602526439427
-4.034,0.2061471830678648,0.9663840525605498
-4.0335,-0.007256314085787988,0.627291623595192
-4.033,0.08877525963326843,0.5425185163539297
-4.0325,-0.1779791118088267,-0.06148987274146218
-4.032,-0.3060212101009019,-0.9092209451540858
-4.0315,-0.6581369804041088,-1.661582271920289
-4.031,-1.063603624995525,-2.191414192179673
-4.0305,-0.1352984123779797,-2.551699897955038
-4.03,1.038420821966043,-2.78482594286851
-4.0295,1.667961138570464,-2.233800745799118
-4.029,1.753322537431848,-1.248313374119443
-4.0285,1.550589215135878,-0.4323722169215513
-4.028,1.305175193408983,0.00208995769047726
-4.0275,1.091771696255524,0.1822328105781598
-4.027,0.974399772821015,0.2140227257936621
-4.0265,1.017080472251707,0.1928294489833465
-4.026,0.9637295979633325,0.1504428953626575
-4.0255,0.857027849386506,0.1292496185523226
-4.025,0.7716664505251224,0.1292496185523226
-4.0245,0.675634876805707,0.2246193641993499
-4.024,0.4622313796522482,0.7968378380778709
-4.0235,0.4408910299369024,1.612778995275021
-4.023,-0.1139580626632937,2.26977057639598
-4.0225,-0.8608703027003992,2.089627723508298
-4.022,-1.405049220441719,0.9769806909667291
-4.0215,-1.799845690176811,-0.1780528951983425
-4.021,-2.173301810195364,-1.068170521231597
-4.0205,-2.162631635337682,-1.545019249464132
-4.02,-1.56510184330661,-1.163540266877295
-4.0195,-0.6367966306890638,-0.2734226408440398
-4.019,0.07810508477567314,0.55311515475902
-4.0185,0.5049120790825907,1.135930267042699
-4.018,0.707645401378949,1.453829419198252
-4.0175,0.7609962756673623,1.549199164844759
-4.017,0.7183155762366704,1.453829419198339
-4.0165,0.1101156093483135,0.680274815620287
-4.016,-0.3380317346739499,-0.1356663415768632
-4.0155,-0.999582575849672,-1.01518732920496
-4.015,-1.831856214749927,-1.799338571188516
-4.0145,-2.280003558772191,-2.202010830584512
-4.014,-1.383708870727664,-2.350363768256722
-4.0135,0.0674349099188639,-2.530506621144442
-4.013,1.027750647109428,-2.244397384205182
-4.0125,1.422547116843686,-1.42845622700729
-4.012,1.42254711684355,-0.6337083466192796
-4.0115,1.273164668836129,-0.1356663415768632
-4.011,1.113112045970889,0.1716361721729923
-4.0105,1.00641029739416,0.2776025562245703
-4.01,1.081101521397841,0.06566978812131802
-4.0095,1.059761171682476,-0.07208651114585861
-4.009,0.9423892482480738,-0.07208651114585861
-4.0085,0.8143471499556977,0.002089957690419434
-4.008,0.7289857510943143,0.1186529801471552
-4.0075,0.4942419042255096,0.5849050699740981
-4.007,0.2594980573557831,1.390249588767922
-4.0065,-0.2846808603855366,2.132014277128968
-4.006,-1.031593100423322,2.365140322042651
-4.0055,-1.479740444446216,1.36905631195566
-4.005,-1.725154466172693,-0.008506680714854012
-4.0045,-2.087940411333903,-1.089363798041932
-4.004,-2.290673733629679,-1.756952017567538
-4.0035,-2.07727023647622,-1.820531847998485
-4.003,-1.170305373573196,-0.9516074987747555
-4.0025,-0.3060212101016879,0.04447651131007724
-4.002,0.291508581929326,0.8286277532933731
-4.0015,0.6116138276598051,1.305476481525908
-4.001,0.7396559259518803,1.528005888034221
-4.0005,0.7609962756673428,1.549199164844672
-4,0.7396559259519968,1.453829419198252
-3.9995,0.6222840025174878,1.146526905448396
-3.999,-0.3487019095316325,-0.06148987274069118
-3.9985,-1.277007122150022,-1.227120097309109
-3.998,-1.959898313041711,-1.88411167842949
-3.9975,-1.799845690176472,-2.202010830584512
-3.997,-0.4447334832507763,-2.350363768256857
-3.9965,0.8036769750980928,-2.21260746898968
-3.996,1.411876941986003,-1.693372187136476
-3.9955,1.497238340847464,-1.078767159636765
-3.995,1.369196242555273,-0.5383386009732256
-3.9945,1.187803269974668,-0.09327978795619347
-3.994,1.038420821967111,0.08686306493165288
-3.9935,1.027750647109428,0.07626642652648545
-3.993,1.081101521397841,0.01268659609548085
-3.9925,0.9850699476786977,-0.008506680714854012
-3.992,0.8676980242441885,0.002089957690313421
-3.9915,0.7609962756673623,0.04447651131098315
-3.991,0.6542945270905358,0.2034260873884947
-3.9905,0.5475927785137094,0.8392243916985406
-3.99,0.1954770082101822,1.686955464111935
-3.9895,-0.6474668055467465,2.269770576396144
-3.989,-1.458400094730627,1.686955464111935
-3.9885,-2.183971985053047,0.3411823866556712
-3.988,-2.408045657064382,-0.8244478379127463
-3.9875,-2.376035132491334,-1.534422611058964
-3.987,-2.269333383914508,-1.714565463946811
-3.9865,-1.479740444445993,-0.9728007755850904
-3.986,-0.5087545323968721,0.01268659609548085
-3.9855,0.1848068333524996,0.8180311148882058
-3.985,0.5796033030867573,1.326669758336243
-3.9845,0.7396559259519968,1.559795803249926
-3.984,0.7716664505250448,1.559795803249926
-3.9835,0.7503261008096795,1.453829419198252
-3.983,0.6863050516635838,1.231300012689736
-3.9825,0.2701682322139607,0.627291623595192
-3.982,-0.9995825758502737,-0.6972881770507372
-3.9815,-2.045259711903173,-1.725162102351978
-3.981,-2.23732285934146,-2.149027638558676
-3.9805,-1.074273799854052,-2.403346960282694
-3.98,0.3128489316446912,-2.392750321877526
-3.9795,1.145122570543937,-1.746355379162313
-3.979,1.390536592270638,-1.068170521231597
-3.9785,1.326515543124542,-0.5489352393783931
-3.978,1.19847344483235,-0.2416327256285375
-3.9775,1.059761171682476,-0.05089323433552374
-3.977,1.006410297394063,0.13984625695749
-3.9765,1.134452395686255,0.4259554938970107
-3.976,1.102441871113207,0.4471487707073456
-3.9755,0.9637295979633325,0.3517790250608387
-3.975,0.8356874996711408,0.2776025562246667
-3.9745,0.707645401378949,0.3411823866556712
-3.974,0.5049120790829789,0.8710143069140429
-3.9735,0.5049120790829789,1.644568910491266
-3.973,-0.04993701351651855,2.301560491611646
-3.9725,-0.9035510021311299,2.301560491611646
-3.972,-1.661133417026597,1.114736990232894
-3.9715,-2.290673733629873,-0.2310360872233701
-3.971,-2.365364957633652,-1.152943628472937
-3.9705,-2.301343908487556,-1.566212526274467
-3.97,-1.703814116457328,-1.089363798041932
-3.9695,-0.690147504977477,-0.1250697031716958
-3.969,0.05676473506030786,0.775644561267536
-3.9685,0.5155822539406614,1.390249588767247
-3.968,0.707645401378949,1.718745379327438
-3.9675,0.7716664505250448,1.814115124973944
-3.967,0.7503261008096795,1.75053529454294
-3.9665,0.707645401378949,1.517409249629256
-3.966,0.5155822539406614,1.040560521396722
-3.9655,-0.3380317346739499,-0.01910331912002144
-3.965,-1.629122892453549,-1.396666311791788
-3.9645,-2.173301810195364,-1.979481424075996
-3.964,-1.351698346153801,-2.233800745800015
-3.9635,0.1314559590640864,-2.456330152308531
-3.963,1.209143619690033,-2.106641084938006
-3.9625,1.635950613997339,-1.34368311976595
-3.962,1.582599739708926,-0.7714646458869092
-3.9615,1.401206767128321,-0.3370024712750445
-3.961,1.177133095116985,-0.1356663415768632
-3.9605,1.017080472251745,-0.1144730647665284
-3.96,1.081101521397841,-0.1992461720078678
-3.9595,1.070431346540159,-0.2416327256285375
-3.959,0.9530594231056497,-0.2310360872233701
-3.9585,0.8356874996711408,-0.1674562567923655
-3.958,0.7396559259519968,-0.07208651114585861
-3.9575,0.3875401556484697,0.4047622170866759
-3.957,-0.4127229586777283,1.25249328950007
-3.9565,-1.351698346153801,2.047241169887628
-3.956,-2.07727023647622,2.365140322042651
-3.9555,-2.493407055925843,1.443232780793084
-3.955,-2.482736881068161,0.04447651131098315
-3.9545,-2.44005618163743,-1.01518732920576
-3.954,-2.386705307349017,-1.576809164679634
-3.9535,-2.098610586191586,-1.47084278062796
-3.953,-1.084943974711735,-0.570128516188728
-3.9525,-0.2099896363817582,0.4259554938970107
-3.952,0.3768699807907871,1.188913459069066
-3.9515,0.6649647019482183,1.633972272086098
-3.951,0.7716664505250448,1.79292184816361
-3.9505,0.7609962756673623,1.718745379327438
-3.95,0.7183155762366316,1.538602526439591
-3.9495,0.6009436528021226,1.146526905448396
-3.949,0.3875401556484697,0.4047622170866759
-3.9485,0.974399772821015,-0.4323722169215513
-3.948,0.974399772821015,-1.640388995110639
-3.9475,0.9637295979633325,-2.000674700886331
-3.947,1.305175193409177,-2.191414192179345
-3.9465,1.507908515705147,-2.159624276963843
-3.946,1.571929564851243,-1.534422611058964
-3.9455,1.465227816274416,-0.792657922697244
-3.945,1.209143619690033,-0.326405832869877
-3.9445,0.9957401225363802,-0.05089323433552374
-3.944,0.8783681991018712,0.09745970333682032
-3.9435,0.9210488985326017,0.04447651131098315
-3.943,1.017080472251745,-0.1038764263613609
-3.9425,0.9637295979633325,-0.08268314955102604
-3.942,0.8676980242441885,0.01268659609548085
-3.9415,0.7716664505250448,0.1186529801471552
-3.941,0.6009436528021226,0.3941655786815084
-3.9405,0.2061471830678648,1.135930267043229
-3.94,-0.2420001609548061,1.930678147430786
-3.9395,-1.010252750707956,2.439316790878823
-3.939,-1.746494815888059,1.888291593810116
-3.9385,-2.365364957633652,0.5001319627331828
-3.938,-2.44005618163743,-0.7396747306714069
-3.9375,-2.3973754822067,-1.51322933424863
-3.937,-2.322684258202921,-1.788741932782983
-3.9365,-1.597112367880501,-1.121153713257435
-3.936,-0.6047861061160158,-0.1250697031716958
-3.9355,0.1207857842064037,0.7332580076468663
-3.935,0.5475927785137094,1.284283204715573
-3.9345,0.7183155762366316,1.538602526439591
-3.934,0.7609962756673623,1.570392441655093
-3.9335,0.7396559259519968,1.464426057603419
-3.933,0.6863050516635838,1.231300012689736
-3.9325,0.3341892813600565,0.6060983467848571
-3.932,0.3021787567870086,-0.3687923864905467
-3.9315,0.2488278824985954,-1.650985633515806
-3.931,0.3555296310754218,-2.17022091536901
-3.9305,1.081101521397841,-2.530506621144703
-3.93,1.796003236862578,-2.731842750842884
-3.9295,2.094768132877692,-2.350363768256857
-3.929,1.966726034585501,-1.555615887869299
-3.9285,1.603940089424291,-0.8244478379127463
-3.928,1.262494493978446,-0.3370024712750445
-3.9275,1.017080472251745,-0.1038764263613609
-3.927,0.9210488985326017,0.09745970333682032
-3.9265,1.059761171682476,0.383568940276341
-3.926,1.027750647109428,0.3941655786815084
-3.9255,0.9210488985326017,0.2881991946298341
-3.925,0.8036769750980928,0.1822328105781598
-3.9245,0.6969752265212663,0.1822328105781598
-3.924,0.3235191065023739,0.6484849004055269
-3.9235,-0.5514352318276028,1.475022696008586
-3.923,-1.46907026958831,2.184997469154805
-3.9225,-2.130621110764634,2.057837808292796
-3.922,-2.472066706210478,0.8286277532933731
-3.9215,-2.450726356495113,-0.4535654937318862
-3.921,-2.408045657064382,-1.311893204550448
-3.9205,-2.333354433060604,-1.703968825541643
-3.92,-1.778505340461106,-1.248313374119443
-3.9195,-0.754168554123573,-0.2628260024388724
-3.919,0.01408403562957729,0.6484849004055269
-3.9185,0.4835717293676135,1.273686566310405
-3.918,0.6969752265212663,1.602182356870596
-3.9175,0.7503261008096795,1.686955464111935
-3.917,0.7396559259519968,1.591585718465428
-3.9165,0.6969752265212663,1.37965295036208
-3.916,0.4622313796522482,0.8816109453192104
-3.9155,-0.08194753808956648,-0.1780528951975329
-3.915,-0.1779791118087102,-1.460246142222792
-3.9145,-0.02859666380115328,-2.021867977696666
-3.914,0.5155822539406614,-2.339767129851689
-3.9135,1.422547116843686,-2.551699897955038
-3.913,1.92404533515477,-2.350363768256857
-3.9125,1.902704985439405,-1.629792356705471
-3.912,1.593269914566608,-0.8986243067489184
-3.9115,1.283834843693812,-0.3475991096802118
-3.911,1.059761171682476,-0.05089323433552374
-3.9105,0.9317190733902845,-0.01910331912002144
-3.91,1.049090996824793,-0.252229364033705
-3.9095,1.070431346540159,-0.326405832869877
-3.909,0.9637295979633325,-0.2416327256285375
-3.9085,0.8356874996711408,-0.1144730647665284
-3.908,0.7289857510943143,0.03387987290581572
-3.9075,0.4835717293676135,0.4789386859228479
-3.907,0.1741366584948169,1.316073119931075
-3.9065,-0.3487019095316325,2.089627723508298
-3.906,-1.074273799854052,2.439316790878823
-3.9055,-1.501080794161358,1.591585718465428
-3.905,-1.725154466172693,0.309392471440169
-3.9045,-2.066600061618538,-0.8032545611024114
-3.904,-2.312014083345239,-1.502632695843462
-3.9035,-1.949228138184029,-1.502632695843462
-3.903,-0.9995825758502737,-0.6654982618352349
-3.9025,-0.1886492866663929,0.2670059178194992
-3.902,0.3555296310754218,0.9875773293708847
-3.9015,0.6222840025174878,1.411442865577582
-3.901,0.7183155762366316,1.602182356870596
-3.9005,0.7289857510943143,1.612778995275763
-3.9,0.6969752265212663,1.506812611224089
-3.8995,0.6116138276598051,1.220703374284568
-3.899,0.1741366584948169,0.4365521323021782
-3.8985,-0.1886492866663929,-0.9833974139902578
-3.898,-0.2099896363817582,-1.767548655972648
-3.8975,-0.1886492866663929,-2.085447808127671
-3.897,0.7609962756673623,-2.329170491446522
-3.8965,1.614610264281974,-2.329170491446522
-3.896,1.892034810581722,-1.809935209593318
-3.8955,1.7213120128588,-1.131750351662602
-3.895,1.401206767128321,-0.4959520473525559
-3.8945,1.123782220828572,-0.04029659593035631
-3.894,0.9210488985326017,0.1186529801471552
-3.8935,0.8997085488172365,0.1080563417419877
-3.893,0.9850699476786977,0.09745970333682032
-3.8925,0.9210488985326017,0.05507314971615059
-3.892,0.825017324813458,0.03387987290581572
-3.8915,0.7289857510943143,0.04447651131098315
-3.891,0.5902734779444399,0.2140227257936621
-3.8905,0.4835717293676135,0.9028042221295453
-3.89,0.8783681991018712,1.75053529454294
-3.8895,0.4515612047945656,2.333350406827149
-3.889,-0.4554036581084589,1.803518486568777
-3.8885,-1.255666772434657,0.4471487707073456
-3.888,-1.970568487899394,-0.7714646458869092
-3.8875,-2.408045657064382,-1.534422611058964
-3.887,-2.312014083345239,-1.714565463946811
-3.8865,-1.447729919872945,-0.9516074987747555
-3.886,-0.5087545323968721,0.04447651131098315
-3.8855,0.1634664836371343,0.8710143069140429
-3.885,0.5475927785137094,1.390249588767247
-3.8845,0.707645401378949,1.644568910491266
-3.884,0.7289857510943143,1.686955464111935
