Class_5_Move_Left_hand_Horiszontal/Class_5_Move_Left_hand_Horiszontal_Suko_2.csv

#Digilent WaveForms Oscilloscope Acquisition
#Device Name: EExplorer
#Serial Number: SN:210151A2B84A
#Date Time: 2020-10-27 13:57:38.357
#Sample rate: 2000Hz
#Samples: 16384
#Trigger: Source: Channel 1 Type: Edge Condition: Rising Level: 0 V Hyst.: Auto HoldOff: 0 s
#Channel 1: Range: 1 V/div Offset: 0 V Attenuation: 1 X
#Channel 2: Range: 1 V/div Offset: 0 V Attenuation: 1 X
#Power Supplies: ON
#Fixed Supply: ON
#Voltage: 3.3 V Readback: 3.331 V
#Positive Supply: ON
#Voltage: 3.7 V Readback: 3.714 V
#Current: 500 mA Readback: 21 mA
#Negative Supply: ON
#Voltage: -3.7 V Readback: -3.706 V
#Current: -500 mA Readback: -7 mA
#Reference 1: ON
#Voltage: 0 V
#Reference 2: ON
#Voltage: 0 V

Time (s),Channel 1 (V),Channel 2 (V)
-4.096,-0.722158029550525,-1.01518732920576
-4.0955,-0.2313299860975699,-0.6231117082149217
-4.095,0.0994454344911937,-0.2946159176542494
-4.0945,0.2701682322139607,-0.1568596183871981
-4.094,0.3448594562176712,-0.1992461720078293
-4.0935,0.3448594562177586,-0.3475991096803757
-4.093,0.3661998059331045,-0.5277419625680583
-4.0925,0.6863050516632927,-0.9410108603692122
-4.092,0.7930068002402936,-1.269506650929836
-4.0915,0.6649647019482183,-1.333086481360783
-4.091,0.4835717293676135,-1.322489842955616
-4.0905,0.3448594562178944,-1.290699927739872
-4.09,0.5155822539406614,-1.025783967610927
-4.0895,1.262494493978446,-0.2734226408440398
-4.089,2.030747083730898,0.5107286011376369
-4.0885,1.881364635724039,0.7226613692416989
-4.088,0.5475927785137094,0.6378882620003594
-4.0875,-0.7861790786954077,0.8392243916983575
-4.087,-1.159635198715271,0.6166949851895909
-4.0865,-0.8928808272734472,0.13984625695749
-4.086,-0.4874141826818756,-0.2522293640333484
-4.0855,-0.1459685872354586,-0.4429688553267284
-4.085,0.07810508477567314,-0.4535654937318862
-4.0845,0.1848068333524025,-0.3581957480854661
-4.084,0.2061471830678454,-0.1886495336025269
-4.0835,0.1848068333524996,0.002089957690313421
-4.083,0.142126133921769,0.1716361721729923
-4.0825,0.1101156093486046,0.3093924714403328
-4.082,-0.01792648894347063,0.4895353243280153
-4.0815,-0.6154562809736985,0.8392243916985406
-4.081,-1.426389570156842,1.231300012689379
-4.0805,-1.927887788468663,1.42203950398275
-4.08,-1.703814116457328,0.8922075837243778
-4.0795,-1.052933450139279,0.002089957691122968
-4.079,-0.4340633083927055,-0.6549016234304047
-4.0785,-0.007256314085787988,-1.025783967610927
-4.078,0.2274875327830166,-1.163540266877979
-4.0775,0.3235191065023933,-1.110557074852161
-4.077,0.3448594562177392,-0.9939940523954253
-4.0765,0.3341892813600663,-0.8774310299386895
-4.076,0.3768699807908065,-0.8456411147229655
-4.0755,0.3982103305061524,-0.718481453861072
-4.075,0.3448594562177392,-0.5489352393783931
-4.0745,0.2808384070716045,-0.3581957480852347
-4.074,0.2381577076409128,-0.1992461720078678
-4.0735,0.2701682322139607,0.002089957690313421
-4.073,0.8250173248129534,0.4683420475172565
-4.0725,1.699971663143435,1.00877060618122
-4.072,2.28683128031598,1.42203950398275
-4.0715,1.625280439140258,1.665762187301379
-4.071,0.1207857842055594,1.771728571353005
-4.0705,-0.807519428411986,1.475022696008586
-4.07,-0.8715404775580238,0.733258007647541
-4.0695,-0.5941159312580324,0.07626642652612886
-4.069,-0.2633405106701714,-0.3158091944647096
-4.0685,-0.01792648894347063,-0.4535654937318862
-4.068,0.1314559590641349,-0.4111789401110912
-4.0675,0.1848068333524996,-0.2734226408440398
-4.067,0.1741366584948169,-0.08268314955102604
-4.0665,0.1314559590640572,0.09745970333696488
-4.066,0.09944543449103843,0.2564092794143318
-4.0655,0.05676473506030786,0.3729723018711736
-4.065,-0.3380317346735908,0.4153588554918047
-4.0645,-0.9782422261349084,0.4683420475176805
-4.064,-1.46907026958831,0.1292496185523226
-4.0635,-1.618452717595731,-0.3475991096797781
-4.063,-1.212986073003344,-0.4217755785162586
-4.0625,-0.572775581542968,-0.2840192792492073
-4.062,-0.09261771294768584,-0.2310360872234183
-4.0615,0.1954770082102889,-0.2098428104130545
-4.061,0.3128489316446912,-0.2310360872233701
-4.0605,0.3341892813600565,-0.2946159176543747
-4.06,0.3235191065023836,-0.4111789401113996
-4.0595,0.3341892813600565,-0.6125150698093976
-4.059,0.3448594562177392,-0.8668343915334161
-4.0585,0.3128489316447204,-1.025783967610783
-4.058,0.2701682322139607,-1.110557074852267
-4.0575,0.2381577076409128,-1.174136905283272
-4.057,0.2274875327832398,-1.195330182093587
-4.0565,0.5902734779444399,-0.8456411147230812
-4.056,1.379866417412955,-0.08268314955102604
-4.0555,1.892034810581256,0.6378882619997041
-4.055,1.657290963711598,0.786241199672771
-4.0545,0.4408910299368829,0.8604176685088755
-4.054,-0.7968492535531777,1.061753798206874
-4.0535,-1.095614149569184,0.7438546460515423
-4.053,-0.839529952985034,0.2034260873884947
-4.0525,-0.4447334832507763,-0.2098428104130352
-4.052,-0.1246282375201029,-0.400582301706049
-4.0515,0.08877525963335578,-0.400582301706049
-4.051,0.1848068333524996,-0.2734226408440398
-4.0505,0.2061471830678454,-0.0932797879563573
-4.05,0.1634664836371343,0.1080563417419877
-4.0495,0.1207857842064037,0.2881991946298341
-4.049,0.07810508477571196,0.447148770707201
-4.0485,-0.1673089369516584,0.6802748156213664
-4.048,-0.8608703027003992,1.051157159801889
-4.0475,-1.415719395299392,1.379652950361781
-4.047,-1.746494815888059,1.538602526439061
-4.0465,-1.746494815888059,0.9557874141553824
-4.046,-1.24499659757743,0.1292496185530744
-4.0455,-0.6154562809732425,-0.5383386009735919
-4.045,-0.1139580626626144,-0.9410108603695881
-4.0445,0.1741366584948169,-1.131750351662602
-4.044,0.302178756787028,-1.131750351662515
-4.0435,0.3235191065023739,-1.036380606016095
-4.043,0.3235191065023739,-0.8880276683437509
-4.0425,0.462231379652122,-0.8774310299385931
-4.042,0.4942419042252961,-0.7820612842920766
-4.0415,0.4195506802215176,-0.5595318777835605
-4.041,0.3235191065024612,-0.3370024712752469
-4.0405,0.2594980573563945,-0.1356663415766222
-4.04,0.3875401556484697,0.1292496185523226
-4.0395,0.7183155762363307,0.5849050699741077
-4.039,0.2808384070708864,0.6802748156207303
-4.0385,-0.5514352318276028,0.3517790250608387
-4.038,-1.437059745014456,0.1186529801473672
-4.0375,-2.183971985052998,0.4789386859230117
-4.037,-2.130621110764634,0.6590815388106942
-4.0365,-1.405049220442214,0.3305857482505039
-4.036,-0.6794773301193284,-0.09327978795646333
-4.0355,-0.1673089369510276,-0.3899856633008816
-4.035,0.1207857842064037,-0.5383386009732256
-4.0345,0.2488278824984789,-0.5595318777835412
-4.034,0.2488278824985954,-0.4959520473525559
-4.0335,0.2061471830678648,-0.3687923864905467
-4.033,0.1421261339218272,-0.2416327256286532
-4.0325,0.0994454344909705,-0.1250697031716283
-4.032,0.02475421048725994,-0.05089323433552374
-4.0315,-0.4554036581080222,-0.008506680714892564
-4.031,-1.309017646723769,0.4047622170871385
-4.0305,-2.07727023647622,0.9134008605347127
-4.03,-2.162631635337604,0.8074344764831347
-4.0295,-1.490410619302996,0.1292496185517154
-4.029,-0.7434983792658902,-0.5383386009732256
-4.0285,-0.1673089369510276,-0.9304142219644207
-4.028,0.1634664836372799,-1.110557074852277
-4.0275,0.3235191065023739,-1.121153713257435
-4.027,0.3661998059331045,-1.025783967610927
-4.0265,0.3555296310754315,-0.9198175835593496
-4.026,0.4302208550792003,-0.6866915386455698
-4.0255,0.4835717293676135,-0.4853554089473885
-4.025,0.4302208550792488,-0.3793890248958105
-4.0245,0.3448594562176809,-0.2946159176542783
-4.024,0.2808384070716433,-0.1886495336027004
-4.0235,0.3555296310753538,-0.01910331912017565
-4.023,0.8463576745288814,0.4471487707078178
-4.0225,0.9103787236749192,0.9663840525605498
-4.022,0.5475927785140393,1.305476481525599
-4.0215,-0.07127736323269901,1.273686566310444
-4.021,-0.9675720512772257,1.316073119931075
-4.0205,-1.223656247861609,1.051157159801889
-4.02,-0.9142211769884049,0.4577454091120408
-4.0195,-0.4660738329661415,-0.06148987274069118
-4.019,-0.1139580626626144,-0.3581957480853793
-4.0185,0.09944543449084434,-0.4641621321369572
-4.018,0.2061471830678648,-0.4429688553267188
-4.0175,0.2274875327832301,-0.3370024712750445
-4.017,0.1954770082102113,-0.1886495336028353
-4.0165,0.1527963087794128,-0.0402965959302503
-4.016,0.1101156093487211,0.07626642652648545
-4.0155,0.07810508477570226,0.1610395337677478
-4.015,-0.2099896363824569,0.1928294489834332
-4.0145,-0.9782422261349084,0.309392471440169
-4.014,-1.618452717595285,0.309392471440169
-4.0135,-1.885207089037564,0.3835689402761965
-4.013,-1.479740444445993,0.2246193641988295
-4.0125,-0.8288597781273515,-0.008506680714854012
-4.012,-0.2740106855275143,-0.1780528951976293
-4.0115,0.09944543449103843,-0.2840192792492073
-4.011,0.291508581929326,-0.3581957480853793
-4.0105,0.3555296310753636,-0.4323722169214839
-4.01,0.3555296310754218,-0.5065486857577234
-4.0095,0.3768699807907871,-0.5807251545938954
-4.009,0.4515612047944976,-0.6549016234299999
-4.0085,0.4195506802214594,-0.7184814538611105
-4.008,0.3555296310754218,-0.7608680074817418
-4.0075,0.2915085819293842,-0.8138511995075307
-4.007,0.2808384070720024,-0.8138511995072319
-4.0065,0.6756348768059011,-0.4323722169215513
-4.006,1.507908515705147,0.2670059178194992
-4.0055,2.244150580885094,0.902804222129632
-4.005,2.073427783162327,0.9981739677760521
-4.0045,0.6863050516635838,0.9769806909657173
-4.004,-0.7114878546932111,1.13593026704293
-4.0035,-1.116954499284783,0.8074344764830383
-4.003,-0.8822106524157645,0.2246193641988295
-4.0025,-0.4874141826818659,-0.2416327256281135
-4.002,-0.1459685872356623,-0.474758770542221
-4.0015,0.07810508477567314,-0.5065486857577234
-4.001,0.1848068333524025,-0.421775578516461
-4.0005,0.206147183067826,-0.2522293640335315
-4,0.1634664836371343,-0.06148987274069118
-3.9995,0.1314559590640864,0.1080563417419877
-3.999,0.09944543449103843,0.2458126410091644
-3.9985,-0.1032878878049318,0.4471487707073456
-3.998,-0.7434983792658902,0.8392243916985406
-3.9975,-1.212986073003927,1.00877060618122
-3.997,-1.341028171296118,0.5743084315693548
-3.9965,-1.042263275281004,-0.1462629799820306
-3.996,-0.5834457564006506,-0.6019184314042303
-3.9955,-0.1779791118087102,-0.718481453861072
-3.995,0.1101156093487211,-0.6443049850249
-3.9945,0.2701682322139607,-0.5489352393783931
-3.994,0.3235191065023739,-0.4641621321370536
-3.9935,0.3235191065023739,-0.400582301706049
-3.993,0.3128489316446912,-0.3687923864905467
-3.9925,0.3875401556484697,-0.4323722169215513
-3.992,0.3875401556484697,-0.4429688553267188
-3.9915,0.3341892813600565,-0.400582301706049
-3.991,0.2808384070716433,-0.3475991096802118
-3.9905,0.2488278824985954,-0.3052125560595421
-3.99,0.4729015545099309,-0.08268314955102604
-3.9895,1.230483969405398,0.4789386859228479
-3.989,2.062757608304644,1.051157159801889
-3.9885,2.425543553465854,1.411442865577582
-3.988,1.443887466559051,1.559795803249926
-3.9875,-0.1139580626626144,1.655165548896433
-3.987,-0.9355615267041777,1.33726639674141
-3.9865,-0.9248913518464952,0.5849050699745222
-3.986,-0.5941159312583333,-0.07208651114585861
-3.9855,-0.2420001609548061,-0.474758770542221
-3.985,0.00341386077189465,-0.6337083466197325
-3.9845,0.142126133921769,-0.6231117082145651
-3.984,0.1954770082101822,-0.5065486857577234
-3.9835,0.1741366584948169,-0.326405832869877
-3.983,0.1314559590640864,-0.1462629799820306
-3.9825,0.09944543449103843,-0.008506680714854012
-3.982,0.01408403562957729,0.1186529801471552
-3.9815,-0.4127229586777283,0.1080563417419877
-3.981,-0.8181896032696687,-0.04029659593035631
-3.9805,-1.042263275281004,-0.2734226408440398
-3.98,-0.754168554123573,-0.1250697031716958
-3.9795,-0.3166913849585846,-0.1356663415768632
-3.979,0.00341386077189465,-0.1780528951975329
-3.9785,0.2168173579255475,-0.2204394488182027
-3.978,0.3235191065023739,-0.2734226408440398
-3.9775,0.3555296310754218,-0.3158091944647096
-3.977,0.3341892813600565,-0.3581957480853793
-3.9765,0.3128489316446912,-0.400582301706049
-3.976,0.3448594562177392,-0.6125150698093976
-3.9755,0.3768699807907871,-0.8562377531282487
-3.975,0.3448594562177392,-0.9092209451540858
-3.9745,0.291508581929326,-0.8880276683437509
-3.974,0.2488278824985954,-0.8562377531282487
-3.9735,0.3661998059331045,-0.8138511995075789
-3.973,0.8890383739595538,-0.6760949002404023
-3.9725,0.9637295979633325,-0.6337083466197325
-3.972,0.4835717293676135,-0.7078848154559045
-3.9715,-0.391382608962363,-0.8774310299385835
-3.971,-1.415719395299897,-0.3793890248957141
-3.9705,-1.863866739322568,0.2140227257936621
-3.97,-1.458400094730627,0.1716361721729923
-3.9695,-0.8288597781273515,-0.1144730647665284
-3.969,-0.3060212101009019,-0.3793890248957141
-3.9685,0.02475421048725994,-0.5277419625680583
-3.968,0.1954770082101822,-0.5489352393783931
-3.9675,0.2381577076409128,-0.4959520473525559
-3.967,0.2168173579255475,-0.3687923864905467
-3.9665,0.1634664836371343,-0.2416327256285375
-3.966,0.1101156093487211,-0.1038764263613609
-3.9655,0.03542438534494258,0.05507314971615059
-3.965,-0.4020527838200457,0.3517790250608387
-3.9645,-1.180975548430879,0.8286277532933731
-3.964,-1.586442193022819,0.92399749893988
-3.9635,-1.757164990745741,0.4153588554918433
-3.963,-1.501080794161358,-0.09327978795619347
-3.9625,-0.9248913518464952,-0.4111789401112165
-3.962,-0.3593720843893152,-0.5913217929990628
-3.9615,0.04609456020262521,-0.6231117082145651
-3.961,0.2488278824985954,-0.570128516188728
-3.9605,0.3235191065023739,-0.4959520473525559
-3.96,0.3448594562177392,-0.4217755785163839
-3.9595,0.3768699807907871,-0.3475991096802118
-3.959,0.4942419042252961,-0.3158091944647096
-3.9585,0.4622313796522482,-0.2840192792492073
-3.958,0.3768699807907871,-0.252229364033705
-3.9575,0.3021787567870086,-0.2204394488182027
-3.957,0.2594980573562781,-0.1780528951975329
-3.9565,0.5689331282290746,0.1186529801471552
-3.956,1.379866417412955,0.6908714540261965
-3.9555,2.137448832308423,1.188913459069066
-3.955,2.105438307735375,1.178316820663898
-3.9545,0.8890383739595538,1.082947075017392
-3.954,-0.4660738329661415,1.157123543853563
-3.9535,-0.8928808272734472,0.7438546460520338
-3.953,-0.7434983792658902,0.1292496185523226
-3.9525,-0.4127229586777283,-0.3370024712750445
-3.952,-0.124628237520297,-0.5913217929990628
-3.9515,0.0674349099179905,-0.6549016234300674
-3.951,0.1741366584948169,-0.5913217929990628
-3.9505,0.1848068333524996,-0.4429688553267188
-3.95,0.1527963087794516,-0.2840192792492073
-3.9495,0.1101156093487211,-0.1250697031716958
-3.949,0.04609456020262521,0.04447651131098315
-3.9485,-0.1139580626626144,0.1610395337678249
-3.948,-0.2846808603855366,-0.06148987274069118
-3.9475,-0.1993194615240755,0.2034260873884947
-3.947,-0.03926683865883591,0.7226613692416989
-3.9465,0.2381577076409128,0.7862411996727035
-3.946,0.3448594562177392,0.3623756634660061
-3.9455,0.3875401556484697,-0.1886495336027004
-3.945,0.3875401556484697,-0.6654982618352349
-3.9445,0.3555296310754218,-0.9410108603695881
-3.944,0.3128489316446912,-1.025783967610927
-3.9435,0.2808384070716433,-0.9728007755850904
-3.943,0.2594980573562781,-0.8774310299385835
-3.9425,0.3661998059331045,-0.8244478379127463
-3.942,0.3982103305061524,-0.718481453861072
-3.9415,0.3448594562177392,-0.5595318777835605
-3.941,0.2808384070716433,-0.400582301706049
-3.9405,0.2381577076409128,-0.2628260024388724
-3.94,0.3661998059331045,0.002089957690313421
-3.9395,1.017080472251745,0.55311515475902
-3.939,1.507908515705147,1.093543713422559
-3.9385,1.305175193409177,1.33726639674141
-3.938,0.3341892813600565,1.220703374284568
-3.9375,-0.9035510021311299,1.305476481525908
-3.937,-1.405049220442214,1.135930267043229
-3.9365,-1.127624674142465,0.55311515475902
-3.936,-0.6474668055467465,0.01268659609548085
-3.9355,-0.2420001609548061,-0.2946159176543747
-3.935,0.03542438534494258,-0.3899856633008816
-3.9345,0.1741366584948169,-0.3370024712750445
-3.934,0.2061471830678648,-0.1992461720078678
-3.9335,0.1848068333524996,-0.008506680714854012
-3.933,0.142126133921769,0.1610395337678249
-3.9325,0.1101156093487211,0.2987958330350016
-3.932,0.05676473506030786,0.383568940276341
-3.9315,-0.2953510352432193,0.2246193641988295
-3.931,-1.052933450138687,-0.252229364033705
-3.9305,-1.735824641030376,-1.01518732920576
-3.93,-2.013249187330125,-1.439052865412457
-3.9295,-1.543761493592088,-1.290699927740113
-3.929,-0.8502001278427167,-0.8350444763179138
-3.9285,-0.2526703358124887,-0.4429688553267188
-3.928,0.1314559590640864,-0.2204394488182027
-3.9275,0.3128489316446912,-0.1568596183871981
-3.927,0.3555296310754218,-0.1992461720078678
-3.9265,0.3341892813600565,-0.3370024712750445
-3.926,0.3555296310754218,-0.6019184314042303
-3.9255,0.3875401556484697,-0.8986243067489184
-3.925,0.3448594562177392,-1.05757388282643
-3.9245,0.291508581929326,-1.163540266878104
-3.924,0.2488278824985954,-1.227120097309109
-3.9235,0.2808384070716433,-1.216523458903942
-3.923,0.79300680024041,-0.718481453861072
-3.9225,1.56125938999356,0.07626642652648545
-3.922,1.92404533515477,0.7332580076468663
-3.9215,1.443887466559051,0.9875773293708847
-3.921,0.07810508477567314,1.178316820663898
-3.9205,-0.839529952985034,1.082947075017392
-3.92,-0.9035510021311299,0.4895353243280153
-3.9195,-0.6154562809736985,-0.09327978795619347
-3.919,-0.2846808603855366,-0.4429688553267188
-3.9185,-0.02859666380115328,-0.5595318777835605
-3.918,0.1207857842064037,-0.4853554089473885
-3.9175,0.1848068333524996,-0.3158091944647096
-3.917,0.1741366584948169,-0.09327978795619347
-3.9165,0.142126133921769,0.1292496185523226
-3.916,0.1101156093487211,0.3199891098453364
-3.9155,0.0674349099179905,0.4895353243280153
-3.915,-0.2846808603855366,0.6484849004055269
-3.9145,-1.116954499284783,0.92399749893988
-3.914,-1.821186039891837,1.263089927905238
-3.9135,-2.162631635337682,1.37965295036208
-3.913,-2.055929886760855,0.7120647308365314
-3.9125,-1.373038695869166,-0.09327978795619347
-3.912,-0.658136980404429,-0.718481453861072
-3.9115,-0.124628237520297,-1.089363798041932
-3.911,0.1848068333524996,-1.227120097309109
-3.9105,0.3235191065023739,-1.174136905283272
-3.91,0.3448594562177392,-1.036380606016095
-3.9095,0.3555296310754218,-0.8880276683437509
-3.909,0.4408910299368829,-0.7502713690765743
-3.9085,0.4195506802215176,-0.6125150698093976
-3.908,0.3448594562177392,-0.4853554089473885
-3.9075,0.2701682322139607,-0.3475991096802118
-3.907,0.2381577076409128,-0.2204394488182027
-3.9065,0.5369226036560266,0.1292496185523226
-3.906,1.337185717982225,0.701468092431364
-3.9055,2.105438307735375,1.199510097474233
-3.905,1.988066384300866,1.167720182258731
-3.9045,0.6542945270905358,1.00877060618122
-3.904,-0.7434983792658902,1.114736990232894
-3.9035,-1.170305373573196,0.8392243916985406
-3.903,-0.9355615267041777,0.309392471440169
-3.9025,-0.5300948821122373,-0.1144730647665284
-3.902,-0.1779791118087102,-0.3158091944647096
-3.9015,0.05676473506030786,-0.3475991096802118
-3.901,0.1634664836371343,-0.252229364033705
-3.9005,0.1848068333524996,-0.09327978795619347
-3.9,0.1634664836371343,0.08686306493165288
-3.8995,0.1207857842064037,0.2352160026039969
-3.899,0.08877525963335578,0.3517790250608387
-3.8985,-0.06060718837420119,0.383568940276341
-3.898,-0.6794773301197943,0.06566978812131802
-3.8975,-1.223656247861609,-0.6654982618352349
-3.897,-1.565101843307454,-1.42845622700729
-3.8965,-1.714484291315011,-1.778145294377815
-3.896,-1.277007122150022,-1.396666311791788
-3.8955,-0.6688071552621118,-0.9092209451540858
-3.895,-0.1459685872356623,-0.5383386009732256
-3.8945,0.1634664836371343,-0.3370024712750445
-3.894,0.3021787567870086,-0.2840192792492073
-3.8935,0.3341892813600565,-0.3687923864905467
-3.893,0.3341892813600565,-0.5383386009732256
-3.8925,0.4835717293676135,-0.9198175835592532
-3.892,0.5796033030867573,-1.248313374119443
-3.8915,0.4942419042252961,-1.34368311976595
-3.891,0.3875401556484697,-1.354279758171118
-3.8905,0.291508581929326,-1.322489842955616
-3.89,0.408880505363835,-1.078767159636765
-3.8895,1.081101521397841,-0.3475991096802118
-3.889,1.817343586577944,0.457745409112513
-3.8885,2.233480406027567,1.040560521396722
-3.888,1.379866417412955,1.42203950398275
-3.8875,-0.1032878878049318,1.612778995275763
-3.887,-0.8608703027003992,1.29487984312074
