Class_5_Move_Left_hand_Horiszontal/Class_5_Move_Left_hand_Horiszontal_Suko_10.csv

#Digilent WaveForms Oscilloscope Acquisition
#Device Name: EExplorer
#Serial Number: SN:210151A2B84A
#Date Time: 2021-02-03 11:35:00.592
#Sample rate: 2000Hz
#Samples: 16384
#Trigger: Source: Channel 1 Type: Edge Condition: Rising Level: 0 V Hyst.: Auto HoldOff: 0 s
#Channel 1: Range: 1 V/div Offset: 0 V Attenuation: 1 X
#Channel 2: Range: 1 V/div Offset: 0 V Attenuation: 1 X
#Power Supplies: ON
#Fixed Supply: ON
#Voltage: 3.3 V Readback: 3.331 V
#Positive Supply: ON
#Voltage: 3.7 V Readback: 3.703 V
#Current: 40 mA Readback: 18 mA
#Negative Supply: ON
#Voltage: -3.7 V Readback: -3.334 V
#Current: -40 mA Readback: -9 mA
#Reference 1: ON
#Voltage: 0 V
#Reference 2: ON
#Voltage: 0 V

Time (s),Channel 1 (V),Channel 2 (V)
-4.096,0.6863050516635838,-0.1144730647665284
-4.0955,0.8570278493863508,-0.1356663415768439
-4.095,0.8356874996710631,-0.1992461720079256
-4.0945,0.7503261008096795,-0.2628260024388724
-4.094,0.9210488985324465,-0.4429688553265549
-4.0935,1.14512257054383,-0.6125150698092627
-4.093,1.027750647109428,-0.4641621321370536
-4.0925,0.7930068002406235,-0.2098428104132665
-4.092,0.5796033030866409,0.02328323450081212
-4.0915,0.4515612047945656,0.2034260873884947
-4.091,0.2381577076409128,0.02328323450064829
-4.0905,-0.4020527838205795,-0.5489352393788557
-4.09,-0.9889124009925911,-1.05757388282643
-4.0895,-1.522421143876723,-1.396666311791788
-4.089,-2.066600061618042,-1.545019249463997
-4.0885,-2.301343908487556,-1.545019249464132
-4.088,-2.183971985053047,-1.311893204550448
-4.0875,-1.373038695869904,-0.5913217929997182
-4.087,-0.583445756400146,0.1928294489838573
-4.0865,-0.02859666380115328,0.775644561267536
-4.086,0.2808384070713619,1.09354371342227
-4.0855,0.4195506802215274,1.199510097474224
-4.085,0.4302208550792003,1.188913459069066
-4.0845,0.3768699807908356,1.093543713422646
-4.084,0.3128489316446622,0.9663840525604246
-4.0835,0.2808384070716433,0.8286277532933731
-4.083,0.1741366584948169,0.6908714540261965
-4.0825,-0.3487019095320983,0.2034260873877815
-4.082,-0.8608703027003992,-0.5807251545938954
-4.0815,-1.074273799854052,-1.248313374119443
-4.081,-0.5621054066857512,-1.015187329205972
-4.0805,0.3341892813600565,-0.09327978795619347
-4.08,0.9103787236749192,0.4471487707073456
-4.0795,1.145122570543724,0.478938685922819
-4.079,1.102441871113042,0.2458126410088849
-4.0785,0.9210488985326017,-0.06148987274069118
-4.078,0.728985751094489,-0.3264058328696361
-4.0775,0.6649647019482183,-0.5277419625681258
-4.077,0.6649647019482183,-0.6019184314042303
-4.0765,0.6009436528021808,-0.5065486857578101
-4.076,0.5262524287982859,-0.3158091944645168
-4.0755,0.4622313796522482,-0.1038764263613609
-4.075,0.408880505363835,0.1186529801471552
-4.0745,0.526252428798839,0.3835689402766109
-4.074,1.070431346540159,0.6802748156210291
-4.0735,0.974399772821015,0.4153588554918433
-4.073,0.1741366584955448,-0.1674562567918355
-4.0725,-0.7755089038389382,-0.6443049850249
-4.072,-1.607782542738184,-0.8986243067489184
-4.0715,-2.023919362187429,-0.8986243067489184
-4.071,-1.437059745014602,-0.3370024712743409
-4.0705,-0.7114878546928423,0.4365521323021782
-4.07,-0.1459685872361767,1.061753798206488
-4.0695,0.2061471830680201,1.422039503982865
-4.069,0.3768699807907871,1.549199164844759
-4.0685,0.408880505363835,1.517409249629256
-4.068,0.3661998059330657,1.390249588767083
-4.0675,0.3235191065023739,1.210106735879401
-4.067,0.2808384070716433,1.019367244586387
-4.0665,0.2488278824982557,0.8180311148879263
-4.066,-0.124628237520297,0.5107286011383502
-4.0655,-0.7968492535543035,0.01268659609548085
-4.065,-1.277007122149586,-0.7078848154552492
-4.0645,-1.351698346153801,-1.025783967610927
-4.064,-0.6794773301197943,-0.6866915386455698
-4.0635,0.06743490991731116,-0.3475991096805203
-4.063,0.6009436528023457,-0.1886495336027486
-4.0625,0.8463576745288233,-0.2416327256285375
-4.062,0.8783681991018422,-0.3687923864904311
-4.0615,0.7823366253826596,-0.464162132137121
-4.061,0.707645401378949,-0.5383386009732256
-4.0605,0.9637295979633325,-0.7608680074817418
-4.06,1.102441871113081,-0.7926579226970223
-4.0595,0.9637295979633325,-0.5489352393783931
-4.059,0.7396559259519968,-0.2310360872233701
-4.0585,0.5582629533715571,0.06566978812104818
-4.058,0.4729015545099309,0.309392471440169
-4.0575,0.5582629533713921,0.09745970333682032
-4.057,0.4729015545100085,-0.4429688553262273
-4.0565,-0.156638762093345,-0.8986243067489184
-4.056,-0.9462317015618604,-1.152943628472937
-4.0555,-1.703814116456639,-1.216523458903884
-4.055,-2.247993034198823,-1.152943628472561
-4.0545,-1.895877263895616,-0.7396747306714069
-4.054,-1.042263275281781,0.03387987290511218
-4.0535,-0.3593720843888979,0.7332580076472615
-4.053,0.09944543449103843,1.167720182258731
-4.0525,0.3448594562177392,1.358459673551745
-4.052,0.4195506802214982,1.369056311956816
-4.0515,0.3982103305061524,1.263089927905238
-4.051,0.3448594562177392,1.104140351827727
-4.0505,0.3021787567870474,0.9134008605348862
-4.05,0.2701682322139607,0.7226613692416989
-4.0495,0.04609456020262521,0.4895353243280153
-4.049,-0.5727755815424052,-0.1038764263608212
-4.0485,-1.010252750708112,-0.845641114723457
-4.048,-1.180975548430879,-1.258910012524611
-4.0475,-0.9782422261350928,-0.7608680074821947
-4.047,-0.3273615598157141,-0.2734226408438856
-4.0465,0.2808384070716433,-0.1038764263613609
-4.046,0.675634876805542,-0.1780528951974655
-4.0455,0.8036769750980539,-0.3370024712751794
-4.045,0.7609962756673623,-0.4853554089473885
-4.0445,0.6969752265212663,-0.5807251545938954
-4.044,0.7930068002406139,-0.7184814538612551
-4.0435,1.017080472251745,-0.9198175835592532
-4.043,0.974399772821015,-0.7290780922662394
-4.0425,0.803676975098248,-0.3687923864908744
-4.042,0.6329541773751706,-0.008506680714854012
-4.0415,0.5049120790829789,0.2987958330350016
-4.041,0.6756348768057459,0.4683420475175263
-4.0405,0.9957401225360212,0.4789386859224335
-4.04,0.6009436528021226,0.02328323450064829
-4.0395,-0.1246282375196371,-0.4747587705417681
-4.039,-0.9889124009932899,-0.8138511995077234
-4.0385,-1.757164990745741,-0.9728007755850904
-4.038,-1.981238662756873,-0.8774310299386702
-4.0375,-1.30901764672243,-0.25222936403304
-4.037,-0.6047861061160158,0.4789386859228479
-4.0365,-0.07127736323188383,1.00877060618122
-4.036,0.2488278824987215,1.284283204715631
-4.0355,0.3875401556484697,1.347863035146577
-4.035,0.408880505363835,1.273686566310405
-4.0345,0.3555296310754703,1.125333628638197
-4.034,0.3021787567870086,0.9451907757502149
-4.0335,0.2808384070716433,0.7650479228623686
-4.033,0.1741366584949139,0.6378882620004751
-4.0325,-0.3593720843897713,0.4683420475171504
-4.032,-0.8608703027003992,-0.1144730647665284
-4.0315,-1.202315898145933,-0.8456411147224163
-4.031,-1.373038695868623,-1.311893204550227
-4.0305,-0.7755089038389382,-1.068170521231597
-4.03,-0.02859666380183257,-0.6337083466201276
-4.0295,0.5262524287985965,-0.36879238649046
-4.029,0.8036769750980928,-0.2734226408440398
-4.0285,0.8463576745288233,-0.252229364033705
-4.028,0.7716664505250448,-0.3264058328699059
-4.0275,0.7716664505250448,-0.3581957480853793
-4.027,0.942389248247967,-0.1144730647665284
-4.0265,0.8676980242442565,-0.05089323433558157
-4.026,0.8356874996711408,-0.252229364033705
-4.0255,0.8463576745288233,-0.4535654937318862
-4.025,0.7289857510944211,-0.3581957480854661
-4.0245,0.6969752265215963,-0.1038764263611874
-4.024,1.059761171682476,0.08686306493165288
-4.0235,1.070431346540149,-0.1674562567921342
-4.023,0.4408910299359998,-0.6125150698097157
-4.0225,-0.5300948821122373,-0.9622041371799229
-4.022,-1.415719395299091,-1.12115371325729
-4.0215,-1.949228138183631,-1.078767159636244
-4.021,-1.51175096901904,-0.5065486857577234
-4.0205,-0.7968492535543035,0.309392471440169
-4.02,-0.2206598112390915,0.9875773293712605
-4.0195,0.1634664836371343,1.400846227172415
-4.019,0.3448594562177392,1.580989080060261
-4.0185,0.3982103305061039,1.591585718465419
-4.018,0.3555296310754218,1.506812611224089
-4.0175,0.291508581929326,1.358459673551745
-4.017,0.2594980573563072,1.178316820664062
-4.0165,0.2488278824983043,0.9875773293708077
-4.016,-0.07127736323188383,0.9028042221295453
-4.0155,-0.6688071552615683,0.8922075837243875
-4.015,-1.031593100423293,0.2246193641982994
-4.0145,-0.9995825758502737,-0.3581957480853793
-4.014,-0.3593720843898974,-0.1992461720080124
-4.0135,0.3021787567873968,-0.146262979982127
-4.013,0.7289857510943143,-0.252229364033705
-4.0125,0.8676980242441885,-0.4111789401112165
-4.012,0.8463576745287359,-0.5383386009733027
-4.0115,0.7503261008096795,-0.6231117082145651
-4.011,0.6436243522328531,-0.6654982618352349
-4.0105,0.7396559259519094,-0.7608680074816551
-4.01,0.7289857510943143,-0.7078848154559045
-4.0095,0.6329541773751706,-0.5277419625680583
-4.009,0.5155822539407682,-0.2946159176545867
-4.0085,0.4302208550791615,-0.04029659593019247
-4.008,0.3875401556484697,0.13984625695749
-4.0075,0.3768699807907968,-0.1568596183869282
-4.007,0.3661998059326678,-0.6654982618355625
-4.0065,-0.1139580626626144,-1.025783967610927
-4.006,-0.7114878546928423,-1.152943628472937
-4.0055,-1.383708870727421,-1.110557074852161
-4.005,-2.013249187330125,-0.9939940523954253
-4.0045,-1.863866739322568,-0.6019184314042303
-4.004,-1.095614149568806,0.1822328105788248
-4.0035,-0.423393133535411,0.9134008605347127
-4.003,0.04609456020262521,1.390249588767247
-4.0025,0.3021787567867757,1.602182356870403
-4.002,0.408880505363835,1.602182356870596
-4.0015,0.408880505363835,1.496215972818921
-4.001,0.3555296310754703,1.316073119931239
-4.0005,0.2915085819292872,1.104140351827524
-4,0.2488278824985954,0.8816109453192104
-3.9995,0.07810508477567314,0.6484849004055269
-3.999,-0.4660738329661415,0.2776025562246667
-3.9985,-0.6794773301197943,-0.3899856633008816
-3.998,-0.6794773301197943,-0.9939940523954253
-3.9975,-0.4874141826815069,-1.046977244421262
-3.997,0.03542438534494258,-0.8032545611024114
-3.9965,0.5155822539406614,-0.5065486857577234
-3.996,0.79300680024041,-0.4111789401112165
-3.9955,0.8463576745288233,-0.4853554089473885
-3.995,0.7716664505250448,-0.6125150698093976
-3.9945,0.6649647019482183,-0.6760949002404023
-3.994,0.7183155762366316,-0.7290780922662394
-3.9935,0.7716664505250448,-0.7502713690765743
-3.993,0.6756348768059011,-0.6019184314042303
-3.9925,0.5582629533713921,-0.3793890248957141
-3.992,0.4622313796522482,-0.1250697031716958
-3.9915,0.408880505363835,0.1080563417419877
-3.991,0.3875401556484697,0.07626642652648545
-3.9905,0.1527963087794516,-0.400582301706049
-3.99,-0.5621054066852853,-0.8562377531282487
-3.9895,-1.255666772434657,-1.046977244421262
-3.989,-1.885207089037933,-1.046977244421262
-3.9885,-2.301343908487556,-0.9622041371799229
-3.988,-2.19464215991073,-0.7502713690765743
-3.9875,-1.383708870726849,-0.07208651114585861
-3.987,-0.5941159312583333,0.701468092431364
-3.9865,-0.04993701351651855,1.263089927905238
-3.986,0.2701682322139607,1.559795803249926
-3.9855,0.408880505363835,1.623375633680931
-3.985,0.408880505363835,1.549199164844759
-3.9845,0.3555296310754218,1.37965295036208
-3.984,0.3021787567870086,1.178316820663898
-3.9835,0.2701682322139607,0.9557874141553824
-3.983,0.2061471830678648,0.7226613692416989
-3.9825,-0.2846808603855366,0.5107286011383502
-3.982,-0.9035510021311299,0.2352160026039969
-3.9815,-1.277007122150022,-0.4323722169215513
-3.981,-1.26633694729234,-0.570128516188728
-3.9805,-0.6474668055467465,-0.3581957480853793
-3.98,0.0674349099179905,-0.2310360872233701
-3.9795,0.5689331282290746,-0.2416327256285375
-3.979,0.8143471499557753,-0.3899856633008816
-3.9785,0.8356874996711408,-0.5171453241628908
-3.978,0.7503261008096795,-0.5383386009732256
-3.9775,0.7183155762366316,-0.5489352393783931
-3.977,0.8356874996711408,-0.4111789401112165
-3.9765,0.7716664505250448,-0.3687923864905467
-3.976,0.6329541773751706,-0.326405832869877
-3.9755,0.5155822539406614,-0.2416327256285375
-3.975,0.4302208550792003,-0.09327978795619347
-3.9745,0.4942419042252961,0.1186529801471552
-3.974,1.049090996824793,0.55311515475902
-3.9735,1.646620788855021,0.9769806909657173
-3.973,1.091771696255524,0.6166949851900245
-3.9725,-0.07127736323188383,-0.01910331912002144
-3.972,-1.148965023857831,-0.5065486857577234
-3.9715,-1.895877263895616,-0.7290780922662394
-3.971,-1.67180359188428,-0.400582301706049
-3.9705,-0.9675720512772257,0.3517790250608387
-3.97,-0.3487019095316325,1.051157159801889
-3.9695,0.07810508477567314,1.517409249629256
-3.969,0.3128489316446912,1.729342017732605
-3.9685,0.3875401556484697,1.75053529454294
-3.968,0.3768699807907871,1.6657621873016
-3.9675,0.3341892813600565,1.496215972818921
-3.967,0.291508581929326,1.305476481525908
-3.9665,0.2701682322139607,1.082947075017392
-3.966,0.07810508477567314,0.8392243916985406
-3.9655,-0.4767440078238243,0.4895353243280153
-3.965,-0.8928808272734472,-0.252229364033705
-3.9645,-1.031593100423322,-0.7714646458869092
-3.964,-0.2420001609548061,-0.2628260024388724
-3.9635,0.5689331282290746,0.309392471440169
-3.963,1.017080472251745,0.3199891098453364
-3.9625,1.134452395686255,-0.01910331912002144
-3.962,1.006410297394063,-0.3370024712750445
-3.9615,0.79300680024041,-0.6019184314042303
-3.961,0.6329541773751706,-0.792657922697244
-3.9605,0.7183155762366316,-0.9833974139902578
-3.96,0.7289857510943143,-0.9198175835592532
-3.9595,0.6863050516635838,-0.6972881770507372
-3.959,0.6222840025174878,-0.4217755785163839
-3.9585,0.5475927785137094,-0.1356663415768632
-3.958,0.4942419042252961,0.09745970333682032
-3.9575,0.3768699807907871,-0.09327978795619347
-3.957,0.01408403562957729,-0.5595318777835605
-3.9565,-0.658136980404429,-0.9516074987747555
-3.956,-1.341028171296118,-1.163540266878104
-3.9555,-2.002579012472442,-1.184733543688439
-3.955,-2.312014083345239,-1.089363798041932
-3.9545,-1.949228138184029,-0.6549016234300674
-3.954,-1.052933450138687,0.1504428953626575
-3.9535,-0.3593720843893152,0.8816109453192104
-3.953,0.09944543449103843,1.347863035146577
-3.9525,0.3341892813600565,1.559795803249926
-3.952,0.408880505363835,1.580989080060261
-3.9515,0.3982103305061524,1.475022696008586
-3.951,0.3448594562177392,1.316073119931075
-3.9505,0.291508581929326,1.114736990232894
-3.95,0.2594980573562781,0.9028042221295453
-3.9495,0.1101156093487211,0.6696781772158616
-3.949,-0.4767440078238243,0.05507314971615059
-3.9485,-0.9462317015618604,-0.7502713690765743
-3.948,-1.330357996438436,-1.417859588602123
-3.9475,-1.298347471865388,-1.523825972653797
-3.947,-0.6367966306890638,-1.068170521231597
-3.9465,0.05676473506030786,-0.6231117082145651
-3.946,0.5475927785137094,-0.3899856633008816
-3.9455,0.7609962756673623,-0.2734226408440398
-3.945,0.7823366253827275,-0.2946159176543747
-3.9445,0.6969752265212663,-0.400582301706049
-3.944,0.7609962756673623,-0.5277419625680583
-3.9435,0.8890383739595538,-0.6443049850249
-3.943,0.79300680024041,-0.570128516188728
-3.9425,0.6756348768059011,-0.4217755785163839
-3.942,0.5796033030867573,-0.252229364033705
-3.9415,0.5262524287983441,-0.08268314955102604
-3.941,0.5475927785137094,-0.09327978795619347
-3.9405,0.7609962756673623,-0.326405832869877
-3.94,0.408880505363835,-0.7820612842920766
-3.9395,-0.2846808603855366,-1.205926820498774
-3.939,-1.074273799854052,-1.460246142222792
-3.9385,-1.810515865034154,-1.523825972653797
-3.938,-2.183971985053047,-1.354279758171118
-3.9375,-1.533091318734406,-0.6760949002404023
-3.937,-0.754168554123573,0.1716361721729923
-3.9365,-0.1673089369510276,0.8392243916985406
-3.936,0.1954770082101822,1.241896651094903
-3.9355,0.3768699807907871,1.42203950398275
-3.935,0.4195506802215176,1.432636142387917
-3.9345,0.3875401556484697,1.358459673551745
-3.934,0.3341892813600565,1.231300012689736
-3.9335,0.291508581929326,1.082947075017392
-3.933,0.2274875327832301,0.9345941373450475
-3.9325,-0.2206598112394408,0.4683420475176805
-3.932,-0.807519428411986,-0.3475991096802118
-3.9315,-1.116954499284783,-1.0999604364471
-3.931,-1.074273799854052,-1.460246142222792
-3.9305,-0.4660738329661415,-1.089363798041932
-3.93,0.2168173579255475,-0.6972881770507372
-3.9295,0.6756348768059011,-0.4429688553267188
-3.929,0.8890383739595538,-0.3158091944647096
-3.9285,0.8676980242441885,-0.326405832869877
-3.928,0.7396559259519968,-0.4111789401112165
-3.9275,0.6756348768059011,-0.5383386009732256
-3.927,0.7823366253827275,-0.6654982618352349
-3.9265,0.7396559259519968,-0.5913217929990628
-3.926,0.6116138276598051,-0.4111789401112165
-3.9255,0.4942419042252961,-0.2098428104130352
-3.925,0.4195506802215176,-0.008506680714854012
-3.9245,0.4302208550792003,0.1822328105781598
-3.924,0.7396559259519968,0.4471487707073456
-3.9235,0.6116138276598051,0.1610395337678249
-3.923,-0.01792648894347063,-0.4535654937318862
-3.9225,-0.8181896032696687,-0.9622041371799229
-3.922,-1.565101843307454,-1.237716735714276
-3.9215,-2.013249187330125,-1.280103289334946
-3.921,-1.501080794161358,-0.7502713690765743
-3.9205,-0.7755089038389382,0.05507314971615059
-3.92,-0.1993194615240755,0.7438546460520338
-3.9195,0.1741366584948169,1.167720182258731
-3.919,0.3555296310754218,1.369056311956912
-3.9185,0.408880505363835,1.400846227172415
-3.918,0.3768699807907871,1.326669758336243
-3.9175,0.3235191065023739,1.199510097474233
-3.917,0.2808384070716433,1.051157159801889
-3.9165,0.2488278824985954,0.9028042221295453
-3.916,-0.06060718837420119,0.6166949851900245
-3.9155,-0.7114878546928423,-0.08268314955102604
-3.915,-1.191645723288561,-0.8668343915334161
-3.9145,-1.351698346153801,-1.227120097309109
-3.914,-0.9035510021311299,-0.9304142219644207
-3.9135,-0.1779791118087102,-0.5913217929990628
-3.913,0.408880505363835,-0.3581957480853793
-3.9125,0.6969752265212663,-0.2734226408440398
-3.912,0.7503261008096795,-0.2946159176543747
-3.9115,0.707645401378949,-0.3475991096802118
-3.911,0.6329541773751706,-0.4323722169215513
-3.9105,0.7716664505250448,-0.6443049850249
-3.91,0.8143471499557753,-0.6654982618352349
-3.9095,0.707645401378949,-0.4641621321370536
-3.909,0.5689331282290746,-0.2098428104130352
-3.9085,0.4729015545099309,0.03387987290581572
-3.908,0.408880505363835,0.2352160026039969
-3.9075,0.2594980573562781,0.01268659609548085
-3.907,-0.03926683865883591,-0.5489352393783931
-3.9065,-0.5514352318276028,-1.01518732920576
-3.906,-1.06360362499637,-1.248313374119443
-3.9055,-1.661133417026597,-1.322489842955616
-3.905,-2.19464215991073,-1.269506650929778
-3.9045,-1.991908837614759,-0.9622041371799229
-3.904,-1.159635198715513,-0.2098428104130352
-3.9035,-0.4554036581084589,0.5319218779486851
-3.903,0.03542438534494258,1.040560521396722
-3.9025,0.3021787567870086,1.284283204715573
-3.902,0.408880505363835,1.33726639674141
-3.9015,0.3875401556484697,1.263089927905238
-3.901,0.3341892813600565,1.125333628638062
-3.9005,0.2808384070716433,0.9557874141553824
-3.9,0.2594980573562781,0.7862411996727035
-3.8995,0.1207857842064037,0.5955017083796896
-3.899,-0.4660738329661415,0.04447651131098315
-3.8985,-0.9889124009925911,-0.718481453861072
-3.898,-1.255666772434657,-1.38606967338662
-3.8975,-1.202315898146244,-1.640388995110639
-3.897,-0.5621054066852853,-1.152943628472937
-3.8965,0.1101156093487211,-0.6125150698093976
-3.896,0.5796033030867573,-0.2840192792492073
-3.8955,0.8036769750980928,-0.1992461720078678
-3.895,0.8356874996711408,-0.1992461720078678
-3.8945,0.7503261008096795,-0.2946159176543747
-3.894,0.8036769750980928,-0.4323722169215513
-3.8935,1.081101521397841,-0.6443049850249
-3.893,1.017080472251745,-0.6125150698093976
-3.8925,0.8143471499557753,-0.4217755785163839
-3.892,0.6222840025174878,-0.1992461720078678
-3.8915,0.4835717293676135,0.01268659609548085
-3.891,0.3341892813600565,0.03387987290581572
-3.8905,-0.007256314085787988,-0.4429688553267188
-3.89,-0.5407650569699201,-1.004590690800593
-3.8895,-1.180975548430879,-1.396666311791788
-3.889,-1.821186039891837,-1.576809164679634
-3.8885,-2.280003558772191,-1.555615887869299
-3.888,-2.269333383914508,-1.354279758171118
-3.8875,-1.543761493592088,-0.6760949002404023
-3.887,-0.722158029550525,0.1610395337678249
-3.8865,-0.124628237520297,0.8074344764830383
