Class_5_Move_Left_hand_Horiszontal/Class_5_Move_Left_Hand_Horizontal_Zakour_11.csv

#Digilent WaveForms Oscilloscope Acquisition
#Device Name: EExplorer
#Serial Number: SN:210151A2B84A
#Date Time: 2021-02-07 16:05:51.844
#Sample rate: 2000Hz
#Samples: 16384
#Trigger: Source: Channel 1 Type: Edge Condition: Rising Level: 0 V Hyst.: Auto HoldOff: 0 s
#Channel 1: Range: 1 V/div Offset: 0 V Attenuation: 1 X
#Channel 2: Range: 1 V/div Offset: 0 V Attenuation: 1 X
#Power Supplies: ON
#Fixed Supply: ON
#Voltage: 3.3 V Readback: 3.331 V
#Positive Supply: ON
#Voltage: 3.7 V Readback: 3.703 V
#Current: 40 mA Readback: 16 mA
#Negative Supply: ON
#Voltage: -3.7 V Readback: -3.697 V
#Current: -40 mA Readback: -9 mA
#Reference 1: ON
#Voltage: 0 V
#Reference 2: ON
#Voltage: 0 V

Time (s),Channel 1 (V),Channel 2 (V)
-4.096,-0.6688071552621118,0.1186529801471552
-4.0955,-1.074273799853683,-0.2204394488178942
-4.095,-1.618452717596061,-0.9939940523956565
-4.0945,-1.83185621474952,-1.248313374119443
-4.094,-1.458400094730967,-0.9939940523956565
-4.0935,-0.9462317015614916,-0.6654982618350036
-4.093,-0.5407650569699201,-0.4111789401112165
-4.0925,-0.2846808603857696,-0.2628260024390073
-4.092,-0.1673089369509888,-0.1886495336026618
-4.0915,-0.124628237520297,-0.1462629799820306
-4.091,-0.124628237520297,-0.1356663415768632
-4.0905,-0.145968587235672,-0.1144730647664898
-4.09,-0.156638762093345,-0.07208651114585861
-4.0895,-0.1779791118087102,-0.04029659593035631
-4.089,-0.1779791118087102,-0.008506680714882926
-4.0885,-0.1779791118087102,0.02328323450064829
-4.088,-0.4340633083930936,-0.2098428104130352
-4.0875,-0.9462317015613946,-0.845641114722503
-4.087,-1.319687821580733,-1.502632695843713
-4.0865,-1.298347471865388,-1.778145294377815
-4.086,-0.7328282044087219,-1.576809164679817
-4.0855,-0.04993701351609155,-1.237716735713852
-4.085,0.4195506802215176,-0.7714646458869092
-4.0845,0.6009436528019576,-0.209842810413546
-4.084,0.5369226036558616,0.3199891098456641
-4.0835,0.3555296310754218,0.6802748156210291
-4.083,0.1527963087794516,0.8180311148882058
-4.0825,0.06743490991795169,0.8180311148881673
-4.082,0.02475421048725994,0.775644561267536
-4.0815,0.02475421048725994,0.6908714540261965
-4.081,-0.01792648894343181,0.5743084315694609
-4.0805,-0.07127736323188383,0.4365521323021782
-4.08,-0.1993194615240755,0.309392471440169
-4.0795,-0.7434983792653953,0.5001319627330094
-4.079,-1.415719395300334,0.5637117931634645
-4.0785,-1.895877263895616,-0.2310360872233701
-4.078,-1.959898313041653,-0.8880276683431534
-4.0775,-1.511750969018536,-0.8562377531279981
-4.077,-0.9569018764195432,-0.5807251545938954
-4.0765,-0.5194247072549527,-0.3158091944649505
-4.076,-0.2633405106700549,-0.1356663415767765
-4.0755,-0.1352984123779797,-0.04029659593035631
-4.075,-0.1032878878049318,0.002089957690313421
-4.0745,-0.1032878878049512,0.01268659609548085
-4.074,-0.124628237520297,0.01268659609548085
-4.0735,-0.1459685872356623,0.02328323450064829
-4.073,-0.1566387620933352,0.03387987290580608
-4.0725,-0.1673089369510276,0.04447651131098315
-4.072,-0.1673089369510276,0.02328323450064829
-4.0715,-0.2953510352431029,-0.167456256792192
-4.071,-0.8288597781277688,-0.8244478379134017
-4.0705,-1.287677297007705,-1.545019249464132
-4.07,-1.77850534046066,-2.12783436174781
-4.0695,-1.586442193022091,-2.276187299420299
-4.069,-0.7861790786966207,-1.852321763213987
-4.0685,-0.01792648894347063,-1.258910012524611
-4.068,0.4515612047947014,-0.570128516188169
-4.0675,0.6009436528021226,0.04447651131098315
-4.067,0.5049120790829789,0.4789386859228479
-4.0665,0.3021787567868922,0.7120647308366278
-4.066,0.1741366584948169,0.8180311148882058
-4.0655,0.1634664836371343,0.8604176685088755
-4.065,0.09944543449109666,0.786241199672771
-4.0645,0.02475421048725994,0.6378882620003594
-4.064,-0.06060718837420119,0.4895353243280153
-4.0635,-0.1246282375202388,0.351779025060964
-4.063,-0.4980843575398591,0.5107286011388128
-4.0625,-1.234326422719292,1.019367244586387
-4.062,-2.034589537044762,1.093543713422492
-4.0615,-2.525417580498591,0.2881991946294775
-4.061,-2.19464215991073,-0.1038764263613609
-4.0605,-1.479740444445993,-0.1886495336027004
-4.06,-0.8395299529846361,-0.1886495336026714
-4.0595,-0.4020527838200457,-0.1568596183871981
-4.059,-0.1673089369510276,-0.1038764263613609
-4.0585,-0.07127736323197117,-0.04029659593041414
-4.058,-0.06060718837420119,0.01268659609548085
-4.0575,-0.08194753808956648,0.07626642652648545
-4.057,-0.1032878878049124,0.15044289536259
-4.0565,-0.124628237520297,0.2034260873884947
-4.056,-0.1459685872356623,0.2564092794143318
-4.0555,-0.1459685872356623,0.298795833034963
-4.055,-0.1886492866668684,0.2670059178189981
-4.0545,-0.7114878546928423,-0.2840192792492073
-4.054,-1.330357996437873,-1.057573882825726
-4.0535,-1.757164990745683,-1.640388995110561
-4.053,-1.693143941599645,-1.555615887869299
-4.0525,-0.9462317015618604,-1.152943628472937
-4.052,-0.1459685872351771,-0.7290780922657671
-4.0515,0.3875401556484697,-0.2098428104130352
-4.051,0.6009436528021226,0.2140227257936621
-4.0505,0.5689331282291037,0.478938685922607
-4.05,0.3875401556484697,0.5849050699745222
-4.0495,0.2061471830678648,0.5743084315693548
-4.049,0.1954770082101919,0.3517790250610411
-4.0485,0.1421261339216913,0.2246193641987717
-4.048,0.05676473506030786,0.1610395337678249
-4.0475,-0.02859666380107564,0.09745970333687815
-4.047,-0.09261771294744323,0.02328323450071575
-4.0465,-0.3060212101009019,0.09745970333682032
-4.046,-1.074273799853353,0.1928294489832405
-4.0455,-1.842526389607552,-0.4429688553274608
-4.045,-2.226652684483777,-1.258910012524611
-4.0445,-1.938557963326346,-1.396666311791788
-4.044,-1.309017646722546,-0.9304142219639677
-4.0435,-0.7328282044082075,-0.4323722169215513
-4.043,-0.3487019095316325,-0.07208651114585861
-4.0425,-0.1459685872358467,0.1504428953624551
-4.042,-0.06060718837420119,0.2458126410091644
-4.0415,-0.04993701351651855,0.2881991946298341
-4.041,-0.07127736323186443,0.2881991946298341
-4.0405,-0.09261771294726855,0.2881991946298245
-4.04,-0.1139580626626144,0.2776025562246667
-4.0395,-0.1246282375202873,0.2670059178195089
-4.039,-0.124628237520297,0.2564092794143029
-4.0385,-0.124628237520297,0.2246193641988295
-4.038,-0.2099896363816805,-0.08268314955074652
-4.0375,-0.6688071552624708,-0.8138511995081764
-4.037,-1.06360362499637,-1.47084278062796
-4.0365,-1.084943974711735,-2.053657892912168
-4.036,-0.5407650569693087,-2.413943598687688
-4.0355,0.1314559590640864,-2.223204107394847
-4.035,0.5902734779444399,-1.714565463946811
-4.0345,0.750326100809534,-1.078767159637343
-4.034,0.6756348768059011,-0.4111789401112165
-4.0335,0.4729015545099309,0.08686306493165288
-4.033,0.2381577076411263,0.3729723018709133
-4.0325,0.1848068333524802,0.4259554938969625
-4.032,0.1634664836371343,0.3729723018711736
-4.0315,0.08877525963342371,0.3305857482505424
-4.031,0.003413860771836423,0.267005917819451
-4.0305,-0.06060718837420119,0.2140227257936621
-4.03,-0.09261771294722002,0.2034260873885043
-4.0295,-0.2633405106707246,0.5319218779488586
-4.029,-0.8715404775580819,0.7226613692416989
-4.0285,-1.501080794161358,-0.008506680714854012
-4.028,-1.810515865033844,-0.7608680074817706
-4.0275,-1.46907026958831,-0.792657922697244
-4.027,-0.9569018764195432,-0.5065486857577234
-4.0265,-0.5194247072549527,-0.1886495336029895
-4.026,-0.2420001609548061,0.05507314971615059
-4.0255,-0.1032878878049318,0.2140227257936621
-4.025,-0.06060718837424001,0.2987958330349245
-4.0245,-0.0606071883742109,0.3411823866556905
-4.024,-0.07127736323188383,0.3623756634660061
-4.0235,-0.09261771294722973,0.3729723018711639
-4.023,-0.1139580626626144,0.3729723018711736
-4.0225,-0.1139580626626144,0.3729723018711736
-4.022,-0.1139580626626144,0.3729723018711736
-4.0215,-0.1886492866668975,0.2352160026033705
-4.021,-0.7434983792658902,-0.4535654937318862
-4.0205,-1.341028171296118,-1.269506650929778
-4.02,-1.767835165603172,-1.915901593645339
-4.0195,-1.490410619303675,-2.297380576231019
-4.019,-0.6154562809736985,-2.011271339291499
-4.0185,0.1634664836364258,-1.386069673387189
-4.018,0.6116138276598051,-0.6654982618352349
-4.0175,0.7396559259519968,-0.07208651114585861
-4.017,0.6542945270906134,0.2987958330346642
-4.0165,0.4515612047944103,0.4577454091125227
-4.016,0.2808384070716433,0.4683420475176805
-4.0155,0.2274875327832786,0.3941655786815759
-4.015,0.131455959063999,0.3093924714400919
-4.0145,0.03542438534494258,0.2246193641988295
-4.014,-0.03926683865876798,0.1398462569575671
-4.0135,-0.08194753808968293,0.06566978812144331
-4.013,-0.2099896363817582,0.2034260873884947
-4.0125,-0.7648387289812555,0.701468092431364
-4.012,-1.191645723288901,0.5107286011375984
-4.0115,-1.565101843307454,-0.3158091944647096
-4.011,-1.479740444445993,-0.6019184314042303
-4.0105,-1.052933450139075,-0.4959520473526523
-4.01,-0.6154562809736985,-0.2628260024388724
-4.0095,-0.3166913849585846,-0.05089323433552374
-4.009,-0.1352984123781447,0.118652980147001
-4.0085,-0.06060718837419148,0.235216002604074
-4.008,-0.04993701351651855,0.3199891098453364
-4.0075,-0.04993701351651855,0.3835689402762832
-4.007,-0.07127736323190324,0.4365521323022071
-4.0065,-0.09261771294724913,0.4683420475176805
-4.006,-0.1032878878049318,0.5001319627331828
-4.0055,-0.1032878878049415,0.5107286011383116
-4.005,-0.1139580626626144,0.4683420475176805
-4.0045,-0.4980843575391895,-0.04029659593035631
-4.004,-1.063603624996787,-0.8350444763185306
-4.0035,-1.522421143876723,-1.51322933424863
-4.003,-1.650463242168915,-1.979481424075996
-4.0025,-0.914221176989482,-1.958288147265681
-4.002,-0.08194753808956648,-1.51322933424863
-4.0015,0.4835717293676135,-0.8774310299385835
-4.001,0.7076454013787452,-0.1886495336033267
-4.0005,0.6649647019480437,0.298795833035204
-4,0.4729015545099309,0.5213252395435176
-3.9995,0.2701682322139607,0.5637117931641874
-3.999,0.2488278824985954,0.4259554938970107
-3.9985,0.1954770082101822,0.2776025562246667
-3.998,0.1101156093487211,0.1716361721729923
-3.9975,0.05676473506030786,0.08686306493165288
-3.997,0.00341386077189465,-0.008506680714854012
-3.9965,-0.07127736323188383,-0.02969995752518888
-3.996,-0.4980843575391895,0.383568940276341
-3.9955,-1.020922925565639,0.2670059178194992
-3.995,-1.575772018165136,-0.5065486857577234
-3.9945,-1.927887788468663,-0.6972881770507372
-3.994,-1.597112367880501,-0.474758770542221
-3.9935,-1.031593100423322,-0.2310360872233701
-3.993,-0.5514352318276028,-0.04029659593035631
-3.9925,-0.2420001609548061,0.1080563417419877
-3.992,-0.08194753808956648,0.2034260873884947
-3.9915,-0.02859666380115328,0.2776025562246667
-3.991,-0.01792648894347063,0.3411823866556712
-3.9905,-0.03926683865883591,0.3941655786815084
-3.99,-0.06060718837420119,0.4259554938970107
-3.9895,-0.08194753808956648,0.457745409112513
-3.989,-0.09261771294724913,0.4895353243280153
-3.9885,-0.09261771294724913,0.5001319627331828
-3.988,-0.156638762093345,0.3623756634660061
-3.9875,-0.4020527838200457,-0.2310360872233701
-3.987,-0.6367966306890638,-0.8244478379127463
-3.9865,-0.754168554123573,-1.258910012524611
-3.986,-0.3166913849585846,-1.449649503817625
-3.9855,0.2488278824985954,-1.396666311791788
-3.985,0.6329541773751706,-1.110557074852267
-3.9845,0.7609962756673623,-0.6019184314042303
-3.984,0.6969752265212663,-0.08268314955102604
-3.9835,0.5049120790829789,0.2776025562246667
-3.983,0.2808384070716433,0.457745409112513
-3.9825,0.1314559590640864,0.4789386859228479
-3.982,0.04609456020262521,0.4259554938970107
-3.9815,-0.01792648894347063,0.3199891098453364
-3.981,-0.04993701351651855,0.2034260873884947
-3.9805,-0.06060718837420119,0.08686306493165288
-3.98,-0.09261771294724913,0.01268659609548085
-3.9795,-0.5407650569699201,0.1080563417419877
-3.979,-1.341028171296118,-0.1780528951975329
-3.9785,-1.778505340461106,-0.9198175835592532
-3.978,-2.002579012472442,-1.036380606016095
-3.9775,-1.714484291315011,-0.6019184314042303
-3.977,-1.138294849000148,-0.2734226408440398
-3.9765,-0.6154562809736985,-0.07208651114585861
-3.976,-0.274010685527854,0.04447651131098315
-3.9755,-0.08194753808956648,0.1080563417419877
-3.975,-0.01792648894347063,0.1504428953626575
-3.9745,-0.007256314085787988,0.1928294489833272
-3.974,-0.01792648894347063,0.2352160026039969
-3.9735,-0.03926683865883591,0.2881991946298341
-3.973,-0.06060718837420119,0.3305857482505039
-3.9725,-0.07127736323188383,0.3729723018711736
-3.972,-0.07127736323188383,0.4047622170866759
-3.9715,-0.156638762093345,0.2776025562246667
-3.971,-0.7755089038389382,-0.3899856633008816
-3.9705,-1.362368521011484,-1.142346990067769
-3.97,-1.746494815888059,-1.714565463946811
-3.9695,-1.522421143876723,-1.958288147265661
-3.969,-0.6688071552621118,-1.619195718300304
-3.9685,0.1101156093487211,-0.9939940523954253
-3.968,0.5689331282290746,-0.326405832869877
-3.9675,0.7183155762366316,0.2564092794143318
-3.967,0.6436243522328531,0.5743084315693548
-3.9665,0.4515612047945656,0.6802748156210291
-3.966,0.3128489316446912,0.6908714540261965
-3.9655,0.4729015545099309,0.8604176685088755
-3.965,0.4622313796522482,0.7438546460520338
-3.9645,0.3235191065023739,0.4471487707073456
-3.964,0.1954770082101822,0.1822328105781598
-3.9635,0.08877525963335578,-0.04029659593035631
-3.963,-0.1993194615240755,0.09745970333682032
-3.9625,-0.9035510021311299,0.701468092431364
-3.962,-1.565101843307454,0.849821030103708
-3.9615,-1.757164990745741,0.2352160026039969
-3.961,-1.501080794161358,-0.06148987274069118
-3.9605,-0.9889124009925911,-0.1462629799820306
-3.96,-0.5407650569699201,-0.1144730647665284
-3.9595,-0.2313299860971235,-0.01910331912002144
-3.959,-0.07127736323188383,0.1080563417419877
-3.9585,-0.007256314085787988,0.2352160026039969
-3.958,0.00341386077189465,0.3623756634660061
-3.9575,-0.01792648894347063,0.4683420475176805
-3.957,-0.03926683865883591,0.5743084315693548
-3.9565,-0.04993701351651855,0.6590815388106942
-3.956,-0.06060718837420119,0.7120647308365314
-3.9555,-0.06060718837420119,0.7438546460520338
-3.955,-0.07127736323188383,0.7226613692416989
-3.9545,-0.391382608962363,0.2564092794143318
-3.954,-0.9142211769888124,-0.5489352393783931
-3.9535,-1.244996597576974,-1.227120097309109
-3.953,-1.426389570157579,-1.587405803084801
-3.9525,-0.8715404775580819,-1.333086481360783
-3.952,-0.1459685872356623,-0.792657922697244
-3.9515,0.3875401556484697,-0.1674562567923655
-3.951,0.6329541773751706,0.2881991946298341
-3.9505,0.6329541773751706,0.5319218779486851
-3.95,0.4729015545099309,0.5849050699745222
-3.9495,0.291508581929326,0.5107286011383502
-3.949,0.3661998059331045,0.1928294489833272
-3.9485,0.3555296310754218,-0.05089323433552374
-3.948,0.2381577076409128,-0.1568596183871981
-3.9475,0.1207857842064037,-0.2204394488182027
-3.947,0.02475421048725994,-0.2628260024388724
-3.9465,-0.1673089369510276,-0.2204394488182027
-3.946,-0.8822106524157645,0.08686306493165288
-3.9455,-1.405049220442214,-0.2416327256285375
-3.945,-1.597112367880501,-1.004590690800593
-3.9445,-1.522421143876723,-1.301296566145281
-3.944,-1.074273799854052,-0.9622041371799229
-3.9435,-0.6154562809736985,-0.474758770542221
-3.943,-0.2846808603855366,-0.07208651114585861
-3.9425,-0.09261771294724913,0.1928294489833272
-3.942,-0.007256314085787988,0.3411823866556712
-3.9415,0.00341386077189465,0.4153588554918433
-3.941,0.00341386077189465,0.4471487707073456
-3.9405,-0.01792648894347063,0.457745409112513
-3.94,-0.03926683865883591,0.457745409112513
-3.9395,-0.04993701351651855,0.4471487707073456
-3.939,-0.04993701351651855,0.4259554938970107
-3.9385,-0.04993701351651855,0.3941655786815084
-3.938,-0.2526703358124887,0.08686306493165288
-3.9375,-0.7968492535543035,-0.718481453861072
-3.937,-1.298347471865388,-1.51322933424863
-3.9365,-1.46907026958831,-1.852321763213987
-3.936,-0.9675720512772257,-1.534422611058964
-3.9355,-0.2420001609548061,-1.068170521231597
-3.935,0.3341892813600565,-0.5489352393783931
-3.9345,0.6116138276598051,-0.008506680714854012
-3.934,0.6436243522328531,0.3729723018711736
-3.9335,0.5049120790829789,0.5743084315693548
-3.933,0.3128489316446912,0.6166949851900245
-3.9325,0.2061471830678648,0.627291623595192
-3.932,0.142126133921769,0.5743084315693548
-3.9315,0.07810508477567314,0.4259554938970107
-3.931,0.02475421048725994,0.2564092794143318
-3.9305,-0.007256314085787988,0.09745970333682032
-3.93,-0.01792648894347063,-0.02969995752518888
-3.9295,0.2274875327832301,0.1716361721729923
-3.929,0.08877525963335578,0.7120647308365314
-3.9285,-0.423393133535411,0.4365521323021782
-3.928,-0.7861790786966207,-0.2946159176543747
-3.9275,-0.7648387289812555,-0.5171453241628908
-3.927,-0.5514352318276028,-0.4429688553267188
-3.9265,-0.3273615598162672,-0.2628260024388724
-3.926,-0.156638762093345,-0.07208651114585861
-3.9255,-0.06060718837420119,0.07626642652648545
-3.925,-0.01792648894347063,0.1928294489833272
-3.9245,-0.01792648894347063,0.2881991946298341
-3.924,-0.01792648894347063,0.3729723018711736
-3.9235,-0.02859666380115328,0.4365521323021782
-3.923,-0.03926683865883591,0.4895353243280153
-3.9225,-0.03926683865883591,0.5213252395435176
-3.922,-0.03926683865883591,0.5319218779486851
-3.9215,-0.1032878878049318,0.457745409112513
-3.921,-0.572775581542968,-0.1250697031716958
-3.9205,-0.9248913518464952,-0.8244478379127463
-3.92,-1.287677297007705,-1.407262950196955
-3.9195,-1.191645723288561,-1.725162102351978
-3.919,-0.4874141826815069,-1.566212526274467
-3.9185,0.1954770082101822,-1.142346990067769
-3.918,0.6222840025174878,-0.5807251545938954
-3.9175,0.7396559259519968,0.01268659609548085
-3.917,0.6436243522328531,0.4153588554918433
-3.9165,0.4408910299368829,0.627291623595192
-3.916,0.291508581929326,0.6696781772158616
-3.9155,0.3021787567870086,0.627291623595192
-3.915,0.2488278824985954,0.5001319627331828
-3.9145,0.1634664836371343,0.3305857482505039
-3.914,0.07810508477567314,0.1716361721729923
-3.9135,0.01408403562957729,0.02328323450064829
-3.913,0.07810508477567314,0.03387987290581572
-3.9125,0.07810508477567314,0.3305857482505039
-3.912,-0.4340633083930936,-0.09327978795619347
-3.9115,-0.9782422261349084,-0.6760949002404023
-3.911,-1.30901764672307,-0.4641621321370536
-3.9105,-1.095614149569417,-0.2416327256285375
-3.91,-0.7114878546928423,-0.1250697031716958
-3.9095,-0.3700422592469978,-0.06148987274069118
-3.909,-0.1459685872356623,-0.02969995752518888
-3.9085,-0.03926683865883591,0.01268659609548085
-3.908,0.00341386077189465,0.05507314971615059
-3.9075,0.01408403562957729,0.1080563417419877
-3.907,0.00341386077189465,0.1822328105781598
-3.9065,-0.01792648894347063,0.2458126410091644
-3.906,-0.02859666380115328,0.309392471440169
-3.9055,-0.03926683865883591,0.3411823866556712
-3.905,-0.04993701351651855,0.383568940276341
-3.9045,-0.4660738329661415,0.01268659609548085
-3.904,-1.06360362499637,-0.718481453861072
-3.9035,-1.373038695869166,-1.354279758171118
-3.903,-1.522421143876723,-1.778145294377815
-3.9025,-0.9142211769888124,-1.788741932782983
-3.902,-0.1032878878049318,-1.417859588602123
-3.9015,0.4835717293676135,-0.8244478379127463
-3.901,0.7289857510943143,-0.1568596183871981
-3.9005,0.7183155762366316,0.3623756634660061
-3.9,0.5475927785137094,0.6484849004055269
-3.8995,0.3448594562177392,0.7438546460520338
-3.899,0.2808384070716433,0.7650479228623686
-3.8985,0.2488278824985954,0.6908714540261965
-3.898,0.1634664836371343,0.5637117931641874
-3.8975,0.08877525963335578,0.4047622170866759
-3.897,0.02475421048725994,0.2458126410091644
-3.8965,-0.08194753808956648,0.1928294489833272
-3.896,-0.6688071552621118,0.5849050699745222
-3.8955,-1.298347471865388,0.5425185163538525
-3.895,-1.714484291315011,-0.3052125560595421
-3.8945,-1.778505340461106,-0.9304142219644207
-3.894,-1.330357996438436,-0.7714646458869092
-3.8935,-0.7861790786966207,-0.4323722169215513
-3.893,-0.3593720843893152,-0.1568596183871981
-3.8925,-0.1032878878049318,0.03387987290581572
-3.892,0.01408403562957729,0.1292496185523226
-3.8915,0.04609456020262521,0.1716361721729923
-3.891,0.03542438534494258,0.1928294489833272
-3.8905,0.02475421048725994,0.2034260873884947
-3.89,0.00341386077189465,0.2140227257936621
-3.8895,-0.01792648894347063,0.2246193641988295
