Class_5_Move_Left_hand_Horiszontal/Class_5_Move_Left_hand_Horizontal_Turki_6.csv

#Digilent WaveForms Oscilloscope Acquisition
#Device Name: EExplorer
#Serial Number: SN:210151A2B84A
#Date Time: 2020-12-10 14:07:43.669
#Sample rate: 2000Hz
#Samples: 16384
#Trigger: Source: Channel 1 Type: Edge Condition: Rising Level: 0 V Hyst.: Auto HoldOff: 0 s
#Channel 1: Range: 1 V/div Offset: 0 V Attenuation: 1 X
#Channel 2: Range: 1 V/div Offset: 0 V Attenuation: 1 X
#Power Supplies: ON
#Fixed Supply: ON
#Voltage: 3.3 V Readback: 3.323 V
#Positive Supply: ON
#Voltage: 3.7 V Readback: 3.674 V
#Current: 40 mA Readback: 15 mA
#Negative Supply: ON
#Voltage: -3.7 V Readback: -4.283 V
#Current: -40 mA Readback: -42 mA
#Reference 1: ON
#Voltage: 0 V
#Reference 2: ON
#Voltage: 0 V

Time (s),Channel 1 (V),Channel 2 (V)
-4.096,0.4515612047945656,0.04447651131098315
-4.0955,0.5049120790829303,0.1292496185522455
-4.095,1.113112045971462,0.2034260873886778
-4.0945,1.742652362574165,0.4047622170866759
-4.094,1.337185717982594,-0.01910331911963592
-4.0935,0.2488278824976735,-0.4429688553269983
-4.093,-0.7648387289812555,-0.7502713690765743
-4.0925,-0.9569018764193684,-0.5065486857579451
-4.092,-0.7861790786962034,0.1186529801479455
-4.0915,-0.3273615598162672,0.9875773293708847
-4.091,-0.6794773301197943,0.9451907757502149
-4.0905,-0.327361559816044,1.485619334414091
-4.09,-0.08194753808956648,1.856501678594614
-4.0895,0.142126133921769,2.100224361913465
-4.089,0.302178756786863,2.26977057639599
-4.0885,0.2594980573562781,2.280367214801311
-4.088,0.2061471830678648,2.216787384370307
-4.0875,0.174136658494846,2.004854616267151
-4.087,-0.07127736323262136,1.284283204714879
-4.0865,-0.8822106524157645,0.5213252395435176
-4.086,-1.511750969018468,-0.5171453241619463
-4.0855,-2.0452597119036,-1.513229334249275
-4.085,-2.514747405641209,-2.223204107394847
-4.0845,-1.959898313042216,-2.170220915369059
-4.084,-0.8822106524149979,-1.428456227006654
-4.0835,-0.03926683865883591,-0.7290780922662394
-4.083,0.4622313796522482,-0.3899856633008816
-4.0825,0.6969752265213148,-0.3475991096802504
-4.082,0.7503261008096795,-0.3899856633008816
-4.0815,0.8463576745288233,-0.6337083466197325
-4.081,1.038420821966936,-0.7608680074816261
-4.0805,0.942389248247967,-0.3687923864905467
-4.08,0.7609962756673623,0.13984625695749
-4.0795,0.5796033030869223,0.4365521323019083
-4.079,0.4622313796525005,0.5107286011383213
-4.0785,0.7396559259519968,0.4789386859228479
-4.078,1.465227816273756,0.3093924714403232
-4.0775,1.667961138569639,-0.3264058328703685
-4.077,0.8463576745288233,-0.8668343915334161
-4.0765,-0.4020527838189103,-1.205926820498466
-4.076,-1.095614149569311,-1.184733543687832
-4.0755,-0.9782422261349084,-0.5171453241628908
-4.075,-0.5621054066852853,0.3941655786815084
-4.0745,-0.1566387620930926,1.167720182259213
-4.074,0.1207857842064037,1.697552102517103
-4.0735,0.2274875327832301,1.930678147430786
-4.073,0.2274875327832301,1.973064701051417
-4.0725,-0.007256314085787988,1.729342017732605
-4.072,-0.4020527838200457,1.347863035146577
-4.0715,-0.2420001609549517,1.400846227172367
-4.071,-0.08194753808953736,1.411442865577476
-4.0705,-0.04993701351651855,1.29487984312074
-4.07,-0.807519428411297,0.3305857482513809
-4.0695,-1.778505340461776,-0.9304142219653073
-4.069,-2.514747405641209,-1.905304955239825
-4.0685,-3.048256148525341,-2.382153683472359
-4.068,-2.97356492452065,-2.149027638557933
-4.0675,-1.970568487899394,-1.333086481360783
-4.067,-0.8502001278427167,-0.6866915386455698
-4.0665,0.03542438534539868,-0.3581957480852829
-4.066,0.5369226036560266,-0.252229364033705
-4.0655,0.7396559259519968,-0.2946159176543747
-4.065,0.7716664505250157,-0.4535654937317417
-4.0645,0.9103787236749192,-0.6549016234300674
-4.064,0.8463576745288233,-0.4641621321370536
-4.0635,0.6969752265214022,-0.2522293640338977
-4.063,0.547592778513622,-0.09327978795606819
-4.0625,0.4515612047945656,0.04447651131098315
-4.062,0.5689331282289678,0.2140227257935079
-4.0615,1.209143619690217,0.4259554938966348
-4.061,1.411876941986003,0.01268659609548085
-4.0605,0.5262524287983441,-0.6866915386455698
-4.06,-0.6688071552628591,-1.163540266878191
-4.0595,-1.490410619303675,-1.258910012524611
-4.059,-1.362368521011484,-0.5595318777835605
-4.0585,-0.8181896032701637,0.4365521323012722
-4.058,-0.2953510352432193,1.29487984312074
-4.0575,0.0674349099179905,1.888291593810116
-4.057,0.2701682322137763,2.206190745964851
-4.0565,0.3661998059331045,2.333350406827149
-4.056,0.3661998059331045,2.290963853206479
-4.0555,0.3235191065024127,2.132014277129112
-4.055,0.2594980573562296,1.951871424241025
-4.0545,0.2061471830678648,1.845905040189447
-4.054,0.04609456020277078,1.475022696008924
-4.0535,-0.4127229586783591,0.9028042221291019
-4.053,-1.1062843244271,0.4153588554918433
-4.0525,-2.119950935906951,-0.9410108603695881
-4.052,-2.237322859341043,-1.735758740757358
-4.0515,-1.778505340461106,-1.968884785670829
-4.051,-0.8822106524157645,-1.809935209593318
-4.0505,-0.01792648894425664,-1.280103289335428
-4.05,0.5475927785137094,-0.7396747306714069
-4.0495,0.7396559259519968,-0.570128516188728
-4.049,0.7609962756673428,-0.5383386009732545
-4.0485,0.7183155762367189,-0.6019184314044038
-4.048,0.8143471499557753,-0.792657922697244
-4.0475,0.8143471499557753,-0.6443049850250349
-4.047,0.6863050516634577,-0.3581957480851576
-4.0465,0.5475927785137094,-0.1144730647665284
-4.046,0.4622313796523259,0.08686306493146978
-4.0455,0.5155822539411563,0.1186529801467022
-4.045,1.059761171682476,-0.3793890248957141
-4.0445,1.497238340847464,-1.068170521231597
-4.044,0.7716664505238803,-1.619195718300525
-4.0435,-0.5087545323968721,-1.862918401619155
-4.043,-1.51175096901904,-1.746355379162313
-4.0425,-1.533091318734386,-0.9516074987754783
-4.042,-0.9995825758502737,0.2458126410091644
-4.0415,-0.423393133535411,1.273686566310405
-4.041,0.003413860771506461,1.97306470105082
-4.0405,0.2488278824987021,2.343947045232441
-4.04,0.3661998059331045,2.481703344499493
-4.0395,0.3875401556484503,2.449913429284019
-4.039,0.3555296310753538,2.418123514068286
-4.0385,0.2808384070716433,2.195594107559972
-4.038,0.2381577076409516,1.86709831700008
-4.0375,0.1634664836367073,1.210106735878697
-4.037,-0.3060212101009019,0.4365521323021782
-4.0365,-1.042263275281004,-0.4429688553267188
-4.036,-1.575772018165427,-1.184733543688931
-4.0355,-1.895877263895616,-1.725162102351978
-4.035,-1.735824641030376,-1.852321763213987
-4.0345,-1.148965023858364,-1.714565463946936
-4.034,-0.3700422592469978,-1.184733543688439
-4.0335,0.03542438534494258,-1.05757388282643
-4.033,-0.03926683865876798,-1.227120097308955
-4.0325,0.2594980573564139,-0.9516074987746688
-4.032,0.408880505363835,-0.8562377531282487
-4.0315,0.6756348768056584,-0.9304142219643532
-4.031,0.9210488985325144,-0.9728007755848398
-4.0305,0.825017324813458,-0.6972881770507372
-4.03,0.654294527090691,-0.2840192792495831
-4.0295,0.50491207908294,0.08686306493177817
-4.029,0.4622313796522482,0.2246193641988295
-4.0285,0.9103787236749192,-0.2098428104130352
-4.028,1.507908515704671,-0.9304142219650279
-4.0275,0.9850699476786977,-1.598002441489969
-4.027,-0.3060212101009019,-1.894708316834657
-4.0265,-1.501080794160271,-1.894708316834657
-4.026,-1.767835165603424,-1.322489842955616
-4.0255,-1.26633694729234,-0.1780528951975329
-4.025,-0.6261264558319636,0.9239974989388777
-4.0245,-0.1139580626623233,1.718745379327852
-4.024,0.2061471830678648,2.174400830749637
-4.0235,0.3555296310752859,2.365140322042477
-4.023,0.398210330506133,2.386333598852909
-4.0225,0.3768699807907871,2.301560491611646
-4.022,0.3235191065024224,2.248577299585858
-4.0215,0.2594980573562296,2.163804192344287
-4.021,0.2061471830678648,1.962468062646288
-4.0205,0.03542438534494258,1.475022696008586
-4.02,-0.6047861061166369,0.5107286011374924
-4.0195,-1.287677297007705,-0.4323722169215513
-4.019,-1.746494815888059,-1.152943628472937
-4.0185,-2.013249187329882,-1.492036057437986
-4.018,-1.661133417026597,-1.650985633515806
-4.0175,-0.8288597781273515,-1.311893204550448
-4.017,-0.07127736323257283,-0.8668343915338209
-4.0165,0.3128489316449242,-0.654901623429971
-4.016,0.5689331282290746,-0.5489352393783931
-4.0155,0.01408403563008187,-1.280103289334281
-4.015,0.2168173579259066,-1.290699927740267
-4.0145,0.6116138276598051,-1.460246142222792
-4.014,0.7930068002402451,-1.110557074852585
-4.0135,0.7823366253825722,-0.5383386009728498
-4.013,0.6116138276598051,-0.1250697031716958
-4.0125,0.4729015545099309,0.13984625695749
-4.012,0.5902734779450415,0.2140227257935368
-4.0115,1.251824319120764,0.07626642652648545
-4.011,1.635950613997339,-0.6337083466197325
-4.0105,0.8250173248141955,-1.386069673385936
-4.01,-0.572775581542968,-1.852321763213987
-4.0095,-1.362368521011484,-1.809935209593318
-4.009,-1.212986073004062,-0.8986243067497471
-4.0085,-0.7114878546923958,0.2458126410100125
-4.008,-0.2206598112394408,1.178316820663898
-4.0075,0.1101156093484202,1.782325209757893
-4.007,0.3021787567870766,2.089627723508394
-4.0065,0.3768699807907871,2.195594107559972
-4.006,0.3768699807907871,2.153207553939303
-4.0055,0.3341892813600177,2.068434446697934
-4.005,0.291508581929326,2.036644531482461
-4.0045,0.2594980573562781,2.026047893077293
-4.004,0.2061471830675058,1.771728571352456
-4.0035,-0.1886492866663929,0.8710143069140429
-4.003,-0.9889124009925911,-0.2628260024388724
-4.0025,-1.522421143876238,-1.174136905282443
-4.002,-1.67180359188428,-1.576809164679634
-4.0015,-1.074273799854052,-1.555615887869299
-4.001,-0.1246282375211607,-1.470842780628037
-4.0005,0.4835717293678464,-1.068170521231298
-4,0.7396559259519968,-0.7396747306714069
-3.9995,0.7716664505250448,-0.5383386009732256
-3.999,0.707645401378949,-0.5065486857577234
-3.9985,0.6222840025174878,-0.5489352393783931
-3.998,0.8036769750980928,-0.6019184314042303
-3.9975,0.1848068333524996,-1.152943628472937
-3.997,0.1527963087794516,-0.7078848154559045
-3.9965,0.2381577076409128,-0.1568596183871981
-3.996,0.291508581929326,0.1928294489833272
-3.9955,0.4835717293676135,0.4365521323021782
-3.995,1.070431346540159,0.5849050699745222
-3.9945,1.603940089424291,0.07626642652648545
-3.994,0.8463576745288233,-0.8880276683437509
-3.9935,-0.5407650569699201,-1.502632695843462
-3.993,-1.757164990745741,-1.820531847998485
-3.9925,-1.949228138184029,-1.460246142222792
-3.992,-1.362368521011484,-0.3793890248957141
-3.9915,-0.658136980404429,0.7226613692416989
-3.991,-0.1139580626626144,1.538602526439591
-3.9905,0.2168173579255475,2.004854616266958
-3.99,0.3661998059331045,2.216787384370307
-3.9895,0.3982103305061524,2.227384022775475
-3.989,0.3661998059331045,2.132014277128968
-3.9885,0.2808384070716433,2.068434446697963
-3.988,0.2061471830678648,1.983661339456623
-3.9875,0.1741366584948169,1.782325209758442
-3.987,-0.09261771294724913,1.104140351827727
-3.9865,-0.8928808272734472,0.02328323450064829
-3.986,-1.639793067311232,-0.9516074987747555
-3.9855,-2.109280761049269,-1.672178910326141
-3.985,-2.493407055925843,-2.096044446532838
-3.9845,-1.842526389607202,-1.937094870455327
-3.984,-0.8181896032696687,-1.290699927740113
-3.9835,-0.02859666380115328,-0.7714646458869092
-3.983,0.4515612047945656,-0.4535654937318862
-3.9825,0.6756348768059011,-0.3475991096802118
-3.982,0.7289857510943143,-0.3793890248957141
-3.9815,0.79300680024041,-0.5065486857577234
-3.981,0.8676980242441885,-0.5277419625680583
-3.9805,0.7396559259519968,-0.3581957480853793
-3.98,0.5369226036560266,-0.2098428104130352
-3.9795,0.4729015545099309,0.002089957690313421
-3.979,-0.2953510352432193,-0.6231117082145651
-3.9785,0.1207857842064037,-0.2628260024388724
-3.978,0.8890383739595538,-0.04029659593035631
-3.9775,0.4622313796522482,-0.6760949002404023
-3.977,-0.5941159312583333,-1.248313374119443
-3.9765,-1.757164990745741,-1.703968825541643
-3.976,-2.290673733629873,-1.820531847998485
-3.9755,-1.799845690176472,-1.004590690800593
-3.975,-0.9995825758502737,0.1610395337678249
-3.9745,-0.3166913849585846,1.135930267043229
-3.974,0.1207857842064037,1.79292184816361
-3.9735,0.3555296310754218,2.142610915534135
-3.973,0.4408910299368829,2.269770576396144
-3.9725,0.4195506802215176,2.216787384370307
-3.972,0.3448594562177392,2.174400830749637
-3.9715,0.2701682322139607,2.100224361913465
-3.971,0.2061471830678648,1.867098316999781
-3.9705,0.08877525963335578,1.33726639674141
-3.97,-0.5834457564006506,0.3729723018711736
-3.9695,-1.362368521011484,-0.6125150698093976
-3.969,-1.981238662757077,-1.439052865412457
-3.9685,-2.247993034199143,-1.979481424075996
-3.968,-1.799845690176472,-2.127834361748341
-3.9675,-0.8715404775580819,-1.534422611058964
-3.967,-0.03926683865883591,-0.9410108603695881
-3.9665,0.5262524287983441,-0.6019184314042303
-3.966,0.7716664505250448,-0.4959520473525559
-3.9655,0.8143471499557753,-0.5065486857577234
-3.965,0.79300680024041,-0.6125150698093976
-3.9645,0.9957401225363802,-0.7396747306714069
-3.964,0.974399772821015,-0.4429688553267188
-3.9635,0.8143471499557753,-0.1250697031716958
-3.963,0.6329541773751706,0.1080563417419877
-3.9625,0.5049120790829789,0.2881991946298341
-3.962,0.6329541773751706,0.2564092794143318
-3.9615,1.091771696255524,0.2776025562246667
-3.961,1.113112045970889,-0.02969995752518888
-3.9605,0.0674349099179905,-0.9622041371799229
-3.96,-1.277007122150022,-1.809935209593318
-3.9595,-1.490410619303675,-1.714565463946811
-3.959,-1.1062843244271,-0.8244478379127463
-3.9585,-0.4874141826815069,0.3411823866556712
-3.958,-0.01792648894347063,1.273686566310405
-3.9575,0.2061471830678648,1.824711763379112
-3.957,0.3235191065023739,2.1214176387238
-3.9565,0.3661998059331045,2.237980661180642
-3.956,0.3661998059331045,2.216787384370307
-3.9555,0.3341892813600565,2.195594107559972
-3.955,0.3021787567870086,2.142610915534135
-3.9545,0.2594980573562781,2.068434446697963
-3.954,0.2061471830678648,1.739938656137773
-3.9535,-0.1779791118087102,0.8922075837243778
-3.953,-1.1062843244271,0.07626642652648545
-3.9525,-2.03458953704549,-0.9092209451540858
-3.952,-2.418715831922065,-1.619195718300304
-3.9515,-1.746494815888059,-2.000674700886331
-3.951,-0.754168554123573,-1.650985633515806
-3.9505,0.03542438534494258,-1.110557074852267
-3.95,0.5262524287983441,-0.718481453861072
-3.9495,0.7503261008096795,-0.5277419625680583
-3.949,0.8036769750980928,-0.5171453241628908
-3.9485,0.7609962756673623,-0.5807251545938954
-3.948,0.8890383739595538,-0.7396747306714069
-3.9475,1.070431346540159,-0.4535654937318862
-3.947,0.9850699476786977,-0.1144730647665284
-3.9465,0.7716664505250448,0.09745970333682032
-3.946,0.5689331282290746,0.2034260873884947
-3.9455,0.5262524287983441,0.2246193641988295
-3.945,0.974399772821015,0.1080563417419877
-3.9445,1.049090996824793,-0.09327978795619347
-3.944,0.1741366584948169,-0.5807251545938954
-3.9435,-0.7861790786966207,-0.8668343915334161
-3.943,-1.661133417026597,-1.110557074852267
-3.9425,-1.618452717595867,-0.7290780922662394
-3.942,-1.533091318734406,-0.3793890248957141
-3.9415,-1.042263275281004,0.3517790250608387
-3.941,-0.4340633083930936,1.146526905448396
-3.9405,-0.007256314085787988,1.70814874092227
-3.94,0.3128489316446912,2.089627723508298
-3.9395,0.3982103305061524,2.174400830749637
-3.939,0.3661998059331045,2.153207553939303
-3.9385,0.3021787567870086,2.132014277128968
-3.938,0.2488278824985954,2.07903108510313
-3.9375,0.2168173579255475,1.909484870620451
-3.937,-0.04993701351651855,1.157123543853563
-3.9365,-0.839529952985034,-0.1250697031716958
-3.936,-1.362368521011484,-1.301296566145281
-3.9355,-1.853196564464885,-2.096044446532838
-3.935,-2.322684258202921,-2.562296536360205
-3.9345,-1.959898313041711,-2.360960406662024
-3.934,-0.9995825758502737,-1.481439419033127
-3.9335,-0.1993194615240755,-0.7714646458869092
-3.933,0.3555296310754218,-0.4429688553267188
-3.9325,0.6542945270905358,-0.4429688553267188
-3.932,0.7609962756673623,-0.5489352393783931
-3.9315,0.857027849386506,-0.7502713690765743
-3.931,0.974399772821015,-0.7608680074817418
-3.9305,0.8890383739595538,-0.474758770542221
-3.93,0.7183155762366316,-0.2098428104130352
-3.9295,0.5582629533713921,-0.01910331912002144
-3.929,0.4729015545099309,0.09745970333682032
-3.9285,0.8463576745288233,0.1186529801471552
-3.928,1.571929564851243,0.1610395337678249
-3.9275,1.497238340847464,-0.326405832869877
-3.927,0.4195506802215176,-0.8880276683437509
-3.9265,-0.7755089038389382,-1.248313374119443
-3.926,-1.255666772434657,-1.131750351662602
-3.9255,-0.9782422261349084,-0.3581957480853793
-3.925,-0.4980843575391895,0.5743084315693548
-3.9245,-0.1993194615240755,1.231300012689736
-3.924,0.1634664836371343,1.824711763379112
-3.9235,-0.274010685527854,1.517409249629256
-3.923,-0.2313299860971235,1.602182356870596
-3.9225,-0.07127736323188383,1.729342017732605
-3.922,0.0674349099179905,1.845905040189447
-3.9215,0.1954770082101822,1.994257977861791
-3.921,0.1954770082101822,1.920081509025619
-3.9205,0.05676473506030786,1.347863035146577
-3.92,-0.722158029550525,0.1292496185523226
-3.9195,-1.618452717595867,-1.121153713257435
-3.919,-2.290673733629873,-2.064254531317336
-3.9185,-2.80284212679864,-2.710649474032549
-3.918,-2.781501777083275,-2.477523429118866
-3.9175,-1.981238662757077,-1.555615887869299
-3.917,-0.9782422261349084,-0.8880276683437509
-3.9165,-0.1139580626626144,-0.5383386009732256
-3.916,0.4302208550792003,-0.400582301706049
-3.9155,0.6863050516635838,-0.474758770542221
-3.915,0.7823366253827275,-0.6760949002404023
-3.9145,0.974399772821015,-0.8350444763179138
-3.914,0.9210488985326017,-0.6443049850249
-3.9135,0.7503261008096795,-0.4217755785163839
-3.913,0.5796033030867573,-0.2098428104130352
-3.9125,0.4622313796522482,0.1716361721729923
-3.912,0.7183155762366316,0.1928294489833272
-3.9115,1.454557641416734,0.01268659609548085
-3.911,1.849354111150991,-0.474758770542221
-3.9105,1.230483969405398,-1.025783967610927
-3.91,-0.03926683865883591,-1.34368311976595
-3.9095,-0.9355615267041777,-1.280103289334946
-3.909,-0.9569018764195432,-0.5489352393783931
-3.9085,-0.5941159312583333,0.4471487707073456
-3.908,-0.1886492866663929,1.305476481525908
-3.9075,0.1207857842064037,1.888291593810116
-3.907,0.291508581929326,2.20619074596514
-3.9065,0.3661998059331045,2.312157130016814
-3.906,0.3768699807907871,2.269770576396144
-3.9055,0.2808384070716433,2.089627723508298
-3.905,0.2061471830678648,1.983661339456623
-3.9045,-0.1673089369510276,1.496215972818921
-3.904,-0.6047861061160158,0.6590815388106942
-3.9035,-0.9569018764195432,-0.252229364033705
-3.903,-1.682473766741963,-1.333086481360783
-3.9025,-2.205312334768412,-2.096044446532838
-3.902,-2.653459678791083,-2.604683089980875
-3.9015,-2.866863175944736,-2.816615858084224
-3.901,-2.07727023647622,-2.032464616101834
-3.9005,-0.9675720512772257,-1.163540266878104
-3.9,-0.04993701351651855,-0.6231117082145651
-3.8995,0.4942419042252961,-0.4217755785163839
-3.899,0.7289857510943143,-0.4853554089473885
-3.8985,0.7716664505250448,-0.570128516188728
-3.898,0.9210488985326017,-0.8138511995075789
-3.8975,0.9637295979633325,-0.7502713690765743
-3.897,0.825017324813458,-0.474758770542221
-3.8965,0.6542945270905358,-0.2310360872233701
-3.896,0.5475927785137094,-0.1250697031716958
-3.8955,0.5475927785137094,-0.02969995752518888
-3.895,1.049090996824793,0.2881991946298341
-3.8945,1.294505018551494,0.06566978812131802
-3.894,0.3768699807907871,-0.6443049850249
-3.8935,-0.807519428411986,-1.184733543688439
-3.893,-1.661133417026597,-1.439052865412457
-3.8925,-1.565101843307454,-0.9622041371799229
-3.892,-0.9782422261349084,0.03387987290581572
-3.8915,-0.3700422592469978,0.9875773293708847
-3.891,0.05676473506030786,1.676358825706768
-3.8905,0.3021787567870086,2.089627723508298
-3.89,0.408880505363835,2.280367214801311
-3.8895,0.4195506802215176,2.290963853206479
-3.889,0.3661998059331045,2.20619074596514
-3.8885,0.3021787567870086,2.153207553939303
-3.888,0.2488278824985954,2.068434446697963
-3.8875,0.04609456020262521,2.004854616266958
-3.887,-0.2420001609548061,1.42203950398275
-3.8865,-0.807519428411986,0.5849050699745222
-3.886,-1.447729919872945,-0.3899856633008816
-3.8855,-1.767835165603424,-1.046977244421262
