Class_5_Move_Left_hand_Horiszontal/Class_5_Move_Left_hand_Horiszontal_SH_6.csv

#Digilent WaveForms Oscilloscope Acquisition
#Device Name: EExplorer
#Serial Number: SN:210151A2B84A
#Date Time: 2020-12-15 14:54:33.302
#Sample rate: 2000Hz
#Samples: 16384
#Trigger: Source: Channel 1 Type: Edge Condition: Rising Level: 0 V Hyst.: Auto HoldOff: 0 s
#Channel 1: Range: 1 V/div Offset: 0 V Attenuation: 1 X
#Channel 2: Range: 1 V/div Offset: 0 V Attenuation: 1 X
#Power Supplies: ON
#Fixed Supply: ON
#Voltage: 3.3 V Readback: 3.325 V
#Positive Supply: ON
#Voltage: 3.7 V Readback: 3.718 V
#Current: 40 mA Readback: 20 mA
#Negative Supply: ON
#Voltage: -3.7 V Readback: -3.356 V
#Current: -40 mA Readback: -7 mA
#Reference 1: ON
#Voltage: 0 V
#Reference 2: ON
#Voltage: 0 V

Time (s),Channel 1 (V),Channel 2 (V)
-4.096,0.7289857510943143,0.5001319627331828
-4.0955,0.5796033030868932,0.3729723018712893
-4.095,0.4622313796520541,0.288199194629545
-4.0945,0.2488278824985954,-0.02969995752518888
-4.094,-0.3700422592464349,-0.69728817705013
-4.0935,-0.9782422261351995,-1.322489842955982
-4.093,-1.298347471865388,-1.725162102351978
-4.0925,-1.298347471865388,-1.545019249464296
-4.092,-0.8288597781268954,-0.7820612842914019
-4.0915,-0.3273615598162672,-0.04029659593035631
-4.091,0.05676473506030786,0.5107286011383502
-4.0905,0.2701682322140577,0.828627753293508
-4.09,0.3768699807907871,0.9769806909657173
-4.0895,0.3982103305061524,1.00877060618122
-4.089,0.3875401556484794,0.9769806909657461
-4.0885,0.3768699807907871,0.92399749893988
-4.088,0.3555296310754218,0.849821030103708
-4.0875,0.334189281360076,0.7756445612676035
-4.087,0.3128489316446524,0.7014680924313061
-4.0865,0.2701682322139607,0.6378882620003594
-4.086,0.1848068333525772,0.5425185163539392
-4.0855,-0.177979111809341,-0.04029659593106949
-4.085,-0.8715404775580819,-0.8244478379127463
-4.0845,-1.298347471864999,-1.258910012524216
-4.084,-0.9782422261343844,-0.9092209451535846
-4.0835,-0.4020527838200457,-0.3581957480853793
-4.083,0.07810508477567314,0.02328323450064829
-4.0825,0.3448594562178362,0.1610395337678057
-4.082,0.4515612047945656,0.13984625695749
-4.0815,0.4729015545099309,0.07626642652648545
-4.081,0.451561204794585,0.02328323450069648
-4.0805,0.6329541773751706,0.1822328105781598
-4.08,0.7183155762366316,0.2564092794143318
-4.0795,0.643624352232921,0.2140227257937006
-4.079,0.5262524287982567,0.1716361721729827
-4.0785,0.4302208550792003,0.1610395337678249
-4.078,0.2594980573564333,0.05507314971624697
-4.0775,-0.3487019095323409,-0.5065486857583112
-4.077,-1.127624674142465,-1.152943628472937
-4.0765,-1.693143941599131,-1.650985633515353
-4.076,-1.821186039891294,-1.682775548730663
-4.0755,-1.223656247861609,-0.9728007755850904
-4.075,-0.572775581542968,-0.1886495336027004
-4.0745,-0.06060718837392946,0.425955493897348
-4.074,0.2381577076409128,0.7968378380778709
-4.0735,0.3768699807907871,0.9769806909657173
-4.073,0.4195506802214788,1.029963882991506
-4.0725,0.408880505363835,1.00877060618122
-4.072,0.3875401556484697,0.9451907757502149
-4.0715,0.3555296310754509,0.8604176685089526
-4.071,0.3235191065023448,0.7756445612674493
-4.0705,0.291508581929326,0.6802748156210291
-4.07,0.2594980573563072,0.5849050699746089
-4.0695,-0.1566387620938399,0.09745970333615532
-4.069,-0.7008176798351597,-0.6337083466197325
-4.0685,-1.052933450138687,-1.227120097309109
-4.068,-1.04226327528049,-1.248313374118807
-4.0675,-0.4767440078238243,-0.5489352393783931
-4.067,0.01408403562957729,-0.04029659593035631
-4.0665,0.3021787567871057,0.1928294489833368
-4.066,0.408880505363835,0.2034260873884947
-4.0655,0.4408910299368829,0.1080563417419877
-4.065,0.43022085507921,-0.008506680714747999
-4.0645,0.408880505363835,-0.08268314955102604
-4.064,0.4835717293676135,-0.008506680714854012
-4.0635,0.5902734779443428,0.09745970333672394
-4.063,0.5689331282290067,0.1292496185523322
-4.0625,0.4942419042252961,0.13984625695749
-4.062,0.4195506802215856,0.1716361721729634
-4.0615,0.3341892813596684,0.1610395337674105
-4.061,-0.09261771294724913,-0.2946159176543747
-4.0605,-0.8288597781273515,-0.9622041371799229
-4.06,-1.44772991987311,-1.449649503817471
-4.0595,-1.629122892453549,-1.280103289334946
-4.059,-1.26633694729234,-0.7820612842920766
-4.0585,-0.6688071552626552,-0.1674562567929245
-4.058,-0.156638762093345,0.3411823866556712
-4.0575,0.1741366584948169,0.6802748156210291
-4.057,0.3448594562175839,0.8604176685087116
-4.0565,0.408880505363835,0.9345941373450475
-4.056,0.408880505363835,0.9557874141553824
-4.0555,0.3875401556484891,0.9345941373450668
-4.055,0.366199805933085,0.9028042221294971
-4.0545,0.3448594562177392,0.849821030103708
-4.054,0.3128489316447204,0.7968378380779191
-4.0535,0.2915085819290834,0.7438546460517543
-4.053,0.02475421048725994,0.4365521323021782
-4.0525,-0.6688071552621118,-0.3370024712750445
-4.052,-1.373038695869467,-1.12115371325782
-4.0515,-1.703814116457328,-1.545019249464132
-4.051,-1.084943974711735,-0.9516074987747555
-4.0505,-0.3487019095323021,-0.2734226408446566
-4.05,0.1954770082101822,0.07626642652648545
-4.0495,0.4515612047945656,0.1186529801471552
-4.049,0.5262524287982762,0.05507314971620841
-4.0485,0.5155822539406129,-0.01910331912006963
-4.048,0.4622313796522482,-0.07208651114585861
-4.0475,0.4622313796522482,-0.05089323433554302
-4.047,0.5689331282290649,0.1186529801472034
-4.0465,0.5582629533713921,0.1716361721729923
-4.046,0.4942419042253544,0.1928294489833079
-4.0455,0.4302208550791615,0.2140227257937006
-4.045,0.3875401556484697,0.2564092794143318
-4.0445,0.5689331282290746,0.3305857482505039
-4.044,0.9743997728205589,-0.02969995752579604
-4.0435,0.4729015545099309,-0.6972881770507372
-4.043,-0.4447334832507763,-1.227120097309109
-4.0425,-0.8608703027000207,-1.142346990067846
-4.042,-0.6688071552621118,-0.5171453241628908
-4.0415,-0.3060212101009019,0.13984625695749
-4.041,0.01408403562928612,0.6166949851895909
-4.0405,0.2274875327833271,0.9028042221296416
-4.04,0.3341892813600565,1.00877060618122
-4.0395,0.3768699807907483,1.029963882991535
-4.039,0.3768699807907774,0.9769806909656498
-4.0385,0.3661998059331045,0.9028042221295453
-4.038,0.3448594562177586,0.8074344764831251
-4.0375,0.3235191065023544,0.7120647308364544
-4.037,0.3021787567870086,0.627291623595192
-4.0365,0.1741366584948169,0.4365521323021782
-4.036,-0.3700422592476189,-0.2098428104137388
-4.0355,-1.052933450138687,-0.9833974139902578
-4.035,-1.543761493592088,-1.555615887869299
-4.0345,-1.095614149569825,-1.152943628473303
-4.034,-0.3273615598162672,-0.3687923864905467
-4.0335,0.1954770082101822,0.05507314971615059
-4.033,0.4622313796520056,0.1610395337677286
-4.0325,0.5369226036560072,0.1186529801470684
-4.032,0.5155822539406614,0.02328323450064829
-4.0315,0.4622313796522967,-0.05089323433545628
-4.031,0.419550680221605,-0.08268314955097786
-4.0305,0.5155822539406614,-0.02969995752518888
-4.03,0.5369226036560072,0.0232832345006001
-4.0295,0.4942419042252379,0.07626642652653363
-4.029,0.4302208550792003,0.1292496185523226
-4.0285,0.3875401556484697,0.2034260873884947
-4.028,0.4729015545103482,0.1398462569570467
-4.0275,0.9317190733902845,-0.3475991096802118
-4.027,0.6756348768059011,-0.9833974139902578
-4.0265,0.00341386077250605,-1.449649503817201
-4.026,-0.5941159312583333,-1.51322933424863
-4.0255,-0.6154562809736985,-0.8986243067489184
-4.025,-0.3487019095318751,-0.1568596183878728
-4.0245,-0.06060718837399739,0.425955493897348
-4.024,0.1634664836371343,0.7968378380778709
-4.0235,0.2915085819292095,0.9769806909655534
-4.023,0.3555296310754315,1.029963882991535
-4.0225,0.3661998059331045,1.00877060618122
-4.022,0.3661998059331045,0.9557874141554306
-4.0215,0.3448594562177197,0.8710143069139562
-4.021,0.3235191065023739,0.775644561267536
-4.0205,0.3021787567870086,0.6908714540261965
-4.02,0.2594980573558899,0.5849050699740692
-4.0195,-0.1673089369510276,0.08686306493165288
-4.019,-0.8822106524157645,-0.6972881770507372
-4.0185,-1.533091318733814,-1.386069673385994
-4.018,-1.51175096901904,-1.38606967338662
-4.0175,-0.7328282044082075,-0.6019184314042303
-4.017,-0.0926177129478315,-0.1250697031721295
-4.0165,0.3021787567871736,0.09745970333683959
-4.016,0.4835717293676135,0.1186529801471552
-4.0155,0.5155822539406323,0.03387987290589282
-4.015,0.4729015545098921,-0.05089323433558157
-4.0145,0.4302208550792003,-0.1144730647665284
-4.014,0.483571729367565,-0.1250697031716861
-4.0135,0.5796033030867379,-0.135666341576815
-4.013,0.5582629533713921,-0.08268314955102604
-4.0125,0.4729015545099309,0.002089957690313421
-4.012,0.4088805053638447,0.1080563417420456
-4.0115,0.4195506802215176,0.1716361721729923
-4.011,0.8356874996711408,-0.1886495336027004
-4.0105,0.9317190733901971,-0.824447837912168
-4.01,0.2381577076409128,-1.333086481360783
-4.0095,-0.572775581542968,-1.534422611058964
-4.009,-0.732828204408062,-1.015187329206232
-4.0085,-0.4874141826812061,-0.2522293640331267
-4.008,-0.156638762093345,0.383568940276341
-4.0075,0.09944543449080553,0.796837838077495
-4.007,0.2594980573563557,1.008770606181287
-4.0065,0.3448594562177392,1.082947075017392
-4.006,0.3661998059331045,1.072350436612224
-4.0055,0.3555296310754121,1.008770606181133
-4.005,0.3448594562177392,0.9134008605347127
-4.0045,0.3235191065023739,0.8180311148882058
-4.004,0.3021787567869795,0.7120647308364544
-4.0035,0.2701682322139607,0.627291623595192
-4.003,-0.007256314085787988,0.309392471440169
-4.0025,-0.6794773301191829,-0.4429688553260345
-4.002,-1.298347471865388,-1.184733543688439
-4.0015,-1.522421143876723,-1.545019249464132
-4.001,-0.9569018764200575,-0.9728007755856108
-4.0005,-0.3166913849581576,-0.3475991096799227
-4,0.1527963087794516,-0.02969995752518888
-3.9995,0.4195506802215176,0.01268659609548085
-3.999,0.4942419042252961,-0.02969995752518888
-3.9985,0.4835717293676135,-0.08268314955102604
-3.998,0.4408910299368829,-0.1250697031716958
-3.9975,0.4515612047945656,-0.07208651114585861
-3.997,0.5582629533713921,0.1292496185523226
-3.9965,0.5582629533713921,0.1716361721729923
-3.996,0.4942419042252961,0.1610395337678249
-3.9955,0.4302208550792003,0.1716361721729923
-3.995,0.3768699807907871,0.2034260873884947
-3.9945,0.6009436528021226,0.1292496185523226
-3.994,0.7823366253827275,-0.3793890248957141
-3.9935,0.07810508477567314,-1.01518732920576
-3.993,-0.7648387289812555,-1.460246142222792
-3.9925,-1.020922925565639,-1.227120097309109
-3.992,-0.722158029550525,-0.5171453241628908
-3.9915,-0.3166913849585846,0.1610395337678249
-3.991,0.02475421048725994,0.6590815388106942
-3.9905,0.2274875327832301,0.9345941373450475
-3.99,0.3341892813600565,1.051157159801889
-3.9895,0.3661998059331045,1.061753798207057
-3.989,0.3661998059331045,1.00877060618122
-3.9885,0.3555296310754218,0.9345941373450475
-3.988,0.3235191065023739,0.849821030103708
-3.9875,0.291508581929326,0.7438546460520338
-3.987,0.2808384070716433,0.6590815388106942
-3.9865,0.1741366584948169,0.4895353243280153
-3.986,-0.3700422592469978,-0.1356663415768632
-3.9855,-1.052933450138687,-0.9198175835592532
-3.985,-1.575772018165136,-1.481439419033127
-3.9845,-1.1062843244271,-1.036380606016095
-3.984,-0.3807124341046804,-0.3370024712750445
-3.9835,0.142126133921769,0.01268659609548085
-3.983,0.4195506802215176,0.07626642652648545
-3.9825,0.4942419042252961,0.03387987290581572
-3.982,0.4835717293676135,-0.02969995752518888
-3.9815,0.4408910299368829,-0.09327978795619347
-3.981,0.3982103305061524,-0.1144730647665284
-3.9805,0.5155822539406614,0.002089957690313421
-3.98,0.5689331282290746,0.09745970333682032
-3.9795,0.5155822539406614,0.1186529801471552
-3.979,0.4408910299368829,0.13984625695749
-3.9785,0.3875401556484697,0.1822328105781598
-3.978,0.3768699807907871,0.02328323450064829
-3.9775,0.5155822539406614,-0.5807251545938954
-3.977,0.1101156093487211,-1.216523458903942
-3.9765,-0.6154562809736985,-1.629792356705471
-3.976,-1.06360362499637,-1.555615887869299
-3.9755,-0.8822106524157645,-0.8456411147230812
-3.975,-0.4660738329661415,-0.08268314955102604
-3.9745,-0.08194753808956648,0.5107286011383502
-3.974,0.1741366584948169,0.8710143069140429
-3.9735,0.3128489316446912,1.029963882991555
-3.973,0.3661998059331045,1.072350436612224
-3.9725,0.3661998059331045,1.040560521396722
-3.972,0.3555296310754218,0.9769806909657173
-3.9715,0.3341892813600565,0.8922075837243778
-3.971,0.3021787567870086,0.7968378380778709
-3.9705,0.2808384070716433,0.701468092431364
-3.97,0.2381577076409128,0.5849050699745222
-3.9695,-0.156638762093345,0.07626642652648545
-3.969,-0.8502001278427167,-0.7290780922662394
-3.9685,-1.522421143876723,-1.407262950196955
-3.968,-1.67180359188428,-1.449649503817625
-3.9675,-1.06360362499637,-0.8138511995075789
-3.967,-0.4020527838200457,-0.3475991096802118
-3.9665,0.07810508477567314,-0.05089323433552374
-3.966,0.3661998059331045,0.07626642652648545
-3.9655,0.4729015545099309,0.05507314971615059
-3.965,0.4729015545099309,-0.01910331912002144
-3.9645,0.4302208550792003,-0.1038764263613609
-3.964,0.5155822539406614,0.02328323450064829
-3.9635,0.6329541773751706,0.2352160026039969
-3.963,0.5902734779444399,0.2352160026039969
-3.9625,0.5049120790829789,0.1928294489833272
-3.962,0.4195506802215176,0.1610395337678249
-3.9615,0.4195506802215176,0.1716361721729923
-3.961,0.8463576745288233,-0.1674562567923655
-3.9605,0.8143471499557753,-0.8244478379127463
-3.96,-0.03926683865883591,-1.407262950196955
-3.9595,-0.8715404775580819,-1.693372187136476
-3.959,-0.9889124009925911,-1.205926820498774
-3.9585,-0.658136980404429,-0.4111789401112165
-3.958,-0.2526703358124887,0.2776025562246667
-3.9575,0.05676473506030786,0.7438546460520338
-3.957,0.2488278824985954,0.9875773293708847
-3.9565,0.3448594562177392,1.093543713422559
-3.956,0.3661998059331045,1.093543713422559
-3.9555,0.3555296310754218,1.051157159801889
-3.955,0.3448594562177392,0.9875773293708847
-3.9545,0.3235191065023739,0.8922075837243778
-3.954,0.291508581929326,0.8074344764830383
-3.9535,0.2701682322139607,0.7226613692416989
-3.953,0.0674349099179905,0.4047622170866759
-3.9525,-0.4447334832507763,-0.3370024712750445
-3.952,-1.010252750707956,-1.0999604364471
-3.9515,-1.373038695869166,-1.492036057438295
-3.951,-0.8928808272734472,-0.8880276683437509
-3.9505,-0.274010685527854,-0.2310360872233701
-3.95,0.1741366584948169,0.1292496185523226
-3.9495,0.408880505363835,0.1928294489833272
-3.949,0.4729015545099309,0.1080563417419877
-3.9485,0.4622313796522482,0.002089957690313421
-3.948,0.4195506802215176,-0.08268314955102604
-3.9475,0.4195506802215176,-0.08268314955102604
-3.947,0.4942419042252961,0.02328323450064829
-3.9465,0.4835717293676135,0.06566978812131802
-3.946,0.4302208550792003,0.08686306493165288
-3.9455,0.3768699807907871,0.1292496185523226
-3.945,0.3341892813600565,0.1822328105781598
-3.9445,0.408880505363835,0.2670059178194992
-3.944,0.7396559259519968,-0.008506680714854012
-3.9435,0.2701682322139607,-0.6760949002404023
-3.943,-0.4874141826815069,-1.025783967610927
-3.9425,-0.9142211769888124,-0.9728007755850904
-3.942,-0.7434983792658902,-0.4641621321370536
-3.9415,-0.3700422592469978,0.1292496185523226
-3.941,-0.03926683865883591,0.5849050699745222
-3.9405,0.1848068333524996,0.8604176685088755
-3.94,0.3021787567870086,0.9981739677760521
-3.9395,0.3555296310754218,1.029963882991555
-3.939,0.3555296310754218,1.00877060618122
-3.9385,0.3448594562177392,0.9557874141553824
-3.938,0.3128489316446912,0.8816109453192104
-3.9375,0.2808384070716433,0.7968378380778709
-3.937,0.2594980573562781,0.7120647308365314
-3.9365,0.1314559590640864,0.5107286011383502
-3.936,-0.4767440078238243,-0.1780528951975329
-3.9355,-1.170305373573196,-0.9728007755850904
-3.935,-1.565101843307454,-1.502632695843462
-3.9345,-1.127624674142465,-1.0999604364471
-3.934,-0.4980843575391895,-0.4323722169215513
-3.9335,0.00341386077189465,-0.04029659593035631
-3.933,0.3021787567870086,0.09745970333682032
-3.9325,0.408880505363835,0.07626642652648545
-3.932,0.4408910299368829,0.002089957690313421
-3.9315,0.4195506802215176,-0.07208651114585861
-3.931,0.3982103305061524,-0.1144730647665284
-3.9305,0.6436243522328531,-0.09327978795619347
-3.93,0.7609962756673623,-0.09327978795619347
-3.9295,0.6756348768059011,-0.06148987274069118
-3.929,0.5475927785137094,-0.008506680714854012
-3.9285,0.4302208550792003,0.05507314971615059
-3.928,0.3875401556484697,-0.1462629799820306
-3.9275,0.5369226036560266,-0.7396747306714069
-3.927,0.07810508477567314,-1.34368311976595
-3.9265,-0.5941159312583333,-1.545019249464132
-3.926,-0.8502001278427167,-0.8880276683437509
-3.9255,-0.690147504977477,-0.2946159176543747
-3.925,-0.3380317346739499,0.1186529801471552
-3.9245,-0.02859666380115328,0.383568940276341
-3.924,0.1954770082101822,0.5425185163538525
-3.9235,0.3021787567870086,0.627291623595192
-3.923,0.3448594562177392,0.6908714540261965
-3.9225,0.3555296310754218,0.7438546460520338
-3.922,0.3341892813600565,0.775644561267536
-3.9215,0.3235191065023739,0.8074344764830383
-3.921,0.291508581929326,0.8286277532933731
-3.9205,0.2701682322139607,0.849821030103708
-3.92,0.2168173579255475,0.8180311148882058
-3.9195,-0.02859666380115328,0.4365521323021782
-3.919,-0.3700422592469978,-0.2204394488182027
-3.9185,-0.9248913518464952,-0.8986243067489184
-3.918,-1.159635198715513,-1.025783967610927
-3.9175,-0.7968492535543035,-0.5277419625680583
-3.917,-0.2953510352432193,-0.008506680714854012
-3.9165,0.09944543449103843,0.3517790250608387
-3.916,0.3341892813600565,0.5107286011383502
-3.9155,0.4302208550792003,0.4789386859228479
-3.915,0.4302208550792003,0.3729723018711736
-3.9145,0.408880505363835,0.2458126410091644
-3.914,0.5262524287983441,0.3199891098453364
-3.9135,0.6756348768059011,0.4365521323021782
-3.913,0.6329541773751706,0.3411823866556712
-3.9125,0.5262524287983441,0.1928294489833272
-3.912,0.4302208550792003,0.07626642652648545
-3.9115,0.408880505363835,0.02328323450064829
-3.911,0.8356874996711408,-0.1462629799820306
-3.9105,0.8783681991018712,-0.718481453861072
-3.91,0.04609456020262521,-1.322489842955616
-3.9095,-0.7861790786966207,-1.682775548731308
-3.909,-0.9675720512772257,-1.34368311976595
-3.9085,-0.6688071552621118,-0.6337083466197325
-3.908,-0.274010685527854,0.01268659609548085
-3.9075,0.03542438534494258,0.457745409112513
-3.907,0.2274875327832301,0.701468092431364
-3.9065,0.3235191065023739,0.8180311148882058
-3.906,0.3448594562177392,0.849821030103708
-3.9055,0.3448594562177392,0.8286277532933731
-3.905,0.3235191065023739,0.7862411996727035
-3.9045,0.3021787567870086,0.7332580076468663
-3.904,0.2701682322139607,0.6802748156210291
-3.9035,0.2594980573562781,0.6378882620003594
-3.903,-0.007256314085787988,0.3411823866556712
-3.9025,-0.7008176798351597,-0.4217755785163839
-3.902,-1.362368521011484,-1.195330182093607
-3.9015,-1.661133417026597,-1.576809164679634
-3.901,-1.06360362499637,-0.9516074987747555
-3.9005,-0.391382608962363,-0.2946159176543747
-3.9,0.08877525963335578,0.01268659609548085
-3.8995,0.3555296310754218,0.09745970333682032
-3.899,0.4515612047945656,0.07626642652648545
-3.8985,0.4515612047945656,0.04447651131098315
-3.898,0.408880505363835,0.02328323450064829
-3.8975,0.4302208550792003,0.08686306493165288
-3.897,0.5689331282290746,0.2776025562246667
-3.8965,0.5582629533713921,0.3199891098453364
-3.896,0.4835717293676135,0.2776025562246667
-3.8955,0.408880505363835,0.2564092794143318
-3.895,0.3555296310754218,0.2458126410091644
-3.8945,0.6436243522328531,-0.06148987274069118
-3.894,0.9637295979633325,-0.7396747306714069
-3.8935,0.291508581929326,-1.364876396576285
-3.893,-0.6367966306890638,-1.788741932782983
-3.8925,-0.9782422261349084,-1.460246142222792
-3.892,-0.7434983792658902,-0.6760949002404023
-3.8915,-0.3487019095316325,0.04447651131098315
-3.891,-0.01792648894347063,0.5425185163538525
-3.8905,0.1954770082101822,0.8286277532933731
-3.89,0.3021787567870086,0.9345941373450475
-3.8895,0.3448594562177392,0.9557874141553824
-3.889,0.3448594562177392,0.9134008605347127
-3.8885,0.3235191065023739,0.8392243916985406
-3.888,0.3021787567870086,0.7650479228623686
-3.8875,0.2808384070716433,0.6802748156210291
-3.887,0.2488278824985954,0.6060983467848571
