Class_5_Move_Left_hand_Horiszontal/Class_5_Move_Left_hand_Horiszontal_UZ_8.csv

#Digilent WaveForms Oscilloscope Acquisition
#Device Name: EExplorer
#Serial Number: SN:210151A2B84A
#Date Time: 2020-12-20 12:41:06.426
#Sample rate: 2000Hz
#Samples: 16384
#Trigger: Source: Channel 1 Type: Edge Condition: Rising Level: 0 V Hyst.: Auto HoldOff: 0 s
#Channel 1: Range: 1 V/div Offset: 0 V
#Channel 2: Range: 1 V/div Offset: 0 V

Time (s),Channel 1 (V),Channel 2 (V)
-4.0960000000000001,0.55826295337139209,-0.19924617200786782
-4.0955000000000004,0.40888050536397091,-0.36879238649039253
-4.0949999999999998,0.3768699807909715,-0.42177557851595021
-4.0945,0.57960330308675734,0.055073149716150585
-4.0940000000000003,0.84635767452858057,0.71206473083593391
-4.0934999999999997,1.0277506471092632,1.2101067358796416
-4.093,0.84635767452882327,1.4750226960085864
-4.0925000000000002,0.099445434491717832,1.5280058880343754
-4.0919999999999996,-0.29535103524321932,1.0193672445857125
-4.0914999999999999,-0.29535103524321932,0.27760255622466667
-4.0910000000000002,-0.15663876209334496,-0.30521255605954212
-4.0904999999999996,0.0034138607719916949,-0.61251506980945547
-4.0899999999999999,0.11011560934872107,-0.67609490024040231
-4.0895000000000001,0.17413665849481691,-0.5807251545938954
-4.0890000000000004,0.20614718306783572,-0.38998566330105505
-4.0884999999999998,0.19547700821018218,-0.1674562567923655
-4.0880000000000001,0.17413665849481691,0.044476511310983152
-4.0875000000000004,0.1101156093487793,0.21402272579350787
-4.0869999999999997,0.0034138607717879008,0.27760255622457031
-4.0865,-0.11395806266261441,0.17163617217299235
-4.0860000000000003,-0.60478610611556938,-0.26282600243847731
-4.0854999999999997,-1.2983474718659602,-0.76086800748207906
-4.085,-1.9278877884686634,-1.131750351662602
-4.0845000000000002,-1.8638667393226258,-0.98339741399039271
-4.0839999999999996,-1.1809755484301896,-0.3581957480848974
-4.0834999999999999,-0.42339313353541097,0.17163617217299235
-4.0830000000000002,0.19547700821018218,0.51072860113835017
-4.0824999999999996,0.53692260365616251,0.58490506997448366
-4.0819999999999999,0.6863050516635838,0.54251851635385251
-4.0815000000000001,0.70764540137894905,0.41535885549184332
-4.0810000000000004,0.67563487680593015,0.22461936419900297
-4.0804999999999998,0.84635767452882327,0.29879583303500157
-4.0800000000000001,0.84635767452882327,0.25640927941433178
-4.0795000000000003,0.66496470194838331,0.012686596095702496
-4.0789999999999997,0.48357172936748732,-0.25222936403390739
-4.0785,0.34485945621773917,-0.47475877054222104
-4.0780000000000003,0.2381577076410098,-0.35819574808548532
-4.0774999999999997,0.1848068333530333,0.26700591782008715
-4.077,0.77166645052504479,0.9134008605347127
-4.0765000000000002,1.4118769419854211,1.3372663967410245
-4.0759999999999996,1.3051751934088081,1.3372663967408895
-4.0754999999999999,0.8997085488172365,0.76504792286236856
-4.0750000000000002,0.53692260365602662,0.10805634174198775
-4.0744999999999996,0.30217875678690187,-0.33700247127521793
-4.0739999999999998,0.18480683335249956,-0.52774196256805828
-4.0735000000000001,0.14212613392176898,-0.51714532416289083
-4.0730000000000004,0.14212613392176898,-0.37938902489583942
-4.0724999999999998,0.15279630877945163,-0.18864953360270037
-4.0720000000000001,0.15279630877945163,0.023283234500648287
-4.0715000000000003,0.13145595906410576,0.22461936419864639
-4.0709999999999997,0.046094560202508759,0.36237566346603506
-4.0705,-0.08194753808956648,0.39416557868150842
-4.0700000000000003,-0.17797911180862289,0.30939247144024606
-4.0694999999999997,-0.63679663068966541,-0.10387642636187169
-4.069,-1.2983474718653876,-0.66549826183523486
-4.0685000000000002,-1.9705684878993939,-1.1105570748522671
-4.0679999999999996,-2.2906737336289611,-1.3754730349815492
-4.0674999999999999,-1.2876772970077051,-1.4814394190331273
-4.0670000000000002,-0.31669138495858457,-1.1105570748522671
-4.0664999999999996,0.25949805735654979,-0.48535540894695478
-4.0659999999999998,0.55826295337139209,-0.0085066807148540119
-4.0655000000000001,0.67563487680590106,0.24581264100916439
-4.0650000000000004,0.70764540137891996,0.31998910984526896
-4.0644999999999998,0.66496470194821833,0.17163617217299235
-4.0640000000000001,0.76099627566736228,-0.11447306476652835
-4.0635000000000003,0.8890383739594373,-0.31580919446452649
-4.0629999999999997,0.75032610080949513,-0.48535540894752344
-4.0625,0.54759277851370936,-0.63370834661973252
-4.0620000000000003,0.37686998079094236,-0.76086800748162609
-4.0614999999999997,0.25949805735613252,-0.78206128429162358
-4.0609999999999999,0.099445434491038431,-0.28401927924920728
-4.0605000000000002,0.57960330308675734,0.4471487707073456
-4.0599999999999996,1.3691962425552628,1.0511571598022267
-4.0594999999999999,1.3585260676975901,1.4220395039827496
-4.0590000000000002,0.43022085507920033,1.5491991648447585
-4.0585000000000004,-0.15663876209281119,1.0723504366126579
-4.0579999999999998,-0.27401068552785401,0.36237566346600614
-4.0575000000000001,-0.17797911180871023,-0.18864953360270037
-4.0570000000000004,-0.03926683865896205,-0.45356549373164529
-4.0564999999999998,0.067434909917990504,-0.47475877054222104
-4.056,0.14212613392176898,-0.34759910968021185
-4.0555000000000003,0.17413665849478779,-0.13566634157705595
-4.0549999999999997,0.14212613392170106,0.097459703337013065
-4.0545,0.067434909917990504,0.30939247144016896
-4.0540000000000003,-0.0072563140857200559,0.45774540911237815
-4.0534999999999997,-0.12462823752047171,0.41535885549171803
-4.0529999999999999,-0.31669138495858457,0.27760255622466667
-4.0525000000000002,-0.8928808272734472,-0.10387642636136091
-4.0519999999999996,-1.5544316684501591,-0.60191843140455792
-4.0514999999999999,-1.9812386627570766,-0.96220413717992292
-4.0510000000000002,-1.8211860398918371,-1.0045906908005926
-4.0505000000000004,-1.0849439747124046,-0.63370834662006992
-4.0499999999999998,-0.39138260896236304,-0.13566634157686319
-4.0495000000000001,0.099445434491038431,0.26700591781949923
-4.0490000000000004,0.40888050536355358,0.50013196273297078
-4.0484999999999998,0.56893312822912312,0.55311515475895245
-4.048,0.62228400251748783,0.47893868592284788
-4.0475000000000003,0.66496470194817947,0.36237566346611216
-4.0469999999999997,0.86769802424412057,0.37297230187092301
-4.0465,0.79300680024041004,0.097459703336820316
-4.0460000000000003,0.61161382765997008,-0.27342264084370249
-4.0454999999999997,0.43022085507910329,-0.61251506980962889
-4.0449999999999999,0.32351910650237387,-0.86683439153341613
-4.0445000000000002,0.3982103305061524,-0.68669153864556975
-4.0439999999999996,0.99574012253709832,-0.1992461720075305
-4.0434999999999999,1.7853330620048957,0.17163617217299235
-4.0430000000000001,2.0734277831623271,0.29879583303500157
-4.0425000000000004,1.081101521398744,0.61669498518973542
-4.0419999999999998,0.014084035629577295,0.74385464605203377
-4.0415000000000001,-0.35937208438931517,0.34118238665567124
-4.0410000000000004,-0.3380317346739693,-0.1250697031712717
-4.0404999999999998,-0.17797911180856466,-0.41117894011127432
-4.04,-0.017926488943470625,-0.47475877054222104
-4.0395000000000003,0.088775259633258732,-0.36879238649064311
-4.0389999999999997,0.16346648363713429,-0.16745625679213419
-4.0385,0.16346648363713429,0.086863064931652884
-4.0380000000000003,0.078105084775750774,0.31998910984512441
-4.0374999999999996,-0.017926488943548261,0.51072860113842722
-4.0369999999999999,-0.10328788780493176,0.59550170837968963
-4.0365000000000002,-0.35937208438931517,0.43655213230217815
-4.0359999999999996,-0.92489135184710658,0.50013196273325033
-4.0354999999999999,-1.5971123678805015,0.57430843156935485
-4.0350000000000001,-2.2586632090568255,0.27760255622466667
-4.0345000000000004,-1.8638667393229267,0.055073149716352965
-4.0339999999999998,-1.1169544992847826,0.097459703336820316
-4.0335000000000001,-0.40205278382004572,0.27760255622466667
-4.0330000000000004,0.17413665849429283,0.4365521323020336
-4.0324999999999998,0.50491207908310498,0.46834204751766123
-4.032,0.64362435223285308,0.4471487707073456
-4.0315000000000003,0.65429452709052616,0.4471487707073456
-4.0309999999999997,0.60094365280220996,0.33058574825012799
-4.0305,0.69697522652126631,-0.082683149551026042
-4.0300000000000002,0.66496470194824742,-0.36879238649028656
-4.0294999999999996,0.51558225394054491,-0.50654868575781009
-4.0289999999999999,0.38754015564846972,-0.60191843140423029
-4.0285000000000002,0.29150858192932599,-0.68669153864556975
-4.0279999999999996,0.12078578420635519,-0.73967473067107925
-4.0274999999999999,0.067434909917990504,-0.37938902489571413
-4.0270000000000001,0.65429452709053582,0.044476511310983152
-4.0265000000000004,1.2091436196895287,0.28819919462961247
-4.0259999999999998,0.79300680024041004,0.59550170837968963
-4.0255000000000001,-0.017926488943470625,0.72266136924169888
-4.0250000000000004,-0.30602121010063987,0.27760255622507146
-4.0244999999999997,-0.27401068552771818,-0.27342264084438678
-4.024,-0.12462823752029703,-0.65490162343006741
-4.0235000000000003,0.014084035629451153,-0.79265792269711866
-4.0229999999999997,0.11011560934876959,-0.75027136907642011
-4.0225,0.16346648363713429,-0.5807251545938954
-4.0220000000000002,0.18480683335248016,-0.33700247127526611
-4.0214999999999996,0.16346648363704694,-0.093279787956000726
-4.0209999999999999,0.067434909917990504,0.11865298014715518
-4.0205000000000002,-0.039266838658835915,0.24581264100916439
-4.0199999999999996,-0.23132998609755046,0.19282944898310556
-4.0194999999999999,-0.70081767983515975,-0.050893234335523743
-4.0190000000000001,-1.2449965975769743,-0.47475877054222104
-4.0185000000000004,-1.5010807941611248,-0.83504447631758616
-4.0179999999999998,-1.5437614935920885,-0.88802766834375091
-4.0175000000000001,-1.0956141495694174,-0.36879238649054674
-4.0170000000000003,-0.46607383296671412,0.16103953376734309
-4.0164999999999997,0.12078578420673367,0.48953532432824665
-4.016,0.4835717293676135,0.74385464605203377
-4.0155000000000003,0.64362435223270753,0.78624119967266493
-4.0149999999999997,0.67563487680585255,0.68027481562081704
-4.0145,0.62228400251748783,0.4471487707073456
-4.0140000000000002,0.73965592595189,0.40476221708671445
-4.0134999999999996,0.87836819910175479,0.45774540911226247
-4.0129999999999999,0.75032610080967954,0.18223281057815977
-4.0125000000000002,0.53692260365602662,-0.1674562567923655
-4.0119999999999996,0.37686998079076767,-0.45356549373199223
-4.0114999999999998,0.35552963107542179,-0.57012851618872795
-4.0110000000000001,0.57960330308675734,-0.093279787956193475
-4.0105000000000004,1.0170804722513476,0.58490506997390534
-4.0099999999999998,1.5505892151358776,1.1359302670432285
-4.0095000000000001,1.4332172917013686,1.4750226960085864
-4.0090000000000003,0.57960330308753372,1.4644260576034289
-4.0084999999999997,0.099445434490892867,0.84982103010307197
-4.008,-0.06060718837420119,0.15044289536265748
-4.0075000000000003,-0.049937013516528253,-0.31580919446428551
-4.0069999999999997,0.014084035629635521,-0.52774196256804862
-4.0065,0.078105084775673142,-0.51714532416289083
-4.0060000000000002,0.13145595906408636,-0.37938902489571413
-4.0054999999999996,0.15279630877942252,-0.17805289519733053
-4.0049999999999999,0.12078578420640371,0.044476511310983152
-4.0045000000000002,0.05676473506030786,0.23521600260399694
-4.0039999999999996,-0.028596663801279436,0.35177902506076159
-4.0034999999999998,-0.16730893695102761,0.26700591781949923
-4.0030000000000001,-0.4980843575391895,0.097459703336820316
-4.0025000000000004,-0.6794773301196293,0.27760255622450286
-4.0019999999999998,-0.38071243410468042,0.18223281057815977
-4.0015000000000001,0.20614718306786484,-0.19924617200786782
-4.0010000000000003,0.65429452709012825,-0.13566634157692103
-4.0004999999999997,0.68630505166353528,0.11865298014730938
-4,0.63295417737517057,0.28819919462983412
-3.9994999999999998,0.59027347794443985,0.42595549389701071
-3.9990000000000001,0.57960330308675734,0.41535885549184332
-3.9984999999999999,0.55826295337139209,0.33058574825050385
-3.9980000000000002,0.50491207908297886,0.16103953376782493
-3.9975000000000001,0.53692260365602662,0.10805634174198775
-3.9969999999999999,0.70764540137894905,0.23521600260399694
-3.9965000000000002,0.66496470194821833,0.097459703336820316
-3.996,0.50491207908297886,-0.15685961838719809
-3.9954999999999998,0.35552963107542179,-0.37938902489571413
-3.9950000000000001,0.27016823221396069,-0.53833860097322561
-3.9944999999999999,0.50491207908297886,-0.27342264084403983
-3.9940000000000002,1.2411541442630809,0.36237566346600614
-3.9935,1.838683936293309,0.96638405256054982
-3.9929999999999999,1.6999716631434345,1.2630899279052379
-3.9925000000000002,0.71831557623663156,1.3478630351465775
-3.992,-0.017926488943470625,0.97698069096571727
-3.9914999999999998,-0.24200016095480609,0.33058574825050385
-3.9910000000000001,-0.20998963638175816,-0.18864953360270037
-3.9904999999999999,-0.092617712947249131,-0.4641621321370536
-3.9900000000000002,0.014084035629577295,-0.50654868575772338
-3.9895,0.08877525963335578,-0.38998566330088158
-3.9889999999999999,0.13145595906408636,-0.19924617200786782
-3.9885000000000002,0.13145595906408636,0.012686596095480854
-3.988,0.08877525963335578,0.21402272579366208
-3.9874999999999998,-0.0072563140857879876,0.36237566346600614
-3.9870000000000001,-0.071277363231883828,0.43655213230217815
-3.9864999999999999,-0.19931946152407554,0.36237566346600614
-3.9860000000000002,-0.75416855412357298,-0.13566634157686319
-3.9855,-1.437059745015262,-0.68669153864556975
-3.9849999999999999,-2.0345895370454898,-1.0999604364470996
-3.9845000000000002,-1.9705684878993939,-1.131750351662602
-3.984,-1.1809755484308786,-0.63370834661973252
-3.9834999999999998,-0.47674400782382426,-0.04029659593035631
-3.9830000000000001,0.035424385344942577,0.4471487707073456
-3.9824999999999999,0.33418928136005654,0.62729162359519197
-3.9820000000000002,0.47290155450993088,0.63788826200035942
-3.9815,0.51558225394066137,0.47893868592284788
-3.9809999999999999,0.53692260365602662,0.25640927941433178
-3.9805000000000001,0.78233662538272752,0.29879583303500157
-3.98,0.80367697509809277,0.16103953376782493
-3.9794999999999998,0.64362435223285308,-0.17805289519753292
-3.9790000000000001,0.45156120479456557,-0.51714532416289083
-3.9784999999999999,0.32351910650237387,-0.792657922697244
-3.9780000000000002,0.14212613392176898,-0.68669153864556975
-3.9775,-0.26334051067017139,-0.04029659593035631
-3.9769999999999999,-0.43406330839309365,0.68027481562102909
-3.9765000000000001,-0.58344575640065055,1.1783168206638983
-3.976,-0.93556152670417769,1.4114428655775821
-3.9754999999999998,-0.88221065241576446,1.0299638829915545
-3.9750000000000001,-0.57277558154296804,0.36237566346600614
-3.9744999999999999,-0.24200016095480609,-0.1674562567923655
-3.9740000000000002,-0.0072563140857879876,-0.43237221692155131
-3.9735,0.12078578420640371,-0.47475877054222104
-3.9729999999999999,0.17413665849481691,-0.36879238649054674
-3.9725000000000001,0.18480683335249956,-0.17805289519753292
-3.972,0.17413665849481691,0.033879872905815719
-3.9714999999999998,0.15279630877945163,0.24581264100916439
-3.9710000000000001,0.08877525963335578,0.40476221708667587
-3.9704999999999999,-0.017926488943470625,0.45774540911251305
-3.9700000000000002,-0.16730893695102761,0.33058574825050385
-3.9695,-0.47674400782382426,0.18223281057815977
-3.9689999999999999,-1.0956141495694174,0.0020899576903134209
-3.9685000000000001,-1.7785053404611064,-0.4535654937318862
-3.968,-2.2800035587721905,-0.86683439153341613
-3.9674999999999998,-1.8211860398918371,-0.73967473067140688
-3.9670000000000001,-1.0849439747117349,-0.28401927924920728
-3.9664999999999999,-0.42339313353541097,0.044476511310983152
-3.9660000000000002,0.067434909917990504,0.26700591781949923
-3.9655,0.3768699807907871,0.30939247144016896
-3.9649999999999999,0.52625242879834411,0.21402272579366208
-3.9645000000000001,0.55826295337139209,0.033879872905815719
-3.964,0.6863050516635838,-0.29461591765437467
-3.9634999999999998,0.81434714995577528,-0.55953187778356051
-3.9630000000000001,0.6863050516635838,-0.66549826183523486
-3.9624999999999999,0.51558225394066137,-0.71848145386107198
-3.9620000000000002,0.36619980593310447,-0.75027136907657432
-3.9615,0.27016823221396069,-0.67609490024040231
-3.9609999999999999,0.067434909917990504,-0.082683149551026042
-3.9605000000000001,0.31284893164469124,0.6590815388106942
-3.96,0.95305942310564973,1.241896651094903
-3.9594999999999998,1.0490909968247935,1.5809890800602608
-3.9590000000000001,0.27016823221396069,1.6233756336809306
-3.9584999999999999,-0.18864928666639288,1.0617537982070568
-3.9580000000000002,-0.26334051067017139,0.31998910984533641
-3.9575,-0.16730893695102761,-0.22043944881820265
-3.9569999999999999,-0.039266838658835915,-0.47475877054222104
-3.9565000000000001,0.05676473506030786,-0.49595204735255594
-3.956,0.12078578420640371,-0.36879238649054674
-3.9554999999999998,0.14212613392176898,-0.1674562567923655
-3.9550000000000001,0.12078578420640371,0.055073149716150585
-3.9544999999999999,0.067434909917990504,0.24581264100916439
-3.9540000000000002,-0.028596663801153277,0.34118238665567124
-3.9535,-0.11395806266261441,0.31998910984533641
-3.9529999999999998,-0.34870190953163249,0.2246193641988295
-3.9525000000000001,-0.8928808272734472,-0.15685961838719809
-3.952,-1.3516983461538008,-0.68669153864556975
-3.9514999999999998,-1.5437614935920885,-1.0893637980419322
-3.9510000000000001,-1.4263895701575793,-1.1953301820936066
-3.9504999999999999,-0.80751942841198598,-0.85623775312824868
-3.9500000000000002,-0.14596858723566233,-0.28401927924920728
-3.9495,0.33418928136005654,0.13984625695749003
-3.9489999999999998,0.62228400251748783,0.29879583303500157
-3.9485000000000001,0.71831557623663156,0.25640927941433178
-3.948,0.6863050516635838,0.16103953376782493
-3.9474999999999998,0.69697522652126631,-0.04029659593035631
-3.9470000000000001,0.87836819910187125,-0.38998566330088158
-3.9464999999999999,0.81434714995577528,-0.52774196256805828
-3.9460000000000002,0.62228400251748783,-0.55953187778356051
-3.9455,0.41955068022151765,-0.55953187778356051
-3.9449999999999998,0.29150858192932599,-0.52774196256805828
-3.9445000000000001,0.05676473506030786,-0.15685961838719809
-3.944,0.0034138607718946501,0.5637117931641874
-3.9434999999999998,0.45156120479456557,1.2101067358794007
-3.9430000000000001,0.75032610080967954,1.6233756336809306
-3.9424999999999999,0.17413665849481691,1.75053529454294
-3.9420000000000002,-0.20998963638175816,1.241896651094903
-3.9415,-0.25267033581248871,0.48953532432801533
-3.9409999999999998,-0.15663876209334496,-0.10387642636136091
-3.9405000000000001,-0.028596663801153277,-0.42177557851638392
-3.9399999999999999,0.067434909917990504,-0.51714532416289083
-3.9394999999999998,0.13145595906408636,-0.44296885532671876
-3.9390000000000001,0.15279630877945163,-0.30521255605954212
-3.9384999999999999,0.14212613392176898,-0.12506970317169577
-3.9380000000000002,0.12078578420640371,0.055073149716150585
-3.9375,0.046094560202625215,0.16103953376782493
-3.9369999999999998,-0.049937013516518552,0.17163617217299235
-3.9365000000000001,-0.32736155981626724,-0.04029659593035631
-3.9359999999999999,-0.87154047755808195,-0.48535540894738849
-3.9355000000000002,-1.3837088707268488,-0.99399405239542526
-3.9350000000000001,-1.3837088707268488,-1.3436831197659505
-3.9344999999999999,-0.61545628097369853,-1.0893637980419322
-3.9340000000000002,0.11011560934872107,-0.48535540894738849
-3.9335,0.49424190422529612,0.0020899576903134209
-3.9329999999999998,0.69697522652126631,0.35177902506083869
-3.9325000000000001,0.75032610080967954,0.39416557868150842
-3.9319999999999999,0.69697522652126631,0.27760255622466667
-3.9315000000000002,0.62228400251748783,0.11865298014715518
-3.931,0.54759277851370936,-0.082683149551026042
-3.9304999999999999,0.69697522652126631,-0.12506970317169577
-3.9300000000000002,0.69697522652126631,-0.14626297998203064
-3.9295,0.54759277851370936,-0.2310360872233701
-3.9289999999999998,0.3982103305061524,-0.33700247127504446
