Class_5_Move_Left_hand_Horiszontal/Class_5_Move_leftt_hand_horizontal_Basim_10.csv

#Digilent WaveForms Oscilloscope Acquisition
#Device Name: EExplorer
#Serial Number: SN:210151A2B84A
#Date Time: 2021-01-28 09:23:29.321
#Sample rate: 2000Hz
#Samples: 16384
#Trigger: Source: Channel 1 Type: Edge Condition: Rising Level: 0 V Hyst.: Auto HoldOff: 0 s
#Channel 1: Range: 1 V/div Offset: 0 V Attenuation: 1 X
#Channel 2: Range: 1 V/div Offset: 0 V Attenuation: 1 X
#Channel 4: Range: 1 V/div Offset: 0 V Attenuation: 1 X
#Power Supplies: ON
#Fixed Supply: ON
#Voltage: 3.3 V Readback: 3.321 V
#Positive Supply: ON
#Voltage: 3.7 V Readback: 3.714 V
#Current: 40 mA Readback: 19 mA
#Negative Supply: ON
#Voltage: -3.7 V Readback: -3.345 V
#Current: -40 mA Readback: -7 mA
#Reference 1: ON
#Voltage: 0 V
#Reference 2: ON
#Voltage: 0 V

Time (s),Channel 1 (V),Channel 2 (V),Channel 4 (V)
-4.096,-0.5941159312583333,-1.004590690800593,-0.01087107241842888
-4.0955,-0.2633405106704722,-0.3899856633014406,-0.01087107241842888
-4.095,0.02475421048744432,0.05507314971640116,-0.01087107241842888
-4.0945,0.2274875327832301,0.3305857482505039,-0.01087107241842888
-4.094,0.3235191065022865,0.4683420475175552,-0.02145414982926837
-4.0935,0.3448594562177295,0.47893868592279,-0.021454149829278
-4.093,0.3341892813600565,0.4153588554918433,-0.021454149829278
-4.0925,0.248827882498673,0.4683420475176323,0.0314612372249195
-4.092,0.1741366584948266,0.4789386859227323,0.03146123722496762
-4.0915,0.1848068333524996,0.3517790250608387,0.03146123722496762
-4.091,0.2274875327832301,0.2140227257936621,0.03146123722496762
-4.0905,0.2594980573561325,0.09745970333693597,0.01029508240325975
-4.09,0.09944543449103843,0.2246193641988295,-0.000287995007579752
-4.0895,-0.5514352318276028,0.7862411996727035,-0.01087107241842888
-4.089,-1.277007122149362,0.6484849004056521,-0.04262030465094738
-4.0885,-1.682473766741963,-0.1144730647665284,-0.04262030465097626
-4.088,-1.735824641030376,-0.1886495336027004,-0.03203722724012713
-4.0875,-1.212986073004402,-0.05089323433564902,-0.02145414982928762
-4.087,-0.5834457564002041,0.03387987290588318,-0.021454149829278
-4.0865,-0.09261771294724913,0.1080563417419877,-0.021454149829278
-4.086,0.2061471830675931,0.1822328105780923,-0.0320372272401175
-4.0855,0.3555296310754606,0.2458126410092415,-0.03203722724012713
-4.085,0.3982103305061524,0.3305857482505039,-0.03203722724012713
-4.0845,0.3875401556484794,0.4047622170866084,-0.03203722724012713
-4.084,0.366199805933085,0.4895353243280828,-0.06378645947270338
-4.0835,0.3448594562177392,0.5637117931641874,-0.09553569170522189
-4.083,0.3341892813600565,0.627291623595192,-0.09553569170522189
-4.0825,0.3235191065023836,0.680274815621058,-0.08495261429436313
-4.082,0.3341892813600565,0.7120647308365314,-0.07436953688352363
-4.0815,0.7609962756673623,0.3517790250608387,-0.05320338206182537
-4.081,1.273164668835663,-0.3581957480847336,-0.04262030465098588
-4.0805,0.8463576745288233,-0.9939940523954253,-0.04262030465097626
-4.08,0.0674349099179905,-1.258910012524611,-0.021454149829278
-4.0795,-0.1566387620931412,-0.8138511995079837,-0.0108710724184385
-4.079,-0.04993701351637299,-0.2204394488178075,-0.01087107241842888
-4.0785,0.1101156093487211,0.2140227257936621,-0.01087107241842888
-4.078,0.2488278824984693,0.4895353243277648,-0.02145414982926837
-4.0775,0.334189281360076,0.6484849004055462,-0.021454149829278
-4.077,0.3555296310754218,0.6696781772158616,-0.021454149829278
-4.0765,0.3555296310754218,0.5955017083797571,-0.021454149829278
-4.076,0.3235191065023448,0.5001319627331153,0.01029508240328862
-4.0755,0.291508581929326,0.4259554938970107,0.03146123722496762
-4.075,0.2808384070716433,0.2776025562246667,0.03146123722496762
-4.0745,0.280838407071653,0.139846256957384,0.031461237224958
-4.074,0.291508581929326,0.02328323450064829,0.0208781598141185
-4.0735,0.2381577076409128,0.01268659609548085,-0.000287995007579752
-4.073,-0.2846808603850611,0.4577454091121083,-0.01087107241841925
-4.0725,-1.06360362499637,0.4471487707073456,-0.03203722724012713
-4.072,-1.682473766741963,-0.2840192792492073,-0.04262030465097626
-4.0715,-1.991908837614478,-1.057573882825726,-0.05320338206181575
-4.071,-1.586442193022178,-1.195330182093221,-0.021454149829278
-4.0705,-0.8822106524157645,-0.7714646458869092,-0.021454149829278
-4.07,-0.2846808603860801,-0.2734226408444928,-0.021454149829278
-4.0695,0.1101156093489054,0.1186529801473865,-0.03203722724012713
-4.069,0.3128489316446912,0.3729723018711736,-0.03203722724012713
-4.0685,0.3875401556484697,0.5001319627331828,-0.03203722724012713
-4.068,0.398210330506133,0.5425185163538622,-0.03203722724013675
-4.0675,0.3768699807907871,0.55311515475902,-0.04262030465097626
-4.067,0.3555296310754218,0.5425185163538525,-0.09553569170522189
-4.0665,0.3341892813600468,0.5213252395434983,-0.09553569170522189
-4.066,0.3235191065023739,0.5001319627331828,-0.09553569170522189
-4.0655,0.3128489316446912,0.4683420475176805,-0.08495261429437276
-4.065,0.52625242879815,0.235216002604209,-0.06378645947269375
-4.0645,1.027750647109428,-0.474758770542221,-0.05320338206182537
-4.064,0.6542945270905358,-1.227120097309109,-0.04262030465097626
-4.0635,-0.2526703358116638,-1.788741932782472,-0.03203722724013675
-4.063,-0.5621054066850912,-1.693372187135965,-0.01087107241842888
-4.0625,-0.3487019095316325,-1.131750351662602,-0.01087107241842888
-4.062,-0.04993701351679031,-0.4535654937325031,-0.01087107241842888
-4.0615,0.1741366584949139,0.08686306493194201,-0.01087107241842888
-4.061,0.2808384070716433,0.4047622170866759,-0.01087107241842888
-4.0605,0.3128489316446912,0.5319218779486851,-0.021454149829278
-4.06,0.2915085819293163,0.574308431569326,-0.02145414982926837
-4.0595,0.2808384070716433,0.5425185163538525,-0.01087107241842888
-4.059,0.2274875327832301,0.5213252395435176,0.03146123722496762
-4.0585,0.2168173579255572,0.4259554938970974,0.03146123722496762
-4.058,0.2381577076409128,0.2776025562246667,0.03146123722496762
-4.0575,0.2594980573562781,0.1504428953626575,0.0208781598141185
-4.057,0.2808384070716239,0.07626642652655291,0.010295082403279
-4.0565,-0.007256314085787988,0.2564092794143318,-0.01087107241842888
-4.056,-0.754168554123573,0.09745970333682032,-0.03203722724012713
-4.0555,-1.458400094729987,-0.6019184314035942,-0.04262030465096663
-4.055,-1.853196564464798,-1.301296566145522,-0.04262030465096663
-4.0545,-1.757164990745741,-1.566212526274467,-0.03203722724012713
-4.054,-1.095614149570019,-1.099960436447524,-0.01087107241844813
-4.0535,-0.4660738329657242,-0.4853554089469452,-0.021454149829278
-4.053,-0.007256314085787988,0.002089957690313421,-0.021454149829278
-4.0525,0.2594980573562781,0.3199891098453364,-0.03203722724012713
-4.052,0.3768699807908065,0.4789386859229057,-0.03203722724012713
-4.0515,0.3982103305061524,0.5425185163538525,-0.03203722724012713
-4.051,0.3875401556484697,0.55311515475902,-0.03203722724012713
-4.0505,0.3661998059331239,0.5319218779487044,-0.08495261429432463
-4.05,0.3341892813600565,0.5107286011383502,-0.09553569170522189
-4.0495,0.3235191065023739,0.4789386859228479,-0.09553569170522189
-4.049,0.3235191065023739,0.4471487707073745,-0.08495261429438239
-4.0485,0.3875401556487124,0.3517790250603086,-0.06378645947266487
-4.048,0.6542945270905358,-0.2310360872233701,-0.05320338206182537
-4.0475,0.2381577076412912,-0.9939940523947314,-0.05320338206182537
-4.047,-0.6367966306894326,-1.64038899511059,-0.04262030465094738
-4.0465,-1.042263275281004,-1.587405803084801,-0.01087107241842888
-4.046,-0.7328282044084889,-0.9092209451547026,-0.01087107241842888
-4.0455,-0.2846808603852261,-0.3687923864902094,-0.01087107241842888
-4.045,0.05676473506030786,0.002089957690313421,-0.01087107241842888
-4.0445,0.2701682322139607,0.2670059178194992,-0.021454149829278
-4.044,0.3661998059331142,0.3941655786815469,-0.021454149829278
-4.0435,0.3768699807907871,0.4365521323021782,-0.021454149829278
-4.043,0.3555296310754218,0.4153588554918433,-0.021454149829278
-4.0425,0.323519106502403,0.3517790250608965,0.02087815981408
-4.042,0.3128489316446912,0.2881991946298341,0.03146123722496762
-4.0415,0.3021787567870086,0.2140227257936621,0.03146123722496762
-4.041,0.3021787567870086,0.1610395337678731,0.03146123722496762
-4.0405,0.3021787567868728,0.1398462569575961,0.01029508240325975
-4.04,0.1527963087794516,0.2564092794143318,-0.000287995007579752
-4.0395,-0.4980843575385976,0.2776025562246474,-0.03203722724009825
-4.039,-1.212986073004286,-0.3581957480859865,-0.04262030465097626
-4.0385,-1.607782542738184,-1.025783967610927,-0.04262030465097626
-4.038,-1.725154466172586,-0.8138511995077716,-0.03203722724013675
-4.0375,-1.255666772434084,-0.3687923864902865,-0.021454149829278
-4.037,-0.6261264558313813,-0.08268314955102604,-0.021454149829278
-4.0365,-0.124628237520297,0.09745970333682032,-0.03203722724012713
-4.036,0.1848068333526451,0.2034260873885621,-0.03203722724012713
-4.0355,0.3448594562177392,0.2776025562246667,-0.03203722724012713
-4.035,0.3982103305061524,0.3411823866556712,-0.03203722724012713
-4.0345,0.3875401556484794,0.404762217086618,-0.03203722724012713
-4.034,0.3661998059331045,0.4683420475176805,-0.0637864594726745
-4.0335,0.3448594562177392,0.5319218779486851,-0.09553569170522189
-4.033,0.3341892813600663,0.5955017083796318,-0.09553569170522189
-4.0325,0.3235191065023836,0.6378882620003787,-0.09553569170520264
-4.032,0.3341892813600565,0.6590815388106942,-0.07436953688352363
-4.0315,0.7183155762362822,0.3305857482508026,-0.05320338206184462
-4.031,1.262494493977941,-0.3687923864911443,-0.04262030465097626
-4.0305,0.707645401378949,-1.025783967610927,-0.04262030465097626
-4.03,-0.1886492866655778,-1.311893204550188,-0.02145414982929725
-4.0295,-0.4020527838199002,-0.9622041371793061,-0.01087107241842888
-4.029,-0.2420001609548061,-0.2840192792492073,-0.01087107241842888
-4.0285,0.00341386077189465,0.2670059178194992,-0.01087107241842888
-4.028,0.1741366584949043,0.5743084315694801,-0.021454149829278
-4.0275,0.2701682322139607,0.7120647308365314,-0.021454149829278
-4.027,0.3235191065023739,0.7438546460520338,-0.021454149829278
-4.0265,0.3341892813600468,0.6908714540262447,-0.021454149829278
-4.026,0.3235191065023739,0.5743084315693548,-0.000287995007579752
-4.0255,0.3341892813600565,0.4471487707073456,0.03146123722496762
-4.025,0.3341892813600565,0.2881991946299787,0.03146123722496762
-4.0245,0.3235191065023642,0.1504428953625515,0.031461237224958
-4.024,0.3128489316446912,0.03387987290581572,0.0208781598141185
-4.0235,0.2701682322139995,-0.01910331911997325,-0.0002879950075605001
-4.023,-0.1993194615247743,0.2352160026037078,-0.02145414982929725
-4.0225,-0.9675720512772257,-0.08268314955102604,-0.04262030465097626
-4.022,-1.426389570157162,-0.7820612842914405,-0.04262030465097626
-4.0215,-1.533091318734163,-1.364876396576295,-0.04262030465095701
-4.021,-1.26633694729234,-1.375473034981453,-0.021454149829278
-4.0205,-0.7114878546928423,-0.8774310299385835,-0.021454149829278
-4.02,-0.2206598112391303,-0.3475991096798456,-0.02145414982928762
-4.0195,0.1207857842064037,0.05507314971615059,-0.03203722724012713
-4.019,0.3021787567870086,0.2987958330350016,-0.03203722724012713
-4.0185,0.3768699807907192,0.425955493896895,-0.03203722724012713
-4.018,0.3875401556484697,0.4683420475176805,-0.03203722724012713
-4.0175,0.3768699807907871,0.4789386859228479,-0.04262030465097626
-4.017,0.3448594562177683,0.4683420475176902,-0.08495261429433426
-4.0165,0.3341892813600468,0.4577454091124938,-0.09553569170522189
-4.016,0.3235191065023739,0.4365521323021782,-0.09553569170522189
-4.0155,0.312848931644701,0.4259554938970204,-0.08495261429438239
-4.015,0.5049120790836388,0.2458126410085476,-0.05320338206181575
-4.0145,1.230483969405398,-0.4323722169215513,-0.04262030465097626
-4.014,1.497238340847222,-1.174136905282597,-0.04262030465097626
-4.0135,0.6756348768053382,-1.756952017567191,-0.03203722724010788
-4.013,0.05676473506030786,-1.439052865412457,-0.01087107241842888
-4.0125,-0.01792648894347063,-0.7820612842920766,-0.01087107241842888
-4.012,0.07810508477577989,-0.2098428104126401,-0.01087107241842888
-4.0115,0.1954770082101822,0.2246193641988295,-0.01087107241842888
-4.011,0.291508581929326,0.4895353243280153,-0.021454149829278
-4.0105,0.3341892813600177,0.6166949851899088,-0.021454149829278
-4.01,0.3235191065023739,0.627291623595192,-0.021454149829278
-4.0095,0.3021787567870086,0.5955017083796896,-0.01087107241842888
-4.009,0.2808384070716627,0.6590815388106364,0.03146123722492912
-4.0085,0.2701682322139607,0.584905069974368,0.04204431463580712
-4.008,0.2701682322139607,0.4153588554918433,0.03146123722496762
-4.0075,0.2808384070716336,0.2670059178196341,0.02087815981412813
-4.007,0.2808384070713619,0.1610395337680466,0.01029508240325012
-4.0065,-0.02859666380115328,0.4047622170866759,-0.01087107241842888
-4.006,-0.7755089038389382,0.7650479228623686,-0.021454149829278
-4.0055,-1.45840009473088,0.2140227257930453,-0.04262030465097626
-4.005,-1.735824641030376,-0.4641621321370536,-0.04262030465097626
-4.0045,-1.661133417026597,-0.6654982618352349,-0.03203722724012713
-4.004,-1.074273799853499,-0.5171453241626114,-0.021454149829278
-4.0035,-0.4660738329661415,-0.2098428104130352,-0.021454149829278
-4.003,-0.01792648894347063,0.06566978812131802,-0.03203722724012713
-4.0025,0.2381577076406799,0.2776025562244739,-0.03203722724012713
-4.002,0.3555296310754218,0.4153588554918433,-0.03203722724012713
-4.0015,0.3875401556484697,0.5001319627331828,-0.03203722724012713
-4.001,0.3768699807907968,0.542518516353814,-0.03203722724012713
-4.0005,0.3555296310754024,0.5743084315693742,-0.07436953688354288
-4,0.3341892813600565,0.5955017083796896,-0.09553569170522189
-3.9995,0.3235191065023739,0.6166949851900245,-0.09553569170522189
-3.999,0.3128489316446912,0.6166949851900245,-0.08495261429437276
-3.9985,0.3555296310754218,0.5637117931641874,-0.07436953688352363
-3.998,0.5689331282290746,0.04447651131098315,-0.05320338206182537
-3.9975,0.2061471830678648,-0.7078848154559045,-0.05320338206182537
-3.997,-0.6261264558313813,-1.364876396576285,-0.04262030465097626
-3.9965,-1.052933450138687,-1.587405803084801,-0.021454149829278
-3.996,-0.7434983792658902,-1.216523458903942,-0.01087107241842888
-3.9955,-0.274010685527854,-0.5383386009732256,-0.01087107241842888
-3.995,0.08877525963335578,-0.01910331912002144,-0.01087107241842888
-3.9945,0.291508581929326,0.3517790250608387,-0.01087107241842888
-3.994,0.3768699807907871,0.5319218779486851,-0.021454149829278
-3.9935,0.3982103305061524,0.5955017083796896,-0.021454149829278
-3.993,0.3875401556484697,0.5849050699745222,-0.021454149829278
-3.9925,0.3555296310754218,0.5213252395435176,0.0208781598141185
-3.992,0.3341892813600565,0.4047622170866759,0.03146123722496762
-3.9915,0.3128489316446912,0.2564092794143318,0.03146123722496762
-3.991,0.3021787567870086,0.1292496185523226,0.03146123722496762
-3.9905,0.3021787567870086,0.03387987290581572,0.01029508240326937
-3.99,0.2061471830678648,0.06566978812131802,-0.000287995007579752
-3.9895,-0.3700422592469978,0.2670059178194992,-0.021454149829278
-3.989,-1.138294849000148,-0.2098428104130352,-0.04262030465097626
-3.9885,-1.629122892453549,-0.9304142219644207,-0.04262030465097626
-3.988,-1.810515865034154,-1.460246142222792,-0.04262030465097626
-3.9875,-1.319687821580753,-1.258910012524611,-0.021454149829278
-3.987,-0.6794773301197943,-0.7078848154559045,-0.021454149829278
-3.9865,-0.156638762093345,-0.1886495336027004,-0.021454149829278
-3.986,0.1741366584948169,0.1716361721729923,-0.03203722724012713
-3.9855,0.3341892813600565,0.383568940276341,-0.03203722724012713
-3.985,0.3982103305061524,0.4683420475176805,-0.03203722724012713
-3.9845,0.3875401556484697,0.4895353243280153,-0.03203722724012713
-3.984,0.3661998059331045,0.4895353243280153,-0.0637864594726745
-3.9835,0.3448594562177392,0.4683420475176805,-0.09553569170522189
-3.983,0.3341892813600565,0.4471487707073456,-0.09553569170522189
-3.9825,0.3235191065023739,0.4259554938970107,-0.09553569170522189
-3.982,0.3235191065023739,0.3941655786815084,-0.07436953688352363
-3.9815,0.6649647019482183,0.03387987290581572,-0.05320338206182537
-3.981,1.422547116843686,-0.6972881770507372,-0.04262030465097626
-3.9805,1.838683936293309,-1.396666311791788,-0.04262030465097626
-3.98,1.230483969405398,-1.735758740757146,-0.021454149829278
-3.9795,0.7503261008096795,-1.375473034981453,-0.021454149829278
-3.979,0.5369226036560266,-0.9410108603695881,-0.021454149829278
-3.9785,0.4195506802215176,-0.4323722169215513,-0.01087107241842888
-3.978,0.3661998059331045,0.002089957690313421,-0.021454149829278
-3.9775,0.3341892813600565,0.3305857482505039,-0.021454149829278
-3.977,0.3128489316446912,0.5213252395435176,-0.021454149829278
-3.9765,0.3021787567870086,0.5849050699745222,-0.021454149829278
-3.976,0.3341892813600565,0.6060983467848571,-0.000287995007579752
-3.9755,0.4622313796522482,0.701468092431364,0.03146123722496762
-3.975,0.4729015545099309,0.5743084315693548,0.03146123722496762
-3.9745,0.4195506802215176,0.383568940276341,0.0208781598141185
-3.974,0.3555296310754218,0.2140227257936621,0.0208781598141185
-3.9735,0.291508581929326,0.13984625695749,-0.000287995007579752
-3.973,-0.1032878878049318,0.5001319627331828,-0.01087107241842888
-3.9725,-0.8288597781273515,0.7438546460520338,-0.03203722724012713
-3.972,-1.447729919872945,0.09745970333682032,-0.04262030465097626
-3.9715,-1.906547438753298,-0.4535654937318862,-0.04262030465097626
-3.971,-1.725154466172693,-0.5913217929990628,-0.03203722724012713
-3.9705,-1.031593100423322,-0.4111789401112165,-0.021454149829278
-3.97,-0.4127229586777283,-0.1250697031716958,-0.021454149829278
-3.9695,0.02475421048725994,0.13984625695749,-0.03203722724012713
-3.969,0.2701682322139607,0.3199891098453364,-0.03203722724012713
-3.9685,0.3768699807907871,0.4471487707073456,-0.03203722724012713
-3.968,0.3875401556484697,0.5213252395435176,-0.03203722724012713
-3.9675,0.3768699807907871,0.5637117931641874,-0.04262030465097626
-3.967,0.3448594562177392,0.5955017083796896,-0.08495261429437276
-3.9665,0.3235191065023739,0.6060983467848571,-0.09553569170522189
-3.966,0.3128489316446912,0.627291623595192,-0.09553569170522189
-3.9655,0.3128489316446912,0.627291623595192,-0.08495261429437276
-3.965,0.4408910299368829,0.4789386859228479,-0.0637864594726745
-3.9645,0.7396559259519968,-0.1674562567923655,-0.05320338206182537
-3.964,0.3875401556484697,-0.9198175835592532,-0.05320338206182537
-3.9635,-0.3487019095316325,-1.47084278062796,-0.03203722724012713
-3.963,-0.572775581542968,-1.258910012524611,-0.01087107241842888
-3.9625,-0.3700422592469978,-0.7290780922662394,-0.01087107241842888
-3.962,-0.08194753808956648,-0.1886495336027004,-0.01087107241842888
-3.9615,0.142126133921769,0.2458126410091644,-0.01087107241842888
-3.961,0.2808384070716433,0.4789386859228479,-0.021454149829278
-3.9605,0.3448594562177392,0.5637117931641874,-0.021454149829278
-3.96,0.3448594562177392,0.5637117931641874,-0.021454149829278
-3.9595,0.3341892813600565,0.5001319627331828,-0.01087107241842888
-3.959,0.2808384070716433,0.5425185163538525,0.03146123722496762
-3.9585,0.2488278824985954,0.4789386859228479,0.03146123722496762
-3.958,0.2488278824985954,0.3199891098453364,0.03146123722496762
-3.9575,0.2594980573562781,0.1610395337678249,0.0208781598141185
-3.957,0.2701682322139607,0.05507314971615059,0.01029508240326937
-3.9565,0.01408403562957729,0.2564092794143318,-0.01087107241842888
-3.956,-0.7114878546928423,0.7120647308365314,-0.021454149829278
-3.9555,-1.437059745015262,0.2776025562246667,-0.04262030465097626
-3.955,-1.810515865034154,-0.3793890248957141,-0.04262030465097626
-3.9545,-1.757164990745741,-0.2840192792492073,-0.03203722724012713
-3.954,-1.138294849000148,-0.1144730647665284,-0.03203722724012713
-3.9535,-0.4980843575391895,0.002089957690313421,-0.03203722724012713
-3.953,-0.03926683865883591,0.08686306493165288,-0.03203722724012713
-3.9525,0.2381577076409128,0.1610395337678249,-0.03203722724012713
-3.952,0.3555296310754218,0.2246193641988295,-0.03203722724012713
