Class_5_Move_Left_hand_Horiszontal/Class_5_Move_Left_hand_Horiszontal_SH_2.csv

#Digilent WaveForms Oscilloscope Acquisition
#Device Name: EExplorer
#Serial Number: SN:210151A2B84A
#Date Time: 2020-11-25 11:36:40.007
#Sample rate: 2000Hz
#Samples: 16384
#Trigger: Source: Channel 1 Type: Edge Condition: Rising Level: 0 V Hyst.: Auto HoldOff: 0 s
#Channel 1: Range: 1 V/div Offset: 0 V Attenuation: 1 X
#Channel 2: Range: 1 V/div Offset: 0 V Attenuation: 1 X
#Power Supplies: ON
#Fixed Supply: ON
#Voltage: 3.3 V Readback: 3.325 V
#Positive Supply: ON
#Voltage: 3.7 V Readback: 3.71 V
#Current: 40 mA Readback: 18 mA
#Negative Supply: ON
#Voltage: -3.7 V Readback: -3.349 V
#Current: -40 mA Readback: -8 mA
#Reference 1: ON
#Voltage: 0 V
#Reference 2: ON
#Voltage: 0 V

Time (s),Channel 1 (V),Channel 2 (V)
-4.096,1.187803269974668,-0.3899856633008816
-4.0955,0.8036769750984422,-0.6549016234298265
-4.095,-0.09261771294794785,-1.121153713257714
-4.0945,-0.8608703027003992,-1.42845622700729
-4.094,-0.9675720512771286,-1.110557074852556
-4.0935,-0.6367966306887144,-0.4429688553261694
-4.093,-0.2526703358124887,0.1610395337678249
-4.0925,0.05676473506002644,0.5955017083792945
-4.092,0.2381577076409807,0.8392243916986273
-4.0915,0.3128489316446912,0.9345941373450475
-4.091,0.3448594562177392,0.9663840525605498
-4.0905,0.3341892813600275,0.9345941373449993
-4.09,0.3021787567870086,0.8816109453192104
-4.0895,0.2488278824985954,0.8392243916985406
-4.089,0.2168173579255766,0.8074344764830672
-4.0885,0.1207857842064037,0.7438546460520338
-4.088,-0.3273615598162672,0.383568940276341
-4.0875,-0.8822106524152599,-0.3581957480847047
-4.087,-1.330357996438814,-1.121153713257945
-4.0865,-1.746494815888059,-1.682775548731308
-4.086,-1.810515865034096,-1.566212526274573
-4.0855,-1.319687821580171,-0.8668343915328668
-4.085,-0.6794773301197943,-0.2628260024388724
-4.0845,-0.1246282375208017,0.1504428953622816
-4.084,0.2488278824987992,0.2987958330349148
-4.0835,0.4729015545099309,0.2034260873884947
-4.083,0.5689331282290746,0.06566978812131802
-4.0825,0.6436243522328627,-0.1780528951975907
-4.082,0.6542945270905358,-0.2416327256285375
-4.0815,0.5689331282290746,-0.1250697031716958
-4.081,0.4729015545100183,0.01268659609535558
-4.0805,0.4195506802215176,0.13984625695749
-4.08,0.4408910299368829,0.1822328105781598
-4.0795,0.8676980242438004,-0.1462629799817319
-4.079,0.8463576745281634,-0.750271369077114
-4.0785,0.1207857842064037,-1.34368311976595
-4.078,-0.3700422592465513,-1.407262950196897
-4.0775,-0.3700422592468231,-0.8032545611017946
-4.077,-0.1779791118087102,-0.1250697031716958
-4.0765,0.03542438534474848,0.3941655786810362
-4.076,0.1848068333525772,0.7120647308366663
-4.0755,0.2701682322139607,0.8604176685088755
-4.075,0.3128489316446912,0.9134008605347127
-4.0745,0.3235191065023642,0.9028042221295067
-4.074,0.3128489316446912,0.8604176685088755
-4.0735,0.3021787567870086,0.8074344764830383
-4.073,0.2808384070716627,0.7544512844572493
-4.0725,0.2488278824985954,0.7120647308365314
-4.072,0.2168173579255475,0.6802748156210291
-4.0715,0.04609456020278049,0.4683420475178732
-4.071,-0.5300948821127032,-0.2310360872240833
-4.0705,-1.042263275281004,-1.01518732920576
-4.07,-1.42638957015723,-1.629792356704912
-4.0695,-1.618452717595547,-1.73575874075649
-4.069,-1.26633694729234,-1.01518732920576
-4.0685,-0.7114878546928423,-0.2840192792492073
-4.068,-0.1779791118083803,0.2034260873886585
-4.0675,0.1848068333524996,0.383568940276341
-4.067,0.3768699807907871,0.3517790250608387
-4.0665,0.4515612047946723,0.2034260873883308
-4.066,0.5689331282290746,0.02328323450064829
-4.0655,0.7503261008096795,-0.1462629799820306
-4.065,0.7396559259520065,-0.1356663415768728
-4.0645,0.6649647019482183,-0.05089323433552374
-4.064,0.5689331282290746,0.06566978812131802
-4.0635,0.4942419042253641,0.1504428953625804
-4.063,0.6542945270907978,0.01268659609534593
-4.0625,0.942389248247967,-0.1356663415768632
-4.062,0.3768699807913015,-0.6443049850244373
-4.0615,-0.4127229586782233,-1.195330182093838
-4.061,-0.9569018764195432,-1.449649503817625
-4.0605,-0.8608703027003992,-0.9622041371799229
-4.06,-0.4980843575388595,-0.2522293640331653
-4.0595,-0.1352984123779797,0.3411823866556712
-4.059,0.1314559590640864,0.7332580076468663
-4.0585,0.2701682322138346,0.9345941373448644
-4.058,0.3235191065023739,1.00877060618122
-4.0575,0.3448594562177392,1.00877060618122
-4.057,0.3235191065023933,0.9663840525605883
-4.0565,0.291508581929326,0.9028042221295453
-4.056,0.2808384070716433,0.849821030103708
-4.0555,0.2381577076409516,0.7862411996727613
-4.055,0.1848068333521017,0.6802748156204991
-4.0545,-0.2526703358124887,0.09745970333682032
-4.054,-0.7861790786961356,-0.7184814538603299
-4.0535,-1.234326422719525,-1.396666311791942
-4.053,-1.490410619303675,-1.566212526274467
-4.0525,-1.180975548430879,-1.036380606016095
-4.052,-0.6047861061155694,-0.45356549373152
-4.0515,-0.1139580626626144,-0.05089323433552374
-4.051,0.2381577076409128,0.1822328105781598
-4.0505,0.4622313796520444,0.171636172173002
-4.05,0.5475927785137094,0.05507314971615059
-4.0495,0.5796033030867573,-0.06148987274069118
-4.049,0.7289857510941784,-0.2628260024386893
-4.0485,0.7183155762365248,-0.2204394488180774
-4.048,0.6009436528021226,-0.08268314955102604
-4.0475,0.5475927785137579,-0.04029659593039486
-4.047,0.5155822539407584,0.002089957690245958
-4.0465,0.6222840025174878,-0.07208651114585861
-4.046,0.9637295979630219,-0.3264058328696457
-4.0455,0.4835717293668566,-0.8138511995079933
-4.045,-0.3487019095316325,-1.269506650929778
-4.0445,-0.6688071552621118,-1.089363798041932
-4.044,-0.5087545323966101,-0.4535654937313176
-4.0435,-0.2206598112394408,0.1716361721729923
-4.043,0.03542438534494258,0.627291623595192
-4.0425,0.2061471830677096,0.8922075837241369
-4.042,0.291508581929326,1.00877060618122
-4.0415,0.3235191065023739,1.029963882991555
-4.041,0.3235191065023739,1.008770606181239
-4.0405,0.3128489316446718,0.9557874141553245
-4.04,0.291508581929326,0.8922075837243778
-4.0395,0.2488278824986342,0.828627753293431
-4.039,0.2381577076408157,0.7650479228622915
-4.0385,0.1314559590640864,0.6802748156210291
-4.038,-0.2420001609544664,0.2670059178198751
-4.0375,-0.6794773301200757,-0.527741962568704
-4.037,-0.9889124009925911,-1.237716735714276
-4.0365,-1.362368521011484,-1.746355379162313
-4.036,-1.501080794161008,-1.40726295019629
-4.0355,-1.116954499284783,-0.6760949002404023
-4.035,-0.5194247072545548,-0.09327978795619347
-4.0345,-0.007256314086253823,0.2246193641985404
-4.034,0.3448594562177392,0.2881991946298341
-4.0335,0.5155822539406614,0.2246193641988295
-4.033,0.5475927785136803,0.1292496185524094
-4.0325,0.6969752265213052,-0.1144730647666247
-4.032,0.7396559259519968,-0.2204394488182027
-4.0315,0.6542945270906134,-0.1462629799820981
-4.031,0.568933128228997,-0.05089323433541773
-4.0305,0.4835717293676135,0.06566978812131802
-4.03,0.4515612047945947,0.08686306493163361
-4.0295,0.8783681991018324,-0.3158091944652686
-4.029,0.8356874996711408,-0.9304142219644207
-4.0285,0.1314559590640864,-1.492036057438295
-4.028,-0.4767440078238922,-1.682775548730749
-4.0275,-0.5514352318276028,-1.068170521231597
-4.027,-0.3273615598162672,-0.326405832869877
-4.0265,-0.06060718837444384,0.2776025562241173
-4.026,0.1314559590640864,0.6590815388106942
-4.0255,0.2488278824985954,0.849821030103708
-4.025,0.312848931644633,0.9134008605346549
-4.0245,0.3235191065023642,0.9134008605346742
-4.024,0.3128489316446912,0.8710143069140429
-4.0235,0.3021787567870183,0.8286277532934117
-4.023,0.2701682322139413,0.7756445612674878
-4.0225,0.2488278824985954,0.7226613692416989
-4.022,0.2168173579255766,0.6908714540262254
-4.0215,-0.03926683865939878,0.5001319627325564
-4.021,-0.658136980404429,-0.1886495336027004
-4.0205,-1.202315898146244,-0.9622041371799229
-4.02,-1.607782542738291,-1.513229334248553
-4.0195,-1.725154466172693,-1.42845622700729
-4.019,-1.26633694729234,-0.8138511995075789
-4.0185,-0.6474668055473094,-0.2204394488187423
-4.018,-0.1032878878049318,0.1822328105781598
-4.0175,0.2808384070716433,0.2776025562246667
-4.017,0.4942419042251021,0.2352160026040355
-4.0165,0.5582629533714697,0.1292496185521973
-4.016,0.6436243522328531,-0.008506680714854012
-4.0155,0.7609962756672555,-0.1568596183870632
-4.015,0.6969752265211498,-0.1250697031715994
-4.0145,0.5689331282290746,-0.01910331912002144
-4.014,0.4622313796523452,0.0974597033367143
-4.0135,0.4302208550794623,0.182232810578102
-4.013,0.7183155762366316,0.1186529801471552
-4.0125,0.9103787236749192,-0.07208651114585861
-4.012,0.2381577076403014,-0.6760949002408456
-4.0115,-0.4340633083930936,-1.163540266878104
-4.011,-0.5941159312583333,-0.9728007755850904
-4.0105,-0.3913826089625474,-0.3793890248962538
-4.01,-0.124628237520297,0.2034260873884947
-4.0095,0.08877525963335578,0.627291623595192
-4.009,0.2381577076407769,0.8816109453189791
-4.0085,0.3021787567870183,0.9875773293709136
-4.008,0.3128489316446912,1.019367244586387
-4.0075,0.3235191065023642,0.9981739677760714
-4.007,0.3021787567869795,0.9451907757501764
-4.0065,0.2701682322139607,0.9028042221295453
-4.006,0.2274875327832301,0.849821030103708
-4.0055,0.2061471830677872,0.7756445612674108
-4.005,0.1207857842064037,0.6378882620003594
-4.0045,-0.3593720843893152,0.05507314971615059
-4.004,-0.9248913518469027,-0.7502713690771912
-4.0035,-1.373038695869166,-1.42845622700729
-4.003,-1.810515865034154,-1.831128486403653
-4.0025,-1.714484291315098,-1.322489842956078
-4.002,-1.095614149569417,-0.6231117082145651
-4.0015,-0.4554036581084589,-0.1250697031716958
-4.001,0.02475421048682325,0.1822328105778802
-4.0005,0.3128489316448271,0.1822328105780537
-4,0.4622313796522482,0.06566978812131802
-3.9995,0.5262524287983441,-0.08268314955102604
-3.999,0.6756348768059011,-0.2098428104130352
-3.9985,0.6756348768059011,-0.1780528951975329
-3.998,0.6009436528021226,-0.1038764263613609
-3.9975,0.5369226036560266,-0.008506680714854012
-3.997,0.5262524287983441,0.002089957690313421
-3.9965,0.5582629533713921,-0.1886495336027004
-3.996,0.6542945270905358,-0.6760949002404023
-3.9955,0.1954770082101822,-1.227120097309109
-3.995,-0.5194247072545548,-1.661582271920973
-3.9945,-0.7755089038389382,-1.42845622700729
-3.994,-0.5621054066852853,-0.6654982618352349
-3.9935,-0.2420001609548061,0.06566978812131802
-3.993,0.02475421048725994,0.5955017083796896
-3.9925,0.2061471830678648,0.9134008605347127
-3.992,0.3021787567870086,1.061753798207057
-3.9915,0.3235191065023739,1.104140351827727
-3.991,0.3235191065023739,1.093543713422559
-3.9905,0.3128489316446912,1.040560521396722
-3.99,0.2808384070716433,0.9769806909657173
-3.9895,0.2594980573562781,0.9134008605347127
-3.989,0.2274875327832301,0.8604176685088755
-3.9885,0.1848068333524996,0.7862411996727035
-3.988,-0.2099896363817582,0.3305857482505039
-3.9875,-0.839529952985034,-0.4853554089473885
-3.987,-1.287677297007705,-1.227120097309109
-3.9865,-1.51175096901904,-1.51322933424863
-3.986,-1.277007122150022,-1.0999604364471
-3.9855,-0.7861790786966207,-0.474758770542221
-3.985,-0.2633405106701714,-0.05089323433552374
-3.9845,0.1527963087794516,0.1716361721729923
-3.984,0.3768699807907871,0.2140227257936621
-3.9835,0.4622313796522482,0.09745970333682032
-3.983,0.4729015545099309,-0.02969995752518888
-3.9825,0.6009436528021226,-0.2098428104130352
-3.982,0.6542945270905358,-0.2416327256285375
-3.9815,0.5902734779444399,-0.1462629799820306
-3.981,0.4942419042252961,-0.01910331912002144
-3.9805,0.4302208550792003,0.1080563417419877
-3.98,0.4408910299368829,0.2564092794143318
-3.9795,0.857027849386506,0.4789386859228479
-3.979,0.9103787236749192,0.13984625695749
-3.9785,0.1527963087794516,-0.5913217929990628
-3.978,-0.6047861061160158,-1.174136905283272
-3.9775,-0.8715404775580819,-1.163540266878104
-3.977,-0.6367966306890638,-0.570128516188728
-3.9765,-0.2846808603855366,0.07626642652648545
-3.976,0.01408403562957729,0.5743084315693548
-3.9755,0.2061471830678648,0.8710143069140429
-3.975,0.291508581929326,1.019367244586387
-3.9745,0.3235191065023739,1.051157159801889
-3.974,0.3235191065023739,1.029963882991555
-3.9735,0.3021787567870086,0.9769806909657173
-3.973,0.2701682322139607,0.92399749893988
-3.9725,0.2061471830678648,0.8816109453192104
-3.972,0.1101156093487211,0.8392243916985406
-3.9715,-0.08194753808956648,0.6060983467848571
-3.971,-0.5407650569699201,-0.1674562567923655
-3.9705,-0.8502001278427167,-0.9833974139902578
-3.97,-1.084943974711735,-1.51322933424863
-3.9695,-1.1062843244271,-1.322489842955616
-3.969,-0.7648387289812555,-0.7290780922662394
-3.9685,-0.3487019095316325,-0.2098428104130352
-3.968,0.00341386077189465,0.08686306493165288
-3.9675,0.2168173579255475,0.1716361721729923
-3.967,0.3555296310754218,0.06566978812131802
-3.9665,0.4408910299368829,-0.07208651114585861
-3.966,0.5369226036560266,-0.1674562567923655
-3.9655,0.6542945270905358,-0.2204394488182027
-3.965,0.6222840025174878,-0.1144730647665284
-3.9645,0.5369226036560266,0.002089957690313421
-3.964,0.4515612047945656,0.1080563417419877
-3.9635,0.4302208550792003,0.1822328105781598
-3.963,0.4622313796522482,-0.07208651114585861
-3.9625,0.1207857842064037,-0.6866915386455698
-3.962,-0.5621054066852853,-1.290699927740113
-3.9615,-1.138294849000148,-1.682775548731308
-3.961,-1.138294849000148,-1.322489842955616
-3.9605,-0.722158029550525,-0.5489352393783931
-3.96,-0.274010685527854,0.1504428953626575
-3.9595,0.05676473506030786,0.627291623595192
-3.959,0.2381577076409128,0.8922075837243778
-3.9585,0.3235191065023739,0.9981739677760521
-3.958,0.3448594562177392,1.00877060618122
-3.9575,0.3341892813600565,0.9663840525605498
-3.957,0.3021787567870086,0.8922075837243778
-3.9565,0.2701682322139607,0.8392243916985406
-3.956,0.2274875327832301,0.775644561267536
-3.9555,0.1848068333524996,0.7120647308365314
-3.955,0.1101156093487211,0.6696781772158616
-3.9545,-0.4127229586777283,0.7650479228623686
-3.954,-1.020922925565639,0.3623756634660061
-3.9535,-1.426389570157579,-0.4323722169215513
-3.953,-1.565101843307454,-0.6337083466197325
-3.9525,-1.191645723288561,-0.3687923864905467
-3.952,-0.6367966306890638,-0.09327978795619347
-3.9515,-0.124628237520297,0.06566978812131802
-3.951,0.2168173579255475,0.1080563417419877
-3.9505,0.408880505363835,0.04447651131098315
-3.95,0.5155822539406614,-0.05089323433552374
-3.9495,0.5475927785137094,-0.07208651114585861
-3.949,0.6969752265212663,-0.07208651114585861
-3.9485,0.6863050516635838,-0.008506680714854012
-3.948,0.5902734779444399,0.08686306493165288
-3.9475,0.5475927785137094,0.08686306493165288
-3.947,0.6969752265212663,-0.05089323433552374
-3.9465,0.857027849386506,0.02328323450064829
-3.946,1.305175193409177,0.4895353243280153
-3.9455,0.8890383739595538,0.2881991946298341
-3.945,-0.07127736323188383,-0.4217755785163839
-3.9445,-0.9035510021311299,-1.025783967610927
-3.944,-1.020922925565639,-0.9304142219644207
-3.9435,-0.6794773301197943,-0.3687923864905467
-3.943,-0.2846808603855366,0.2246193641988295
-3.9425,0.03542438534494258,0.6802748156210291
-3.942,0.2274875327832301,0.9663840525605498
-3.9415,0.3128489316446912,1.104140351827727
-3.941,0.3448594562177392,1.146526905448396
-3.9405,0.3235191065023739,1.135930267043229
-3.94,0.291508581929326,1.104140351827727
-3.9395,0.2701682322139607,1.061753798207057
-3.939,0.2381577076409128,1.019367244586387
-3.9385,0.1954770082101822,0.92399749893988
-3.938,-0.1139580626626144,0.4895353243280153
-3.9375,-0.690147504977477,-0.3581957480853793
-3.937,-1.127624674142465,-1.152943628472937
-3.9365,-1.405049220442214,-1.481439419033127
-3.936,-1.330357996438436,-1.110557074852267
-3.9355,-0.9142211769888124,-0.5489352393783931
-3.935,-0.4020527838200457,-0.1250697031716958
-3.9345,0.05676473506030786,0.04447651131098315
-3.934,0.3448594562177392,0.002089957690313421
-3.9335,0.5049120790829789,-0.06148987274069118
-3.933,0.5369226036560266,-0.07208651114585861
-3.9325,0.6756348768059011,-0.09327978795619347
-3.932,0.7396559259519968,-0.04029659593035631
-3.9315,0.6542945270905358,-0.01910331912002144
-3.931,0.5582629533713921,0.03387987290581572
-3.9305,0.4835717293676135,0.08686306493165288
-3.93,0.4622313796522482,0.1610395337678249
-3.9295,0.79300680024041,0.3411823866556712
-3.929,0.6542945270905358,0.04447651131098315
-3.9285,0.07810508477567314,-0.6443049850249
-3.928,-0.5087545323968721,-1.174136905283272
-3.9275,-0.5941159312583333,-0.9410108603695881
-3.927,-0.3807124341046804,-0.326405832869877
-3.9265,-0.1032878878049318,0.2881991946298341
-3.926,0.1207857842064037,0.7332580076468663
-3.9255,0.2381577076409128,0.9981739677760521
-3.925,0.3021787567870086,1.135930267043229
-3.9245,0.3235191065023739,1.178316820663898
-3.924,0.3128489316446912,1.167720182258731
-3.9235,0.2808384070716433,1.114736990232894
-3.923,0.2701682322139607,1.061753798207057
-3.9225,0.2381577076409128,1.00877060618122
-3.922,0.1954770082101822,0.9663840525605498
-3.9215,-0.02859666380115328,0.7650479228623686
-3.921,-0.2206598112394408,0.1186529801471552
-3.9205,-0.5834457564006506,-0.6866915386455698
-3.92,-1.020922925565639,-1.237716735714276
-3.9195,-1.1062843244271,-1.068170521231597
-3.919,-0.7328282044082075,-0.6337083466197325
-3.9185,-0.2846808603855366,-0.2098428104130352
-3.918,0.03542438534494258,0.002089957690313421
-3.9175,0.2594980573562781,0.07626642652648545
-3.917,0.408880505363835,-0.04029659593035631
-3.9165,0.4835717293676135,-0.1462629799820306
-3.916,0.5796033030867573,-0.2946159176543747
-3.9155,0.7289857510943143,-0.4111789401112165
-3.915,0.6863050516635838,-0.3052125560595421
-3.9145,0.5689331282290746,-0.1144730647665284
-3.914,0.4729015545099309,0.06566978812131802
-3.9135,0.4302208550792003,0.2352160026039969
-3.913,0.707645401378949,0.6590815388106942
-3.9125,1.027750647109428,0.9769806909657173
-3.912,0.4195506802215176,0.3517790250608387
-3.9115,-0.4447334832507763,-0.5171453241628908
-3.911,-1.031593100423322,-1.05757388282643
-3.9105,-0.9248913518464952,-0.8138511995075789
-3.91,-0.5407650569699201,-0.2416327256285375
-3.9095,-0.156638762093345,0.3199891098453364
-3.909,0.1101156093487211,0.7226613692416989
-3.9085,0.2594980573562781,0.9557874141553824
-3.908,0.3235191065023739,1.072350436612224
-3.9075,0.3341892813600565,1.114736990232894
-3.907,0.3128489316446912,1.093543713422559
-3.9065,0.2701682322139607,1.061753798207057
-3.906,0.2381577076409128,1.019367244586387
-3.9055,0.1634664836371343,0.9981739677760521
-3.905,-0.07127736323188383,0.9557874141553824
-3.9045,-0.7008176798351597,0.3729723018711736
-3.904,-1.1062843244271,-0.5277419625680583
-3.9035,-1.330357996438436,-1.280103289334946
-3.903,-1.458400094730627,-1.439052865412457
-3.9025,-1.191645723288561,-0.9516074987747555
-3.902,-0.7648387289812555,-0.3793890248957141
-3.9015,-0.274010685527854,-0.09327978795619347
-3.901,0.142126133921769,-0.04029659593035631
-3.9005,0.3768699807907871,-0.04029659593035631
-3.9,0.4622313796522482,-0.09327978795619347
-3.8995,0.5049120790829789,-0.1886495336027004
-3.899,0.5582629533713921,-0.1992461720078678
-3.8985,0.5262524287983441,-0.1462629799820306
-3.898,0.4622313796522482,-0.07208651114585861
-3.8975,0.4195506802215176,0.01268659609548085
-3.897,0.4302208550792003,0.02328323450064829
-3.8965,0.408880505363835,-0.05089323433552374
-3.896,-0.1459685872356623,-0.5277419625680583
-3.8955,-0.8608703027003992,-1.110557074852267
-3.895,-1.533091318734406,-1.566212526274467
-3.8945,-1.618452717595867,-1.439052865412457
-3.894,-1.074273799854052,-0.6866915386455698
-3.8935,-0.4980843575391895,0.07626642652648545
-3.893,-0.04993701351651855,0.6590815388106942
-3.8925,0.2061471830678648,1.00877060618122
-3.892,0.3235191065023739,1.167720182258731
-3.8915,0.3555296310754218,1.210106735879401
-3.891,0.3555296310754218,1.178316820663898
-3.8905,0.3235191065023739,1.104140351827727
-3.89,0.2808384070716433,1.029963882991555
-3.8895,0.2274875327832301,0.9451907757502149
-3.889,0.1527963087794516,0.8392243916985406
-3.8885,0.09944543449103843,0.7120647308365314
-3.888,-0.1779791118087102,0.2987958330350016
-3.8875,-0.7328282044082075,-0.4217755785163839
-3.887,-1.212986073003927,-1.142346990067769
