Class_5_Move_Left_hand_Horiszontal/Class_5_Move_leftt_hand_horizontal_Basim_2.csv

#Digilent WaveForms Oscilloscope Acquisition
#Device Name: EExplorer
#Serial Number: SN:210151A2B84A
#Date Time: 2020-10-27 13:40:29.758
#Sample rate: 2000Hz
#Samples: 16384
#Trigger: Source: Channel 1 Type: Edge Condition: Rising Level: 0 V Hyst.: Auto HoldOff: 0 s
#Channel 1: Range: 1 V/div Offset: 0 V Attenuation: 1 X
#Channel 2: Range: 1 V/div Offset: 0 V Attenuation: 1 X
#Power Supplies: ON
#Fixed Supply: ON
#Voltage: 3.3 V Readback: 3.329 V
#Positive Supply: ON
#Voltage: 3.7 V Readback: 3.713 V
#Current: 500 mA Readback: 21 mA
#Negative Supply: ON
#Voltage: -3.7 V Readback: -3.708 V
#Current: -500 mA Readback: -9 mA
#Reference 1: ON
#Voltage: 0 V
#Reference 2: ON
#Voltage: 0 V

Time (s),Channel 1 (V),Channel 2 (V)
-4.096,-1.789175515318789,-1.576809164679634
-4.0955,-0.988912400993319,-1.439052865412583
-4.095,-0.1032878878043689,-0.9622041371796242
-4.0945,0.5155822539406614,-0.6337083466197325
-4.094,0.8463576745285224,-0.4747587705423656
-4.0935,0.9530594231056401,-0.4217755785164321
-4.093,0.942389248247967,-0.474758770542221
-4.0925,0.9103787236749483,-0.5065486857576945
-4.092,0.9743997728210829,-0.6125150698093109
-4.0915,1.049090996824793,-0.5171453241628908
-4.091,0.974399772821015,-0.2204394488182027
-4.0905,0.857027849386409,0.09745970333705162
-4.09,0.7503261008096795,0.3517790250608387
-4.0895,0.8143471499557753,0.2987958330350016
-4.089,1.251824319120366,-0.2522293640332038
-4.0885,0.7609962756673623,-0.8562377531282487
-4.088,-0.3060212101009019,-1.227120097309109
-4.0875,-1.277007122149139,-1.258910012524582
-4.087,-2.066600061618683,-1.068170521231308
-4.0865,-2.226652684483777,-0.7502713690765743
-4.086,-1.43705974501598,-0.1250697031722644
-4.0855,-0.5514352318270012,0.8286277532941827
-4.085,0.1101156093487211,1.718745379327438
-4.0845,0.5049120790826198,2.312157130016274
-4.084,0.6863050516636227,2.608863005361492
-4.0835,0.7289857510943143,2.598266366956334
-4.083,0.6969752265212663,2.418123514068488
-4.0825,0.6436243522328142,2.100224361913012
-4.082,0.6009436528021226,1.602182356870596
-4.0815,0.5262524287983441,0.7544512844572011
-4.081,0.195477008210483,-0.1462629799812114
-4.0805,-0.6047861061160158,-0.9198175835592532
-4.08,-1.426389570157579,-1.534422611058964
-4.0795,-1.650463242168711,-1.84172512480854
-4.079,-0.8502001278419112,-1.534422611058415
-4.0785,0.03542438534494258,-0.9304142219644207
-4.078,0.6542945270899729,-0.5277419625684245
-4.0775,0.9530594231057079,-0.3052125560595132
-4.077,1.017080472251745,-0.2734226408440398
-4.0765,0.963729597963381,-0.3793890248956178
-4.076,0.8676980242441691,-0.4641621321371404
-4.0755,0.8463576745288233,-0.5595318777835605
-4.075,0.9850699476786977,-0.5383386009732256
-4.0745,0.9637295979632451,-0.27342264084377
-4.074,0.8676980242441885,0.02328323450064829
-4.0735,0.7823366253827275,0.2564092794143318
-4.073,0.7503261008097086,0.3729723018710676
-4.0725,1.049090996824793,-0.02969995752518888
-4.072,0.9957401225363802,-0.6654982618352349
-4.0715,0.06743490991883483,-1.152943628472494
-4.071,-0.9355615267049346,-1.333086481360658
-4.0705,-1.767835165603424,-1.195330182093607
-4.07,-2.269333383914052,-0.8986243067491881
-4.0695,-1.735824641029551,-0.3899856633000238
-4.069,-0.8288597781273515,0.55311515475902
-4.0685,-0.08194753808956648,1.538602526439591
-4.068,0.3982103305063756,2.26977057639652
-4.0675,0.6436243522328531,2.683039474197674
-4.067,0.7183155762366316,2.778409219844181
-4.0665,0.7076454013789102,2.6830394741975
-4.066,0.6649647019482183,2.49229998290466
-4.0655,0.6116138276598051,2.132014277128968
-4.065,0.5475927785137675,1.464426057604026
-4.0645,0.3341892813600565,0.457745409112513
-4.064,-0.4127229586777283,-0.5171453241628908
-4.0635,-1.25566677243389,-1.269506650929094
-4.063,-1.778505340460466,-1.778145294377883
-4.0625,-1.074273799854052,-1.852321763213987
-4.062,-0.1246282375211607,-1.40726295019736
-4.0615,0.5475927785140199,-0.9092209451538834
-4.061,0.8890383739595538,-0.6866915386455698
-4.0605,0.9957401225363802,-0.5913217929990628
-4.06,0.9637295979632645,-0.5171453241628715
-4.0595,0.8890383739595538,-0.4959520473525559
-4.059,0.825017324813458,-0.5595318777835605
-4.0585,0.9530594231055333,-0.633708346619665
-4.058,0.9957401225363802,-0.3793890248957141
-4.0575,0.9103787236749192,-0.07208651114585861
-4.057,0.8143471499558627,0.1504428953624551
-4.0565,0.7396559259519968,0.3305857482505039
-4.056,0.8036769750980928,0.08686306493165288
-4.0555,0.5902734779446339,-0.5171453241623415
-4.055,-0.2526703358133039,-1.057573882826661
-4.0545,-1.148965023857831,-1.311893204550448
-4.054,-1.895877263894936,-1.237716735714344
-4.0535,-2.333354433060293,-0.9728007755847049
-4.053,-1.991908837614759,-0.5489352393783931
-4.0525,-1.042263275281004,0.3305857482505039
-4.052,-0.2420001609543015,1.3478630351473
-4.0515,0.3128489316446912,2.142610915534135
-4.051,0.6009436528021226,2.608863005361502
-4.0505,0.707645401378852,2.778409219844027
-4.05,0.7183155762366316,2.651249558982172
-4.0495,0.6756348768059011,2.20619074596514
-4.049,0.6329541773752094,1.591585718465987
-4.0485,0.5796033030866214,0.945190775749521
-4.048,0.4302208550792003,0.1822328105781598
-4.0475,-0.2313299860965218,-0.5701285161880437
-4.047,-1.095614149570068,-1.195330182094069
-4.0465,-1.810515865034154,-1.703968825541643
-4.046,-1.501080794161639,-1.852321763213852
-4.0455,-0.5514352318268749,-1.428456227006866
-4.045,0.2488278824985954,-0.9622041371799229
-4.0445,0.7609962756673623,-0.6654982618352349
-4.044,0.9850699476787268,-0.5807251545938761
-4.0435,1.017080472251745,-0.5595318777835605
-4.043,0.9637295979633325,-0.6443049850249
-4.0425,0.8997085488172947,-0.7608680074816357
-4.042,0.9317190733902845,-0.8774310299385835
-4.0415,1.006410297394063,-0.7502713690765743
-4.041,0.9423892482480252,-0.5171453241631029
-4.0405,0.8250173248133706,-0.3370024712749288
-4.04,0.7289857510943143,-0.2098428104130352
-4.0395,0.7076454013789685,-0.1674562567924041
-4.039,0.8783681991013667,-0.4959520473530089
-4.0385,0.3235191065023739,-0.9939940523954253
-4.038,-0.6154562809728445,-1.343683119765632
-4.0375,-1.383708870727441,-1.364876396576102
-4.037,-2.03458953704549,-1.163540266878104
-4.0365,-1.949228138184029,-0.7714646458869092
-4.036,-1.127624674141747,0.08686306493261664
-4.0355,-0.3380317346739499,1.146526905448396
-4.035,0.2381577076409128,2.015451254672126
-4.0345,0.558262953371101,2.555879813335173
-4.034,0.6969752265212663,2.810199135059683
-4.0335,0.7183155762366316,2.789005858249348
-4.033,0.6756348768059399,2.577073090146192
-4.0325,0.6329541773751317,2.290963853206103
-4.032,0.5902734779444399,1.877694955404949
-4.0315,0.568933128229094,1.347863035147059
-4.031,0.3128489316439634,0.6696781772150521
-4.0305,-0.4874141826815069,-0.2204394488182027
-4.03,-1.341028171295342,-1.004590690799879
-4.0295,-1.586442193022091,-1.502632695843366
-4.029,-0.7861790786966207,-1.396666311791788
-4.0285,0.08877525963335578,-0.9516074987747555
-4.028,0.6649647019484609,-0.633708346619588
-4.0275,0.9317190733902845,-0.474758770542221
-4.027,1.006410297394063,-0.4217755785163839
-4.0265,0.9743997728210441,-0.4853554089473306
-4.026,0.9103787236749192,-0.5277419625680583
-4.0255,0.8676980242441885,-0.5913217929990628
-4.025,0.9210488985325532,-0.5277419625681161
-4.0245,0.8783681991017936,-0.2946159176541241
-4.024,0.79300680024041,-0.01910331912002144
-4.0235,0.7183155762366995,0.2140227257934501
-4.023,0.6863050516639041,0.3411823866553532
-4.0225,1.038420821967111,-0.008506680714854012
-4.022,1.081101521397803,-0.6443049850243218
-4.0215,0.1634664836362512,-1.152943628473081
-4.021,-0.807519428411986,-1.311893204550448
-4.0205,-1.639793067311232,-1.174136905283272
-4.02,-2.098610586191091,-0.8880276683432209
-4.0195,-1.554431668449771,-0.3052125560595421
-4.019,-0.7114878546928423,0.701468092431364
-4.0185,-0.02859666380177428,1.697552102516197
-4.018,0.408880505363835,2.386333598852986
-4.0175,0.6329541773751706,2.767812581439014
-4.017,0.7076454013788811,2.841989050275118
-4.0165,0.6863050516635449,2.69363611260262
-4.016,0.6436243522328531,2.449913429283991
-4.0155,0.6009436528021614,2.121417638724099
-4.015,0.5369226036558811,1.591585718464706
-4.0145,0.3768699807907871,0.7968378380778709
-4.014,-0.07127736323147627,-0.1144730647656996
-4.0135,-0.7755089038394526,-0.9304142219649894
-4.013,-1.341028171296118,-1.555615887869299
-4.0125,-0.8288597781273515,-1.788741932782983
-4.012,-0.04993701351597511,-1.407262950196579
-4.0115,0.5475927785137094,-0.9939940523954253
-4.011,0.8676980242441885,-0.7396747306714069
-4.0105,0.9530594231055721,-0.5913217929991977
-4.01,0.942389248247967,-0.5489352393783931
-4.0095,0.8783681991018712,-0.5383386009732256
-4.009,0.8036769750981607,-0.5701285161886991
-4.0085,0.931719073390333,-0.6549016234299035
-4.008,0.9850699476786977,-0.474758770542221
-4.0075,0.8997085488173141,-0.2098428104132761
-4.007,0.7930068002403324,0.08686306493182636
-4.0065,0.707645401378949,0.2776025562246667
-4.006,0.8890383739595538,0.1186529801471552
-4.0055,1.198473444831681,-0.4641621321375548
-4.005,0.4622313796522482,-1.01518732920576
-4.0045,-0.5941159312583333,-1.280103289334946
-4.004,-1.511750969019691,-1.227120097308868
-4.0035,-2.226652684483777,-0.9622041371799229
-4.003,-2.23732285934146,-0.6231117082145651
-4.0025,-1.394379045585298,0.002089957689744737
-4.002,-0.5087545323968721,0.9557874141553824
-4.0015,0.1314559590640864,1.856501678594614
-4.001,0.5049120790826391,2.460510067688609
-4.0005,0.6756348768059302,2.736022666223444
-4,0.707645401378949,2.661846197387339
-3.9995,0.6756348768059011,2.449913429283991
-3.999,0.6222840025174878,2.153207553939303
-3.9985,0.5796033030867573,1.729342017732605
-3.998,0.4195506802215176,1.029963882991555
-3.9975,-0.08194753808956648,0.2458126410091644
-3.997,-0.839529952985034,-0.5913217929990628
-3.9965,-1.565101843307454,-1.269506650929778
-3.996,-1.426389570157579,-1.75695201756748
-3.9955,-0.5514352318276028,-1.619195718300304
-3.995,0.2381577076409128,-1.0999604364471
-3.9945,0.7289857510943143,-0.7290780922662394
-3.994,0.942389248247967,-0.5489352393783931
-3.9935,0.9850699476786977,-0.5277419625680583
-3.993,0.9210488985326017,-0.5489352393783931
-3.9925,0.8356874996711408,-0.5913217929990628
-3.992,0.8783681991018712,-0.7290780922662394
-3.9915,1.006410297394063,-0.7078848154559045
-3.991,0.942389248247967,-0.4429688553267188
-3.9905,0.8356874996711408,-0.08268314955102604
-3.99,0.7396559259519968,0.2352160026039969
-3.9895,0.6542945270905358,0.2881991946298341
-3.989,0.4195506802215176,-0.2204394488182027
-3.9885,0.1314559590640864,-0.8350444763179138
-3.988,0.1848068333524996,-1.237716735714276
-3.9875,0.03542438534494258,-1.311893204550448
-3.987,-0.7008176798351597,-1.121153713257435
-3.9865,-1.148965023857831,-0.792657922697244
-3.986,-0.8928808272734472,0.01268659609548085
-3.9855,-0.3593720843893152,1.061753798207057
-3.985,0.1207857842064037,1.920081509025619
-3.9845,0.4302208550792003,2.449913429283991
-3.984,0.5902734779444399,2.683039474197674
-3.9835,0.6436243522328531,2.608863005361502
-3.983,0.6436243522328531,2.407526875663321
-3.9825,0.6009436528021226,2.16380419234447
-3.982,0.5689331282290746,1.771728571353275
-3.9815,0.5369226036560266,1.157123543853563
-3.981,0.1741366584948169,0.3199891098453364
-3.9805,-0.6688071552621118,-0.5383386009732256
-3.98,-1.501080794161358,-1.237716735714276
-3.9795,-1.714484291315011,-1.703968825541643
-3.979,-0.839529952985034,-1.598002441489969
-3.9785,0.0674349099179905,-1.131750351662602
-3.978,0.6756348768059011,-0.792657922697244
-3.9775,0.942389248247967,-0.6231117082145651
-3.977,0.9957401225363802,-0.5277419625680583
-3.9765,0.942389248247967,-0.5065486857577234
-3.976,0.8356874996711408,-0.5065486857577234
-3.9755,0.8036769750980928,-0.5913217929990628
-3.975,0.9210488985326017,-0.6231117082145651
-3.9745,0.8997085488172365,-0.3899856633008816
-3.974,0.8143471499557753,-0.1038764263613609
-3.9735,0.7183155762366316,0.13984625695749
-3.973,0.6756348768059011,0.3199891098453364
-3.9725,0.9957401225363802,0.03387987290581572
-3.972,1.017080472251745,-0.5913217929990628
-3.9715,0.1101156093487211,-1.0999604364471
-3.971,-0.8502001278427167,-1.290699927740113
-3.9705,-1.67180359188428,-1.184733543688439
-3.97,-2.301343908487556,-0.9092209451540858
-3.9695,-2.19464215991073,-0.5595318777835605
-3.969,-1.298347471865388,0.03387987290581572
-3.9685,-0.4340633083930936,0.9451907757502149
-3.968,0.1741366584948169,1.845905040189447
-3.9675,0.5262524287983441,2.460510067689158
-3.967,0.6649647019482183,2.704232751008009
-3.9665,0.6863050516635838,2.598266366956334
-3.966,0.6542945270905358,2.396930237258153
-3.9655,0.6009436528021226,2.026047893077293
-3.965,0.5049120790829789,1.231300012689736
-3.9645,0.3448594562177392,0.3305857482505039
-3.964,-0.3060212101009019,-0.5065486857577234
-3.9635,-1.159635198715513,-1.216523458903942
-3.963,-1.746494815888059,-1.725162102351978
-3.9625,-1.202315898146244,-1.820531847998485
-3.962,-0.3273615598162672,-1.322489842955616
-3.9615,0.3768699807907871,-0.8986243067489184
-3.961,0.7716664505250448,-0.6337083466197325
-3.9605,0.9210488985326017,-0.4853554089473885
-3.96,0.9210488985326017,-0.3899856633008816
-3.9595,0.8676980242441885,-0.4323722169215513
-3.959,0.825017324813458,-0.4853554089473885
-3.9585,0.9210488985326017,-0.570128516188728
-3.958,0.9530594231056497,-0.3158091944647096
-3.9575,0.8676980242441885,0.03387987290581572
-3.957,0.7609962756673623,0.3517790250608387
-3.9565,0.6756348768059011,0.5107286011383502
-3.956,0.5582629533713921,0.2458126410091644
-3.9555,0.00341386077189465,-0.4217755785163839
-3.955,-0.8822106524157645,-1.025783967610927
-3.9545,-1.682473766741963,-1.354279758171118
-3.954,-2.301343908487556,-1.34368311976595
-3.9535,-2.3973754822067,-1.0999604364471
-3.953,-2.119950935906951,-0.7078848154559045
-3.9525,-1.148965023857831,0.09745970333682032
-3.952,-0.3060212101009019,1.093543713422559
-3.9515,0.2594980573562781,1.909484870620451
-3.951,0.5689331282290746,2.407526875663321
-3.9505,0.6863050516635838,2.608863005361502
-3.95,0.6969752265212663,2.524089898120163
-3.9495,0.6542945270905358,2.333350406827149
-3.949,0.6009436528021226,2.057837808292796
-3.9485,0.5582629533713921,1.42203950398275
-3.948,0.4835717293676135,0.4789386859228479
-3.9475,0.00341386077189465,-0.4535654937318862
-3.947,-0.839529952985034,-1.205926820498774
-3.9465,-1.607782542738184,-1.778145294377815
-3.946,-1.415719395299897,-1.947691508860494
-3.9455,-0.4874141826815069,-1.555615887869299
-3.945,0.3128489316446912,-0.9728007755850904
-3.9445,0.7716664505250448,-0.6231117082145651
-3.944,0.9317190733902845,-0.474758770542221
-3.9435,0.9530594231056497,-0.4641621321370536
-3.943,0.8997085488172365,-0.4641621321370536
-3.9425,0.8143471499557753,-0.4641621321370536
-3.942,0.857027849386506,-0.5913217929990628
-3.9415,0.9637295979633325,-0.6231117082145651
-3.941,0.9210488985326017,-0.3370024712750445
-3.9405,0.8143471499557753,-0.04029659593035631
-3.94,0.7183155762366316,0.2246193641988295
-3.9395,0.7183155762366316,0.2458126410091644
-3.939,1.145122570543937,-0.1886495336027004
-3.9385,0.9637295979633325,-0.8032545611024114
-3.938,-0.007256314085787988,-1.248313374119443
-3.9375,-0.9782422261349084,-1.34368311976595
-3.937,-1.810515865034154,-1.174136905283272
-3.9365,-2.226652684483777,-0.8668343915334161
-3.936,-1.639793067311232,-0.4429688553267188
-3.9355,-0.7755089038389382,0.2881991946298341
-3.935,-0.06060718837420119,1.220703374284568
-3.9345,0.3875401556484697,2.026047893077293
-3.934,0.6116138276598051,2.53468653652533
-3.9335,0.6756348768059011,2.704232751008009
-3.933,0.6649647019482183,2.651249558982172
-3.9325,0.6222840025174878,2.439316790878823
-3.932,0.5796033030867573,2.036644531482461
-3.9315,0.5475927785137094,1.390249588767247
-3.931,0.2701682322139607,0.7438546460520338
-3.9305,-0.5407650569699201,-0.1568596183871981
-3.93,-1.394379045584531,-0.9728007755850904
-3.9295,-1.746494815888059,-1.545019249464132
-3.929,-1.031593100423322,-1.629792356705471
-3.9285,-0.1352984123779797,-1.311893204550448
-3.928,0.5155822539406614,-0.9939940523954253
-3.9275,0.857027849386506,-0.7608680074817418
-3.927,0.9637295979633325,-0.6125150698093976
-3.9265,0.9317190733902845,-0.570128516188728
-3.926,0.857027849386506,-0.5913217929990628
-3.9255,0.825017324813458,-0.6231117082145651
-3.925,0.9317190733902845,-0.5913217929990628
-3.9245,0.9103787236749192,-0.3475991096802118
-3.924,0.825017324813458,-0.07208651114585861
-3.9235,0.7289857510943143,0.1716361721729923
-3.923,0.6756348768059011,0.309392471440169
-3.9225,0.9637295979633325,0.01268659609548085
-3.922,0.9210488985326017,-0.6019184314042303
-3.9215,0.00341386077189465,-1.078767159636765
-3.921,-0.9462317015618604,-1.216523458903942
-3.9205,-1.757164990745741,-1.068170521231597
-3.92,-2.333354433060604,-0.7820612842920766
-3.9195,-2.130621110764634,-0.4429688553267188
-3.919,-1.202315898146244,0.13984625695749
-3.9185,-0.3700422592469978,0.9981739677760521
-3.918,0.2168173579255475,1.867098316999781
-3.9175,0.5369226036560266,2.471106706094325
-3.917,0.6649647019482183,2.725426027818344
-3.9165,0.6756348768059011,2.619459643766669
-3.916,0.6436243522328531,2.418123514068488
-3.9155,0.5902734779444399,2.110821000318633
-3.915,0.5369226036560266,1.559795803249926
-3.9145,0.2488278824985954,0.627291623595192
-3.914,-0.5514352318276028,-0.3687923864905467
-3.9135,-1.394379045584531,-1.163540266878104
-3.913,-1.949228138184029,-1.767548655972648
-3.9125,-1.255666772434657,-1.905304955239825
-3.912,-0.2526703358124887,-1.449649503817625
-3.9115,0.5049120790829789,-0.9092209451540858
-3.911,0.8997085488172365,-0.6549016234300674
-3.9105,1.017080472251745,-0.5171453241628908
-3.91,0.974399772821015,-0.4853554089473885
-3.9095,0.8783681991018712,-0.5065486857577234
-3.909,0.8036769750980928,-0.570128516188728
-3.9085,0.9530594231056497,-0.7078848154559045
-3.908,1.038420821967111,-0.5171453241628908
-3.9075,0.9530594231056497,-0.2098428104130352
-3.907,0.8143471499557753,0.06566978812131802
-3.9065,0.7183155762366316,0.2670059178194992
-3.906,0.6863050516635838,0.1080563417419877
-3.9055,0.3661998059331045,-0.4853554089473885
-3.905,-0.4980843575391895,-1.05757388282643
-3.9045,-1.330357996438436,-1.354279758171118
-3.904,-2.013249187330125,-1.322489842955616
-3.9035,-2.344024607918286,-1.068170521231597
-3.903,-1.735824641030376,-0.5277419625680583
-3.9025,-0.8181896032696687,0.4683420475176805
-3.902,-0.08194753808956648,1.485619334413754
-3.9015,0.3768699807907871,2.227384022775475
-3.901,0.6116138276598051,2.640652920577004
-3.9005,0.6863050516635838,2.778409219844181
-3.9,0.6756348768059011,2.598266366956334
-3.8995,0.6329541773751706,2.375736960447818
-3.899,0.5689331282290746,2.1214176387238
-3.8985,0.5475927785137094,1.909484870620451
-3.898,0.4942419042252961,1.633972272086098
-3.8975,-0.04993701351651855,0.7650479228623686
-3.897,-0.9355615267041777,-0.2946159176543747
-3.8965,-1.714484291315011,-1.142346990067769
-3.896,-1.575772018165136,-1.598002441489969
-3.8955,-0.658136980404429,-1.47084278062796
-3.895,0.1848068333524996,-1.089363798041932
-3.8945,0.6969752265212663,-0.8032545611024114
-3.894,0.9317190733902845,-0.6231117082145651
-3.8935,0.9850699476786977,-0.5171453241628908
-3.893,0.9210488985326017,-0.474758770542221
-3.8925,0.8356874996711408,-0.5065486857577234
-3.892,0.8676980242441885,-0.6443049850249
-3.8915,0.974399772821015,-0.6019184314042303
-3.891,0.9103787236749192,-0.2734226408440398
-3.8905,0.8036769750980928,0.07626642652648545
-3.89,0.6969752265212663,0.3411823866556712
-3.8895,0.6863050516635838,0.4471487707073456
-3.889,1.081101521397841,-0.04029659593035631
-3.8885,0.857027849386506,-0.718481453861072
-3.888,-0.09261771294724913,-1.184733543688439
-3.8875,-1.052933450138687,-1.322489842955616
-3.887,-1.885207089037933,-1.163540266878104
-3.8865,-2.386705307349017,-0.8774310299385835
-3.886,-2.151961460479999,-0.5171453241628908
-3.8855,-1.212986073003927,0.1610395337678249
