Class_5_Move_Left_hand_Horiszontal/Class_5_Move_Left_hand_Horiszontal_UZ_6.csv

#Digilent WaveForms Oscilloscope Acquisition
#Device Name: EExplorer
#Serial Number: SN:210151A2B84A
#Date Time: 2020-12-07 12:10:34.595
#Sample rate: 2000Hz
#Samples: 16384
#Trigger: Source: Channel 1 Type: Edge Condition: Rising Level: 0 V Hyst.: Auto HoldOff: 0 s
#Channel 1: Range: 1 V/div Offset: 0 V Attenuation: 1 X
#Channel 2: Range: 1 V/div Offset: 0 V Attenuation: 1 X
#Power Supplies: ON
#Fixed Supply: ON
#Voltage: 3.3 V Readback: 3.321 V
#Positive Supply: ON
#Voltage: 3.7 V Readback: 3.754 V
#Current: 40 mA Readback: 16 mA
#Negative Supply: ON
#Voltage: -3.7 V Readback: -4.207 V
#Current: -40 mA Readback: -46 mA
#Reference 1: ON
#Voltage: 0 V
#Reference 2: ON
#Voltage: 0 V

Time (s),Channel 1 (V),Channel 2 (V)
-4.096,-1.255666772434657,-0.570128516188728
-4.0955,-0.5514352318282433,-0.411178940111361
-4.095,-0.1566387620931606,-0.2734226408439145
-4.0945,0.04609456020262521,-0.1356663415768632
-4.094,0.1421261339216816,-0.01910331912012746
-4.0935,0.1634664836371246,0.06566978812138548
-4.093,0.1527963087794516,0.13984625695749
-4.0925,0.1421261339217787,0.1822328105781212
-4.092,0.1421261339217787,0.2034260873885043
-4.0915,0.1527963087794516,0.2140227257936621
-4.091,0.1527963087794516,0.1928294489833272
-4.0905,0.3982103305067929,0.3729723018716266
-4.09,1.102441871113207,0.8710143069140429
-4.0895,1.635950613997339,1.358459673551745
-4.089,1.892034810581489,1.369056311956903
-4.0885,1.828013761435626,0.4683420475176805
-4.088,1.35852606769759,-0.2840192792492073
-4.0875,0.8463576745292891,-0.7184814538606769
-4.087,0.4729015545097174,-0.9198175835592726
-4.0865,0.2381577076409128,-0.9410108603695881
-4.086,0.1101156093488375,-0.8562377531283258
-4.0855,0.0567647350601817,-0.718481453861072
-4.085,-0.08194753808956648,-0.718481453861072
-4.0845,-0.2313299860969876,-0.7926579226971765
-4.084,-0.2099896363816805,-0.6337083466195205
-4.0835,-0.124628237520297,-0.400582301706049
-4.083,-0.04993701351651855,-0.1674562567923655
-4.0825,-0.02859666380143471,0.002089957690342334
-4.082,-0.3380317346739499,0.03387987290581572
-4.0815,-0.9782422261349084,0.2987958330350016
-4.081,-1.319687821580442,0.8604176685083647
-4.0805,-1.383708870726849,0.849821030103708
-4.08,-1.373038695869166,0.13984625695749
-4.0795,-1.565101843307279,-0.8138511995067115
-4.079,-1.084943974711337,-0.8880276683436257
-4.0785,-0.6474668055467465,-0.7502713690765743
-4.078,-0.3273615598165584,-0.5277419625682607
-4.0775,-0.007256314085652125,-0.2098428104128425
-4.077,0.142126133921769,0.002089957690313421
-4.0765,0.142126133921769,0.06566978812126019
-4.076,0.120785784206394,0.09745970333683959
-4.0755,0.1101156093487211,0.1186529801471552
-4.075,0.1207857842064037,0.1186529801471552
-4.0745,0.1314559590641834,0.1292496185523804
-4.074,0.2381577076409128,0.1928294489833272
-4.0735,0.8463576745288233,0.6166949851900245
-4.073,1.56125938999291,1.16772018225823
-4.0725,1.966726034585501,1.464426057603419
-4.072,1.956055859727818,0.8074344764830383
-4.0715,1.550589215136246,0.03387987290651928
-4.071,1.017080472251348,-0.4747587705424524
-4.0705,0.5796033030867573,-0.7290780922662394
-4.07,0.291508581929588,-0.8350444763178174
-4.0695,0.1314559590640184,-0.8032545611023054
-4.069,0.05676473506030786,-0.6866915386455698
-4.0685,-0.007256314085787988,-0.5383386009732256
-4.068,-0.1246282375202873,-0.4111789401110912
-4.0675,-0.1139580626626144,-0.2734226408440398
-4.067,-0.06060718837420119,-0.1356663415768632
-4.0665,-0.00725631408574917,-0.008506680714747998
-4.066,0.03542438534494258,0.1080563417419877
-4.0655,-0.06060718837420119,0.1080563417419877
-4.065,-0.6367966306885398,-0.0296999575250636
-4.0645,-1.170305373573196,0.3411823866556712
-4.064,-1.277007122150022,0.6378882620003594
-4.0635,-1.255666772434676,0.1292496185527853
-4.063,-0.914221176988434,-0.1992461720079449
-4.0625,-0.4980843575391895,-0.2840192792492073
-4.062,-0.1779791118090014,-0.2522293640337339
-4.0615,-0.1566387620938108,-0.3581957480858708
-4.061,-0.6688071552621118,-0.8986243067489184
-4.0605,-0.5514352318276028,-0.7502713690765743
-4.06,-0.4127229586775828,-0.5701285161885544
-4.0595,-0.2526703358124887,-0.3793890248957141
-4.059,-0.01792648894347063,-0.1250697031716958
-4.0585,0.1101156093486046,0.002089957690197763
-4.058,0.1207857842064037,0.002089957690313421
-4.0575,0.1527963087794516,0.002089957690313421
-4.057,0.6222840025170608,0.2987958330347318
-4.0565,1.305175193409177,0.8710143069140429
-4.056,1.689301488285752,1.358459673551745
-4.0555,1.817343586577827,1.061753798207327
-4.055,1.5932699145662,0.2670059178189402
-4.0545,1.145122570543937,-0.3475991096802118
-4.054,0.686305051664001,-0.6760949002401035
-4.0535,0.3661998059329201,-0.8032545611023826
-4.053,0.1634664836371343,-0.7714646458869092
-4.0525,0.0674349099179905,-0.6654982618352349
-4.052,0.02475421048709496,-0.5383386009733123
-4.0515,-0.156638762093345,-0.6337083466197325
-4.051,-0.2206598112394408,-0.6125150698093976
-4.0505,-0.1566387620934032,-0.4323722169217151
-4.05,-0.07127736323188383,-0.1992461720078678
-4.0495,-0.01792648894347063,-0.008506680714854012
-4.049,-0.02859666380114357,0.1398462569573551
-4.0485,-0.5300948821128875,0.351779025061282
-4.048,-1.244996597576974,0.8392243916985406
-4.0475,-1.586442193022509,1.263089927904852
-4.047,-1.671803591884028,0.7544512844565651
-4.0465,-1.394379045584531,0.05507314971615059
-4.046,-0.8608703027008845,-0.2522293640334255
-4.0455,-0.3913826089620816,-0.3158091944646517
-4.045,-0.08194753808956648,-0.252229364033705
-4.0445,0.08877525963335578,-0.1568596183871981
-4.044,0.1527963087794613,-0.06148987274062372
-4.0435,0.1634664836371343,0.01268659609548085
-4.043,0.142126133921769,0.06566978812131802
-4.0425,-0.1246282375200544,-0.1568596183869957
-4.042,-0.722158029550525,-0.718481453861072
-4.0415,-0.5941159312583333,-0.5913217929990628
-4.041,-0.4447334832509121,-0.4535654937320115
-4.0405,0.02475421048816245,-0.06148987273993944
-4.04,1.017080472251745,0.7650479228623686
-4.0395,1.657290963712122,1.422039503982152
-4.039,2.020076908873904,1.42203950398194
-4.0385,2.009406734016231,0.5319218779486851
-4.038,1.539919040278622,-0.1886495336020451
-4.0375,0.9637295979629151,-0.6760949002405854
-4.037,0.5049120790829789,-0.8774310299385835
-4.0365,0.2381577076409128,-0.8562377531282487
-4.036,0.0994454344909802,-0.7290780922661045
-4.0355,0.03542438534494258,-0.5807251545938954
-4.035,-0.06060718837420119,-0.5383386009732256
-4.0345,-0.1459685872355847,-0.5489352393783834
-4.034,-0.1139580626626144,-0.4217755785163839
-4.0335,-0.04993701351651855,-0.2310360872233701
-4.033,0.003413860771846126,-0.05089323433568757
-4.0325,0.02475421048699792,0.08686306493173962
-4.032,-0.2633405106701714,0.1822328105781598
-4.0315,-0.9355615267035663,0.5213252395432092
-4.031,-1.309017646723177,1.061753798207481
-4.0305,-1.426389570157579,1.528005888034424
-4.03,-1.415719395299907,1.49621597281895
-4.0295,-0.9995825758498467,0.9134008605341537
-4.029,-0.5300948821122373,0.2987958330350016
-4.0285,-0.1673089369510276,-0.1144730647665284
-4.028,0.03542438534502992,-0.3052125560595806
-4.0275,0.1314559590640864,-0.3475991096802118
-4.027,0.1527963087794516,-0.2840192792492073
-4.0265,0.1421261339217787,-0.1674562567924715
-4.026,0.1207857842064037,-0.05089323433552374
-4.0255,0.1101156093487211,0.06566978812131802
-4.025,0.120785784206394,0.171636172172896
-4.0245,0.1314559590642028,0.2564092794144474
-4.024,0.2594980573562781,0.383568940276341
-4.0235,0.8783681991013084,0.796837838077495
-4.023,1.305175193408925,1.05115715980162
-4.0225,1.027750647109428,0.7544512844572011
-4.022,1.081101521397793,0.2352160026044692
-4.0215,0.7930068002401092,-0.411178940111496
-4.021,0.4622313796522482,-0.718481453861072
-4.0205,0.3128489316446912,-0.718481453861072
-4.02,0.1954770082100754,-0.6866915386455504
-4.0195,0.07810508477567314,-0.6654982618352349
-4.019,0.03542438534494258,-0.570128516188728
-4.0185,-0.03926683865876798,-0.5277419625680968
-4.018,-0.2420001609548061,-0.7290780922662394
-4.0175,-0.2526703358124887,-0.6125150698093976
-4.017,-0.1566387620934323,-0.3475991096804528
-4.0165,-0.04993701351646033,-0.07208651114565622
-4.016,0.01408403562957729,0.1504428953626575
-4.0155,-0.1566387620931897,0.2881991946297088
-4.015,-0.9142211769894141,0.6166949851904872
-4.0145,-1.575772018165136,1.125333628638062
-4.014,-1.746494815887903,1.231300012689639
-4.0135,-1.778505340460689,0.3835689402758206
-4.013,-1.319687821580753,-0.1886495336027004
-4.0125,-0.7328282044082075,-0.3793890248957141
-4.012,-0.2846808603852843,-0.3793890248956274
-4.0115,-0.007256314085787988,-0.2840192792492073
-4.011,0.1207857842064037,-0.1886495336027004
-4.0105,0.1634664836370955,-0.09327978795628021
-4.01,0.1634664836371343,-0.02969995752518888
-4.0095,0.142126133921769,0.01268659609548085
-4.009,0.1314559590640961,0.04447651131095424
-4.0085,0.1207857842064037,0.05507314971616022
-4.008,0.1207857842064037,0.06566978812131802
-4.0075,0.1634664836370955,0.08686306493163361
-4.007,0.5689331282296762,0.4153588554923445
-4.0065,1.230483969405398,0.9663840525605498
-4.006,1.796003236862578,1.42203950398275
-4.0055,1.828013761435248,1.241896651094257
-4.005,1.411876941986003,0.5319218779486851
-4.0045,0.9103787236749192,-0.1250697031716958
-4.004,0.09944543449042705,-0.9728007755856782
-4.0035,-0.572775581542968,-1.619195718300304
-4.003,-0.5621054066852853,-1.523825972653797
-4.0025,-0.4767440078239019,-1.290699927740325
-4.002,-0.2953510352432193,-0.9516074987747555
-4.0015,-0.2313299860971235,-0.8350444763179138
-4.001,-0.1993194615241047,-0.7078848154560202
-4.0005,-0.1459685872355847,-0.4641621321368127
-4,-0.06060718837420119,-0.1992461720078678
-3.9995,0.00341386077189465,0.03387987290581572
-3.999,-0.007256314085787988,0.2246193641988295
-3.9985,-0.4874141826815069,0.4895353243280153
-3.998,-1.383708870726849,0.9875773293708847
-3.9975,-1.885207089037933,1.33726639674141
-3.997,-1.927887788468663,0.6166949851900245
-3.9965,-1.522421143876723,-0.09327978795619347
-3.996,-0.9035510021311299,-0.3475991096802118
-3.9955,-0.3807124341046804,-0.3475991096802118
-3.995,-0.04993701351651855,-0.2416327256285375
-3.9945,0.1207857842064037,-0.1144730647665284
-3.994,0.1741366584948169,0.002089957690313421
-3.9935,0.1741366584948169,0.07626642652648545
-3.993,0.1527963087794516,0.1292496185523226
-3.9925,0.1314559590640864,0.1610395337678249
-3.992,0.1207857842064037,0.1716361721729923
-3.9915,0.1314559590640864,0.1716361721729923
-3.991,0.142126133921769,0.1610395337678249
-3.9905,0.3768699807907871,0.2670059178194992
-3.99,1.027750647109428,0.7332580076468663
-3.9895,1.497238340847464,1.241896651094903
-3.989,1.678631313428069,1.231300012689736
-3.9885,1.571929564851243,0.4471487707073456
-3.988,1.19847344483235,-0.252229364033705
-3.9875,0.7716664505250448,-0.6760949002404023
-3.987,0.4302208550792003,-0.8774310299385835
-3.9865,0.2168173579255475,-0.8774310299385835
-3.986,0.05676473506030786,-0.8244478379127463
-3.9855,-0.6261264558313813,-1.34368311976595
-3.985,-0.8715404775580819,-1.460246142222792
-3.9845,-0.9569018764195432,-1.449649503817625
-3.984,-0.7648387289812555,-1.131750351662602
-3.9835,-0.391382608962363,-0.6337083466197325
-3.983,-0.1032878878049318,-0.2310360872233701
-3.9825,-0.02859666380115328,-0.04029659593035631
-3.982,-0.3166913849585846,0.002089957690313421
-3.9815,-1.159635198715513,0.2352160026039969
-3.981,-1.618452717595867,0.7862411996727035
-3.9805,-1.565101843307454,0.627291623595192
-3.98,-1.426389570157579,-0.1674562567923655
-3.9795,-0.9569018764195432,-0.4641621321370536
-3.979,-0.4767440078238243,-0.4535654937318862
-3.9785,-0.1352984123779797,-0.326405832869877
-3.978,0.05676473506030786,-0.1780528951975329
-3.9775,0.142126133921769,-0.06148987274069118
-3.977,0.1634664836371343,0.01268659609548085
-3.9765,0.1527963087794516,0.05507314971615059
-3.976,0.142126133921769,0.07626642652648545
-3.9755,0.1207857842064037,0.07626642652648545
-3.975,0.1207857842064037,0.06566978812131802
-3.9745,0.1207857842064037,0.04447651131098315
-3.974,0.2381577076409128,0.1080563417419877
-3.9735,0.8463576745288233,0.5637117931641874
-3.973,1.625280439139656,1.125333628638062
-3.9725,2.180129531739154,1.411442865577582
-3.972,2.190799706596836,0.7650479228623686
-3.9715,1.7213120128588,-0.02969995752518888
-3.971,1.091771696255524,-0.570128516188728
-3.9705,0.5796033030867573,-0.8032545611024114
-3.97,0.2488278824985954,-0.8244478379127463
-3.9695,0.07810508477567314,-0.7396747306714069
-3.969,0.01408403562957729,-0.6231117082145651
-3.9685,-0.03926683865883591,-0.570128516188728
-3.968,-0.1779791118087102,-0.6760949002404023
-3.9675,-0.7328282044082075,-1.0999604364471
-3.967,-0.8608703027003992,-1.078767159636765
-3.9665,-0.6367966306890638,-0.718481453861072
-3.966,-0.4447334832507763,-0.3899856633008816
-3.9655,-0.3593720843893152,-0.1250697031716958
-3.965,-0.9142211769888124,0.1504428953626575
-3.9645,-1.51175096901904,0.6908714540261965
-3.964,-1.607782542738184,0.8604176685088755
-3.9635,-1.703814116457328,-0.02969995752518888
-3.963,-1.319687821580753,-0.5065486857577234
-3.9625,-0.7648387289812555,-0.5595318777835605
-3.962,-0.3060212101009019,-0.4217755785163839
-3.9615,-0.007256314085787988,-0.252229364033705
-3.961,0.1314559590640864,-0.1144730647665284
-3.9605,0.1741366584948169,-0.02969995752518888
-3.96,0.1634664836371343,0.01268659609548085
-3.9595,0.142126133921769,0.03387987290581572
-3.959,0.1314559590640864,0.04447651131098315
-3.9585,0.1314559590640864,0.04447651131098315
-3.958,0.1314559590640864,0.04447651131098315
-3.9575,0.1741366584948169,0.04447651131098315
-3.957,0.6329541773751706,0.383568940276341
-3.9565,1.241154144263081,0.92399749893988
-3.956,1.571929564851243,1.33726639674141
-3.9555,1.678631313428069,1.072350436612224
-3.955,1.486568165989782,0.3623756634660061
-3.9545,1.081101521397841,-0.2416327256285375
-3.954,0.6649647019482183,-0.6443049850249
-3.9535,0.3448594562177392,-0.8350444763179138
-3.953,0.1527963087794516,-0.8244478379127463
-3.9525,0.05676473506030786,-0.7078848154559045
-3.952,0.00341386077189465,-0.5595318777835605
-3.9515,-0.1779791118087102,-0.6337083466197325
-3.951,-0.2313299860971235,-0.5807251545938954
-3.9505,-0.1673089369510276,-0.3793890248957141
-3.95,-0.08194753808956648,-0.1568596183871981
-3.9495,-0.1352984123779797,-0.07208651114585861
-3.949,-0.7648387289812555,-0.570128516188728
-3.9485,-1.202315898146244,-0.4535654937318862
-3.948,-1.767835165603424,0.1716361721729923
-3.9475,-1.83185621474952,0.9663840525605498
-3.947,-1.735824641030376,1.602182356870596
-3.9465,-1.341028171296118,1.358459673551745
-3.946,-0.8181896032696687,0.6802748156210291
-3.9455,-0.3700422592469978,0.1186529801471552
-3.945,-0.07127736323188383,-0.2310360872233701
-3.9445,0.08877525963335578,-0.3687923864905467
-3.944,0.1527963087794516,-0.3581957480853793
-3.9435,0.1741366584948169,-0.2628260024388724
-3.943,0.1634664836371343,-0.1462629799820306
-3.9425,0.142126133921769,-0.02969995752518888
-3.942,0.1314559590640864,0.06566978812131802
-3.9415,0.1207857842064037,0.1504428953626575
-3.941,0.1314559590640864,0.2246193641988295
-3.9405,0.4195506802215176,0.457745409112513
-3.94,1.123782220828572,0.9557874141553824
-3.9395,1.56125938999356,1.432636142387917
-3.939,1.753322537431848,1.369056311956912
-3.9385,1.667961138570387,0.5107286011383502
-3.938,1.273164668836129,-0.1886495336027004
-3.9375,0.8143471499557753,-0.5383386009732256
-3.937,0.4302208550792003,-0.6972881770507372
-3.9365,0.1954770082101822,-0.7078848154559045
-3.936,0.0674349099179905,-0.6125150698093976
-3.9355,0.01408403562957729,-0.474758770542221
-3.935,-0.156638762093345,-0.5383386009732256
-3.9345,-0.3060212101009019,-0.6019184314042303
-3.934,-0.2633405106701714,-0.4323722169215513
-3.9335,-0.156638762093345,-0.1780528951975329
-3.933,-0.06060718837420119,0.05507314971615059
-3.9325,-0.007256314085787988,0.2352160026039969
-3.932,-0.3060212101009019,0.4047622170866759
-3.9315,-0.9782422261349084,0.8074344764830383
-3.931,-1.394379045584531,1.25249328950007
-3.9305,-1.917217613610981,0.2776025562246667
-3.93,-1.789175515318789,-0.6443049850249
-3.9295,-1.255666772434657,-0.8880276683437509
-3.929,-0.7434983792658902,-0.8456411147230812
-3.9285,-0.274010685527854,-0.5595318777835605
-3.928,0.04609456020262521,-0.2840192792492073
-3.9275,0.1314559590640864,-0.1568596183871981
-3.927,0.142126133921769,-0.08268314955102604
-3.9265,0.1314559590640864,-0.04029659593035631
-3.926,0.1101156093487211,-0.008506680714854012
-3.9255,0.1101156093487211,0.02328323450064829
-3.925,0.1207857842064037,0.04447651131098315
-3.9245,0.142126133921769,0.05507314971615059
-3.924,0.2701682322139607,0.1504428953626575
-3.9235,0.8676980242441885,0.627291623595192
-3.923,1.454557641416734,1.178316820663898
-3.9225,1.796003236862578,1.464426057603419
-3.922,1.710641838001117,0.8392243916985406
-3.9215,1.315845368266859,0.06566978812131802
-3.921,0.8676980242441885,-0.474758770542221
-3.9205,0.5155822539406614,-0.7820612842920766
-3.92,0.2701682322139607,-0.8668343915334161
-3.9195,0.1314559590640864,-0.7820612842920766
-3.919,0.05676473506030786,-0.6337083466197325
-3.9185,-0.02859666380115328,-0.570128516188728
-3.918,-0.2206598112394408,-0.6654982618352349
-3.9175,-0.2206598112394408,-0.5383386009732256
-3.917,-0.1352984123779797,-0.3052125560595421
-3.9165,-0.04993701351651855,-0.07208651114585861
-3.916,0.00341386077189465,0.1186529801471552
-3.9155,-0.1779791118087102,0.13984625695749
-3.915,-0.7861790786966207,0.2352160026039969
-3.9145,-1.234326422719292,0.7226613692416989
-3.914,-1.277007122150022,0.9028042221295453
-3.9135,-1.223656247861609,0.3305857482505039
-3.913,-0.8502001278427167,-0.02969995752518888
-3.9125,-0.6047861061160158,-0.326405832869877
-3.912,-0.9035510021311299,-0.9410108603695881
-3.9115,-0.6474668055467465,-0.8244478379127463
-3.911,-0.423393133535411,-0.6337083466197325
-3.9105,-0.2313299860971235,-0.4217755785163839
-3.91,0.00341386077189465,-0.1568596183871981
-3.9095,0.1101156093487211,-0.01910331912002144
-3.909,0.1101156093487211,-0.01910331912002144
-3.9085,0.1101156093487211,-0.01910331912002144
-3.908,0.1101156093487211,-0.02969995752518888
-3.9075,0.1634664836371343,-0.01910331912002144
-3.907,0.6329541773751706,0.3199891098453364
-3.9065,1.347855892839907,0.92399749893988
-3.906,1.828013761435626,1.400846227172415
-3.9055,1.92404533515477,1.019367244586387
-3.905,1.593269914566608,0.2564092794143318
-3.9045,1.038420821967111,-0.3158091944647096
-3.904,0.5689331282290746,-0.6549016234300674
-3.9035,0.2594980573562781,-0.7714646458869092
-3.903,0.09944543449103843,-0.7608680074817418
-3.9025,0.02475421048725994,-0.6654982618352349
-3.902,-0.007256314085787988,-0.570128516188728
-3.9015,-0.1673089369510276,-0.6337083466197325
-3.901,-0.2099896363817582,-0.5489352393783931
-3.9005,-0.1459685872356623,-0.3581957480853793
-3.9,-0.07127736323188383,-0.1462629799820306
-3.8995,-0.007256314085787988,0.04447651131098315
-3.899,-0.03926683865883591,0.1610395337678249
-3.8985,-0.5194247072545548,0.2670059178194992
-3.898,-1.170305373573196,0.701468092431364
-3.8975,-1.458400094730627,1.114736990232894
-3.897,-1.554431668449771,0.6378882620003594
-3.8965,-1.202315898146244,0.1186529801471552
-3.896,-0.7008176798351597,-0.1356663415768632
-3.8955,-0.2846808603855366,-0.1992461720078678
-3.895,-0.02859666380115328,-0.1674562567923655
-3.8945,0.09944543449103843,-0.09327978795619347
-3.894,-0.2313299860971235,-0.400582301706049
-3.8935,-0.6794773301197943,-0.7820612842920766
-3.893,-0.5300948821122373,-0.5807251545938954
-3.8925,-0.4127229586777283,-0.400582301706049
-3.892,-0.2099896363817582,-0.1780528951975329
-3.8915,0.02475421048725994,0.06566978812131802
-3.891,0.1207857842064037,0.13984625695749
-3.8905,0.3982103305061524,0.3411823866556712
-3.89,1.123782220828572,0.8710143069140429
-3.8895,1.646620788855021,1.37965295036208
-3.889,1.796003236862578,1.37965295036208
-3.8885,1.550589215135878,0.6908714540261965
