Class_5_Move_Left_hand_Horiszontal/Class_5_Move_Left_hand_Horizontal_Turki_5.csv

#Digilent WaveForms Oscilloscope Acquisition
#Device Name: EExplorer
#Serial Number: SN:210151A2B84A
#Date Time: 2020-11-26 10:56:24.988
#Sample rate: 2000Hz
#Samples: 16384
#Trigger: Source: Channel 1 Type: Edge Condition: Rising Level: 0 V Hyst.: Auto HoldOff: 0 s
#Channel 1: Range: 1 V/div Offset: 0 V Attenuation: 1 X
#Channel 2: Range: 1 V/div Offset: 0 V Attenuation: 1 X
#Power Supplies: ON
#Fixed Supply: ON
#Voltage: 3.3 V Readback: 3.324 V
#Positive Supply: ON
#Voltage: 3.7 V Readback: 3.715 V
#Current: 500 mA Readback: 20 mA
#Negative Supply: ON
#Voltage: -3.7 V Readback: -3.706 V
#Current: -500 mA Readback: -9 mA
#Reference 1: ON
#Voltage: 0 V
#Reference 2: ON
#Voltage: 0 V

Time (s),Channel 1 (V),Channel 2 (V)
-4.096,0.6009436528021226,0.2564092794143318
-4.0955,1.038420821966713,0.9134008605341152
-4.095,1.315845368266199,1.718745379327467
-4.0945,0.5902734779444399,1.75053529454294
-4.094,-0.4127229586768162,0.9028042221303163
-4.0935,-1.383708870727577,-0.1462629799827149
-4.093,-2.183971985053047,-0.8986243067489184
-4.0925,-2.493407055925562,-1.248313374119125
-4.092,-2.237322859340577,-1.258910012524409
-4.0915,-1.26633694729234,-1.036380606016095
-4.091,-0.4127229586777283,-0.7396747306714069
-4.0905,0.1634664836374157,-0.5065486857575788
-4.09,0.4729015545099309,-0.3475991096802118
-4.0895,0.5582629533713921,0.002089957690313421
-4.089,0.536922603656046,0.59550170837915
-4.0885,0.4942419042252961,1.157123543853563
-4.088,0.4515612047945656,1.400846227172415
-4.0875,0.1527963087797234,1.167720182258943
-4.087,-0.5941159312587991,1.061753798206883
-4.0865,-1.1062843244271,0.8710143069140429
-4.086,-1.341028171295905,0.08686306493236606
-4.0855,-1.362368521011202,-0.4217755785165477
-4.085,-1.052933450138687,-0.6019184314042303
-4.0845,-0.4233931335359835,-0.7078848154558082
-4.084,0.163466483637503,-0.7714646458869863
-4.0835,0.5689331282290746,-0.8562377531282487
-4.083,0.7609962756673623,-0.9622041371799229
-4.0825,0.8250173248135454,-1.068170521231703
-4.082,0.9210488985326017,-1.184733543688439
-4.0815,1.091771696255524,-1.237716735714276
-4.081,1.006410297394141,-0.9410108603698579
-4.0805,0.8463576745288233,-0.5383386009732256
-4.08,0.707645401378949,-0.1250697031716958
-4.0795,0.6116138276598925,0.2352160026036693
-4.079,0.8250173248138268,0.7756445612682589
-4.0785,1.230483969405398,1.570392441655093
-4.078,0.5582629533720035,2.25917393799035
-4.0775,-0.4874141826823221,2.449913429283094
-4.077,-1.383708870726849,1.464426057603419
-4.0765,-2.1519614604793,0.1716361721741682
-4.076,-2.493407055925785,-0.7714646458873043
-4.0755,-2.429386006779747,-1.205926820498774
-4.075,-1.618452717595867,-1.152943628472937
-4.0745,-0.690147504976856,-0.8350444763175957
-4.074,-0.007256314085787988,-0.4853554089473885
-4.0735,0.3982103305061524,-0.2628260024388724
-4.073,0.5475927785135735,0.129249618551966
-4.0725,0.5582629533713921,0.7544512844572011
-4.072,0.5155822539406614,1.33726639674141
-4.0715,0.4622313796522967,1.676358825706459
-4.071,0.3341892813594743,1.623375633680882
-4.0705,-0.3060212101009019,1.570392441655093
-4.07,-0.9462317015612782,1.528005888034462
-4.0695,-1.255666772434783,0.6378882619995113
-4.069,-1.394379045584531,-0.2946159176543747
-4.0685,-1.212986073003927,-0.6972881770507372
-4.068,-0.5727755815423664,-0.729078092266278
-4.0675,0.08877525963335578,-0.7714646458869092
-4.067,0.5582629533713921,-0.8032545611024114
-4.0665,0.8036769750981607,-0.8880276683438184
-4.066,0.8783681991018712,-0.9622041371799229
-4.0655,0.8890383739595538,-1.036380606016095
-4.065,1.059761171682321,-1.152943628472831
-4.0645,1.027750647109428,-0.9622041371799229
-4.064,0.8890383739595538,-0.6019184314042303
-4.0635,0.7396559259521327,-0.2204394488185496
-4.063,0.6222840025175363,0.1186529801475407
-4.0625,0.6756348768059011,0.5425185163538525
-4.062,1.209143619689548,1.305476481525214
-4.0615,1.006410297393238,1.941274785835578
-4.061,0.09944543449103843,1.528005888034424
-4.0605,-0.8715404775580819,0.5425185163538525
-4.06,-1.725154466173295,-0.432372216922091
-4.0595,-2.386705307349017,-1.025783967610927
-4.059,-2.482736881068161,-1.237716735714276
-4.0585,-1.874536914180803,-1.110557074852383
-4.058,-0.9035510021311299,-0.7714646458869092
-4.0575,-0.1459685872356623,-0.4429688553267188
-4.057,0.3235191065019469,-0.2416327256287207
-4.0565,0.5369226036560266,-0.09327978795619347
-4.056,0.5689331282290746,0.2881991946298341
-4.0555,0.5369226036560557,0.7438546460516193
-4.055,0.483571729367565,1.104140351827775
-4.0545,0.4302208550792003,1.157123543853563
-4.054,-0.01792648894306309,0.9345941373452499
-4.0535,-0.7434983792663172,1.167720182258336
-4.053,-1.212986073003927,0.7332580076468663
-4.0525,-1.383708870726849,-0.1250697031716958
-4.052,-1.148965023857258,-0.6019184314043267
-4.0515,-0.5194247072545548,-0.7078848154559045
-4.051,0.09944543449103843,-0.718481453861072
-4.0505,0.526252428797956,-0.7820612842920187
-4.05,0.7609962756673623,-0.9092209451540858
-4.0495,0.857027849386506,-1.01518732920576
-4.049,0.8783681991018518,-1.099960436447023
-4.0485,1.027750647109496,-1.195330182093501
-4.048,1.102441871113207,-1.078767159636765
-4.0475,0.9637295979634586,-0.7078848154562418
-4.047,0.8036769750979667,-0.3052125560592144
-4.0465,0.6649647019482183,0.05507314971615059
-4.046,0.6116138276598536,0.3941655786812
-4.0455,1.017080472251988,1.051157159802583
-4.045,1.283834843693812,1.814115124973944
-4.0445,0.4835717293676135,1.877694955404949
-4.044,-0.4980843575400144,1.029963882990572
-4.0435,-1.405049220442214,-0.05089323433552374
-4.043,-2.183971985053047,-0.8456411147230812
-4.0425,-2.493407055925562,-1.216523458903604
-4.042,-2.44005618163743,-1.269506650929778
-4.0415,-1.639793067311232,-1.05757388282643
-4.041,-0.7008176798360137,-0.7714646458871695
-4.0405,-0.007256314085428922,-0.5383386009730811
-4.04,0.3875401556484697,-0.3793890248957141
-4.0395,0.5369226036558907,-0.0402965959306647
-4.039,0.5582629533713532,0.5213252395440188
-4.0385,0.5155822539406614,1.072350436612224
-4.038,0.4622313796522967,1.347863035146327
-4.0375,0.163466483636455,1.231300012689832
-4.037,-0.5834457564006506,1.33726639674141
-4.0365,-1.159635198715513,1.210106735879401
-4.036,-1.469070269588436,0.3411823866550063
-4.0355,-1.607782542738184,-0.3899856633008816
-4.035,-1.394379045584531,-0.6866915386455698
-4.0345,-0.8075194284125198,-0.6866915386455698
-4.034,-0.1139580626626144,-0.718481453861072
-4.0335,0.3982103305061524,-0.8138511995075789
-4.033,0.6969752265209945,-0.8986243067488413
-4.0325,0.8143471499558917,-1.004590690800699
-4.032,0.942389248247967,-1.121153713257435
-4.0315,1.13445239568608,-1.14234699006775
-4.031,1.059761171682321,-0.8562377531279017
-4.0305,0.8890383739595538,-0.474758770542221
-4.03,0.7396559259521327,-0.114473064766856
-4.0295,0.6329541773753646,0.1822328105786127
-4.029,0.8463576745288233,0.6802748156210291
-4.0285,1.347855892839907,1.485619334413754
-4.028,0.7716664505241519,1.92008150902504
-4.0275,-0.2099896363817582,1.284283204715573
-4.027,-1.159635198715513,0.2352160026039969
-4.0265,-1.970568487898656,-0.6866915386447314
-4.026,-2.461396531352796,-1.205926820498774
-4.0255,-2.386705307349017,-1.354279758171118
-4.025,-1.554431668450528,-1.184733543688593
-4.0245,-0.6367966306884524,-0.888027668343481
-4.024,0.03542438534494258,-0.5913217929990628
-4.0235,0.4195506802211683,-0.4323722169216959
-4.023,0.5582629533713921,-0.09327978795560558
-4.0225,0.5582629533713921,0.55311515475902
-4.022,0.5155822539407002,1.17831682066333
-4.0215,0.4622313796521317,1.517409249629131
-4.021,0.3341892813600565,1.37965295036208
-4.0205,-0.2953510352432193,0.9451907757502149
-4.02,-0.9248913518467766,0.6696781772151388
-4.0195,-1.234326422719292,-0.1250697031716958
-4.019,-1.287677297007705,-0.718481453861072
-4.0185,-1.042263275281227,-0.8456411147229655
-4.018,-0.4340633083930936,-0.7608680074817418
-4.0175,0.1527963087794516,-0.7502713690765743
-4.017,0.5475927785133503,-0.8456411147229945
-4.0165,0.7716664505251224,-0.9516074987747843
-4.016,0.857027849386506,-0.9833974139902578
-4.0155,0.8783681991018518,-0.9939940523954156
-4.015,1.070431346540149,-1.099960436446965
-4.0145,1.059761171682476,-0.9516074987747555
-4.014,0.9103787236750551,-0.6337083466200216
-4.0135,0.7609962756672555,-0.2946159176540856
-4.013,0.6436243522328531,0.02328323450064829
-4.0125,0.6756348768059011,0.4047622170866759
-4.012,1.209143619689839,1.167720182259454
-4.0115,0.9957401225363802,1.962468062646288
-4.011,-0.007256314085787988,2.439316790878823
-4.0105,-0.9995825758493712,1.824711763379671
-4.01,-1.842526389607202,0.5319218779486851
-4.0095,-2.429386006779747,-0.5383386009732256
-4.009,-2.482736881068112,-1.131750351662062
-4.0085,-2.226652684482894,-1.269506650929586
-4.008,-1.255666772434657,-1.05757388282643
-4.0075,-0.4020527838208221,-0.7290780922665382
-4.007,0.1848068333527713,-0.4853554089471958
-4.0065,0.4835717293676135,-0.2734226408440398
-4.006,0.5796033030867573,0.2034260873884947
-4.0055,0.5689331282290261,0.8392243916989839
-4.005,0.5155822539406614,1.326669758336243
-4.0045,0.4408910299368829,1.464426057603419
-4.004,-0.01792648894413053,1.252493289500167
-4.0035,-0.7434983792658902,1.358459673551745
-4.003,-1.170305373573196,0.8286277532933731
-4.0025,-1.341028171295963,-0.07208651114503939
-4.002,-1.223656247861609,-0.6125150698093976
-4.0015,-0.690147504977477,-0.7396747306714069
-4.001,-0.07127736323244671,-0.7290780922662491
-4.0005,0.4088805053640873,-0.7502713690766418
-4,0.6863050516635838,-0.8244478379127463
-3.9995,0.8143471499557753,-0.9410108603695881
-3.999,0.8463576745288233,-1.078767159636765
-3.9985,1.006410297394063,-1.195330182093607
-3.998,1.081101521397841,-1.078767159636765
-3.9975,0.9637295979633325,-0.7396747306714069
-3.997,0.8036769750980928,-0.3687923864905467
-3.9965,0.6756348768059011,-0.02969995752518888
-3.996,0.6222840025174878,0.2881991946298341
-3.9955,1.059761171682476,0.9345941373450475
-3.995,1.433217291701369,1.739938656137773
-3.9945,0.707645401378949,1.79292184816361
-3.994,-0.3166913849585846,0.9663840525605498
-3.9935,-1.298347471865388,-0.08268314955102604
-3.993,-2.109280761049269,-0.8668343915334161
-3.9925,-2.461396531352796,-1.258910012524611
-3.992,-2.07727023647622,-1.258910012524611
-3.9915,-1.1062843244271,-0.9728007755850904
-3.991,-0.2953510352432193,-0.6231117082145651
-3.9905,0.2488278824985954,-0.3793890248957141
-3.99,0.5155822539406614,-0.2628260024388724
-3.9895,0.6009436528021226,0.07626642652648545
-3.989,0.5689331282290746,0.627291623595192
-3.9885,0.5155822539406614,1.135930267043229
-3.988,0.4622313796522482,1.390249588767247
-3.9875,0.2061471830678648,1.210106735879401
-3.987,-0.5407650569699201,1.25249328950007
-3.9865,-1.06360362499637,1.082947075017392
-3.986,-1.277007122150022,0.2140227257936621
-3.9855,-1.405049220442214,-0.5595318777835605
-3.985,-1.159635198715513,-0.8244478379127463
-3.9845,-0.5300948821122373,-0.7714646458869092
-3.984,0.1101156093487211,-0.7078848154559045
-3.9835,0.5582629533713921,-0.6972881770507372
-3.983,0.79300680024041,-0.7608680074817418
-3.9825,0.8783681991018712,-0.8774310299385835
-3.982,0.9530594231056497,-0.9833974139902578
-3.9815,1.113112045970889,-1.078767159636765
-3.981,1.027750647109428,-0.8562377531282487
-3.9805,0.8676980242441885,-0.5065486857577234
-3.98,0.7183155762366316,-0.1462629799820306
-3.9795,0.6222840025174878,0.2034260873884947
-3.979,0.825017324813458,0.7226613692416989
-3.9785,1.251824319120764,1.528005888034424
-3.978,0.6222840025174878,2.227384022775475
-3.9775,-0.4127229586777283,2.418123514068488
-3.977,-1.30901764672307,1.443232780793084
-3.9765,-2.07727023647622,0.1610395337678249
-3.976,-2.472066706210478,-0.7820612842920766
-3.9755,-2.482736881068161,-1.227120097309109
-3.975,-2.109280761049269,-1.248313374119443
-3.9745,-1.1062843244271,-0.9516074987747555
-3.974,-0.2846808603855366,-0.6019184314042303
-3.9735,0.2488278824985954,-0.3899856633008816
-3.973,0.5155822539406614,-0.1144730647665284
-3.9725,0.5796033030867573,0.457745409112513
-3.972,0.5582629533713921,1.072350436612224
-3.9715,0.5049120790829789,1.464426057603419
-3.971,0.3661998059331045,1.432636142387917
-3.9705,-0.2846808603855366,1.284283204715573
-3.97,-0.9142211769888124,1.25249328950007
-3.9695,-1.255666772434657,0.4259554938970107
-3.969,-1.394379045584531,-0.4429688553267188
-3.9685,-1.095614149569417,-0.8032545611024114
-3.968,-0.4660738329661415,-0.7396747306714069
-3.9675,0.1527963087794516,-0.6549016234300674
-3.967,0.5689331282290746,-0.6443049850249
-3.9665,0.7609962756673623,-0.6866915386455698
-3.966,0.825017324813458,-0.718481453861072
-3.9655,0.8676980242441885,-0.8032545611024114
-3.965,1.059761171682476,-0.9728007755850904
-3.9645,1.049090996824793,-0.8668343915334161
-3.964,0.9103787236749192,-0.5807251545938954
-3.9635,0.7609962756673623,-0.252229364033705
-3.963,0.6542945270905358,0.05507314971615059
-3.9625,0.707645401378949,0.4365521323021782
-3.962,1.273164668836129,1.188913459069066
-3.9615,1.102441871113207,1.771728571353275
-3.961,0.1527963087794516,1.263089927905238
-3.9605,-0.8502001278427167,0.2881991946298341
-3.96,-1.714484291315011,-0.6231117082145651
-3.9595,-2.376035132491334,-1.163540266878104
-3.959,-2.461396531352796,-1.333086481360783
-3.9585,-2.03458953704549,-1.205926820498774
-3.958,-1.031593100423322,-0.8774310299385835
-3.9575,-0.2313299860971235,-0.5489352393783931
-3.957,0.291508581929326,-0.3687923864905467
-3.9565,0.5475927785137094,-0.2310360872233701
-3.956,0.6009436528021226,0.2246193641988295
-3.9555,0.5689331282290746,0.775644561267536
-3.955,0.5155822539406614,1.199510097474233
-3.9545,0.4515612047945656,1.273686566310405
-3.954,-0.01792648894347063,1.093543713422559
-3.9535,-0.7648387289812555,1.316073119931075
-3.953,-1.191645723288561,0.8710143069140429
-3.9525,-1.383708870726849,0.02328323450064829
-3.952,-1.458400094730627,-0.5065486857577234
-3.9515,-1.020922925565639,-0.6549016234300674
-3.951,-0.3166913849585846,-0.6866915386455698
-3.9505,0.2808384070716433,-0.6972881770507372
-3.95,0.6436243522328531,-0.7608680074817418
-3.9495,0.79300680024041,-0.8668343915334161
-3.949,0.8356874996711408,-0.9622041371799229
-3.9485,1.006410297394063,-1.078767159636765
-3.948,1.102441871113207,-1.036380606016095
-3.9475,0.9957401225363802,-0.7290780922662394
-3.947,0.8356874996711408,-0.3370024712750445
-3.9465,0.707645401378949,0.04447651131098315
-3.946,0.6542945270905358,0.4365521323021782
-3.9455,1.059761171682476,1.104140351827727
-3.945,1.19847344483235,1.867098316999781
-3.9445,0.2808384070716433,2.004854616266958
-3.944,-0.7114878546928423,1.25249328950007
-3.9435,-1.575772018165136,0.1504428953626575
-3.943,-2.280003558772191,-0.6972881770507372
-3.9425,-2.472066706210478,-1.121153713257435
-3.942,-2.408045657064382,-1.184733543688439
-3.9415,-1.597112367880501,-0.9939940523954253
-3.941,-0.6688071552621118,-0.6760949002404023
-3.9405,0.02475421048725994,-0.4217755785163839
-3.94,0.4195506802215176,-0.2416327256285375
-3.9395,0.5796033030867573,0.1822328105781598
-3.939,0.5902734779444399,0.7650479228623686
-3.9385,0.5475927785137094,1.263089927905238
-3.938,0.4942419042252961,1.496215972818921
-3.9375,0.2381577076409128,1.305476481525908
-3.937,-0.5194247072545548,1.326669758336243
-3.9365,-1.170305373573196,1.305476481525908
-3.936,-1.447729919872945,0.4683420475176805
-3.9355,-1.447729919872945,-0.326405832869877
-3.935,-1.020922925565639,-0.6337083466197325
-3.9345,-0.3166913849585846,-0.7502713690765743
-3.934,0.2808384070716433,-0.8244478379127463
-3.9335,0.6542945270905358,-0.9092209451540858
-3.933,0.8463576745288233,-0.9939940523954253
-3.9325,0.8997085488172365,-1.01518732920576
-3.932,0.9850699476786977,-1.068170521231597
-3.9315,1.187803269974668,-1.089363798041932
-3.931,1.102441871113207,-0.8138511995075789
-3.9305,0.9210488985326017,-0.4429688553267188
-3.93,0.7609962756673623,-0.08268314955102604
-3.9295,0.6542945270905358,0.2458126410091644
-3.929,0.857027849386506,0.775644561267536
-3.9285,1.337185717982225,1.570392441655093
-3.928,0.7609962756673623,2.227384022775475
-3.9275,-0.2099896363817582,2.110821000318633
-3.927,-1.138294849000148,1.051157159801889
-3.9265,-1.927887788468663,-0.1568596183871981
-3.926,-2.429386006779747,-0.9516074987747555
-3.9255,-2.450726356495113,-1.301296566145281
-3.925,-1.991908837614759,-1.248313374119443
-3.9245,-0.9889124009925911,-0.9410108603695881
-3.924,-0.1993194615240755,-0.6125150698093976
-3.9235,0.3128489316446912,-0.4111789401112165
-3.923,0.5475927785137094,-0.2310360872233701
-3.9225,0.5902734779444399,0.13984625695749
-3.922,0.5689331282290746,0.55311515475902
-3.9215,0.5262524287983441,0.8286277532933731
-3.921,0.3768699807907871,0.7226613692416989
-3.9205,-0.3273615598162672,0.701468092431364
-3.92,-1.074273799854052,1.093543713422559
-3.9195,-1.405049220442214,0.627291623595192
-3.919,-1.490410619303675,-0.1780528951975329
-3.9185,-1.437059745015262,-0.6549016234300674
-3.918,-0.8822106524157645,-0.6972881770507372
-3.9175,-0.1673089369510276,-0.6125150698093976
-3.917,0.408880505363835,-0.6125150698093976
-3.9165,0.7396559259519968,-0.718481453861072
-3.916,0.8783681991018712,-0.8880276683437509
-3.9155,0.9317190733902845,-1.004590690800593
-3.915,1.123782220828572,-1.121153713257435
-3.9145,1.102441871113207,-0.9622041371799229
-3.914,0.9530594231056497,-0.6337083466197325
-3.9135,0.79300680024041,-0.2946159176543747
-3.913,0.6756348768059011,0.01268659609548085
-3.9125,0.7183155762366316,0.383568940276341
-3.912,1.262494493978446,1.135930267043229
-3.9115,1.091771696255524,1.79292184816361
-3.911,0.1101156093487211,1.411442865577582
-3.9105,-0.7328282044082075,0.6378882620003594
-3.91,-1.437059745015262,-0.1462629799820306
-3.9095,-2.098610586191586,-0.8032545611024114
-3.909,-2.418715831922065,-1.152943628472937
-3.9085,-1.949228138184029,-1.163540266878104
-3.908,-0.9889124009925911,-0.9092209451540858
-3.9075,-0.2099896363817582,-0.6125150698093976
-3.907,0.3021787567870086,-0.4111789401112165
-3.9065,0.5475927785137094,-0.2840192792492073
-3.906,0.6116138276598051,0.07626642652648545
-3.9055,0.5902734779444399,0.5743084315693548
-3.905,0.5369226036560266,0.9451907757502149
-3.9045,0.4729015545099309,0.9769806909657173
-3.904,0.02475421048725994,0.775644561267536
-3.9035,-0.7648387289812555,1.146526905448396
-3.903,-1.319687821580753,0.9769806909657173
-3.9025,-1.437059745015262,0.1610395337678249
-3.902,-1.223656247861609,-0.4429688553267188
-3.9015,-0.658136980404429,-0.6549016234300674
-3.901,-0.007256314085787988,-0.7608680074817418
-3.9005,0.4835717293676135,-0.8032545611024114
-3.9,0.7609962756673623,-0.8668343915334161
-3.8995,0.8783681991018712,-0.9198175835592532
-3.899,0.8890383739595538,-0.9728007755850904
-3.8985,1.006410297394063,-1.078767159636765
-3.898,1.081101521397841,-0.9939940523954253
-3.8975,0.974399772821015,-0.6760949002404023
-3.897,0.825017324813458,-0.3052125560595421
-3.8965,0.707645401378949,0.01268659609548085
-3.896,0.6542945270905358,0.3199891098453364
-3.8955,1.027750647109428,0.9557874141553824
-3.895,1.049090996824793,1.761131932948107
-3.8945,0.1634664836371343,2.142610915534135
-3.894,-0.7648387289812555,1.559795803249926
-3.8935,-1.586442193022819,0.4153588554918433
-3.893,-2.269333383914508,-0.5807251545938954
-3.8925,-2.450726356495113,-1.121153713257435
-3.892,-2.3973754822067,-1.269506650929778
-3.8915,-1.597112367880501,-1.110557074852267
-3.891,-0.658136980404429,-0.8138511995075789
-3.8905,0.03542438534494258,-0.5489352393783931
-3.89,0.4408910299368829,-0.3793890248957141
-3.8895,0.5902734779444399,-0.1144730647665284
-3.889,0.6009436528021226,0.3411823866556712
-3.8885,0.5582629533713921,0.7650479228623686
-3.888,0.5155822539406614,0.8816109453192104
-3.8875,0.2594980573562781,0.55311515475902
-3.887,-0.4874141826815069,0.6484849004055269
-3.8865,-1.074273799854052,0.8074344764830383
-3.886,-1.26633694729234,0.1504428953626575
-3.8855,-1.244996597576974,-0.5489352393783931
