Class_5_Move_Left_hand_Horiszontal/Class_5_Move_Left_hand_Horiszontal_AM_2.csv

#Digilent WaveForms Oscilloscope Acquisition
#Device Name: EExplorer
#Serial Number: SN:210151A2B84A
#Date Time: 2020-10-27 14:07:33.955
#Sample rate: 2000Hz
#Samples: 16384
#Trigger: Source: Channel 1 Type: Edge Condition: Rising Level: 0 V Hyst.: Auto HoldOff: 0 s
#Channel 1: Range: 1 V/div Offset: 0 V Attenuation: 1 X
#Channel 2: Range: 1 V/div Offset: 0 V Attenuation: 1 X
#Power Supplies: ON
#Fixed Supply: ON
#Voltage: 3.3 V Readback: 3.324 V
#Positive Supply: ON
#Voltage: 3.7 V Readback: 3.719 V
#Current: 500 mA Readback: 23 mA
#Negative Supply: ON
#Voltage: -3.7 V Readback: -3.702 V
#Current: -500 mA Readback: -10 mA
#Reference 1: ON
#Voltage: 0 V
#Reference 2: ON
#Voltage: 0 V

Time (s),Channel 1 (V),Channel 2 (V)
-4.096,0.5049120790829789,0.2458126410091644
-4.0955,0.5155822539406517,0.3729723018710579
-4.095,1.038420821967169,0.9345941373455005
-4.0945,1.102441871113207,1.432636142387917
-4.094,0.2168173579263529,0.849821030104238
-4.0935,-0.8075194284128205,-0.1886495336035581
-4.093,-1.725154466172693,-1.131750351662602
-4.0925,-2.130621110764265,-1.608599079894703
-4.092,-1.554431668449072,-1.152943628472195
-4.0915,-0.7861790786966207,-0.3370024712750445
-4.091,-0.156638762093345,0.383568940276341
-4.0905,0.2274875327834048,0.892207583724638
-4.09,0.4195506802215176,1.178316820663898
-4.0895,0.4729015545099309,1.305476481525908
-4.089,0.451561204794585,1.316073119931066
-4.0885,0.3875401556484697,1.25249328950007
-4.088,0.3448594562177392,1.188913459069066
-4.0875,0.3341892813600663,1.114736990232962
-4.087,0.1314559590634944,0.8180311148874444
-4.0865,-0.5194247072545548,-0.01910331912002144
-4.086,-1.042263275280529,-0.9198175835584341
-4.0855,-1.479740444445857,-1.640388995110581
-4.085,-1.330357996438436,-1.576809164679634
-4.0845,-0.5087545323976194,-0.6019184314051169
-4.084,0.2488278824989836,0.05507314971637225
-4.0835,0.6756348768059011,0.2987958330350016
-4.083,0.825017324813458,0.3305857482505039
-4.0825,0.7930068002403227,0.2352160026038717
-4.082,0.6969752265212663,0.09745970333682032
-4.0815,0.6542945270905358,0.01268659609548085
-4.081,0.7183155762365734,-0.1462629799818861
-4.0805,0.6756348768059011,-0.1462629799820306
-4.08,0.5796033030867573,-0.05089323433552374
-4.0795,0.4835717293677009,0.07626642652636979
-4.079,0.4408910299372226,0.2140227257940669
-4.0785,0.8143471499557753,0.6590815388106942
-4.078,1.166462920258982,1.30547648152532
-4.0775,0.4302208550782008,1.040560521395797
-4.077,-0.6688071552621118,0.02328323450064829
-4.0765,-1.650463242168022,-0.9939940523945
-4.076,-2.290673733629534,-1.672178910326054
-4.0755,-1.917217613610981,-1.576809164679634
-4.075,-1.084943974711735,-0.7820612842920766
-4.0745,-0.3593720843888785,0.04447651131155177
-4.074,0.1207857842064037,0.6696781772158616
-4.0735,0.3768699807907871,1.040560521396722
-4.073,0.4729015545098435,1.220703374284404
-4.0725,0.4622313796522482,1.25249328950007
-4.072,0.4195506802215176,1.220703374284568
-4.0715,0.3768699807908259,1.146526905448463
-4.071,0.3555296310753248,1.07235043661206
-4.0705,0.2488278824985954,0.8922075837243778
-4.07,-0.3700422592464349,0.1716361721736477
-4.0695,-1.020922925566173,-0.7608680074824453
-4.069,-1.607782542738184,-1.534422611058964
-4.0685,-1.725154466172693,-1.831128486403653
-4.068,-0.9142211769879973,-0.9410108603687786
-4.0675,-0.01792648894347063,-0.05089323433552374
-4.067,0.5796033030867573,0.3517790250608387
-4.0665,0.8250173248134871,0.3835689402762061
-4.066,0.857027849386506,0.2352160026039969
-4.0655,0.7823366253827275,0.08686306493165288
-4.065,0.6756348768059981,-0.06148987274055626
-4.0645,0.7609962756673623,-0.3052125560595421
-4.064,0.8356874996711408,-0.400582301706049
-4.0635,0.7396559259520842,-0.2204394488183665
-4.063,0.6116138276597081,0.02328323450085068
-4.0625,0.5049120790829789,0.2458126410091644
-4.062,0.6542945270903999,0.5637117931638983
-4.0615,1.102441871112683,1.188913459068989
-4.061,0.5262524287983441,1.104140351827727
-4.0605,-0.4980843575391895,0.2246193641988295
-4.06,-1.426389570158288,-0.7290780922669141
-4.0595,-2.205312334768412,-1.47084278062796
-4.059,-2.19464215991073,-1.629792356705471
-4.0585,-1.373038695869913,-0.9728007755856879
-4.058,-0.5834457564006506,-0.1462629799820306
-4.0575,-0.007256314085787988,0.5001319627331828
-4.057,0.3128489316444001,0.9134008605343369
-4.0565,0.4622313796522482,1.114736990232894
-4.056,0.4835717293676135,1.178316820663898
-4.0555,0.4302208550792488,1.146526905448425
-4.055,0.3875401556484406,1.082947075017324
-4.0545,0.3555296310754218,1.00877060618122
-4.054,0.2915085819293842,0.881610945319326
-4.0535,-0.2526703358131195,0.2670059178186704
-4.053,-0.9462317015618604,-0.6443049850249
-4.0525,-1.362368521011484,-1.417859588602123
-4.052,-1.138294848999449,-1.640388995109906
-4.0515,-0.3700422592469978,-0.8350444763179138
-4.051,0.408880505363835,0.03387987290581572
-4.0505,0.8676980242437713,0.4789386859224431
-4.05,0.9957401225363802,0.5743084315693548
-4.0495,0.9210488985326017,0.4789386859228479
-4.049,0.7930068002405265,0.3411823866557965
-4.0485,0.6756348768058816,0.2246193641988488
-4.048,0.6542945270905358,0.2458126410091644
-4.0475,0.6756348768058816,0.3623756634659001
-4.047,0.6116138276597275,0.2987958330349148
-4.0465,0.5262524287983441,0.2034260873884947
-4.046,0.4622313796523064,0.1716361721730213
-4.0455,0.4942419042257813,0.2458126410096655
-4.045,1.027750647109428,0.7968378380778709
-4.0445,1.027750647109428,1.241896651094903
-4.044,0.07810508477475121,0.669678177215081
-4.0435,-0.9355615267041777,-0.1886495336027004
-4.043,-1.83185621474952,-1.036380606016095
-4.0425,-2.514747405640588,-1.5874058030843
-4.042,-2.183971985053047,-1.449649503817625
-4.0415,-1.255666772434657,-0.6549016234300674
-4.041,-0.4554036581091867,0.1928294489825562
-4.0405,0.07810508477593517,0.8180311148885527
-4.04,0.3661998059331045,1.199510097474233
-4.0395,0.4729015545098338,1.369056311956758
-4.039,0.4729015545099114,1.411442865577544
-4.0385,0.4515612047945656,1.369056311956912
-4.038,0.4088805053638738,1.28428320471565
-4.0375,0.3661998059328133,1.167720182258317
-4.037,0.04609456020262521,0.7120647308365314
-4.0365,-0.6474668055467465,-0.2204394488182027
-4.036,-1.191645723288707,-1.121153713258003
-4.0355,-1.351698346153801,-1.746355379162313
-4.035,-0.754168554123573,-1.216523458903942
-4.0345,0.09944543449026211,-0.1462629799830042
-4.034,0.7183155762366316,0.3305857482505039
-4.0335,0.9957401225363802,0.4259554938970107
-4.033,1.006410297394053,0.2987958330351173
-4.0325,0.8890383739594276,0.03387987290565188
-4.032,0.7503261008096795,-0.1462629799820306
-4.0315,0.686305051663642,-0.2628260024387664
-4.031,0.7716664505250059,-0.2734226408440013
-4.0305,0.7289857510943143,-0.2310360872233701
-4.03,0.6222840025175849,-0.1780528951975811
-4.0295,0.5155822539405643,-0.09327978795610674
-4.029,0.408880505363835,0.002089957690313421
-4.0285,0.1954770082101822,-0.1144730647665284
-4.028,-0.01792648894411112,-0.5807251545944833
-4.0275,-0.722158029550525,-1.227120097309109
-4.027,-1.373038695869166,-1.693372187136476
-4.0265,-2.013249187329543,-1.926498232049947
-4.026,-2.546757930214257,-1.947691508860494
-4.0255,-2.151961460479999,-1.42845622700729
-4.025,-1.212986073004781,-0.4853554089482462
-4.0245,-0.4233931335349355,0.3729723018717037
-4.024,0.09944543449103843,0.9557874141553824
-4.0235,0.3768699807905348,1.252493289499801
-4.023,0.4835717293676135,1.358459673551716
-4.0225,0.4835717293676135,1.326669758336243
-4.022,0.4302208550792488,1.199510097474349
-4.0215,0.3875401556484503,1.061753798206941
-4.021,0.3661998059331045,0.9345941373450475
-4.0205,0.2488278824985954,0.701468092431364
-4.02,-0.3913826089629744,-0.07208651114669708
-4.0195,-1.06360362499637,-0.9939940523954253
-4.019,-1.373038695869166,-1.661582271920973
-4.0185,-0.9248913518469027,-1.396666311792029
-4.018,-0.1032878878049318,-0.7078848154559045
-4.0175,0.5582629533713921,-0.252229364033705
-4.017,0.8890383739592529,0.02328323450039771
-4.0165,0.9423892482478796,0.08686306493158542
-4.016,0.8463576745288233,0.01268659609548085
-4.0155,0.718315576236748,-0.09327978795609709
-4.015,0.6329541773751706,-0.1250697031715319
-4.0145,0.6329541773751706,0.05507314971615059
-4.014,0.6222840025174975,0.1822328105780441
-4.0135,0.5582629533713241,0.1716361721729634
-4.013,0.4835717293676135,0.13984625695749
-4.0125,0.4408910299368829,0.13984625695749
-4.012,0.6222840025180022,0.3305857482510918
-4.0115,1.187803269974668,0.9769806909657173
-4.011,0.7609962756673623,1.093543713422559
-4.0105,-0.2633405106692397,0.2458126410099354
-4.01,-1.287677297007705,-0.7608680074817418
-4.0095,-2.109280761049269,-1.492036057438295
-4.009,-2.194642159910652,-1.640388995110504
-4.0085,-1.405049220441496,-0.9516074987739556
-4.008,-0.6154562809736985,-0.07208651114585861
-4.0075,-0.02859666380168702,0.6272916235945559
-4.007,0.3021787567871445,1.082947075017604
-4.0065,0.4515612047945656,1.316073119931075
-4.006,0.4835717293676135,1.400846227172415
-4.0055,0.4408910299368539,1.39024958876719
-4.005,0.408880505363835,1.326669758336243
-4.0045,0.3768699807907871,1.241896651094903
-4.004,0.3555296310750627,1.125333628637609
-4.0035,-0.03926683865883591,0.627291623595192
-4.003,-0.7328282044082075,-0.3158091944647096
-4.0025,-1.234326422718836,-1.195330182092807
-4.002,-1.020922925565639,-1.735758740757146
-4.0015,-0.2099896363817582,-1.417859588602123
-4.001,0.5262524287976745,-0.5807251545946568
-4.0005,0.9210488985326697,0.002089957690486898
-4,0.9957401225363802,0.1928294489833272
-3.9995,0.9210488985326017,0.1504428953626575
-3.999,0.8036769750980928,-0.01910331912002144
-3.9985,0.6863050516635838,-0.1568596183871981
-3.998,0.6969752265212663,-0.1356663415768632
-3.9975,0.7823366253827275,0.04447651131098315
-3.997,0.707645401378949,0.07626642652648545
-3.9965,0.5902734779444399,0.05507314971615059
-3.996,0.4942419042252961,0.04447651131098315
-3.9955,0.3768699807907871,0.002089957690313421
-3.995,0.1741366584948169,-0.474758770542221
-3.9945,-0.2633405106701714,-1.152943628472937
-3.994,-0.9889124009925911,-1.608599079895136
-3.9935,-1.543761493592088,-1.629792356705471
-3.993,-2.119950935906951,-1.650985633515806
-3.9925,-2.482736881068161,-1.576809164679634
-3.992,-1.799845690176472,-0.9833974139902578
-3.9915,-0.9248913518464952,-0.1038764263613609
-3.991,-0.2206598112394408,0.6166949851900245
-3.9905,0.2061471830678648,1.061753798207057
-3.99,0.4195506802215176,1.263089927905238
-3.9895,0.4835717293676135,1.29487984312074
-3.989,0.4729015545099309,1.220703374284568
-3.9885,0.4195506802215176,1.093543713422559
-3.988,0.3768699807907871,0.9451907757502149
-3.9875,0.3661998059331045,0.7968378380778709
-3.987,0.1101156093487211,0.3729723018711736
-3.9865,-0.08194753808956648,-0.5065486857577234
-3.986,-0.124628237520297,-1.333086481360783
-3.9855,-0.5407650569699201,-1.915901593644992
-3.985,-0.4874141826815069,-1.990078062481164
-3.9845,0.02475421048725994,-1.089363798041932
-3.984,0.4942419042252961,-0.2098428104130352
-3.9835,0.7609962756673623,0.2246193641988295
-3.983,0.8143471499557753,0.2987958330350016
-3.9825,0.7716664505250448,0.2246193641988295
-3.982,0.707645401378949,0.1080563417419877
-3.9815,0.6649647019482183,0.002089957690313421
-3.981,0.7289857510943143,0.07626642652648545
-3.9805,0.6863050516635838,0.07626642652648545
-3.98,0.5902734779444399,0.02328323450064829
-3.9795,0.5049120790829789,0.002089957690313421
-3.979,0.4622313796522482,0.04447651131098315
-3.9785,0.8036769750980928,0.4365521323021782
-3.978,1.219813794547716,0.9345941373450475
-3.9775,0.5262524287983441,0.4259554938970107
-3.977,-0.423393133535411,-0.4323722169215513
-3.9765,-1.373038695869166,-1.205926820498774
-3.976,-2.055929886760855,-1.682775548731308
-3.9755,-1.810515865034154,-1.42845622700729
-3.975,-1.06360362499637,-0.5807251545938954
-3.9745,-0.3700422592469978,0.2458126410091644
-3.974,0.09944543449103843,0.8604176685088755
-3.9735,0.3661998059331045,1.220703374284568
-3.973,0.4622313796522482,1.390249588767247
-3.9725,0.4622313796522482,1.42203950398275
-3.972,0.4195506802215176,1.37965295036208
-3.9715,0.3661998059331045,1.29487984312074
-3.971,0.3448594562177392,1.199510097474233
-3.9705,0.3021787567870086,1.061753798207057
-3.97,-0.1779791118087102,0.4047622170866759
-3.9695,-0.8715404775580819,-0.570128516188728
-3.969,-1.298347471865388,-1.407262950196955
-3.9685,-0.839529952985034,-1.661582271920973
-3.968,0.05676473506030786,-0.9516074987747555
-3.9675,0.707645401378949,-0.2628260024388724
-3.967,1.006410297394063,0.05507314971615059
-3.9665,1.017080472251745,0.13984625695749
-3.966,0.8890383739595538,0.09745970333682032
-3.9655,0.7503261008096795,-0.06148987274069118
-3.965,0.6542945270905358,-0.1886495336027004
-3.9645,0.6756348768059011,-0.1038764263613609
-3.964,0.6542945270905358,0.01268659609548085
-3.9635,0.5796033030867573,0.02328323450064829
-3.963,0.4942419042252961,0.02328323450064829
-3.9625,0.4408910299368829,0.04447651131098315
-3.962,0.5902734779444399,0.2776025562246667
-3.9615,1.006410297394063,0.9557874141553824
-3.961,0.4302208550792003,0.9345941373450475
-3.9605,-0.6047861061160158,0.02328323450064829
-3.96,-1.575772018165136,-0.9410108603695881
-3.9595,-2.365364957633652,-1.598002441489969
-3.959,-2.269333383914508,-1.629792356705471
-3.9585,-1.383708870726849,-0.8774310299385835
-3.958,-0.572775581542968,0.002089957690313421
-3.9575,0.00341386077189465,0.6908714540261965
-3.957,0.3341892813600565,1.114736990232894
-3.9565,0.4622313796522482,1.326669758336243
-3.956,0.4835717293676135,1.390249588767247
-3.9555,0.4622313796522482,1.369056311956912
-3.955,0.408880505363835,1.284283204715573
-3.9545,0.3341892813600565,1.146526905448396
-3.954,0.291508581929326,0.9981739677760521
-3.9535,-0.1032878878049318,0.457745409112513
-3.953,-0.6688071552621118,-0.3899856633008816
-3.9525,-1.180975548430879,-1.205926820498774
-3.952,-0.9355615267041777,-1.703968825541643
-3.9515,-0.08194753808956648,-1.089363798041932
-3.951,0.6329541773751706,-0.4641621321370536
-3.9505,0.9957401225363802,-0.07208651114585861
-3.95,1.049090996824793,0.05507314971615059
-3.9495,0.9317190733902845,0.07626642652648545
-3.949,0.7716664505250448,0.05507314971615059
-3.9485,0.6222840025174878,-0.008506680714854012
-3.948,0.5796033030867573,0.02328323450064829
-3.9475,0.5902734779444399,0.13984625695749
-3.947,0.5582629533713921,0.1080563417419877
-3.9465,0.5049120790829789,0.04447651131098315
-3.946,0.4515612047945656,0.01268659609548085
-3.9455,0.4622313796522482,0.06566978812131802
-3.945,0.8997085488172365,0.4471487707073456
-3.9445,0.707645401378949,0.3305857482505039
-3.944,-0.2526703358124887,-0.4429688553267188
-3.9435,-1.234326422719292,-1.205926820498774
-3.943,-2.07727023647622,-1.693372187136476
-3.9425,-2.610778979360353,-1.873515040024322
-3.942,-2.098610586191586,-1.34368311976595
-3.9415,-1.138294849000148,-0.400582301706049
-3.941,-0.3700422592469978,0.4471487707073456
-3.9405,0.1314559590640864,1.00877060618122
-3.94,0.3875401556484697,1.316073119931075
-3.9395,0.4835717293676135,1.42203950398275
-3.939,0.4835717293676135,1.400846227172415
-3.9385,0.4515612047945656,1.326669758336243
-3.938,0.4195506802215176,1.199510097474233
-3.9375,0.3768699807907871,1.051157159801889
-3.937,0.04609456020262521,0.6166949851900245
-3.9365,-0.6688071552621118,-0.3158091944647096
-3.936,-1.287677297007705,-1.227120097309109
-3.9355,-1.362368521011484,-1.915901593644992
-3.935,-0.5834457564006506,-1.947691508860494
-3.9345,0.3555296310754218,-1.025783967610927
-3.934,0.9103787236749192,-0.3475991096802118
-3.9335,1.091771696255524,0.002089957690313421
-3.933,1.017080472251745,0.08686306493165288
-3.9325,0.857027849386506,0.03387987290581572
-3.932,0.6969752265212663,-0.07208651114585861
-3.9315,0.6222840025174878,-0.1780528951975329
-3.931,0.7289857510943143,-0.3158091944647096
-3.9305,0.707645401378949,-0.2628260024388724
-3.93,0.6222840025174878,-0.1038764263613609
-3.9295,0.5262524287983441,0.07626642652648545
-3.929,0.4729015545099309,0.2246193641988295
-3.9285,0.7716664505250448,0.6378882620003594
-3.928,1.283834843693812,1.347863035146577
-3.9275,0.7716664505250448,1.369056311956912
-3.927,-0.3273615598162672,0.3729723018711736
-3.9265,-1.394379045584531,-0.7396747306714069
-3.926,-2.226652684483777,-1.523825972653797
-3.9255,-2.141291285622316,-1.608599079895136
-3.925,-1.319687821580753,-0.8986243067489184
-3.9245,-0.5407650569699201,-0.06148987274069118
-3.924,0.01408403562957729,0.5849050699745222
-3.9235,0.3235191065023739,0.9875773293708847
-3.923,0.4515612047945656,1.188913459069066
-3.9225,0.4622313796522482,1.25249328950007
-3.922,0.4302208550792003,1.231300012689736
-3.9215,0.3875401556484697,1.167720182258731
-3.921,0.3555296310754218,1.082947075017392
-3.9205,0.1848068333524996,0.8392243916985406
-3.92,-0.5194247072545548,0.04447651131098315
-3.9195,-1.180975548430879,-0.8668343915334161
-3.919,-1.341028171296118,-1.439052865412457
-3.9185,-0.6794773301197943,-0.9728007755850904
-3.918,0.3341892813600565,0.2140227257936621
-3.9175,1.006410297394063,0.8710143069140429
-3.917,1.241154144263081,0.8392243916985406
-3.9165,1.15579274540162,0.55311515475902
-3.916,0.9317190733902845,0.2246193641988295
-3.9155,0.7183155762366316,-0.01910331912002144
-3.915,0.5796033030867573,-0.1674562567923655
-3.9145,0.5796033030867573,-0.2946159176543747
-3.914,0.5902734779444399,-0.2840192792492073
-3.9135,0.5369226036560266,-0.1780528951975329
-3.913,0.4835717293676135,-0.02969995752518888
-3.9125,0.4408910299368829,0.1292496185523226
-3.912,0.5902734779444399,0.3729723018711736
-3.9115,1.113112045970889,0.9981739677760521
-3.911,0.6969752265212663,1.093543713422559
-3.9105,-0.2846808603855366,0.3729723018711736
-3.91,-1.26633694729234,-0.4535654937318862
-3.9095,-2.098610586191586,-1.227120097309109
-3.909,-2.354694782775969,-1.555615887869299
-3.9085,-1.575772018165136,-1.025783967610927
-3.908,-0.754168554123573,-0.1992461720078678
-3.9075,-0.1139580626626144,0.5107286011383502
-3.907,0.2594980573562781,0.9875773293708847
-3.9065,0.4302208550792003,1.25249328950007
-3.906,0.4729015545099309,1.358459673551745
-3.9055,0.4302208550792003,1.358459673551745
-3.905,0.3768699807907871,1.29487984312074
-3.9045,0.3235191065023739,1.199510097474233
-3.904,0.2808384070716433,1.051157159801889
-3.9035,0.2274875327832301,0.6060983467848571
-3.903,0.142126133921769,0.03387987290581572
-3.9025,-0.4127229586777283,-0.7820612842920766
-3.902,-0.4020527838200457,-1.046977244421262
-3.9015,0.2701682322139607,-0.252229364033705
-3.901,0.8890383739595538,0.2987958330350016
-3.9005,1.145122570543937,0.457745409112513
-3.9,1.123782220828572,0.3729723018711736
-3.8995,0.9530594231056497,0.1928294489833272
-3.899,0.7609962756673623,-0.01910331912002144
-3.8985,0.6116138276598051,-0.1674562567923655
-3.898,0.5902734779444399,-0.2840192792492073
-3.8975,0.6542945270905358,-0.3687923864905467
-3.897,0.6009436528021226,-0.2840192792492073
-3.8965,0.5262524287983441,-0.1462629799820306
-3.896,0.4622313796522482,-0.008506680714854012
-3.8955,0.4729015545099309,0.13984625695749
-3.895,0.8997085488172365,0.5849050699745222
-3.8945,0.707645401378949,0.7332580076468663
-3.894,-0.2633405106701714,0.03387987290581572
-3.8935,-1.223656247861609,-0.6760949002404023
-3.893,-2.055929886760855,-1.290699927740113
-3.8925,-2.621449154218035,-1.672178910326141
-3.892,-2.290673733629873,-1.492036057438295
-3.8915,-1.319687821580753,-0.6654982618352349
-3.891,-0.4980843575391895,0.1822328105781598
-3.8905,0.05676473506030786,0.8180311148882058
-3.89,0.3448594562177392,1.178316820663898
-3.8895,0.4622313796522482,1.326669758336243
-3.889,0.4622313796522482,1.33726639674141
-3.8885,0.4195506802215176,1.263089927905238
-3.888,0.3768699807907871,1.157123543853563
-3.8875,0.3341892813600565,1.029963882991555
-3.887,-0.01792648894347063,0.5319218779486851
-3.8865,-0.8502001278427167,-0.4111789401112165
-3.886,-1.650463242168915,-1.301296566145281
-3.8855,-1.895877263895616,-1.703968825541643
