Class_5_Move_Left_hand_Horiszontal/Class_5_Move_Left_hand_Horiszontal_SH_11.csv

#Digilent WaveForms Oscilloscope Acquisition
#Device Name: EExplorer
#Serial Number: SN:210151A2B84A
#Date Time: 2021-01-27 12:00:40.178
#Sample rate: 2000Hz
#Samples: 16384
#Trigger: Source: Channel 1 Type: Edge Condition: Rising Level: 0 V Hyst.: Auto HoldOff: 0 s
#Channel 1: Range: 1 V/div Offset: 0 V Attenuation: 1 X
#Channel 2: Range: 1 V/div Offset: 0 V Attenuation: 1 X
#Channel 4: Range: 1 V/div Offset: 0 V Attenuation: 1 X
#Power Supplies: ON
#Fixed Supply: ON
#Voltage: 3.3 V Readback: 3.302 V
#Positive Supply: ON
#Voltage: 3.7 V Readback: 3.717 V
#Current: 40 mA Readback: 32 mA
#Negative Supply: ON
#Voltage: -3.7 V Readback: -3.363 V
#Current: -40 mA Readback: -11 mA
#Reference 1: ON
#Voltage: 0 V
#Reference 2: ON
#Voltage: 0 V

Time (s),Channel 1 (V),Channel 2 (V),Channel 4 (V)
-4.096,0.3341892813600565,-0.04029659593035631,-0.1167018465269201
-4.0955,0.3021787567870378,-0.1462629799819343,-0.1272849239377596
-4.095,0.2701682322139413,-0.2204394488182027,-0.1167018465269009
-4.0945,0.2488278824985954,-0.2204394488182027,-0.09553569170522189
-4.094,0.2061471830679036,-0.1992461720078871,-0.05320338206186388
-4.0935,-0.1673089369514061,0.1610395337679117,-0.06378645947265525
-4.093,-0.5834457564006506,0.2564092794143318,-0.04262030465097626
-4.0925,-1.010252750707568,-0.2098428104126112,-0.02145414982929725
-4.092,-1.084943974711405,-0.6549016234301541,-0.021454149829278
-4.0915,-0.722158029550525,-0.7502713690765743,-0.021454149829278
-4.091,-0.2526703358124887,-0.6654982618352349,-0.021454149829278
-4.0905,0.1101156093489346,-0.5277419625678847,-0.021454149829278
-4.09,0.3448594562177392,-0.3370024712750445,-0.021454149829278
-4.0895,0.4408910299368829,-0.1674562567923655,-0.021454149829278
-4.089,0.4622313796522288,0.002089957690159211,-0.021454149829278
-4.0885,0.4622313796522482,0.13984625695749,-0.021454149829278
-4.088,0.6222840025174878,0.04447651131098315,0.03146123722496762
-4.0875,0.6329541773751609,0.1292496185522455,0.03146123722496762
-4.087,0.5475927785136318,0.341182386655864,0.031461237224958
-4.0865,0.4622313796522482,0.55311515475902,0.0208781598141185
-4.086,0.3982103305062106,0.7332580076467025,-0.0002879950075605001
-4.0855,0.3661998059327357,0.6378882619998389,-0.04262030465098588
-4.085,-0.03926683865883591,0.06566978812131802,-0.05320338206182537
-4.0845,-0.7328282044075767,-0.5595318777829918,-0.06378645947266487
-4.084,-1.341028171296477,-1.015187329205943,-0.06378645947268413
-4.0835,-1.735824641030376,-1.216523458903942,-0.07436953688352363
-4.083,-1.373038695869166,-0.8562377531282487,-0.04262030465097626
-4.0825,-0.7541685541230877,-0.2310360872229364,-0.03203722724013675
-4.082,-0.2206598112394408,0.2458126410091644,-0.04262030465097626
-4.0815,0.1314559590640864,0.5001319627331828,-0.04262030465097626
-4.081,0.3021787567868534,0.542518516353814,-0.05320338206181575
-4.0805,0.3768699807907871,0.457745409112513,-0.05320338206182537
-4.08,0.3768699807907871,0.2987958330350016,-0.05320338206182537
-4.0795,0.3555296310754412,0.1080563417421612,-0.1061187691160229
-4.079,0.3235191065023448,-0.06148987274081646,-0.1272849239377596
-4.0785,0.291508581929326,-0.1992461720078678,-0.1167018465269201
-4.078,0.2594980573563072,-0.2840192792491302,-0.1061187691160806
-4.0775,0.2488278824984692,-0.3581957480854467,-0.08495261429433426
-4.077,0.1101156093487211,-0.4323722169215513,-0.04262030465097626
-4.0765,-0.3166913849581964,-0.4747587705421825,-0.05320338206181575
-4.076,-0.7114878546930558,-0.8986243067492653,-0.03203722724010788
-4.0755,-0.9462317015618604,-1.280103289334946,-0.01087107241842888
-4.075,-0.7648387289812555,-1.121153713257435,-0.021454149829278
-4.0745,-0.3913826089620622,-0.7608680074815009,-0.021454149829278
-4.074,-0.06060718837420119,-0.4959520473525559,-0.021454149829278
-4.0735,0.1848068333524996,-0.3581957480853793,-0.021454149829278
-4.073,0.3235191065022477,-0.1780528951976968,-0.021454149829278
-4.0725,0.3768699807907871,-0.02969995752518888,-0.021454149829278
-4.072,0.408880505363835,0.07626642652648545,-0.03203722724012713
-4.0715,0.5796033030866021,0.002089957690380881,0.02087815981407037
-4.071,0.6863050516635256,0.01268659609561578,0.04204431463580712
-4.0705,0.6222840025174878,0.1610395337678249,0.03146123722496762
-4.07,0.5155822539407584,0.3517790250606652,0.03146123722496762
-4.0695,0.4302208550791615,0.5001319627332117,0.0102950824032405
-4.069,0.3875401556484697,0.5319218779486851,-0.021454149829278
-4.0685,0.6116138276598051,0.08686306493165288,-0.05320338206182537
-4.068,0.5369226036554541,-0.591321792999564,-0.05320338206181575
-4.0675,-0.09261771294724913,-1.142346990067769,-0.04262030465097626
-4.067,-0.807519428411986,-1.481439419033127,-0.08495261429437276
-4.0665,-1.042263275280742,-1.322489842955057,-0.05320338206180612
-4.066,-0.754168554123573,-0.7078848154559045,-0.03203722724012713
-4.0655,-0.3380317346739499,-0.1250697031716958,-0.03203722724012713
-4.065,0.003413860771584121,0.2458126410088271,-0.04262030465096663
-4.0645,0.2168173579255475,0.4047622170866759,-0.04262030465097626
-4.064,0.3128489316446912,0.4047622170866759,-0.05320338206182537
-4.0635,0.355529631075383,0.3093924714402557,-0.05320338206182537
-4.063,0.3448594562177197,0.1822328105780441,-0.08495261429440164
-4.0625,0.3235191065023739,0.05507314971615059,-0.1167018465269201
-4.062,0.2915085819293551,-0.04029659593026957,-0.1167018465269201
-4.0615,0.2594980573562586,-0.09327978795624166,-0.1061187691160614
-4.061,0.2381577076409128,-0.1462629799820306,-0.09553569170522189
-4.0605,0.05676473506030786,-0.01910331912002144,-0.04262030465097626
-4.06,-0.5514352318280007,0.5213252395438067,-0.05320338206181575
-4.0595,-0.9889124009925911,0.8392243916985406,-0.04262030465097626
-4.059,-1.244996597576974,0.2670059178194992,-0.01087107241842888
-4.0585,-1.255666772434647,-0.2840192792487062,-0.03203722724010788
-4.058,-0.8608703027003992,-0.4111789401112165,-0.021454149829278
-4.0575,-0.3380317346739499,-0.3581957480853793,-0.021454149829278
-4.057,0.04609456020227581,-0.2734226408441169,-0.021454149829278
-4.0565,0.291508581929326,-0.2098428104130352,-0.021454149829278
-4.056,0.408880505363835,-0.1144730647665284,-0.021454149829278
-4.0555,0.4302208550791809,-0.008506680714950393,-0.021454149829278
-4.055,0.4302208550791906,0.09745970333690705,0.01029508240329825
-4.0545,0.4195506802215176,0.1928294489833272,0.04204431463581675
-4.054,0.3875401556484989,0.3093924714400629,0.03146123722497725
-4.0535,0.3661998059330948,0.4259554938971071,0.03146123722494838
-4.053,0.3555296310754218,0.5319218779486851,0.01029508240326937
-4.0525,0.3555296310754218,0.627291623595192,-0.01087107241842888
-4.052,0.5902734779446824,0.7756445612676999,-0.04262030465095701
-4.0515,0.857027849386506,0.9557874141553824,-0.021454149829278
-4.051,0.1954770082101822,0.9028042221295453,-0.05320338206182537
-4.0505,-0.7541685541227093,0.7226613692418627,-0.08495261429434389
-4.05,-1.234326422719292,0.2246193641988295,-0.07436953688352363
-4.0495,-0.9995825758502737,0.08686306493165288,-0.04262030465097626
-4.049,-0.5300948821126643,0.1716361721729152,-0.04262030465097626
-4.0485,-0.1139580626623718,0.2881991946299016,-0.04262030465097626
-4.048,0.1527963087794516,0.3623756634660061,-0.04262030465097626
-4.0475,0.3021787567868728,0.3835689402763218,-0.04262030465097626
-4.047,0.3555296310754218,0.3517790250607905,-0.04262030465100513
-4.0465,0.3555296310754218,0.2987958330350016,-0.07436953688352363
-4.046,0.3448594562177489,0.2246193641988969,-0.1167018465268816
-4.0455,0.3128489316446524,0.1610395337677767,-0.1167018465269201
-4.045,0.2701682322139607,0.1080563417419877,-0.1167018465269201
-4.0445,0.2488278824985954,0.07626642652648545,-0.106118769116071
-4.044,0.1421261339213711,0.1610395337681719,-0.04262030465100513
-4.0435,-0.2953510352432193,0.5425185163538525,-0.07436953688352363
-4.043,-0.6261264558313813,0.4047622170866759,-0.05320338206182537
-4.0425,-1.042263275280626,-0.3793890248950009,-0.03203722724014638
-4.042,-1.351698346153801,-0.9833974139902578,-0.021454149829278
-4.0415,-1.148965023857831,-0.8774310299385835,-0.021454149829278
-4.041,-0.6581369804048754,-0.5171453241632185,-0.021454149829278
-4.0405,-0.188649286666092,-0.1568596183869571,-0.021454149829278
-4.04,0.142126133921769,0.1080563417419877,-0.021454149829278
-4.0395,0.3448594562175548,0.2776025562245125,-0.021454149829278
-4.039,0.3982103305062009,0.3623756634659772,-0.021454149829278
-4.0385,0.4515612047945656,0.3305857482505039,-0.021454149829278
-4.038,0.6863050516633703,0.08686306493187454,0.0314612372249195
-4.0375,0.7183155762365442,0.05507314971623732,0.03146123722496762
-4.037,0.6222840025174878,0.1504428953626575,0.03146123722496762
-4.0365,0.5049120790829789,0.2564092794143318,0.0208781598141185
-4.036,0.4195506802215564,0.341182386655758,-0.0002879950076086278
-4.0355,0.4622313796522482,0.4365521323021782,-0.03203722724012713
-4.035,0.7609962756673623,0.849821030103708,-0.03203722724012713
-4.0345,0.3021787567874259,0.955787414155286,-0.04262030465096663
-4.034,-0.5194247072545548,0.3411823866556712,-0.0637864594726745
-4.0335,-1.170305373573196,0.2776025562246667,-0.08495261429437276
-4.033,-1.22365624786156,0.2776025562246667,-0.06378645947269375
-4.0325,-0.7968492535538765,0.06566978812112527,-0.05320338206182537
-4.032,-0.3273615598162672,-0.1462629799820306,-0.05320338206182537
-4.0315,0.03542438534461262,-0.284019279249082,-0.05320338206182537
-4.031,0.2381577076410001,-0.3264058328698385,-0.05320338206181575
-4.0305,0.3341892813600565,-0.2840192792492073,-0.04262030465097626
-4.03,0.3661998059330753,-0.2098428104131027,-0.05320338206181575
-4.0295,0.3555296310753927,-0.09327978795606819,-0.1061187691160806
-4.029,0.3235191065023739,0.04447651131098315,-0.1167018465269201
-4.0285,0.291508581929326,0.2034260873884947,-0.1167018465269201
-4.028,0.2594980573562296,0.3623756634661893,-0.1061187691160325
-4.0275,0.2061471830678648,0.5637117931641874,-0.0637864594726745
-4.027,-0.2099896363817582,0.9557874141553824,-0.0637864594726745
-4.0265,-0.732828204407732,1.358459673551379,-0.04262030465099551
-4.026,-1.031593100423322,1.146526905448396,-0.04262030465097626
-4.0255,-0.9889124009925911,0.3623756634660061,-0.021454149829278
-4.025,-0.6688071552624029,-0.04029659592999008,-0.0320372272401175
-4.0245,-0.2633405106699094,-0.08268314955093931,-0.021454149829278
-4.024,0.02475421048725994,0.01268659609548085,-0.021454149829278
-4.0235,0.2381577076407187,0.1186529801470588,-0.021454149829278
-4.023,0.3555296310754509,0.2246193641989162,-0.021454149829278
-4.0225,0.3875401556484697,0.3199891098453364,-0.021454149829278
-4.022,0.3982103305061427,0.4259554938969143,-0.0320372272401175
-4.0215,0.6116138276599119,0.2881991946297763,0.03146123722497725
-4.021,0.7289857510943143,0.2246193641988295,0.04204431463581675
-4.0205,0.6649647019482183,0.3305857482505039,0.03146123722496762
-4.02,0.5369226036559392,0.4683420475177576,0.02087815981410887
-4.0195,0.4408910299368829,0.55311515475902,0.01029508240326937
-4.019,0.3661998059331045,0.55311515475902,-0.03203722724012713
-4.0185,0.02475421048757048,0.06566978812176133,-0.06378645947264563
-4.018,-0.6154562809736985,-0.6549016234300674,-0.0637864594726745
-4.0175,-1.277007122150022,-1.301296566145281,-0.05320338206182537
-4.017,-1.789175515318323,-1.767548655972224,-0.07436953688350438
-4.0165,-1.511750969018458,-1.545019249463583,-0.04262030465096663
-4.016,-0.8715404775580819,-0.9410108603695881,-0.03203722724012713
-4.0155,-0.3060212101014163,-0.4217755785168562,-0.03203722724012713
-4.015,0.08877525963354016,-0.1038764263612549,-0.04262030465098588
-4.0145,0.291508581929326,0.01268659609548085,-0.05320338206182537
-4.014,0.3768699807907094,0.01268659609548085,-0.05320338206182537
-4.0135,0.3875401556484503,-0.06148987274076827,-0.04262030465102438
-4.013,0.3661998059331045,-0.1462629799820306,-0.09553569170522189
-4.0125,0.3341892813600565,-0.2310360872233701,-0.1167018465269201
-4.012,0.2915085819292969,-0.262826002438882,-0.1167018465269105
-4.0115,0.2594980573562781,-0.2734226408440398,-0.106118769116071
-4.011,0.2274875327832301,-0.2310360872233701,-0.08495261429437276
-4.0105,-0.01792648894324742,0.1504428953623105,-0.05320338206185424
-4.01,-0.4874141826815069,0.7862411996727035,-0.05320338206182537
-4.0095,-0.6154562809736985,0.7332580076468663,-0.04262030465097626
-4.009,-0.7541685541234469,-0.02969995752449495,-0.02145414982929725
-4.0085,-0.9142211769886571,-0.4111789401112165,-0.03203722724012713
-4.008,-0.7434983792658902,-0.4111789401112165,-0.03203722724012713
-4.0075,-0.3700422592473375,-0.2628260024390073,-0.02145414982928762
-4.007,-0.07127736323168003,-0.01910331911982869,-0.021454149829278
-4.0065,0.1527963087794516,0.1928294489833272,-0.021454149829278
-4.006,0.3128489316446912,0.3623756634660061,-0.021454149829278
-4.0055,0.3875401556485862,0.4789386859227997,-0.03203722724009826
-4.005,0.5155822539406614,0.4259554938970107,-0.000287995007579752
-4.0045,0.6756348768059011,0.2458126410091644,0.03146123722496762
-4.004,0.6542945270904388,0.2881991946299498,0.031461237224958
-4.0035,0.5475927785137094,0.4153588554918433,0.0208781598141185
-4.003,0.4515612047945656,0.5319218779486851,0.01029508240326937
-4.0025,0.3982103305062009,0.584905069974474,-0.01087107241840963
-4.002,0.6756348768059011,0.383568940276341,-0.05320338206182537
-4.0015,0.825017324813458,-0.1250697031716958,-0.05320338206182537
-4.001,0.1314559590647172,-0.8138511995069525,-0.05320338206182537
-4.0005,-0.5941159312587797,-1.015187329205596,-0.06378645947268413
-4,-1.084943974711735,-0.8350444763179138,-0.07436953688352363
-3.9995,-0.9462317015618604,-0.6337083466197325,-0.04262030465097626
-3.999,-0.5407650569699201,-0.3899856633008816,-0.04262030465097626
-3.9985,-0.1352984123779797,-0.2310360872233701,-0.04262030465097626
-3.998,0.1314559590640864,-0.1568596183871981,-0.05320338206182537
-3.9975,0.291508581929326,-0.1568596183871981,-0.05320338206182537
-3.997,0.3448594562177392,-0.1780528951975329,-0.04262030465097626
-3.9965,0.3555296310754218,-0.2098428104130352,-0.07436953688352363
-3.996,0.3448594562177392,-0.2204394488182027,-0.1167018465269201
-3.9955,0.3128489316446912,-0.1992461720078678,-0.1167018465269201
-3.995,0.2808384070716433,-0.1568596183871981,-0.1167018465269201
-3.9945,0.2594980573562781,-0.1038764263613609,-0.09553569170522189
-3.994,0.1954770082101822,0.002089957690313421,-0.04262030465097626
-3.9935,-0.2206598112394408,0.4471487707073456,-0.0637864594726745
-3.993,-0.5834457564006506,0.701468092431364,-0.05320338206182537
-3.9925,-0.8181896032696687,0.1292496185523226,-0.021454149829278
-3.992,-0.9248913518464952,-0.4853554089473885,-0.03203722724012713
-3.9915,-0.7008176798351597,-0.5807251545938954,-0.03203722724012713
-3.991,-0.3700422592469978,-0.3793890248957141,-0.021454149829278
-3.9905,-0.06060718837420119,-0.07208651114585861,-0.021454149829278
-3.99,0.1634664836371343,0.1822328105781598,-0.021454149829278
-3.9895,0.2808384070716433,0.3623756634660061,-0.021454149829278
-3.989,0.3341892813600565,0.457745409112513,-0.03203722724012713
-3.9885,0.408880505363835,0.4683420475176805,-0.021454149829278
-3.988,0.6116138276598051,0.2670059178194992,0.03146123722496762
-3.9875,0.6436243522328531,0.2564092794143318,0.03146123722496762
-3.987,0.5796033030867573,0.383568940276341,0.03146123722496762
-3.9865,0.4729015545099309,0.5213252395435176,0.01029508240326937
-3.986,0.3982103305061524,0.6378882620003594,-0.000287995007579752
-3.9855,0.4942419042252961,0.5425185163538525,-0.04262030465097626
-3.985,1.081101521397841,0.04447651131098315,-0.05320338206182537
-3.9845,1.497238340847464,-0.570128516188728,-0.05320338206182537
-3.984,0.9637295979633325,-1.046977244421262,-0.05320338206182537
-3.9835,0.01408403562957729,-1.205926820498774,-0.08495261429437276
-3.983,-0.4127229586777283,-1.025783967610927,-0.05320338206182537
-3.9825,-0.3593720843893152,-0.6019184314042303,-0.04262030465097626
-3.982,-0.156638762093345,-0.2310360872233701,-0.04262030465097626
-3.9815,0.05676473506030786,-0.02969995752518888,-0.04262030465097626
-3.981,0.1954770082101822,0.04447651131098315,-0.05320338206182537
-3.9805,0.2808384070716433,0.02328323450064829,-0.05320338206182537
-3.98,0.3128489316446912,-0.05089323433552374,-0.05320338206182537
-3.9795,0.3235191065023739,-0.1356663415768632,-0.1167018465269201
-3.979,0.291508581929326,-0.1780528951975329,-0.1167018465269201
-3.9785,0.2594980573562781,-0.1780528951975329,-0.1167018465269201
-3.978,0.2381577076409128,-0.1886495336027004,-0.09553569170522189
-3.9775,0.2168173579255475,-0.1674562567923655,-0.0637864594726745
-3.977,-0.1139580626626144,0.1504428953626575,-0.0637864594726745
-3.9765,-0.5087545323968721,0.383568940276341,-0.04262030465097626
-3.976,-0.9035510021311299,-0.1886495336027004,-0.05320338206182537
-3.9755,-1.116954499284783,-0.8350444763179138,-0.021454149829278
-3.975,-0.9995825758502737,-0.8350444763179138,-0.021454149829278
-3.9745,-0.6367966306890638,-0.5171453241628908,-0.021454149829278
-3.974,-0.2099896363817582,-0.1674562567923655,-0.021454149829278
-3.9735,0.1207857842064037,0.13984625695749,-0.021454149829278
-3.973,0.3021787567870086,0.3517790250608387,-0.021454149829278
-3.9725,0.3661998059331045,0.4471487707073456,-0.021454149829278
-3.972,0.3875401556484697,0.4895353243280153,-0.03203722724012713
-3.9715,0.6009436528021226,0.309392471440169,0.03146123722496762
-3.971,0.6863050516635838,0.2140227257936621,0.04204431463581675
-3.9705,0.6222840025174878,0.309392471440169,0.03146123722496762
-3.97,0.5049120790829789,0.4365521323021782,0.0208781598141185
-3.9695,0.4195506802215176,0.5425185163538525,0.01029508240326937
-3.969,0.408880505363835,0.5955017083796896,-0.021454149829278
-3.9685,0.7503261008096795,0.8604176685088755,-0.04262030465097626
-3.968,0.5689331282290746,0.7544512844572011,-0.04262030465097626
-3.9675,-0.1673089369510276,-0.06148987274069118,-0.04262030465097626
-3.967,-0.7648387289812555,-0.3687923864905467,-0.08495261429437276
-3.9665,-1.116954499284783,-0.5489352393783931,-0.07436953688352363
-3.966,-0.8715404775580819,-0.5171453241628908,-0.04262030465097626
-3.9655,-0.4447334832507763,-0.3899856633008816,-0.04262030465097626
-3.965,-0.07127736323188383,-0.252229364033705,-0.04262030465097626
-3.9645,0.1741366584948169,-0.1674562567923655,-0.04262030465097626
-3.964,0.291508581929326,-0.1144730647665284,-0.04262030465097626
-3.9635,0.3448594562177392,-0.09327978795619347,-0.04262030465097626
-3.963,0.3448594562177392,-0.07208651114585861,-0.09553569170522189
-3.9625,0.3235191065023739,-0.04029659593035631,-0.1167018465269201
-3.962,0.291508581929326,0.002089957690313421,-0.1167018465269201
-3.9615,0.2488278824985954,0.06566978812131802,-0.106118769116071
-3.961,0.2381577076409128,0.1186529801471552,-0.07436953688352363
-3.9605,-0.07127736323188383,0.3729723018711736,-0.05320338206182537
-3.96,-0.7008176798351597,0.8710143069140429,-0.04262030465097626
-3.9595,-1.26633694729234,0.9557874141553824,-0.05320338206182537
-3.959,-1.565101843307454,0.4789386859228479,-0.021454149829278
-3.9585,-1.405049220442214,0.03387987290581572,-0.03203722724012713
-3.958,-0.8928808272734472,-0.1250697031716958,-0.03203722724012713
-3.9575,-0.3807124341046804,-0.1568596183871981,-0.021454149829278
-3.957,0.00341386077189465,-0.08268314955102604,-0.021454149829278
-3.9565,0.2274875327832301,0.02328323450064829,-0.021454149829278
-3.956,0.3661998059331045,0.13984625695749,-0.021454149829278
-3.9555,0.3982103305061524,0.2881991946298341,-0.021454149829278
-3.955,0.5155822539406614,0.3305857482505039,0.01029508240326937
-3.9545,0.6329541773751706,0.3517790250608387,0.04204431463581675
-3.954,0.5796033030867573,0.5001319627331828,0.03146123722496762
-3.9535,0.4942419042252961,0.6484849004055269,0.0208781598141185
-3.953,0.4195506802215176,0.7650479228623686,0.01029508240326937
-3.9525,0.3875401556484697,0.8074344764830383,-0.03203722724012713
-3.952,0.2168173579255475,0.4259554938970107,-0.04262030465097626
