Class_5_Move_Left_hand_Horiszontal/Class_5_Move_Left_hand_Horiszontal_SH_9.csv

#Digilent WaveForms Oscilloscope Acquisition
#Device Name: EExplorer
#Serial Number: SN:210151A2B84A
#Date Time: 2021-01-20 10:37:08.109
#Sample rate: 2000Hz
#Samples: 16384
#Trigger: Source: Channel 1 Type: Edge Condition: Rising Level: 0 V Hyst.: Auto HoldOff: 0 s
#Channel 1: Range: 1 V/div Offset: 0 V Attenuation: 1 X
#Channel 2: Range: 1 V/div Offset: 0 V Attenuation: 1 X
#Power Supplies: ON
#Fixed Supply: ON
#Voltage: 3.3 V Readback: 3.325 V
#Positive Supply: ON
#Voltage: 3.7 V Readback: 3.721 V
#Current: 40 mA Readback: 19 mA
#Negative Supply: ON
#Voltage: -3.7 V Readback: -3.705 V
#Current: -40 mA Readback: -8 mA
#Reference 1: ON
#Voltage: 0 V
#Reference 2: ON
#Voltage: 0 V

Time (s),Channel 1 (V),Channel 2 (V)
-4.096,0.1741366584948169,-0.792657922697244
-4.0955,0.334189281359911,-0.8244478379127175
-4.095,0.4088805053638447,-0.7714646458868128
-4.0945,0.4195506802215176,-0.6654982618352349
-4.094,0.4088805053638447,-0.5489352393784991
-4.0935,0.398210330506133,-0.4111789401110527
-4.093,0.3768699807907871,-0.2310360872233701
-4.0925,0.3555296310754412,-0.008506680715056392
-4.092,0.3448594562176324,0.2246193641990897
-4.0915,0.2274875327832301,0.5107286011383502
-4.091,-0.4020527838200457,0.8710143069140429
-4.0905,-1.074273799854304,1.22070337428479
-4.09,-1.351698346153801,1.464426057603419
-4.0895,-1.51175096901904,1.347863035146577
-4.089,-1.415719395299984,0.8286277532938454
-4.0885,-1.031593100423322,0.2034260873884947
-4.088,-0.5300948821122373,-0.252229364033705
-4.0875,-0.07127736323230111,-0.5489352393781233
-4.087,0.2381577076410971,-0.6443049850248421
-4.0865,0.4408910299368829,-0.5807251545938954
-4.086,0.5689331282289581,-0.5065486857577909
-4.0855,0.7716664505250448,-0.548935239378287
-4.085,0.7716664505250448,-0.4323722169215513
-4.0845,0.6863050516636614,-0.2204394488183954
-4.084,0.6009436528020546,-0.02969995752504431
-4.0835,0.5262524287983441,0.1292496185523226
-4.083,0.6222840025174878,0.3517790250608387
-4.0825,1.102441871112974,0.7650479228627155
-4.082,0.8463576745288233,1.146526905448396
-4.0815,-0.08194753808956648,1.316073119931075
-4.081,-0.8928808272727097,0.6696781772164495
-4.0805,-0.9142211769888124,-0.1144730647665284
-4.08,-0.5514352318276028,-0.5807251545938954
-4.0795,-0.1459685872360311,-0.7714646458867358
-4.079,0.142126133921934,-0.7926579226971765
-4.0785,0.3235191065023739,-0.718481453861072
-4.078,0.3982103305060845,-0.612515069809494
-4.0775,0.4195506802215079,-0.4853554089472921
-4.077,0.408880505363835,-0.3793890248957141
-4.0765,0.3982103305061621,-0.2734226408441362
-4.076,0.3875401556484503,-0.1780528951973691
-4.0755,0.3661998059331045,0.002089957690313421
-4.075,0.3128489316446912,0.2458126410091644
-4.0745,-0.06060718837484168,0.5849050699748788
-4.074,-0.7648387289812555,0.9769806909657173
-4.0735,-1.319687821580753,1.305476481525908
-4.073,-1.458400094730501,1.358459673551697
-4.0725,-1.170305373573196,0.9134008605347127
-4.072,-0.7114878546928423,0.2987958330350016
-4.0715,-0.252670335812906,-0.2310360872228883
-4.071,0.1101156093489249,-0.5595318777836857
-4.0705,0.3341892813600565,-0.6972881770507372
-4.07,0.4729015545098048,-0.6654982618352637
-4.0695,0.5262524287984702,-0.5489352393783642
-4.069,0.6649647019482183,-0.5171453241628908
-4.0685,0.7183155762366316,-0.4535654937318862
-4.068,0.6542945270904582,-0.2628260024386893
-4.0675,0.5689331282290746,-0.06148987274069118
-4.067,0.4942419042252961,0.09745970333682032
-4.0665,0.4408910299364074,0.1398462569572202
-4.066,-0.08194753808956648,-0.1568596183871981
-4.0655,-0.9035510021311299,0.08686306493165288
-4.065,-1.26633694729201,0.5107286011379647
-4.0645,-1.479740444445993,0.4259554938970107
-4.064,-1.212986073003927,-0.1250697031716958
-4.0635,-0.6581369804049336,-0.4959520473522187
-4.063,-0.1566387620930344,-0.665498261835283
-4.0625,0.1848068333524996,-0.718481453861072
-4.062,0.3661998059329395,-0.6972881770507565
-4.0615,0.43022085507921,-0.6443049850248421
-4.061,0.4408910299368829,-0.5807251545938954
-4.0605,0.4195506802215176,-0.5065486857577234
-4.06,0.398210330506133,-0.4217755785162297
-4.0595,0.3768699807907871,-0.252229364033705
-4.059,0.3555296310754218,-0.04029659593035631
-4.0585,0.334189281360076,0.203426087388273
-4.058,0.1207857842064037,0.4895353243280153
-4.0575,-0.6047861061160158,0.8710143069140429
-4.057,-1.191645723288027,1.22070337428425
-4.0565,-1.501080794161358,1.400846227172415
-4.056,-1.565101843307454,1.00877060618122
-4.0555,-1.266336947292612,0.3729723018717518
-4.055,-0.807519428411559,-0.1144730647668271
-4.0545,-0.3380317346739499,-0.4429688553267188
-4.054,0.06743490991762174,-0.591321792998928
-4.0535,0.3235191065025097,-0.5913217929989953
-4.053,0.4729015545099309,-0.5171453241628908
-4.0525,0.5796033030867573,-0.5277419625680583
-4.052,0.6863050516635547,-0.6866915386454734
-4.0515,0.6542945270905358,-0.5807251545938954
-4.051,0.5902734779444399,-0.3581957480853793
-4.0505,0.5262524287984023,-0.1250697031719078
-4.05,0.4835717293676135,0.05507314971615059
-4.0495,0.7609962756673623,0.3411823866556712
-4.049,1.102441871112896,0.8074344764826142
-4.0485,0.5369226036552406,1.178316820663841
-4.048,-0.3273615598162672,1.114736990232894
-4.0475,-0.8928808272729328,0.2140227257944813
-4.047,-0.7755089038385888,-0.4323722169218115
-4.0465,-0.391382608962363,-0.718481453861072
-4.046,-0.02859666380148324,-0.771464645886861
-4.0455,0.2168173579256736,-0.6972881770506312
-4.045,0.3555296310754218,-0.5807251545938954
-4.0445,0.408880505363835,-0.4641621321370536
-4.044,0.4195506802215079,-0.3475991096801155
-4.0435,0.408880505363835,-0.2416327256285375
-4.043,0.3875401556484697,-0.05089323433552374
-4.0425,0.3661998059331239,0.2034260873882633
-4.042,0.3448594562177392,0.2881991946298341
-4.0415,0.2488278824985954,0.3729723018711736
-4.041,-0.3273615598157432,0.6484849004052763
-4.0405,-1.020922925566056,1.008770606181499
-4.04,-1.479740444445993,1.316073119931075
-4.0395,-1.735824641030143,1.464426057603284
-4.039,-1.682473766741613,1.10414035182711
-4.0385,-1.298347471865388,0.4259554938970107
-4.038,-0.7328282044087219,-0.1144730647660369
-4.0375,-0.1673089369506588,-0.4535654937320404
-4.037,0.2381577076409128,-0.6231117082145651
-4.0365,0.4622313796522482,-0.6549016234300674
-4.036,0.5689331282291814,-0.6125150698095037
-4.0355,0.6863050516635838,-0.7290780922662394
-4.035,0.6649647019482183,-0.6337083466197325
-4.0345,0.6009436528021808,-0.4005823017062611
-4.034,0.5582629533713921,-0.1674562567923655
-4.0335,0.5475927785137094,-0.008506680714854012
-4.033,0.4942419042253446,0.08686306493156615
-4.0325,0.5689331282290455,0.3517790250612435
-4.032,0.5369226036560266,0.7968378380778709
-4.0315,-0.1352984123773683,1.114736990232605
-4.031,-0.8181896032697269,0.5425185163531586
-4.0305,-0.8822106524157645,-0.2204394488182027
-4.03,-0.5407650569702306,-0.6019184314038833
-4.0295,-0.1459685872354003,-0.7184814538610431
-4.029,0.142126133921769,-0.6866915386455698
-4.0285,0.3235191065023739,-0.6019184314042303
-4.028,0.3982103305061718,-0.4959520473524692
-4.0275,0.4195506802215176,-0.400582301706049
-4.027,0.408880505363835,-0.3158091944647096
-4.0265,0.3982103305061621,-0.2098428104131316
-4.026,0.3768699807907871,-0.07208651114585861
-4.0255,0.3661998059331045,0.01268659609548085
-4.025,0.3448594562177586,0.08686306493158542
-4.0245,0.01408403562885916,0.3623756634663723
-4.024,-0.7755089038389382,0.7650479228623686
-4.0235,-1.309017646722585,1.135930267042891
-4.023,-1.682473766742099,1.400846227172251
-4.0225,-1.83185621474952,1.220703374284568
-4.022,-1.565101843307696,0.5849050699751004
-4.0215,-1.052933450138134,-0.05089323433591889
-4.021,-0.4447334832507763,-0.4853554089473885
-4.0205,0.03542438534494258,-0.7290780922662394
-4.02,0.3341892813602021,-0.7926579226972055
-4.0195,0.4942419042252961,-0.7502713690765743
-4.019,0.6756348768059011,-0.6125150698093976
-4.0185,0.7823366253826305,-0.4747587705423463
-4.018,0.7289857510943143,-0.2840192792492073
-4.0175,0.6329541773751706,-0.1038764263613609
-4.017,0.7289857510942269,-0.1886495336026233
-4.0165,0.8356874996709854,-0.3370024712754396
-4.016,0.6649647019482183,-0.7714646458869092
-4.0155,0.1634664836375903,-1.34368311976543
-4.015,-0.583445756401359,-1.227120097308714
-4.0145,-1.362368521011484,-0.792657922697244
-4.014,-1.447729919872867,-0.8138511995075596
-4.0135,-0.9462317015613461,-0.7396747306713202
-4.013,-0.3807124341046804,-0.6443049850249
-4.0125,0.04609456020262521,-0.5807251545938954
-4.012,0.3021787567871154,-0.5701285161887376
-4.0115,0.4195506802215176,-0.5807251545938954
-4.011,0.4515612047945656,-0.6125150698093976
-4.0105,0.4408910299368927,-0.6443049850248711
-4.01,0.408880505363835,-0.6443049850249
-4.0095,0.3875401556484697,-0.570128516188728
-4.009,0.3661998059331239,-0.4853554089474656
-4.0085,0.3341892813599401,-0.3475991096799902
-4.008,0.2061471830678648,-0.1038764263613609
-4.0075,-0.156638762093015,0.3199891098449509
-4.007,-0.6581369804048851,0.7756445612677769
-4.0065,-1.159635198715513,1.040560521396722
-4.006,-1.373038695869166,0.5319218779486851
-4.0055,-1.116954499284336,-0.1356663415772294
-4.005,-0.6261264558313813,-0.5383386009732256
-4.0045,-0.1673089369510276,-0.6654982618352349
-4.004,0.1634664836373381,-0.6549016234299999
-4.0035,0.3875401556484697,-0.5807251545938954
-4.003,0.5049120790829789,-0.4853554089473885
-4.0025,0.5902734779443622,-0.4323722169215995
-4.002,0.6756348768059011,-0.4641621321370536
-4.0015,0.6436243522328531,-0.2628260024388724
-4.001,0.5689331282291425,-0.008506680715085313
-4.0005,0.50491207908294,0.2246193641989837
-4,0.4622313796522482,0.3941655786815084
-3.9995,0.6863050516635838,0.6166949851900245
-3.999,1.123782220828572,0.9769806909657173
-3.9985,0.5689331282290746,1.29487984312074
-3.998,-0.4340633083930936,1.37965295036208
-3.9975,-1.074273799854052,0.7226613692416989
-3.997,-0.9248913518464952,-0.05089323433552374
-3.9965,-0.4980843575391895,-0.570128516188728
-3.996,-0.08194753808956648,-0.8350444763179138
-3.9955,0.1954770082101822,-0.9198175835592532
-3.995,0.3555296310754218,-0.8774310299385835
-3.9945,0.4195506802215176,-0.792657922697244
-3.994,0.4302208550792003,-0.6760949002404023
-3.9935,0.4195506802215176,-0.5595318777835605
-3.993,0.3982103305061524,-0.4111789401112165
-3.9925,0.3768699807907871,-0.2204394488182027
-3.992,0.3341892813600565,0.03387987290581572
-3.9915,0.2488278824985954,0.2352160026039969
-3.991,-0.2099896363817582,0.5213252395435176
-3.9905,-0.8502001278427167,0.9134008605347127
-3.99,-1.330357996438436,1.263089927905238
-3.9895,-1.629122892453549,1.475022696008586
-3.989,-1.67180359188428,1.25249328950007
-3.9885,-1.341028171296118,0.6590815388106942
-3.988,-0.8181896032696687,0.07626642652648545
-3.9875,-0.2846808603855366,-0.3158091944647096
-3.987,0.1207857842064037,-0.5065486857577234
-3.9865,0.3875401556484697,-0.5065486857577234
-3.986,0.5155822539406614,-0.4111789401112165
-3.9855,0.4942419042252961,-0.5913217929990628
-3.985,0.4195506802215176,-0.6125150698093976
-3.9845,0.3875401556484697,-0.3687923864905467
-3.984,0.3982103305061524,-0.06148987274069118
-3.9835,0.408880505363835,0.2034260873884947
-3.983,0.4835717293676135,0.2458126410091644
-3.9825,0.825017324813458,0.1504428953626575
-3.982,0.825017324813458,0.5001319627331828
-3.9815,0.3235191065023739,0.7544512844572011
-3.981,-0.1139580626626144,0.4153588554918433
-3.9805,-0.156638762093345,-0.08268314955102604
-3.98,-0.01792648894347063,-0.4641621321370536
-3.9795,0.142126133921769,-0.6972881770507372
-3.979,0.2701682322139607,-0.792657922697244
-3.9785,0.3448594562177392,-0.8032545611024114
-3.978,0.3768699807907871,-0.7714646458869092
-3.9775,0.3875401556484697,-0.718481453861072
-3.977,0.3875401556484697,-0.6443049850249
-3.9765,0.3768699807907871,-0.5277419625680583
-3.976,0.3661998059331045,-0.3158091944647096
-3.9755,0.3448594562177392,-0.09327978795619347
-3.975,0.3128489316446912,0.1822328105781598
-3.9745,-0.01792648894347063,0.5213252395435176
-3.974,-0.754168554123573,0.9345941373450475
-3.9735,-1.319687821580753,1.284283204715573
-3.973,-1.639793067311232,1.475022696008586
-3.9725,-1.67180359188428,1.220703374284568
-3.972,-1.373038695869166,0.5955017083796896
-3.9715,-0.8822106524157645,0.02328323450064829
-3.971,-0.3380317346739499,-0.326405832869877
-3.9705,0.08877525963335578,-0.4959520473525559
-3.97,0.3768699807907871,-0.5383386009732256
-3.9695,0.5155822539406614,-0.4959520473525559
-3.969,0.5902734779444399,-0.5595318777835605
-3.9685,0.5689331282290746,-0.6231117082145651
-3.968,0.5155822539406614,-0.4217755785163839
-3.9675,0.4835717293676135,-0.1568596183871981
-3.967,0.4729015545099309,0.08686306493165288
-3.9665,0.4835717293676135,0.2987958330350016
-3.966,0.857027849386506,0.6378882620003594
-3.9655,1.049090996824793,1.040560521396722
-3.965,0.3768699807907871,1.326669758336243
-3.9645,-0.4554036581084589,1.029963882991555
-3.964,-0.8608703027003992,0.08686306493165288
-3.9635,-0.6688071552621118,-0.4959520473525559
-3.963,-0.2953510352432193,-0.7290780922662394
-3.9625,0.03542438534494258,-0.7502713690765743
-3.962,0.2488278824985954,-0.6654982618352349
-3.9615,0.3661998059331045,-0.5489352393783931
-3.961,0.408880505363835,-0.4323722169215513
-3.9605,0.4195506802215176,-0.3370024712750445
-3.96,0.408880505363835,-0.2416327256285375
-3.9595,0.3875401556484697,-0.1144730647665284
-3.959,0.3661998059331045,0.05507314971615059
-3.9585,0.3448594562177392,0.2140227257936621
-3.958,0.2594980573562781,0.3199891098453364
-3.9575,-0.3166913849585846,0.5743084315693548
-3.957,-1.010252750707956,0.9451907757502149
-3.9565,-1.405049220442214,1.284283204715573
-3.956,-1.51175096901904,1.263089927905238
-3.9555,-1.319687821580753,0.7332580076468663
-3.955,-0.9035510021311299,0.07626642652648545
-3.9545,-0.4127229586777283,-0.400582301706049
-3.954,0.02475421048725994,-0.6019184314042303
-3.9535,0.3235191065023739,-0.6866915386455698
-3.953,0.4729015545099309,-0.7078848154559045
-3.9525,0.5689331282290746,-0.7078848154559045
-3.952,0.6116138276598051,-0.7714646458869092
-3.9515,0.5796033030867573,-0.6337083466197325
-3.951,0.5262524287983441,-0.4111789401112165
-3.9505,0.5155822539406614,-0.2098428104130352
-3.95,0.5582629533713921,-0.06148987274069118
-3.9495,0.707645401378949,0.1504428953626575
-3.949,0.8356874996711408,0.5955017083796896
-3.9485,0.3875401556484697,1.040560521396722
-3.948,-0.4340633083930936,1.220703374284568
-3.9475,-0.8715404775580819,0.6378882620003594
-3.947,-0.690147504977477,-0.01910331912002144
-3.9465,-0.3166913849585846,-0.4429688553267188
-3.946,0.02475421048725994,-0.6443049850249
-3.9455,0.2488278824985954,-0.6760949002404023
-3.945,0.3661998059331045,-0.6231117082145651
-3.9445,0.408880505363835,-0.5065486857577234
-3.944,0.4195506802215176,-0.3899856633008816
-3.9435,0.408880505363835,-0.2734226408440398
-3.943,0.3875401556484697,-0.1038764263613609
-3.9425,0.3661998059331045,0.1080563417419877
-3.942,0.3341892813600565,0.3199891098453364
-3.9415,0.2808384070716433,0.5319218779486851
-3.941,-0.2420001609548061,0.8392243916985406
-3.9405,-1.031593100423322,1.178316820663898
-3.94,-1.533091318734406,1.432636142387917
-3.9395,-1.767835165603424,1.326669758336243
-3.939,-1.639793067311232,0.7544512844572011
-3.9385,-1.191645723288561,0.1504428953626575
-3.938,-0.6474668055467465,-0.3052125560595421
-3.9375,-0.156638762093345,-0.5383386009732256
-3.937,0.2274875327832301,-0.6866915386455698
-3.9365,0.4408910299368829,-0.7396747306714069
-3.936,0.5369226036560266,-0.7078848154559045
-3.9355,0.5475927785137094,-0.8668343915334161
-3.935,0.5049120790829789,-0.8456411147230812
-3.9345,0.4835717293676135,-0.5913217929990628
-3.934,0.4729015545099309,-0.3052125560595421
-3.9335,0.4835717293676135,-0.07208651114585861
-3.933,0.5369226036560266,0.1716361721729923
-3.9325,0.9530594231056497,0.6060983467848571
-3.932,1.006410297394063,1.019367244586387
-3.9315,0.3875401556484697,1.167720182258731
-3.931,-0.4767440078238243,0.6166949851900245
-3.9305,-0.7328282044082075,-0.1886495336027004
-3.93,-0.5087545323968721,-0.5913217929990628
-3.9295,-0.1779791118087102,-0.718481453861072
-3.929,0.1101156093487211,-0.6866915386455698
-3.9285,0.291508581929326,-0.5807251545938954
-3.928,0.3768699807907871,-0.474758770542221
-3.9275,0.408880505363835,-0.3687923864905467
-3.927,0.408880505363835,-0.2734226408440398
-3.9265,0.3982103305061524,-0.1780528951975329
-3.926,0.3875401556484697,-0.1038764263613609
-3.9255,0.3661998059331045,0.03387987290581572
-3.925,0.3235191065023739,0.2458126410091644
-3.9245,0.03542438534494258,0.55311515475902
-3.924,-0.5514352318276028,0.9451907757502149
-3.9235,-1.095614149569417,1.273686566310405
-3.923,-1.373038695869166,1.316073119931075
-3.9225,-1.383708870726849,0.6484849004055269
-3.922,-1.06360362499637,0.01268659609548085
-3.9215,-0.6047861061160158,-0.4111789401112165
-3.921,-0.1459685872356623,-0.6549016234300674
-3.9205,0.1954770082101822,-0.7820612842920766
-3.92,0.3982103305061524,-0.8244478379127463
-3.9195,0.5155822539406614,-0.792657922697244
-3.919,0.6542945270905358,-0.7608680074817418
-3.9185,0.8036769750980928,-0.8032545611024114
-3.918,0.7609962756673623,-0.6549016234300674
-3.9175,0.6542945270905358,-0.4323722169215513
-3.917,0.5902734779444399,-0.2310360872233701
-3.9165,0.5475927785137094,-0.06148987274069118
-3.916,0.8783681991018712,0.002089957690313421
-3.9155,1.059761171682476,0.4153588554918433
-3.915,0.3555296310754218,0.8922075837243778
-3.9145,-0.5621054066852853,1.061753798207057
-3.914,-0.9675720512772257,0.457745409112513
-3.9135,-0.7434983792658902,-0.1568596183871981
-3.913,-0.3380317346739499,-0.5383386009732256
-3.9125,0.01408403562957729,-0.718481453861072
-3.912,0.2488278824985954,-0.7396747306714069
-3.9115,0.3661998059331045,-0.6654982618352349
-3.911,0.408880505363835,-0.5595318777835605
-3.9105,0.4195506802215176,-0.4323722169215513
-3.91,0.3982103305061524,-0.2840192792492073
-3.9095,0.3768699807907871,-0.09327978795619347
-3.909,0.3555296310754218,0.08686306493165288
-3.9085,0.291508581929326,0.3305857482505039
-3.908,0.1207857842064037,0.6378882620003594
-3.9075,-0.4447334832507763,0.9663840525605498
-3.907,-1.127624674142465,1.273686566310405
-3.9065,-1.693143941599645,1.485619334413754
-3.906,-2.07727023647622,1.485619334413754
-3.9055,-1.853196564464885,0.9663840525605498
-3.905,-1.202315898146244,0.2776025562246667
-3.9045,-0.4980843575391895,-0.2628260024388724
-3.904,0.04609456020262521,-0.5595318777835605
-3.9035,0.3768699807907871,-0.6443049850249
-3.903,0.5475927785137094,-0.5913217929990628
-3.9025,0.6222840025174878,-0.5383386009732256
-3.902,0.7609962756673623,-0.7396747306714069
-3.9015,0.7823366253827275,-0.6654982618352349
-3.901,0.6969752265212663,-0.4111789401112165
-3.9005,0.5902734779444399,-0.1356663415768632
-3.9,0.5475927785137094,-0.01910331912002144
-3.8995,0.5582629533713921,0.1186529801471552
-3.899,0.02475421048725994,0.5319218779486851
-3.8985,-0.6794773301197943,0.9769806909657173
-3.898,-1.212986073003927,1.178316820663898
-3.8975,-1.479740444445993,0.5107286011383502
-3.897,-1.116954499284783,-0.2098428104130352
-3.8965,-0.5514352318276028,-0.6125150698093976
-3.896,-0.07127736323188383,-0.7714646458869092
-3.8955,0.2274875327832301,-0.792657922697244
-3.895,0.3875401556484697,-0.7396747306714069
-3.8945,0.4408910299368829,-0.6654982618352349
-3.894,0.4408910299368829,-0.5807251545938954
-3.8935,0.4195506802215176,-0.5065486857577234
-3.893,0.3982103305061524,-0.3581957480853793
-3.8925,0.3555296310754218,-0.1462629799820306
-3.892,0.3235191065023739,0.09745970333682032
-3.8915,0.2594980573562781,0.3411823866556712
-3.891,-0.2099896363817582,0.6802748156210291
-3.8905,-0.9569018764195432,1.061753798207057
-3.89,-1.351698346153801,1.358459673551745
-3.8895,-1.565101843307454,1.464426057603419
-3.889,-1.522421143876723,1.061753798207057
-3.8885,-1.1062843244271,0.4259554938970107
-3.888,-0.5941159312583333,-0.1250697031716958
-3.8875,-0.1459685872356623,-0.4959520473525559
