Class_5_Move_Left_hand_Horiszontal/Class_5_Move_Left_hand_Horiszontal_UZ_7.csv

#Digilent WaveForms Oscilloscope Acquisition
#Device Name: EExplorer
#Serial Number: SN:210151A2B84A
#Date Time: 2020-12-14 13:26:59.386
#Sample rate: 2000Hz
#Samples: 16384
#Trigger: Source: Channel 1 Type: Edge Condition: Rising Level: 0 V Hyst.: Auto HoldOff: 0 s
#Channel 1: Range: 1 V/div Offset: 0 V Attenuation: 1 X
#Channel 2: Range: 1 V/div Offset: 0 V Attenuation: 1 X
#Power Supplies: ON
#Fixed Supply: ON
#Voltage: 3.3 V Readback: 3.324 V
#Positive Supply: ON
#Voltage: 3.7 V Readback: 3.716 V
#Current: 40 mA Readback: 19 mA
#Negative Supply: ON
#Voltage: -3.7 V Readback: -3.349 V
#Current: -40 mA Readback: -7 mA
#Reference 1: ON
#Voltage: 0 V
#Reference 2: ON
#Voltage: 0 V

Time (s),Channel 1 (V),Channel 2 (V)
-4.096,0.1634664836371343,0.2458126410091644
-4.0955,0.54759277851336,0.1398462569575864
-4.095,0.8676980242442467,-0.1674562567927317
-4.0945,0.9317190733902845,-0.570128516188728
-4.094,1.187803269974435,-0.8880276683434618
-4.0935,1.550589215135945,-1.163540266878172
-4.093,1.625280439139656,-1.237716735714276
-4.0925,1.475897991132235,-1.036380606016278
-4.092,1.134452395685876,-0.495952047352103
-4.0915,0.7183155762366316,0.002089957690313421
-4.091,0.3768699807907871,0.3411823866556712
-4.0905,0.1421261339215167,0.4683420475177479
-4.09,-0.1352984123779797,0.5425185163538525
-4.0895,-0.3060212101009019,0.5107286011383502
-4.089,-0.3166913849585749,0.2987958330351943
-4.0885,-0.2633405106701714,0.04447651131098315
-4.088,-0.1886492866663929,-0.2204394488182027
-4.0875,-0.2420001609547576,-0.305212556059465
-4.087,-0.615456280974242,0.1504428953631972
-4.0865,-1.212986073003927,0.7438546460520338
-4.086,-1.810515865033611,1.188913459068661
-4.0855,-2.269333383914256,1.379652950361781
-4.085,-1.991908837614759,1.051157159801889
-4.0845,-1.287677297008345,0.3305857482511593
-4.084,-0.6901475049770985,-0.284019279249535
-4.0835,-0.274010685527854,-0.6443049850249
-4.083,-0.04993701351651855,-0.7502713690765743
-4.0825,0.03542438534495228,-0.6760949002402384
-4.082,0.04609456020262521,-0.4959520473525559
-4.0815,0.03542438534494258,-0.2628260024388724
-4.081,0.0140840356295967,-0.0191033191202431
-4.0805,0.02475421048725994,0.2034260873884947
-4.08,0.08877525963335578,0.3517790250608387
-4.0795,0.4515612047942356,0.1504428953628406
-4.079,0.9850699476791344,-0.1886495336030666
-4.0785,1.465227816274416,-0.5913217929990628
-4.078,1.123782220828883,-0.5383386009732738
-4.0775,0.5369226036560363,0.002089957690323059
-4.077,0.5475927785137094,0.01268659609548085
-4.0765,0.7289857510941493,-0.2310360872231484
-4.076,0.8463576745287748,-0.305212556059359
-4.0755,0.79300680024041,-0.1038764263613609
-4.075,0.5902734779444399,0.1928294489833272
-4.0745,0.3661998059329104,0.4577454091125998
-4.074,0.1527963087794516,0.55311515475902
-4.0735,-0.01792648894347063,0.5955017083796896
-4.073,-0.1352984123778729,0.5319218779487429
-4.0725,-0.1459685872356623,0.3623756634660061
-4.072,-0.1352984123779797,0.13984625695749
-4.0715,-0.1246282375203067,-0.07208651114566586
-4.071,-0.1459685872358952,-0.2416327256283062
-4.0705,-0.4020527838200457,0.01268659609548085
-4.07,-0.8822106524153277,0.5955017083791596
-4.0695,-1.426389570157938,1.040560521396924
-4.069,-1.821186039891837,1.263089927905238
-4.0685,-1.639793067311232,0.9134008605347127
-4.068,-1.106284324426634,0.2140227257931127
-4.0675,-0.5941159312583333,-0.3899856633008816
-4.067,-0.2526703358124887,-0.7396747306714069
-4.0665,-0.06060718837412356,-0.8562377531281908
-4.066,0.02475421048725994,-0.792657922697244
-4.0655,0.03542438534494258,-0.6337083466197325
-4.065,0.02475421048726964,-0.4111789401114189
-4.0645,0.01408403562957729,-0.1780528951975329
-4.064,0.03542438534494258,0.02328323450064829
-4.0635,0.07810508477563433,0.192829448983173
-4.063,0.1527963087796554,0.2881991946297378
-4.0625,0.3768699807907871,0.1822328105781598
-4.062,0.9850699476781446,-0.1038764263611007
-4.0615,1.326515543123872,-0.5171453241628233
-4.061,0.5902734779444399,-0.4429688553267188
-4.0605,0.2808384070716433,-0.3687923864905467
-4.06,0.632954177375452,-0.5701285161888532
-4.0595,0.942389248247967,-0.7078848154559045
-4.059,1.017080472251745,-0.5383386009732256
-4.0585,0.8676980242443244,-0.08268314955144046
-4.058,0.6009436528021226,0.3411823866556712
-4.0575,0.3235191065023739,0.5637117931641874
-4.057,0.0460945602028775,0.6590815388106075
-4.0565,-0.3487019095316325,0.7438546460520338
-4.056,-0.4340633083930936,0.4895353243280153
-4.0555,-0.3807124341047289,0.1080563417423347
-4.055,-0.2740106855277764,-0.2416327256288074
-4.0545,-0.1886492866663929,-0.5383386009732256
-4.054,-0.338031734673814,-0.464162132137121
-4.0535,-0.8288597781279046,0.129249618552872
-4.053,-1.437059745015262,0.7332580076468663
-4.0525,-1.970568487899394,1.157123543853563
-4.052,-1.92788778846813,1.061753798206488
-4.0515,-1.341028171296118,0.4365521323021782
-4.051,-0.754168554123573,-0.1886495336027004
-4.0505,-0.3273615598166554,-0.5807251545935388
-4.05,-0.08194753808956648,-0.718481453861072
-4.0495,0.02475421048725994,-0.6654982618352349
-4.049,0.04609456020260581,-0.4959520473527101
-4.0485,0.03542438534492317,-0.2628260024386507
-4.048,0.01408403562957729,-0.01910331912002144
-4.0475,0.01408403562957729,0.2246193641986078
-4.047,0.04609456020271255,0.4047622170867433
-4.0465,0.142126133921769,0.4789386859228479
-4.046,0.3235191065022089,0.3941655786815855
-4.0455,0.9103787236753657,-0.04029659593079001
-4.045,1.401206767128321,-0.5171453241628908
-4.0445,0.9103787236749192,-0.4429688553267188
-4.044,0.31284893164473,-0.06148987274086466
-4.0435,0.3555296310754218,-0.252229364033705
-4.043,0.6009436528021226,-0.570128516188728
-4.0425,0.7396559259518707,-0.6231117082145169
-4.042,0.6756348768059011,-0.326405832869877
-4.0415,0.4835717293676135,0.02328323450064829
-4.041,0.2915085819295007,0.2246193641986464
-4.0405,0.1207857842062581,0.2881991946297281
-4.04,-0.03926683865883591,0.1716361721729923
-4.0395,-0.1032878878048735,0.04447651131109881
-4.039,-0.1139580626626047,-0.08268314955113205
-4.0385,-0.1032878878049318,-0.1992461720078678
-4.038,-0.09261771294725883,-0.3264058328697613
-4.0375,-0.1886492866669072,-0.3158091944642566
-4.037,-0.754168554123573,0.1822328105781598
-4.0365,-1.501080794161358,0.8180311148882058
-4.036,-2.141291285622656,1.220703374284587
-4.0355,-2.514747405641209,1.241896651094903
-4.035,-2.045259711903173,0.9345941373450475
-4.0345,-1.255666772435375,0.3305857482510532
-4.034,-0.6367966306890638,-0.1674562567923655
-4.0335,-0.2313299860971235,-0.4535654937318862
-4.033,-0.02859666380133766,-0.5277419625679908
-4.0325,0.05676473506030786,-0.4641621321369186
-4.032,0.05676473506030786,-0.3158091944647096
-4.0315,0.03542438534496199,-0.135666341577027
-4.031,0.02475421048725994,0.05507314971630479
-4.0305,0.02475421048725994,0.2246193641988295
-4.03,0.0994454344909705,0.3093924714400919
-4.0295,0.1848068333528683,0.3411823866553917
-4.029,0.5902734779444399,0.03387987290581572
-4.0285,1.230483969405398,-0.5383386009732256
-4.028,1.038420821966558,-0.7714646458865623
-4.0275,0.4302208550792003,-0.3899856633008816
-4.027,0.4729015545099309,-0.4535654937318862
-4.0265,0.7503261008094273,-0.7608680074814622
-4.026,0.9210488985326017,-0.8774310299385835
-4.0255,0.8676980242441885,-0.6443049850249
-4.025,0.6436243522330569,-0.2204394488185882
-4.0245,0.3875401556482853,0.1080563417421516
-4.024,0.1848068333524996,0.2881991946298341
-4.0235,-0.01792648894328625,0.4365521323020433
-4.023,-0.145968587235672,0.4683420475175455
-4.0225,-0.156638762093345,0.3199891098453364
-4.022,-0.1352984123779991,0.1186529801473383
-4.0215,-0.1032878878049221,-0.1038764263615247
-4.021,-0.09261771294724913,-0.2840192792492073
-4.0205,-0.4447334832507763,-0.01910331912002144
-4.02,-1.010252750708374,0.510728601138755
-4.0195,-1.46907026958831,0.9557874141553824
-4.019,-1.714484291315011,1.199510097474233
-4.0185,-1.45840009473086,0.8498210301040261
-4.018,-0.9569018764195432,0.2034260873884947
-4.0175,-0.4980843575391895,-0.3370024712750445
-4.017,-0.1886492866666743,-0.6337083466194626
-4.0165,-0.02859666380109505,-0.7184814538610045
-4.016,0.03542438534494258,-0.6443049850249
-4.0155,0.03542438534494258,-0.4747587705423753
-4.015,0.02475421048725023,-0.2734226408438374
-4.0145,0.01408403562957729,-0.05089323433552374
-4.014,0.02475421048725023,0.1398462569573166
-4.0135,0.05676473506034668,0.2987958330350883
-4.013,0.09944543449103843,0.3941655786815084
-4.0125,0.4302208550792003,0.2140227257936621
-4.012,1.102441871113284,-0.252229364034129
-4.0115,1.187803269974668,-0.718481453861072
-4.011,0.5155822539406614,-0.6654982618352349
-4.0105,0.2061471830681463,-0.5277419625681836
-4.01,0.408880505363835,-0.6125150698093976
-4.0095,0.6863050516635838,-0.6231117082145651
-4.009,0.793006800240313,-0.3793890248959358
-4.0085,0.6969752265210819,0.03387987290610485
-4.008,0.4942419042252961,0.3517790250608387
-4.0075,0.2701682322141645,0.5107286011382056
-4.007,0.06743490991779641,0.5213252395434887
-4.0065,-0.1459685872356623,0.4895353243280153
-4.006,-0.2206598112394408,0.2670059178194992
-4.0055,-0.2099896363817096,-0.02969995752544909
-4.005,-0.156638762093345,-0.3158091944647096
-4.0045,-0.124628237520297,-0.5595318777835605
-4.004,-0.2953510352435978,-0.4535654937313658
-4.0035,-0.7114878546928423,0.1186529801471552
-4.003,-1.362368521011484,0.7226613692416989
-4.0025,-1.970568487898841,1.10414035182738
-4.002,-2.247993034199143,1.167720182258731
-4.0015,-1.661133417026597,0.6060983467848571
-4.001,-0.9889124009932025,-0.07208651114524178
-4.0005,-0.4767440078235234,-0.5595318777837532
-4,-0.1459685872356623,-0.7714646458869092
-3.9995,0.00341386077189465,-0.7608680074817418
-3.999,0.05676473506030786,-0.6019184314042303
-3.9985,0.05676473506030786,-0.3687923864905467
-3.998,0.03542438534494258,-0.1038764263613609
-3.9975,0.03542438534494258,0.1504428953626575
-3.997,0.0674349099179905,0.3517790250608387
-3.9965,0.1527963087794516,0.4471487707073456
-3.996,0.2274875327832301,0.4683420475176805
-3.9955,0.5049120790829789,0.4259554938970107
-3.995,0.6969752265212663,0.09745970333682032
-3.9945,0.2168173579255475,0.2140227257936621
-3.994,0.1634664836371343,0.2881991946298341
-3.9935,0.6009436528021226,-0.1462629799820306
-3.993,0.9530594231056497,-0.5489352393783931
-3.9925,1.059761171682476,-0.6125150698093976
-3.992,0.9210488985326017,-0.3370024712750445
-3.9915,0.6436243522328531,0.01268659609548085
-3.991,0.3768699807907871,0.2776025562246667
-3.9905,0.1634664836371343,0.383568940276341
-3.99,-0.01792648894347063,0.4047622170866759
-3.9895,-0.1032878878049318,0.3199891098453364
-3.989,-0.124628237520297,0.1504428953626575
-3.9885,-0.1032878878049318,-0.05089323433552374
-3.988,-0.124628237520297,-0.2204394488182027
-3.9875,-0.2313299860971235,-0.252229364033705
-3.987,-0.6474668055467465,0.2140227257936621
-3.9865,-1.234326422719292,0.8180311148882058
-3.986,-1.575772018165136,1.157123543853563
-3.9855,-1.885207089037933,1.326669758336243
-3.985,-1.725154466172693,1.00877060618122
-3.9845,-1.159635198715513,0.3199891098453364
-3.984,-0.6261264558313813,-0.2840192792492073
-3.9835,-0.2526703358124887,-0.6337083466197325
-3.983,-0.04993701351651855,-0.7502713690765743
-3.9825,0.03542438534494258,-0.6760949002404023
-3.982,0.05676473506030786,-0.5065486857577234
-3.9815,0.03542438534494258,-0.2946159176543747
-3.981,0.03542438534494258,-0.07208651114585861
-3.9805,0.0674349099179905,0.1186529801471552
-3.98,0.1101156093487211,0.2776025562246667
-3.9795,0.1634664836371343,0.3941655786815084
-3.979,0.5155822539406614,0.1716361721729923
-3.9785,1.027750647109428,-0.3370024712750445
-3.978,0.6969752265212663,-0.4853554089473885
-3.9775,0.2488278824985954,-0.1144730647665284
-3.977,0.3341892813600565,-0.05089323433552374
-3.9765,0.6222840025174878,-0.2204394488182027
-3.976,0.79300680024041,-0.2310360872233701
-3.9755,0.79300680024041,-0.01910331912002144
-3.975,0.6222840025174878,0.2670059178194992
-3.9745,0.3982103305061524,0.4365521323021782
-3.974,0.1954770082101822,0.4895353243280153
-3.9735,-0.02859666380115328,0.3517790250608387
-3.973,-0.1886492866663929,0.2034260873884947
-3.9725,-0.1993194615240755,0.05507314971615059
-3.972,-0.1779791118087102,-0.1144730647665284
-3.9715,-0.1459685872356623,-0.2840192792492073
-3.971,-0.156638762093345,-0.400582301706049
-3.9705,-0.6047861061160158,-0.04029659593035631
-3.97,-1.330357996438436,0.5637117931641874
-3.9695,-1.970568487899394,1.051157159801889
-3.969,-2.450726356495113,1.188913459069066
-3.9685,-2.130621110764634,0.8922075837243778
-3.968,-1.341028171296118,0.2140227257936621
-3.9675,-0.7008176798351597,-0.3793890248957141
-3.967,-0.274010685527854,-0.7396747306714069
-3.9665,-0.02859666380115328,-0.8562377531282487
-3.966,0.05676473506030786,-0.7820612842920766
-3.9655,0.0674349099179905,-0.6125150698093976
-3.965,0.05676473506030786,-0.3793890248957141
-3.9645,0.03542438534494258,-0.1356663415768632
-3.964,0.07810508477567314,0.06566978812131802
-3.9635,0.142126133921769,0.2246193641988295
-3.963,0.1954770082101822,0.3411823866556712
-3.9625,0.3768699807907871,0.2881991946298341
-3.962,0.9103787236749192,-0.09327978795619347
-3.9615,0.825017324813458,-0.1674562567923655
-3.961,0.3982103305061524,0.2670059178194992
-3.9605,0.6436243522328531,0.1504428953626575
-3.96,1.081101521397841,-0.3793890248957141
-3.9595,1.283834843693812,-0.7820612842920766
-3.959,1.209143619690033,-0.7502713690765743
-3.9585,0.9317190733902845,-0.3687923864905467
-3.958,0.6116138276598051,0.02328323450064829
-3.9575,0.3235191065023739,0.309392471440169
-3.957,0.0674349099179905,0.3729723018711736
-3.9565,-0.1352984123779797,0.2246193641988295
-3.956,-0.1779791118087102,0.13984625695749
-3.9555,-0.156638762093345,0.06566978812131802
-3.955,-0.124628237520297,-0.05089323433552374
-3.9545,-0.09261771294724913,-0.1780528951975329
-3.954,-0.2846808603855366,-0.07208651114585861
-3.9535,-0.807519428411986,0.4683420475176805
-3.953,-1.501080794161358,1.029963882991555
-3.9525,-2.141291285622316,1.347863035146577
-3.952,-2.322684258202921,1.316073119931075
-3.9515,-1.639793067311232,0.6908714540261965
-3.951,-0.9462317015618604,-0.04029659593035631
-3.9505,-0.4340633083930936,-0.570128516188728
-3.95,-0.1139580626626144,-0.8244478379127463
-3.9495,0.02475421048725994,-0.8774310299385835
-3.949,0.0674349099179905,-0.7714646458869092
-3.9485,0.0674349099179905,-0.5913217929990628
-3.948,0.03542438534494258,-0.3793890248957141
-3.9475,0.05676473506030786,-0.1674562567923655
-3.947,0.09944543449103843,0.02328323450064829
-3.9465,0.1527963087794516,0.1504428953626575
-3.946,0.3128489316446912,0.13984625695749
-3.9455,0.9210488985326017,-0.2628260024388724
-3.945,1.241154144263081,-0.6972881770507372
-3.9445,0.6542945270905358,-0.5913217929990628
-3.944,0.5262524287983441,-0.3581957480853793
-3.9435,0.9317190733902845,-0.4959520473525559
-3.943,1.19847344483235,-0.6549016234300674
-3.9425,1.209143619690033,-0.570128516188728
-3.942,0.9957401225363802,-0.1886495336027004
-3.9415,0.6863050516635838,0.1822328105781598
-3.941,0.3768699807907871,0.457745409112513
-3.9405,0.1314559590640864,0.5425185163538525
-3.94,-0.1993194615240755,0.2458126410091644
-3.9395,-0.3273615598162672,0.02328323450064829
-3.939,-0.2846808603855366,-0.1038764263613609
-3.9385,-0.2099896363817582,-0.2310360872233701
-3.938,-0.1352984123779797,-0.3899856633008816
-3.9375,-0.2846808603855366,-0.3370024712750445
-3.937,-0.807519428411986,0.1928294489833272
-3.9365,-1.405049220442214,0.7650479228623686
-3.936,-2.013249187330125,1.157123543853563
-3.9355,-2.354694782775969,1.241896651094903
-3.935,-1.735824641030376,0.6696781772158616
-3.9345,-1.031593100423322,-0.08268314955102604
-3.934,-0.4874141826815069,-0.6443049850249
-3.9335,-0.1459685872356623,-0.9410108603695881
-3.933,0.01408403562957729,-0.9939940523954253
-3.9325,0.0674349099179905,-0.8880276683437509
-3.932,0.0674349099179905,-0.6972881770507372
-3.9315,0.04609456020262521,-0.4535654937318862
-3.931,0.02475421048725994,-0.1992461720078678
-3.9305,0.03542438534494258,0.03387987290581572
-3.93,0.07810508477567314,0.2140227257936621
-3.9295,0.2701682322139607,0.1292496185523226
-3.929,0.707645401378949,-0.1038764263613609
-3.9285,1.049090996824793,-0.3370024712750445
-3.928,0.5582629533713921,0.05507314971615059
-3.9275,-0.2420001609548061,0.6484849004055269
-3.927,-0.274010685527854,0.3305857482505039
-3.9265,0.1954770082101822,-0.4429688553267188
-3.926,0.6009436528021226,-0.9092209451540858
-3.9255,0.7289857510943143,-0.7820612842920766
-3.925,0.6329541773751706,-0.4323722169215513
-3.9245,0.4408910299368829,-0.07208651114585861
-3.924,0.2274875327832301,0.2140227257936621
-3.9235,0.04609456020262521,0.3729723018711736
-3.923,-0.06060718837420119,0.4471487707073456
-3.9225,-0.09261771294724913,0.4365521323021782
-3.922,-0.08194753808956648,0.3729723018711736
-3.9215,-0.08194753808956648,0.2881991946298341
-3.921,-0.1032878878049318,0.2352160026039969
-3.9205,-0.274010685527854,0.5001319627331828
-3.92,-0.754168554123573,0.9981739677760521
-3.9195,-1.394379045584531,1.42203950398275
-3.919,-1.938557963326346,1.612778995275763
-3.9185,-2.013249187330125,1.443232780793084
-3.918,-1.426389570157579,0.775644561267536
-3.9175,-0.807519428411986,0.08686306493165288
-3.917,-0.3593720843893152,-0.3899856633008816
-3.9165,-0.09261771294724913,-0.6125150698093976
-3.916,0.03542438534494258,-0.6549016234300674
-3.9155,0.0674349099179905,-0.570128516188728
-3.915,0.05676473506030786,-0.4323722169215513
-3.9145,0.04609456020262521,-0.2628260024388724
-3.914,0.0674349099179905,-0.1144730647665284
-3.9135,0.09944543449103843,0.02328323450064829
-3.913,0.1634664836371343,0.08686306493165288
-3.9125,0.3341892813600565,0.05507314971615059
-3.912,0.8356874996711408,-0.2734226408440398
-3.9115,0.6329541773751706,-0.6972881770507372
-3.911,0.05676473506030786,-0.5595318777835605
-3.9105,0.1527963087794516,-0.570128516188728
-3.91,0.5262524287983441,-0.7290780922662394
-3.9095,0.8036769750980928,-0.7078848154559045
-3.909,0.8676980242441885,-0.3687923864905467
-3.9085,0.7503261008096795,0.01268659609548085
-3.908,0.5262524287983441,0.2987958330350016
-3.9075,0.291508581929326,0.4683420475176805
-3.907,0.05676473506030786,0.5001319627331828
-3.9065,-0.2099896363817582,0.4471487707073456
-3.906,-0.2633405106701714,0.3199891098453364
-3.9055,-0.2206598112394408,0.13984625695749
-3.905,-0.156638762093345,-0.05089323433552374
-3.9045,-0.124628237520297,-0.2204394488182027
-3.904,-0.3700422592469978,-0.1038764263613609
-3.9035,-1.06360362499637,0.457745409112513
-3.903,-1.682473766741963,1.00877060618122
-3.9025,-2.151961460479999,1.326669758336243
-3.902,-1.927887788468663,1.114736990232894
-3.9015,-1.26633694729234,0.4153588554918433
-3.901,-0.6688071552621118,-0.2416327256285375
-3.9005,-0.2633405106701714,-0.6760949002404023
-3.9,-0.02859666380115328,-0.8456411147230812
-3.8995,0.05676473506030786,-0.8456411147230812
-3.899,0.07810508477567314,-0.718481453861072
-3.8985,0.0674349099179905,-0.5277419625680583
-3.898,0.03542438534494258,-0.3158091944647096
-3.8975,0.02475421048725994,-0.1144730647665284
-3.897,0.04609456020262521,0.07626642652648545
-3.8965,0.09944543449103843,0.2140227257936621
-3.896,0.2168173579255475,0.2352160026039969
-3.8955,0.7823366253827275,-0.1674562567923655
-3.895,0.9637295979633325,-0.5383386009732256
-3.8945,0.3021787567870086,-0.1886495336027004
-3.894,-0.04993701351651855,0.002089957690313421
-3.8935,0.2488278824985954,-0.3581957480853793
-3.893,0.6222840025174878,-0.718481453861072
-3.8925,0.825017324813458,-0.7290780922662394
-3.892,0.79300680024041,-0.4111789401112165
-3.8915,0.5796033030867573,-0.008506680714854012
-3.891,0.3555296310754218,0.2881991946298341
-3.8905,0.142126133921769,0.457745409112513
-3.89,-0.156638762093345,0.5849050699745222
-3.8895,-0.2633405106701714,0.5107286011383502
-3.889,-0.2313299860971235,0.309392471440169
-3.8885,-0.156638762093345,0.06566978812131802
-3.888,-0.1032878878049318,-0.1356663415768632
