Class_5_Move_Left_hand_Horiszontal/Class_5_Move_leftt_hand_horizontal_Basim_5.csv

#Digilent WaveForms Oscilloscope Acquisition
#Device Name: EExplorer
#Serial Number: SN:210151A2B84A
#Date Time: 2020-11-26 10:37:13.283
#Sample rate: 2000Hz
#Samples: 16384
#Trigger: Source: Channel 1 Type: Edge Condition: Rising Level: 0 V Hyst.: Auto HoldOff: 0 s
#Channel 1: Range: 1 V/div Offset: 0 V Attenuation: 1 X
#Channel 2: Range: 1 V/div Offset: 0 V Attenuation: 1 X
#Power Supplies: ON
#Fixed Supply: ON
#Voltage: 3.3 V Readback: 3.321 V
#Positive Supply: ON
#Voltage: 3.7 V Readback: 3.716 V
#Current: 500 mA Readback: 22 mA
#Negative Supply: ON
#Voltage: -3.7 V Readback: -3.705 V
#Current: -500 mA Readback: -9 mA
#Reference 1: ON
#Voltage: 0 V
#Reference 2: ON
#Voltage: 0 V

Time (s),Channel 1 (V),Channel 2 (V)
-4.096,-2.002579012472442,-0.6866915386455698
-4.0955,-1.981238662757096,-1.269506650929248
-4.095,-1.244996597576285,-1.142346990067365
-4.0945,-0.4874141826815069,-0.6972881770507372
-4.094,0.07810508477515882,-0.2734226408444254
-4.0935,0.4088805053639709,0.01268659609563506
-4.093,0.5582629533713921,0.1822328105781598
-4.0925,0.5902734779444108,0.2564092794142643
-4.092,0.5796033030867282,0.2776025562246667
-4.0915,0.5475927785137094,0.2776025562246667
-4.091,0.5155822539406614,0.2670059178194992
-4.0905,0.5049120790829594,0.277602556224657
-4.09,0.4835717293676135,0.2670059178194992
-4.0895,0.1101156093487211,-0.1038764263613609
-4.089,-0.6901475049767491,-0.9092209451533533
-4.0885,-1.351698346153801,-1.661582271920973
-4.088,-1.522421143876723,-1.873515040024322
-4.0875,-0.8502001278433281,-1.417859588602537
-4.087,-0.0712773632313986,-0.8456411147225222
-4.0865,0.4622313796522482,-0.2310360872233701
-4.086,0.6969752265210528,0.2881991946293618
-4.0855,0.7396559259519579,0.6166949851901498
-4.085,0.6969752265212663,0.7544512844572011
-4.0845,0.6329541773752287,0.7650479228623589
-4.084,0.7503261008097863,0.8604176685088755
-4.0835,0.8676980242441885,0.8604176685088755
-4.083,0.8143471499557753,0.6378882620003594
-4.0825,0.707645401378852,0.3729723018709712
-4.082,0.6009436528021226,0.1504428953626575
-4.0815,0.5262524287983441,0.01268659609548085
-4.081,0.1207857842067725,0.3093924714398991
-4.0805,-0.7008176798351597,0.7332580076468663
-4.08,-1.244996597576974,0.1822328105781598
-4.0795,-1.565101843307163,-0.1780528951972052
-4.079,-1.767835165602978,0.2034260873885718
-4.0785,-1.277007122150022,0.2881991946298341
-4.078,-0.5834457564012814,0.1716361721730983
-4.0775,-0.01792648894314067,0.04447651131092532
-4.077,0.3448594562177392,-0.01910331912002144
-4.0765,0.5155822539405062,-0.00850668071486365
-4.076,0.5796033030867573,0.0550731497162566
-4.0755,0.5796033030867573,0.1716361721729923
-4.075,0.5475927785137094,0.2881991946298341
-4.0745,0.5262524287983247,0.3941655786816048
-4.074,0.5049120790829789,0.5001319627331828
-4.0735,0.4942419042252961,0.5955017083796896
-4.073,0.3341892813602021,0.4895353243281117
-4.0725,-0.4020527838200457,-0.1568596183871981
-4.072,-1.1062843244271,-0.8774310299385835
-4.0715,-1.383708870726597,-1.311893204550053
-4.071,-0.9035510021304604,-1.068170521231173
-4.0705,-0.1673089369510276,-0.6019184314042303
-4.07,0.3982103305056381,-0.1144730647669717
-4.0695,0.6649647019482765,0.3623756634663242
-4.069,0.7289857510943143,0.7120647308365314
-4.0685,0.6969752265212663,0.8710143069140429
-4.068,0.6436243522328919,0.8922075837243875
-4.0675,0.6863050516635838,0.9028042221295453
-4.067,0.8783681991018712,0.9557874141553824
-4.0665,0.8676980242440817,0.7332580076465676
-4.066,0.7503261008096795,0.4047622170866759
-4.0655,0.6436243522328531,0.09745970333682032
-4.065,0.5582629533714697,-0.146262979981809
-4.0645,0.291508581929326,-0.06148987274069118
-4.064,-0.4980843575391895,0.5425185163538525
-4.0635,-1.223656247860949,0.510728601138379
-4.063,-1.543761493592331,-0.08268314955084292
-4.0625,-1.810515865034154,0.1186529801471552
-4.062,-1.447729919873274,0.2564092794142065
-4.0615,-0.7434983792653371,0.1398462569573647
-4.061,-0.1352984123779797,0.002089957690313421
-4.0605,0.2808384070716433,-0.07208651114585861
-4.06,0.4942419042253641,-0.08268314955096821
-4.0595,0.5689331282290746,-0.01910331912002144
-4.059,0.5796033030867573,0.07626642652648545
-4.0585,0.5582629533714115,0.203426087388379
-4.058,0.5262524287983441,0.309392471440169
-4.0575,0.5049120790829789,0.4153588554918433
-4.057,0.4942419042253058,0.5107286011382635
-4.0565,0.4302208550792003,0.5213252395435176
-4.056,-0.1352984123779797,0.02328323450064829
-4.0555,-0.9889124009918148,-0.7184814538603973
-4.055,-1.575772018165049,-1.301296566145358
-4.0545,-1.479740444445993,-1.38606967338662
-4.054,-0.722158029551214,-0.9833974139906241
-4.0535,0.03542438534536958,-0.4429688553262079
-4.053,0.5049120790829789,0.1186529801471552
-4.0525,0.6969752265212663,0.5849050699745222
-4.052,0.7183155762365927,0.8604176685089525
-4.0515,0.6756348768059011,0.9451907757502149
-4.051,0.6222840025174878,0.8710143069140429
-4.0505,0.7716664505249089,0.4471487707077311
-4.05,0.8143471499557753,0.1504428953626575
-4.0495,0.7396559259519968,0.02328323450064829
-4.049,0.6436243522329405,-0.05089323433545628
-4.0485,0.5689331282289776,-0.125069703171715
-4.048,0.4622313796522482,-0.1462629799820306
-4.0475,-0.0712773632313986,0.3305857482500701
-4.047,-0.9248913518470677,0.6696781772153412
-4.0465,-1.554431668449771,0.09745970333682032
-4.046,-2.055929886760399,0.02328323450071575
-4.0455,-1.927887788467955,0.03387987290570971
-4.045,-1.148965023857831,-0.08268314955102604
-4.0445,-0.391382608962363,-0.1674562567923655
-4.044,0.1421261339220407,-0.1992461720078582
-4.0435,0.4408910299368829,-0.1886495336027004
-4.043,0.5689331282290746,-0.1250697031716958
-4.0425,0.5902734779444204,-0.0508932343355912
-4.042,0.5689331282290746,0.03387987290581572
-4.0415,0.5369226036560266,0.13984625695749
-4.041,0.5155822539406808,0.2246193641987524
-4.0405,0.4942419042252864,0.3199891098453942
-4.04,0.4835717293676135,0.383568940276341
-4.0395,0.1421261339220795,0.07626642652676496
-4.039,-0.6688071552626941,-0.6549016234306746
-4.0385,-1.30901764672307,-1.322489842955616
-4.038,-1.479740444445837,-1.534422611058772
-4.0375,-0.8075194284112581,-1.227120097308752
-4.037,-0.007256314085787988,-0.8350444763179138
-4.0365,0.5262524287983441,-0.3475991096802118
-4.036,0.750326100809699,0.1928294489837031
-4.0355,0.7716664505250448,0.6060983467848571
-4.035,0.707645401378949,0.8180311148882058
-4.0345,0.6329541773752385,0.8816109453191525
-4.034,0.7289857510943143,0.775644561267536
-4.0335,0.857027849386506,0.5637117931641874
-4.033,0.8143471499558141,0.4365521323022938
-4.0325,0.7076454013788617,0.3305857482504075
-4.032,0.6116138276598051,0.2246193641988295
-4.0315,0.5369226036560946,0.1398462569575671
-4.031,0.1954770082095126,0.3835689402768229
-4.0305,-0.5407650569699201,0.9134008605347127
-4.03,-1.106284324426586,0.5531151547593476
-4.0295,-1.597112367880725,0.1080563417418914
-4.029,-1.842526389607202,0.002089957690313421
-4.0285,-1.319687821580753,-0.1886495336027004
-4.028,-0.604786106115482,-0.252229364033705
-4.0275,-0.01792648894347063,-0.252229364033705
-4.027,0.3448594562177392,-0.1992461720078678
-4.0265,0.5262524287981791,-0.135666341576921
-4.026,0.5796033030867573,-0.07208651114585861
-4.0255,0.5796033030867573,0.002089957690313421
-4.025,0.5475927785137384,0.08686306493157578
-4.0245,0.5262524287983247,0.1716361721730502
-4.024,0.5049120790829789,0.2352160026039969
-4.0235,0.4942419042253058,0.3093924714401015
-4.023,0.3555296310747716,0.2140227257930838
-4.0225,-0.3593720843893152,-0.4217755785163839
-4.022,-1.255666772433842,-1.16354026687743
-4.0215,-1.895877263895247,-1.661582271920925
-4.021,-1.490410619303675,-1.608599079895136
-4.0205,-0.5941159312583333,-1.152943628472937
-4.02,0.1527963087798204,-0.5383386009726377
-4.0195,0.5582629533713921,0.1080563417419877
-4.019,0.707645401378949,0.5955017083796896
-4.0185,0.707645401378949,0.8604176685086345
-4.018,0.6649647019482183,0.9451907757502149
-4.0175,0.6756348768059011,0.8604176685088755
-4.017,0.8356874996709952,0.5743084315696151
-4.0165,0.8250173248133706,0.3941655786814024
-4.016,0.7289857510943143,0.2776025562246667
-4.0155,0.6329541773752579,0.1716361721730887
-4.015,0.5582629533712271,0.06566978812135657
-4.0145,0.3768699807907871,0.1080563417419877
-4.014,-0.2953510352426079,0.6166949851895619
-4.0135,-0.9248913518468542,0.5319218779480875
-4.013,-1.319687821580753,-0.1250697031716958
-4.0125,-1.746494815888059,-0.01910331912002144
-4.012,-1.543761493591477,-0.01910331912009855
-4.0115,-0.8715404775580819,-0.1038764263613609
-4.011,-0.2313299860971235,-0.1780528951975329
-4.0105,0.21681735792514,-0.1992461720078486
-4.01,0.4622313796522482,-0.1886495336027004
-4.0095,0.5689331282290746,-0.1462629799820306
-4.009,0.5796033030867477,-0.07208651114592607
-4.0085,0.5582629533713727,0.01268659609555796
-4.008,0.5369226036560266,0.09745970333682032
-4.0075,0.5049120790830079,0.1928294489832405
-4.007,0.4942419042252573,0.2776025562246956
-4.0065,0.4515612047945656,0.309392471440169
-4.006,-0.06060718837420119,-0.1568596183871981
-4.0055,-0.8075194284125489,-0.9092209451546351
-4.005,-1.426389570157579,-1.51322933424863
-4.0045,-1.447729919872945,-1.619195718300304
-4.004,-0.7434983792652303,-1.174136905282703
-4.0035,-0.01792648894347063,-0.5489352393783931
-4.003,0.4515612047945656,0.07626642652648545
-4.0025,0.6542945270903514,0.5849050699740596
-4.002,0.6969752265212663,0.8710143069140429
-4.0015,0.6649647019482183,0.9769806909657173
-4.001,0.6116138276598536,0.9557874141554017
-4.0005,0.7289857510943532,0.8922075837242429
-4,0.7716664505250448,0.7438546460520338
-3.9995,0.707645401378949,0.5425185163538525
-3.999,0.6329541773751706,0.3411823866556712
-3.9985,0.5582629533713921,0.1610395337678249
-3.998,0.4622313796522482,0.06566978812131802
-3.9975,-0.1139580626626144,0.4789386859228479
-3.997,-0.9462317015618604,0.8816109453192104
-3.9965,-1.383708870726849,0.309392471440169
-3.996,-1.682473766741963,-0.02969995752518888
-3.9955,-1.778505340461106,-0.400582301706049
-3.995,-1.191645723288561,-0.5277419625680583
-3.9945,-0.4874141826815069,-0.4217755785163839
-3.994,0.05676473506030786,-0.252229364033705
-3.9935,0.3768699807907871,-0.09327978795619347
-3.993,0.5369226036560266,0.01268659609548085
-3.9925,0.5796033030867573,0.09745970333682032
-3.992,0.5689331282290746,0.1504428953626575
-3.9915,0.5475927785137094,0.1928294489833272
-3.991,0.5155822539406614,0.2352160026039969
-3.9905,0.5049120790829789,0.2670059178194992
-3.99,0.4942419042252961,0.2987958330350016
-3.9895,0.2168173579255475,0.03387987290581572
-3.989,-0.6047861061160158,-0.7290780922662394
-3.9885,-1.426389570157579,-1.47084278062796
-3.988,-1.661133417026597,-1.88411167842949
-3.9875,-0.9995825758502737,-1.650985633515806
-3.987,-0.1673089369510276,-1.078767159636765
-3.9865,0.4195506802215176,-0.400582301706049
-3.986,0.6969752265212663,0.1928294489833272
-3.9855,0.7716664505250448,0.6166949851900245
-3.985,0.7396559259519968,0.8286277532933731
-3.9845,0.6756348768059011,0.8816109453192104
-3.984,0.7609962756673623,0.6378882620003594
-3.9835,0.942389248247967,0.2564092794143318
-3.983,0.8890383739595538,0.13984625695749
-3.9825,0.7609962756673623,0.1186529801471552
-3.982,0.6436243522328531,0.08686306493165288
-3.9815,0.5475927785137094,0.03387987290581572
-3.981,0.2381577076409128,0.2670059178194992
-3.9805,-0.4874141826815069,0.7120647308365314
-3.98,-1.06360362499637,0.2458126410091644
-3.9795,-1.501080794161358,-0.2946159176543747
-3.979,-1.853196564464885,-0.2840192792492073
-3.9785,-1.522421143876723,-0.4217755785163839
-3.978,-0.807519428411986,-0.3793890248957141
-3.9775,-0.1673089369510276,-0.2628260024388724
-3.977,0.2594980573562781,-0.1462629799820306
-3.9765,0.4835717293676135,-0.06148987274069118
-3.976,0.5689331282290746,0.01268659609548085
-3.9755,0.5796033030867573,0.06566978812131802
-3.975,0.5582629533713921,0.1186529801471552
-3.9745,0.5262524287983441,0.1610395337678249
-3.974,0.5049120790829789,0.2140227257936621
-3.9735,0.4942419042252961,0.2670059178194992
-3.973,0.3982103305061524,0.2034260873884947
-3.9725,-0.274010685527854,-0.4323722169215513
-3.972,-1.116954499284783,-1.216523458903942
-3.9715,-1.714484291315011,-1.75695201756748
-3.971,-1.405049220442214,-1.576809164679634
-3.9705,-0.5621054066852853,-1.05757388282643
-3.97,0.1634664836371343,-0.4641621321370536
-3.9695,0.5582629533713921,0.13984625695749
-3.969,0.6969752265212663,0.5743084315693548
-3.9685,0.6969752265212663,0.8180311148882058
-3.968,0.6542945270905358,0.8816109453192104
-3.9675,0.6542945270905358,0.775644561267536
-3.967,0.8783681991018712,0.383568940276341
-3.9665,0.8997085488172365,0.1928294489833272
-3.966,0.79300680024041,0.1504428953626575
-3.9655,0.6756348768059011,0.1292496185523226
-3.965,0.5796033030867573,0.07626642652648545
-3.9645,0.3768699807907871,0.1822328105781598
-3.964,-0.3060212101009019,0.7226613692416989
-3.9635,-1.148965023857831,0.7332580076468663
-3.963,-1.618452717595867,0.01268659609548085
-3.9625,-2.002579012472442,-0.04029659593035631
-3.962,-1.757164990745741,-0.1886495336027004
-3.9615,-0.9995825758502737,-0.252229364033705
-3.961,-0.2953510352432193,-0.2310360872233701
-3.9605,0.1954770082101822,-0.1780528951975329
-3.96,0.4622313796522482,-0.1038764263613609
-3.9595,0.5796033030867573,-0.02969995752518888
-3.959,0.5902734779444399,0.04447651131098315
-3.9585,0.5689331282290746,0.1186529801471552
-3.958,0.5369226036560266,0.1822328105781598
-3.9575,0.5155822539406614,0.2564092794143318
-3.957,0.4942419042252961,0.3199891098453364
-3.9565,0.4622313796522482,0.3411823866556712
-3.956,-0.01792648894347063,-0.08268314955102604
-3.9555,-0.8928808272734472,-0.8562377531282487
-3.955,-1.565101843307454,-1.502632695843462
-3.9545,-1.479740444445993,-1.650985633515806
-3.954,-0.7008176798351597,-1.205926820498774
-3.9535,0.05676473506030786,-0.5913217929990628
-3.953,0.5369226036560266,0.04447651131098315
-3.9525,0.7183155762366316,0.5425185163538525
-3.952,0.7396559259519968,0.8180311148882058
-3.9515,0.6863050516635838,0.9028042221295453
-3.951,0.6329541773751706,0.849821030103708
-3.9505,0.7609962756673623,0.8922075837243778
-3.95,0.8356874996711408,0.8074344764830383
-3.9495,0.7716664505250448,0.5637117931641874
-3.949,0.6756348768059011,0.2987958330350016
-3.9485,0.5902734779444399,0.07626642652648545
-3.948,0.5049120790829789,-0.07208651114585861
-3.9475,0.0674349099179905,0.2670059178194992
-3.947,-0.7968492535543035,0.8180311148882058
-3.9465,-1.447729919872945,0.4471487707073456
-3.946,-1.959898313041711,-0.008506680714854012
-3.9455,-2.098610586191586,-0.5277419625680583
-3.945,-1.373038695869166,-0.6654982618352349
-3.9445,-0.5834457564006506,-0.474758770542221
-3.944,0.01408403562957729,-0.2204394488182027
-3.9435,0.3768699807907871,0.002089957690313421
-3.943,0.5475927785137094,0.1716361721729923
-3.9425,0.6009436528021226,0.2776025562246667
-3.942,0.5902734779444399,0.3517790250608387
-3.9415,0.5582629533713921,0.3941655786815084
-3.941,0.5262524287983441,0.4259554938970107
-3.9405,0.5049120790829789,0.4365521323021782
-3.94,0.4942419042252961,0.4365521323021782
-3.9395,0.2381577076409128,0.1716361721729923
-3.939,-0.5300948821122373,-0.6019184314042303
-3.9385,-1.277007122150022,-1.38606967338662
-3.938,-1.586442193022819,-1.809935209593318
-3.9375,-1.010252750707956,-1.502632695843462
-3.937,-0.2206598112394408,-0.8880276683437509
-3.9365,0.3448594562177392,-0.1992461720078678
-3.936,0.6329541773751706,0.3305857482505039
-3.9355,0.7183155762366316,0.627291623595192
-3.935,0.707645401378949,0.7438546460520338
-3.9345,0.6436243522328531,0.7544512844572011
-3.934,0.707645401378949,0.7544512844572011
-3.9335,0.857027849386506,0.7650479228623686
-3.933,0.8356874996711408,0.6060983467848571
-3.9325,0.7289857510943143,0.4047622170866759
-3.932,0.6222840025174878,0.2034260873884947
-3.9315,0.5475927785137094,0.03387987290581572
-3.931,0.291508581929326,0.2034260873884947
-3.9305,-0.4767440078238243,0.7544512844572011
-3.93,-1.191645723288561,0.5319218779486851
-3.9295,-1.565101843307454,-0.02969995752518888
-3.929,-1.853196564464885,0.1928294489833272
-3.9285,-1.426389570157579,0.2246193641988295
-3.928,-0.7008176798351597,0.07626642652648545
-3.9275,-0.09261771294724913,-0.07208651114585861
-3.927,0.3021787567870086,-0.1462629799820306
-3.9265,0.5049120790829789,-0.1462629799820306
-3.926,0.5796033030867573,-0.09327978795619347
-3.9255,0.5796033030867573,0.002089957690313421
-3.925,0.5582629533713921,0.1186529801471552
-3.9245,0.5262524287983441,0.2352160026039969
-3.924,0.5049120790829789,0.3305857482505039
-3.9235,0.4942419042252961,0.4259554938970107
-3.923,0.408880505363835,0.4047622170866759
-3.9225,-0.2420001609548061,-0.1462629799820306
-3.922,-1.116954499284783,-0.8774310299385835
-3.9215,-1.821186039891837,-1.407262950196955
-3.921,-1.543761493592088,-1.248313374119443
-3.9205,-0.6474668055467465,-0.8562377531282487
-3.92,0.142126133921769,-0.4111789401112165
-3.9195,0.6009436528021226,0.07626642652648545
-3.919,0.7609962756673623,0.5001319627331828
-3.9185,0.7609962756673623,0.7650479228623686
-3.918,0.6969752265212663,0.8816109453192104
-3.9175,0.6863050516635838,0.9451907757502149
-3.917,0.8997085488172365,1.072350436612224
-3.9165,0.9210488985326017,0.9134008605347127
-3.916,0.8143471499557753,0.6060983467848571
-3.9155,0.6863050516635838,0.2987958330350016
-3.915,0.5902734779444399,0.04447651131098315
-3.9145,0.4408910299368829,-0.04029659593035631
-3.914,-0.1673089369510276,0.4365521323021782
-3.9135,-1.06360362499637,0.5955017083796896
-3.913,-1.767835165603424,-0.05089323433552374
-3.9125,-2.312014083345239,-0.2204394488182027
-3.912,-2.119950935906951,-0.5277419625680583
-3.9115,-1.234326422719292,-0.5383386009732256
-3.911,-0.4340633083930936,-0.3687923864905467
-3.9105,0.1314559590640864,-0.1780528951975329
-3.91,0.4515612047945656,-0.008506680714854012
-3.9095,0.5796033030867573,0.1080563417419877
-3.909,0.6116138276598051,0.1928294489833272
-3.9085,0.5796033030867573,0.2670059178194992
-3.908,0.5475927785137094,0.309392471440169
-3.9075,0.5155822539406614,0.3517790250608387
-3.907,0.5049120790829789,0.3729723018711736
-3.9065,0.4835717293676135,0.3623756634660061
-3.906,0.04609456020262521,-0.07208651114585861
-3.9055,-0.8288597781273515,-0.8774310299385835
-3.905,-1.650463242168915,-1.576809164679634
-3.9045,-1.842526389607202,-1.84172512480882
-3.904,-1.06360362499637,-1.492036057438295
-3.9035,-0.1886492866663929,-0.8986243067489184
-3.903,0.408880505363835,-0.2628260024388724
-3.9025,0.6863050516635838,0.3305857482505039
-3.902,0.7503261008096795,0.7120647308365314
-3.9015,0.7183155762366316,0.849821030103708
-3.901,0.6542945270905358,0.8392243916985406
-3.9005,0.7609962756673623,0.6802748156210291
-3.9,0.8356874996711408,0.4683420475176805
-3.8995,0.7716664505250448,0.3199891098453364
-3.899,0.6756348768059011,0.1822328105781598
-3.8985,0.5902734779444399,0.04447651131098315
-3.898,0.5155822539406614,-0.05089323433552374
-3.8975,0.1207857842064037,0.2670059178194992
-3.897,-0.658136980404429,0.7438546460520338
-3.8965,-1.1062843244271,0.2881991946298341
-3.896,-1.46907026958831,-0.04029659593035631
-3.8955,-1.67180359188428,-0.08268314955102604
-3.895,-1.191645723288561,-0.2204394488182027
-3.8945,-0.5194247072545548,-0.2416327256285375
-3.894,0.02475421048725994,-0.2204394488182027
-3.8935,0.3555296310754218,-0.1568596183871981
-3.893,0.5262524287983441,-0.08268314955102604
-3.8925,0.5796033030867573,-0.008506680714854012
-3.892,0.5796033030867573,0.07626642652648545
-3.8915,0.5475927785137094,0.1504428953626575
-3.891,0.5262524287983441,0.2246193641988295
-3.8905,0.5049120790829789,0.2987958330350016
-3.89,0.4942419042252961,0.3623756634660061
-3.8895,0.2808384070716433,0.1822328105781598
-3.889,-0.4874141826815069,-0.5171453241628908
-3.8885,-1.330357996438436,-1.248313374119443
-3.888,-1.735824641030376,-1.693372187136476
-3.8875,-1.180975548430879,-1.51322933424863
-3.887,-0.3380317346739499,-0.9728007755850904
