Class_5_Move_Left_hand_Horiszontal/Class_5_Move_Left_Hand_Horizontal_Zakour_7.csv

#Digilent WaveForms Oscilloscope Acquisition
#Device Name: EExplorer
#Serial Number: SN:210151A2B84A
#Date Time: 2020-12-21 15:18:03.600
#Sample rate: 2000Hz
#Samples: 16384
#Trigger: Source: Channel 1 Type: Edge Condition: Rising Level: 0 V Hyst.: Auto HoldOff: 0 s
#Channel 1: Range: 1 V/div Offset: 0 V
#Channel 2: Range: 1 V/div Offset: 0 V

Time (s),Channel 1 (V),Channel 2 (V)
-4.0960000000000001,-0.30602121010090194,0.055073149716150585
-4.0955000000000004,0.014084035629286118,-0.27342264084374107
-4.0949999999999998,0.38754015564869293,-0.65490162343027947
-4.0945,0.63295417737517057,-0.88802766834375091
-4.0940000000000003,0.72898575109422692,-0.94101086036953996
-4.0934999999999997,0.71831557623665099,-0.9410108603695303
-4.093,0.73965592595199681,-0.87743102993858346
-4.0925000000000002,0.8570278493863992,-0.6654982618354276
-4.0919999999999996,0.7823366253826014,-0.61251506980939763
-4.0914999999999999,0.64362435223285308,-0.61251506980939763
-4.0910000000000002,0.52625242879834411,-0.59132179299906285
-4.0904999999999996,0.43022085507907415,-0.5383386009730039
-4.0899999999999999,0.29150858192932599,-0.29461591765437467
-4.0895000000000001,-0.26334051067017139,0.29879583303500157
-4.0890000000000004,-0.5727755815426866,0.84982103010320686
-4.0884999999999998,-0.88221065241576446,1.2101067358794007
-4.0880000000000001,-1.2129860730039266,1.3160731199310751
-4.0875000000000004,-0.96757205127744883,0.90280422212992106
-4.0869999999999997,-0.5087545323964936,0.23521600260348616
-4.0865,-0.092617712947249131,-0.32640583286987701
-4.0860000000000003,0.17413665849457427,-0.62311170821429518
-4.0854999999999997,0.31284893164473976,-0.68669153864549271
-4.085,0.36619980593310447,-0.60191843140423029
-4.0845000000000002,0.37686998079077738,-0.43237221692170552
-4.0839999999999996,0.34485945621769065,-0.24163272562835444
-4.0834999999999999,0.29150858192932599,-0.04029659593035631
-4.0830000000000002,0.23815770764091276,0.12924961855232261
-4.0824999999999996,0.19547700821014335,0.27760255622480162
-4.0819999999999999,0.15279630877945163,0.42595549389701071
-4.0815000000000001,-0.23132998609712346,0.66967817721586165
-4.0810000000000004,-0.95690187641888325,0.99817396777575329
-4.0804999999999998,-1.5010807941613578,1.2736865663104053
-4.0800000000000001,-1.5330913187344057,1.2207033742845681
-4.0795000000000003,-0.8075194284126459,0.68027481562152059
-4.0789999999999997,-0.060607188373725675,-0.02969995752569967
-4.0785,0.4622313796522482,-0.59132179299906285
-4.0780000000000003,0.7289857510940716,-0.9092209451537967
-4.0774999999999997,0.81434714995575586,-1.0363806060160661
-4.077,0.79300680024041004,-1.0045906908005926
-4.0765000000000002,0.72898575109437247,-0.85623775312838357
-4.0759999999999996,0.85702784938648657,-0.50654868575753065
-4.0754999999999999,0.83568749967114075,-0.29461591765437467
-4.0750000000000002,0.70764540137894905,-0.25222936403370499
-4.0744999999999996,0.56893312822898723,-0.23103608722334118
-4.0739999999999998,0.47290155450993088,-0.19924617200786782
-4.0735000000000001,0.29150858192932599,-0.082683149551026042
-4.0730000000000004,0.046094560202848411,0.36237566346560135
-4.0724999999999998,0.024754210487259936,0.84982103010370802
-4.0720000000000001,-0.23132998609712346,1.1783168206638983
-4.0715000000000003,-0.88221065241517249,1.3160731199309499
-4.0709999999999997,-1.1916457232882893,1.1359302670426021
-4.0705,-0.8928808272734472,0.4471487707073456
-4.0700000000000003,-0.43406330839351093,-0.24163272562791116
-4.0694999999999997,-0.049937013516285648,-0.69728817705090107
-4.069,0.20614718306786484,-0.87743102993858346
-4.0685000000000002,0.32351910650237387,-0.85623775312824868
-4.0679999999999996,0.36619980593310447,-0.71848145386088891
-4.0674999999999999,0.36619980593310447,-0.51714532416289083
-4.0670000000000002,0.32351910650237387,-0.31580919446470956
-4.0664999999999996,0.25949805735617132,-0.12506970317151267
-4.0659999999999998,0.14212613392176898,0.076266426526485451
-4.0655000000000001,0.078105084775673142,0.27760255622466667
-4.0650000000000004,-0.14596858723545858,0.3411823866556134
-4.0644999999999998,-0.8502001278427167,-0.15685961838719809
-4.0640000000000001,-1.4477299198729445,-0.6972881770507372
-4.0635000000000003,-1.863866739322189,-0.3687923864908455
-4.0629999999999997,-1.8318562147488306,0.11865298014706845
-4.0625,-1.0742737998540521,0.023283234500648287
-4.0620000000000003,-0.28468086038625473,-0.28401927924892778
-4.0614999999999997,0.33418928136036707,-0.601918431404452
-4.0609999999999999,0.67563487680590106,-0.84564111472308123
-4.0605000000000002,0.78233662538272752,-0.99399405239542526
-4.0599999999999996,0.75032610080978634,-1.078767159636572
-4.0594999999999999,0.86769802424418851,-0.86683439153341613
-4.0590000000000002,0.97439977282101498,-0.53833860097322561
-4.0585000000000004,0.84635767452893973,-0.52774196256806793
-4.0579999999999998,0.65429452709053582,-0.64430498502489997
-4.0575000000000001,0.49424190422529612,-0.70788481545590454
-4.0570000000000004,0.39821033050623977,-0.73967473067137801
-4.0564999999999998,0.64362435223285308,-1.0363806060160949
-4.056,1.4225471168436858,-1.7887419327829828
-4.0555000000000003,2.0200769088733703,-2.5093133443337128
-4.0549999999999997,1.4225471168425117,-2.3291704914455482
-4.0545,0.13145595906408636,-1.2589100125246109
-4.0540000000000003,-0.62612645583069226,-0.47475877054293425
-4.0534999999999997,-0.6367966306888212,-0.31580919446479633
-4.0529999999999999,-0.3700422592469978,-0.41117894011121647
-4.0525000000000002,-0.071277363231883828,-0.53833860097322561
-4.0519999999999996,0.14212613392188544,-0.61251506980939763
-4.0514999999999999,0.27016823221396069,-0.61251506980939763
-4.0510000000000002,0.32351910650237387,-0.54893523937839306
-4.0505000000000004,0.32351910650237387,-0.45356549373197297
-4.0499999999999998,0.27016823221396069,-0.33700247127504446
-4.0495000000000001,0.23815770764091276,-0.2310360872233701
-4.0490000000000004,0.21681735792556689,-0.061489872740845386
-4.0484999999999998,0.056764735059686773,0.22461936419922462
-4.048,-0.62612645583138127,0.6590815388106942
-4.0475000000000003,-1.1703053735727009,1.0723504366118484
-4.0469999999999997,-1.5864421930231296,1.3690563119569992
-4.0465,-1.9278877884686634,1.4644260576034194
-4.0460000000000003,-1.4050492204426894,0.93459413734552932
-4.0454999999999997,-0.51942470725392398,0.17163617217247193
-4.0449999999999999,0.17413665849481691,-0.40058230170604903
-4.0445000000000002,0.5689331282290746,-0.73967473067140688
-4.0439999999999996,0.71831557623663156,-0.87743102993853528
-4.0434999999999999,0.71831557623663156,-0.82444783791274634
-4.0430000000000001,0.73965592595199681,-0.62311170821456507
-4.0425000000000004,0.92104889853243677,-0.22043944881856886
-4.0419999999999998,0.857027849386506,-0.082683149551026042
-4.0415000000000001,0.6863050516635838,-0.082683149551026042
-4.0410000000000004,0.53692260365616251,-0.11447306476649943
-4.0404999999999998,0.43022085507897712,-0.093279787956029633
-4.04,0.18480683335249956,0.086863064931652884
-4.0395000000000003,-0.55143523182693321,0.55311515475859596
-4.0389999999999997,-1.2023158981466708,0.99817396777630263
-4.0385,-1.67180359188428,1.2736865663104053
-4.0380000000000003,-2.0025790124721414,1.3372663967413523
-4.0374999999999996,-1.6077825427375436,0.91340086053404768
-4.0369999999999999,-0.90355100213112993,0.18223281057815977
-4.0365000000000002,-0.29535103524321932,-0.41117894011121647
-4.0359999999999996,0.11011560934890545,-0.73967473067148393
-4.0354999999999999,0.31284893164469124,-0.82444783791274634
-4.0350000000000001,0.38754015564846972,-0.75027136907657432
-4.0345000000000004,0.39821033050614268,-0.5913217929992074
-4.0339999999999998,0.36619980593310447,-0.40058230170604903
-4.0335000000000001,0.29150858192932599,-0.20984281041303524
-4.0330000000000004,0.21681735792561541,-0.029699957525352705
-4.0324999999999998,0.2061471830677678,0.10805634174217087
-4.032,0.099445434491038431,0.30939247144016896
-4.0315000000000003,-0.39138260896191662,0.46834204751753594
-4.0309999999999997,-1.1596351987160471,0.35177902506092545
-4.0305,-1.7464948158880587,0.4471487707073456
-4.0300000000000002,-2.1519614604796304,0.79683783807755293
-4.0294999999999996,-1.7464948158872338,0.74385464605154228
-4.0289999999999999,-0.83952995298503397,0.20342608738849466
-4.0285000000000002,-0.017926488943470625,-0.31580919446470956
-4.0279999999999996,0.52625242879853817,-0.65490162343025049
-4.0274999999999999,0.73965592595199681,-0.85623775312824868
-4.0270000000000001,0.78233662538272752,-0.87743102993858346
-4.0265000000000004,0.73965592595203566,-0.82444783791279452
-4.0259999999999998,0.88903837395955376,-0.52774196256805828
-4.0255000000000001,0.91037872367491923,-0.40058230170604903
-4.0250000000000004,0.75032610080982509,-0.46416213213699575
-4.0244999999999997,0.56893312822895814,-0.52774196256807759
-4.024,0.44089102993688295,-0.54893523937839306
-4.0235000000000003,0.34485945621782654,-0.42177557851649961
-4.0229999999999997,-0.188649286667111,-0.050893234335128601
-4.0225,-0.97824222613490841,0.38356894027634103
-4.0220000000000002,-1.2663369472920778,0.83922439169812613
-4.0214999999999996,-1.5757720181651653,1.125333628638052
-4.0209999999999999,-1.6077825427381842,1.1147369902328941
-4.0205000000000002,-1.0956141495694174,0.55311515475901996
-4.0199999999999996,-0.49808435753877223,-0.093279787956598248
-4.0194999999999999,-0.039266838658835915,-0.53833860097322561
-4.0190000000000001,0.23815770764091276,-0.73967473067140688
-4.0185000000000004,0.35552963107531504,-0.73967473067140688
-4.0179999999999998,0.3982103305061524,-0.61251506980939763
-4.0175000000000001,0.38754015564846972,-0.44296885532671876
-4.0170000000000003,0.33418928136010506,-0.25222936403387847
-4.0164999999999997,0.27016823221390246,-0.072086511145694768
-4.016,0.20614718306786484,0.10805634174198775
-4.0155000000000003,0.16346648363717309,0.34118238665545919
-4.0149999999999997,0.024754210486852349,0.54251851635414161
-4.0145,-0.42339313353541097,0.86041766850887547
-4.0140000000000002,-0.85020012784232857,1.1783168206636092
-4.0134999999999996,-1.2129860730036159,1.316073119930709
-4.0129999999999999,-0.87154047755808195,0.9134008605347127
-4.0125000000000002,-0.18864928666639288,0.18223281057815977
-4.0119999999999996,0.38754015564877053,-0.37938902489609
-4.0114999999999998,0.71831557623663156,-0.792657922697244
-4.0110000000000001,0.84635767452882327,-0.98339741399025782
-4.0105000000000004,0.82501732481347745,-1.0257839676108889
-4.0099999999999998,0.76099627566736228,-0.9092209451540858
-4.0095000000000001,0.83568749967114075,-0.63370834661973252
-4.0090000000000003,0.93171907339019711,-0.30521255605984088
-4.0084999999999997,0.81434714995561031,-0.22043944881820265
-4.008,0.63295417737517057,-0.22043944881820265
-4.0075000000000003,0.48357172936774939,-0.20984281041304487
-4.0069999999999997,0.38754015564813005,-0.17805289519729198
-4.0065,0.014084035629577295,0.086863064931652884
-4.0060000000000002,-0.74349837926589024,0.58490506997452218
-4.0054999999999996,-1.1382948490004294,1.0087706061814412
-4.0049999999999999,-1.4477299198729445,1.2524932895000704
-4.0045000000000002,-1.4797404444459925,1.1783168206638983
-4.0039999999999996,-0.97824222613440381,0.60609834678424024
-4.0034999999999998,-0.42339313353541097,-0.072086511145858609
-4.0030000000000001,-0.0072563140857879876,-0.55953187778356051
-4.0025000000000004,0.24882788249836246,-0.79265792269703195
-4.0019999999999998,0.35552963107542179,-0.81385119950757889
-4.0015000000000001,0.38754015564846972,-0.6972881770507372
-4.0010000000000003,0.37686998079079681,-0.5171453241630547
-4.0004999999999997,0.33418928136001774,-0.31580919446453609
-4,0.29150858192932599,-0.12506970317169577
-3.9994999999999998,0.24882788249859539,0.033879872905815719
-3.9990000000000001,0.078105084775673142,0.25640927941433178
-3.9984999999999999,-0.47674400782382426,0.59550170837968963
-3.9980000000000002,-1.1489650238578306,0.94519077575021493
-3.9975000000000001,-1.7038141164573279,1.2524932895000704
-3.9969999999999999,-1.8852070890379329,1.4538294191982519
-3.9965000000000002,-1.7251544661726932,1.4538294191982519
-3.996,-1.0529334501386869,0.93459413734504748
-3.9954999999999998,-0.22065981123944084,0.24581264100916439
-3.9950000000000001,0.41955068022151765,-0.31580919446470956
-3.9944999999999999,0.77166645052504479,-0.60191843140423029
-3.9940000000000002,0.88903837395955376,-0.66549826183523486
-3.9935,0.87836819910187125,-0.72907809226623943
-3.9929999999999999,0.857027849386506,-0.72907809226623943
-3.9925000000000002,0.97439977282101498,-0.61251506980939763
-3.992,0.88903837395955376,-0.43237221692155131
-3.9914999999999998,0.71831557623663156,-0.25222936403370499
-3.9910000000000001,0.57960330308675734,-0.10387642636136091
-3.9904999999999999,0.4835717293676135,0.012686596095480854
-3.9900000000000002,0.53692260365602662,0.12924961855232261
-3.9895,0.99574012253638022,-0.19924617200786782
-3.9889999999999999,0.69697522652126631,-0.52774196256805828
-3.9885000000000002,-0.28468086038553664,-0.2310360872233701
-3.988,-1.2236562478616091,0.33058574825050385
-3.9874999999999998,-1.3516983461538008,0.50013196273318283
-3.9870000000000001,-0.90355100213112993,0.12924961855232261
-3.9864999999999999,-0.39138260896236304,-0.40058230170604903
-3.9860000000000002,0.0034138607718946501,-0.81385119950757889
-3.9855,0.23815770764091276,-1.0575738828264298
-3.9849999999999999,0.35552963107542179,-1.1423469900677694
-3.9845000000000002,0.3768699807907871,-1.1211537132574345
-3.984,0.36619980593310447,-1.0257839676109275
-3.9834999999999998,0.30217875678700862,-0.89862430674891836
-3.9830000000000001,0.22748753278323011,-0.76086800748174177
-3.9824999999999999,0.18480683335249956,-0.5807251545938954
-3.9820000000000002,0.13145595906408636,-0.24163272562853755
-3.9815,-0.29535103524321932,0.23521600260399694
-3.9809999999999999,-0.98891240099259115,0.775644561267536
-3.9805000000000001,-1.5117509690190405,1.1995100974742332
-3.98,-1.7998456901764717,1.4644260576034194
-3.9794999999999998,-1.6611334170265974,1.2948798431207402
-3.9790000000000001,-0.81818960326966872,0.5637117931641874
-3.9784999999999999,-0.017926488943470625,-0.11447306476652835
-3.9780000000000002,0.52625242879834411,-0.49595204735255594
-3.9775,0.77166645052504479,-0.62311170821456507
-3.9769999999999999,0.80367697509809277,-0.57012851618872795
-3.9765000000000001,0.76099627566736228,-0.40058230170604903
-3.976,0.88903837395955376,-0.050893234335523743
-3.9754999999999998,0.88903837395955376,0.11865298014715518
-3.9750000000000001,0.73965592595199681,0.097459703336820316
-3.9744999999999999,0.5689331282290746,0.065669788121318018
-3.9740000000000002,0.45156120479456557,0.044476511310983152
-3.9735,0.43022085507920033,-0.019103319120021445
-3.9729999999999999,0.84635767452882327,-0.52774196256805828
-3.9725000000000001,0.97439977282101498,-0.71848145386107198
-3.972,0.28083840707164331,-0.17805289519753292
-3.9714999999999998,-0.80751942841198598,0.46834204751768049
-3.9710000000000001,-1.4263895701575793,0.7968378380778709
-3.9704999999999999,-1.1916457232885611,0.41535885549184332
-3.9700000000000002,-0.66880715526211176,-0.17805289519753292
-3.9695,-0.18864928666639288,-0.66549826183523486
-3.9689999999999999,0.13145595906408636,-0.94101086036958814
-3.9685000000000001,0.30217875678700862,-1.0257839676109275
-3.968,0.3768699807907871,-0.98339741399025782
-3.9674999999999998,0.3768699807907871,-0.86683439153341613
-3.9670000000000001,0.34485945621773917,-0.71848145386107198
-3.9664999999999999,0.28083840707164331,-0.54893523937839306
-3.9660000000000002,0.23815770764091276,-0.37938902489571413
-3.9655,0.18480683335249956,-0.13566634157686319
-3.9649999999999999,0.11011560934872107,0.10805634174198775
-3.9645000000000001,-0.16730893695102761,0.53192187794868506
-3.964,-0.78617907869662074,0.98757732937088472
-3.9634999999999998,-1.5651018433074537,1.3266697583362426
-3.9630000000000001,-1.9065474387532981,1.3584596735517449
-3.9624999999999999,-1.2343264227192918,0.76504792286236856
-3.9620000000000002,-0.34870190953163249,0.0020899576903134209
-3.9615,0.33418928136005654,-0.52774196256805828
-3.9609999999999999,0.70764540137894905,-0.792657922697244
-3.9605000000000001,0.83568749967114075,-0.83504447631791379
-3.96,0.79300680024041004,-0.78206128429207655
-3.9594999999999998,0.81434714995577528,-0.64430498502489997
-3.9590000000000001,0.857027849386506,-0.42177557851638392
-3.9584999999999999,0.76099627566736228,-0.2310360872233701
-3.9580000000000002,0.6116138276598051,-0.072086511145858609
-3.9575,0.4835717293676135,0.044476511310983152
-3.9569999999999999,0.41955068022151765,0.15044289536265748
-3.9565000000000001,0.17413665849481691,0.41535885549184332
-3.956,-0.41272295867772835,0.66967817721586165
-3.9554999999999998,-1.0849439747117349,0.95578741415538238
-3.9550000000000001,-1.5651018433074537,1.1359302670432285
-3.9544999999999999,-2.0025790124724421,1.2101067358794007
-3.9540000000000002,-1.7571649907457412,0.87101430691404291
-3.9535,-1.0529334501386869,0.15044289536265748
-3.9529999999999998,-0.40205278382004572,-0.48535540894738849
-3.9525000000000001,0.046094560202625215,-0.87743102993858346
-3.952,0.29150858192932599,-1.01518732920576
-3.9514999999999998,0.38754015564846972,-0.99399405239542526
-3.9510000000000001,0.40888050536383502,-0.86683439153341613
-3.9504999999999999,0.3768699807907871,-0.6972881770507372
-3.9500000000000002,0.30217875678700862,-0.50654868575772338
-3.9495,0.22748753278323011,-0.32640583286987701
-3.9489999999999998,0.19547700821018218,-0.15685961838719809
-3.9485000000000001,0.05676473506030786,0.10805634174198775
-3.948,-0.13529841237797968,0.36237566346600614
-3.9474999999999998,-0.27401068552785401,0.21402272579366208
-3.9470000000000001,-0.69014750497747701,0.46834204751768049
-3.9464999999999999,-0.43406330839309365,0.81803111488820579
-3.9460000000000002,0.20614718306786484,0.63788826200035942
-3.9455,0.67563487680590106,0.11865298014715518
-3.9449999999999998,0.87836819910187125,-0.33700247127504446
-3.9445000000000001,0.92104889853260175,-0.64430498502489997
-3.944,0.86769802424418851,-0.73967473067140688
-3.9434999999999998,0.76099627566736228,-0.62311170821456507
-3.9430000000000001,0.71831557623663156,-0.4535654937318862
-3.9424999999999999,0.82501732481345802,-0.1674562567923655
-3.9420000000000002,0.76099627566736228,-0.11447306476652835
-3.9415,0.63295417737517057,-0.15685961838719809
-3.9409999999999998,0.54759277851370936,-0.17805289519753292
-3.9405000000000001,0.47290155450993088,-0.1674562567923655
-3.9399999999999999,0.47290155450993088,-0.2310360872233701
-3.9394999999999998,0.80367697509809277,-0.77146464588690922
-3.9390000000000001,0.66496470194821833,-0.75027136907657432
-3.9384999999999999,-0.0072563140857879876,-0.10387642636136091
-3.9380000000000002,-0.92489135184649518,0.54251851635385251
-3.9375,-1.2876772970077051,0.73325800764686633
-3.9369999999999998,-0.97824222613490841,0.27760255622466667
-3.9365000000000001,-0.48741418268150688,-0.28401927924920728
-3.9359999999999999,-0.071277363231883828,-0.6972881770507372
-3.9355000000000002,0.18480683335249956,-0.91981758355925325
-3.9350000000000001,0.32351910650237387,-0.96220413717992292
-3.9344999999999999,0.36619980593310447,-0.89862430674891836
-3.9340000000000002,0.36619980593310447,-0.78206128429207655
-3.9335,0.32351910650237387,-0.63370834661973252
-3.9329999999999998,0.25949805735627807,-0.48535540894738849
-3.9325000000000001,0.23815770764091276,-0.33700247127504446
-3.9319999999999999,0.22748753278323011,-0.17805289519753292
-3.9315000000000002,-0.11395806266261441,-0.11447306476652835
-3.931,-0.77550890383893822,-0.41117894011121647
-3.9304999999999999,-1.3943790455845313,-0.082683149551026042
-3.9300000000000002,-1.7358246410303759,0.51072860113835017
-3.9295,-1.5010807941613578,0.7968378380778709
-3.9289999999999998,-0.62612645583138127,0.40476221708667587
