Class_5_Move_Left_hand_Horiszontal/Class_5_Move_leftt_hand_horizontal_Basim_9.csv

#Digilent WaveForms Oscilloscope Acquisition
#Device Name: EExplorer
#Serial Number: SN:210151A2B84A
#Date Time: 2021-01-24 16:22:43.635
#Sample rate: 2000Hz
#Samples: 16384
#Trigger: Source: Channel 1 Type: Edge Condition: Rising Level: 0 V Hyst.: Auto HoldOff: 0 s
#Channel 1: Range: 1 V/div Offset: 0 V Attenuation: 1 X
#Channel 2: Range: 1 V/div Offset: 0 V Attenuation: 1 X
#Power Supplies: ON
#Fixed Supply: ON
#Voltage: 3.3 V Readback: 3.361 V
#Positive Supply: ON
#Voltage: 3.7 V Readback: 3.732 V
#Current: 40 mA Readback: 7 mA
#Negative Supply: ON
#Voltage: -3.7 V Readback: -3.348 V
#Current: -40 mA Readback: -6 mA
#Reference 1: ON
#Voltage: 0 V
#Reference 2: ON
#Voltage: 0 V

Time (s),Channel 1 (V),Channel 2 (V)
-4.096,0.0674349099179905,-0.9198175835592532
-4.0955,0.3982103305058516,-0.3475991096807323
-4.095,0.5796033030867962,-0.08268314955090075
-4.0945,0.6222840025174878,0.05507314971615059
-4.094,0.5475927785137773,0.1292496185522551
-4.0935,0.4195506802214109,0.118652980147107
-4.093,0.3021787567870086,0.06566978812131802
-4.0925,0.2594980573563169,0.06566978812131802
-4.092,0.2915085819292969,0.1610395337678442
-4.0915,0.2594980573562781,0.1822328105781598
-4.091,0.2168173579255475,0.2140227257936621
-4.0905,0.1741366584947975,0.2458126410092126
-4.09,0.1527963087794516,0.2987958330350016
-4.0895,-0.06060718837420119,0.5213252395435176
-4.089,-0.6581369804038856,0.7226613692415158
-4.0885,-1.319687821580753,0.1928294489833272
-4.088,-1.767835165603424,-0.474758770542221
-4.0875,-1.885207089037826,-0.8774310299382173
-4.087,-1.298347471864834,-0.6125150698089061
-4.0865,-0.690147504977477,-0.07208651114585861
-4.086,-0.2313299860975407,0.4259554938965577
-4.0855,0.04609456020274167,0.7756445612677095
-4.085,0.1741366584948169,0.9663840525605498
-4.0845,0.2168173579255087,1.051157159801812
-4.084,0.2061471830678454,1.061753798207018
-4.0835,0.1848068333524996,1.019367244586387
-4.083,0.1634664836371343,0.9557874141553824
-4.0825,0.1527963087794419,0.8710143069139562
-4.082,0.142126133921769,0.775644561267536
-4.0815,0.1527963087794516,0.6590815388106942
-4.081,0.1741366584947975,0.3941655786817493
-4.0805,0.1101156093487211,-0.2310360872233701
-4.08,-0.3060212101009019,-0.8986243067489184
-4.0795,-0.4660738329659959,-1.03638060601597
-4.079,-0.07127736323151505,-0.527741962567798
-4.0785,0.3341892813600565,-0.2416327256285375
-4.078,0.5475927785135153,-0.09327978795632838
-4.0775,0.5582629533713145,-0.01910331912002144
-4.077,0.4729015545099309,-0.01910331912002144
-4.0765,0.3768699807908744,-0.04029659593033703
-4.076,0.2915085819293745,-0.02969995752502504
-4.0755,0.3448594562177392,0.1504428953626575
-4.075,0.3448594562177392,0.2352160026039969
-4.0745,0.2915085819292678,0.2246193641988199
-4.074,0.2274875327832301,0.2140227257936621
-4.0735,0.1741366584948169,0.2352160026039969
-4.073,0.1421261339217981,0.3093924714401015
-4.0725,0.2701682322139607,0.7226613692416989
-4.072,0.1954770082101822,0.8710143069140429
-4.0715,-0.3807124341041563,0.2564092794148908
-4.071,-0.9995825758503707,0.04447651131114699
-4.0705,-1.1062843244271,0.2246193641988295
-4.07,-0.7861790786969118,0.3411823866555652
-4.0695,-0.402052783819774,0.4153588554919204
-4.069,-0.1032878878049318,0.5001319627331828
-4.0685,0.07810508477567314,0.5955017083796896
-4.068,0.1634664836371537,0.7014680924314604
-4.0675,0.1848068333524996,0.8074344764830383
-4.067,0.1848068333524996,0.9028042221295453
-4.0665,0.1741366584947975,0.9769806909657655
-4.066,0.1527963087794516,1.029963882991555
-4.0655,0.142126133921769,1.061753798207057
-4.065,0.1527963087794419,1.019367244586426
-4.0645,0.3235191065023739,0.7544512844572011
-4.064,0.5902734779444399,0.1504428953626575
-4.0635,0.3128489316449435,-0.4429688553261791
-4.063,-0.2953510352431902,-0.8138511995073668
-4.0625,-0.2633405106701714,-0.5807251545938954
-4.062,0.06743490991768969,-0.1250697031721101
-4.0615,0.3341892813601633,0.2881991946300462
-4.061,0.4515612047945656,0.5213252395435176
-4.0605,0.4302208550792003,0.5743084315693548
-4.06,0.3555296310753538,0.5213252395434212
-4.0595,0.2808384070716433,0.4153588554918433
-4.059,0.3235191065023739,0.4153588554918433
-4.0585,0.4195506802214303,0.4895353243279479
-4.058,0.3768699807907871,0.3623756634660061
-4.0575,0.291508581929326,0.1822328105781598
-4.057,0.2168173579256154,0.02328323450079284
-4.0565,0.1527963087794516,-0.08268314955102604
-4.056,-0.09261771294724913,-0.04029659593035631
-4.0555,-0.7221580295499523,-0.209842810412881
-4.055,-1.394379045585104,-0.7078848154563768
-4.0545,-2.023919362187807,-1.227120097309109
-4.054,-1.938557963326424,-1.301296566145213
-4.0535,-1.180975548430316,-0.7608680074812213
-4.053,-0.5621054066852853,-0.1886495336027004
-4.0525,-0.1352984123779797,0.2564092794143318
-4.052,0.09944543449112578,0.5213252395436525
-4.0515,0.1954770082101822,0.6696781772158616
-4.051,0.2168173579255475,0.7226613692416989
-4.0505,0.2061471830678746,0.7332580076468567
-4.05,0.1848068333524996,0.7120647308365314
-4.0495,0.1634664836371343,0.6802748156210291
-4.049,0.1421261339217884,0.6272916235952402
-4.0485,0.1527963087794613,0.5531151547589236
-4.048,0.1634664836371343,0.4471487707073456
-4.0475,0.1741366584948072,-0.02969995752475518
-4.047,-0.007256314086166462,-0.6972881770512577
-4.0465,-0.423393133535411,-1.269506650929778
-4.046,-0.4554036581084298,-1.69337218713609
-4.0455,-0.08194753808923652,-1.184733543687793
-4.045,0.2808384070716433,-0.474758770542221
-4.0445,0.4622313796522482,-0.008506680714854012
-4.044,0.4942419042252185,0.2034260873885525
-4.0435,0.408880505363835,0.2670059178194992
-4.043,0.3128489316446912,0.2458126410091644
-4.0425,0.2808384070716724,0.2458126410091644
-4.042,0.3128489316446912,0.3305857482505039
-4.0415,0.291508581929326,0.3411823866556712
-4.041,0.2381577076409613,0.3093924714401979
-4.0405,0.1954770082101531,0.2987958330350016
-4.04,0.1634664836371343,0.2987958330350016
-4.0395,0.06743490991807785,0.3411823866556327
-4.039,-0.4340633083936371,0.2458126410086825
-4.0385,-1.031593100423322,-0.2840192792492073
-4.038,-1.447729919872566,-0.7608680074813081
-4.0375,-1.650463242168517,-0.4429688553263429
-4.037,-1.212986073003927,-0.02969995752518888
-4.0365,-0.6688071552621118,0.2246193641988295
-4.036,-0.2313299860968809,0.3835689402764085
-4.0355,0.03542438534494258,0.457745409112513
-4.035,0.1634664836371343,0.5001319627331828
-4.0345,0.206147183067826,0.542518516353814
-4.034,0.2061471830678648,0.5637117931641874
-4.0335,0.1848068333524996,0.5955017083796896
-4.033,0.1634664836371537,0.6272916235951631
-4.0325,0.1527963087794516,0.6378882620003498
-4.032,0.1527963087794516,0.627291623595192
-4.0315,0.1634664836371246,0.5849050699745607
-4.031,0.3875401556488385,0.2352160026034187
-4.0305,0.79300680024041,-0.400582301706049
-4.03,0.4088805053641844,-0.9833974139897278
-4.0295,-0.09261771294713268,-1.046977244420732
-4.029,0.03542438534494258,-0.4641621321370536
-4.0285,0.291508581929326,-0.07208651114585861
-4.028,0.4515612047945753,0.1928294489834429
-4.0275,0.4622313796522482,0.3199891098453364
-4.027,0.3875401556484697,0.3199891098453364
-4.0265,0.3021787567870863,0.2564092794143896
-4.026,0.2381577076409128,0.2140227257936621
-4.0255,0.291508581929326,0.2670059178194992
-4.025,0.291508581929326,0.2881991946298149
-4.0245,0.2488278824985566,0.2881991946298341
-4.024,0.2061471830678648,0.2881991946298341
-4.0235,0.1634664836371731,0.3093924714401497
-4.023,0.1101156093483814,0.3941655786818939
-4.0225,-0.2633405106701714,0.8180311148882058
-4.022,-0.7434983792654535,0.9557874141552571
-4.0215,-1.255666772435113,0.2987958330342884
-4.021,-1.757164990745741,-0.4853554089473885
-4.0205,-1.554431668449771,-0.7078848154559045
-4.02,-0.9462317015613849,-0.4005823017056635
-4.0195,-0.423393133535411,0.02328323450064829
-4.019,-0.07127736323188383,0.3941655786815084
-4.0185,0.120785784206229,0.6378882620001378
-4.018,0.2061471830678648,0.775644561267536
-4.0175,0.2168173579255475,0.849821030103708
-4.017,0.1954770082102016,0.8604176685088658
-4.0165,0.1741366584947975,0.8392243916985117
-4.016,0.1527963087794516,0.8074344764830383
-4.0155,0.1421261339217787,0.7650479228624071
-4.015,0.1527963087795875,0.6908714540259266
-4.0145,0.3021787567870086,0.3941655786815084
-4.014,0.7930068002399636,-0.2416327256279593
-4.0135,1.166462920259157,-0.930414221964893
-4.013,1.006410297394063,-1.449649503817625
-4.0125,0.9103787236749192,-1.301296566145281
-4.012,0.8676980242441109,-0.7608680074813177
-4.0115,0.7823366253827275,-0.2946159176543747
-4.011,0.6542945270905358,-0.04029659593035631
-4.0105,0.5049120790831148,-0.008506680714882926
-4.01,0.3555296310754218,-0.008506680714854012
-4.0095,0.2488278824985954,-0.01910331912002144
-4.009,0.2274875327832495,0.04447651131092532
-4.0085,0.2381577076408836,0.1186529801471552
-4.008,0.2061471830678648,0.1186529801471552
-4.0075,0.184806833352519,0.1080563417419974
-4.007,0.1527963087794322,0.1080563417420167
-4.0065,0.1314559590640864,0.13984625695749
-4.006,-0.07127736323188383,0.4153588554918433
-4.0055,-0.6581369804049336,0.9451907757500414
-4.005,-1.212986073003927,0.7544512844572011
-4.0045,-1.629122892453549,0.08686306493165288
-4.004,-1.586442193022314,-0.1674562567922595
-4.0035,-1.031593100423322,-0.05089323433552374
-4.003,-0.4980843575391895,0.1928294489833272
-4.0025,-0.1246282375206367,0.4471487707071143
-4.002,0.08877525963335578,0.6484849004055269
-4.0015,0.1848068333524996,0.7968378380778709
-4.001,0.2061471830678454,0.8922075837242911
-4.0005,0.1954770082101628,0.9451907757502438
-4,0.1741366584948169,0.9769806909657173
-3.9995,0.1527963087794516,0.9769806909657173
-3.999,0.142126133921769,0.9557874141553824
-3.9985,0.142126133921769,0.9028042221295453
-3.998,0.1741366584948169,0.7650479228623686
-3.9975,0.4408910299368829,0.2246193641988295
-3.997,0.4195506802215176,-0.4323722169215513
-3.9965,-0.2526703358124887,-1.01518732920576
-3.996,-0.423393133535411,-0.8456411147230812
-3.9955,-0.04993701351651855,-0.326405832869877
-3.995,0.2808384070716433,-0.1250697031716958
-3.9945,0.4408910299368829,-0.01910331912002144
-3.994,0.4515612047945656,0.06566978812131802
-3.9935,0.3875401556484697,0.04447651131098315
-3.993,0.3021787567870086,-0.02969995752518888
-3.9925,0.2594980573562781,-0.05089323433552374
-3.992,0.3021787567870086,0.04447651131098315
-3.9915,0.291508581929326,0.05507314971615059
-3.991,0.2381577076409128,0.04447651131098315
-3.9905,0.1954770082101822,0.05507314971615059
-3.99,0.1527963087794516,0.08686306493165288
-3.9895,0.05676473506030786,0.2246193641988295
-3.989,-0.4447334832507763,0.2987958330350016
-3.9885,-1.06360362499637,-0.1674562567923655
-3.988,-1.479740444445993,-0.6443049850249
-3.9875,-1.778505340461106,-0.3052125560595421
-3.987,-1.394379045584531,0.1292496185523226
-3.9865,-0.7968492535543035,0.3623756634660061
-3.986,-0.3166913849585846,0.4683420475176805
-3.9855,-0.007256314085787988,0.5319218779486851
-3.985,0.1527963087794516,0.5849050699745222
-3.9845,0.2061471830678648,0.6484849004055269
-3.984,0.2061471830678648,0.701468092431364
-3.9835,0.1848068333524996,0.7650479228623686
-3.983,0.1634664836371343,0.8074344764830383
-3.9825,0.1527963087794516,0.8286277532933731
-3.982,0.142126133921769,0.8392243916985406
-3.9815,0.1527963087794516,0.8074344764830383
-3.981,0.2274875327832301,0.4365521323021782
-3.9805,0.3128489316446912,-0.2098428104130352
-3.98,0.2488278824985954,-0.8032545611024114
-3.9795,0.1741366584948169,-1.237716735714276
-3.979,0.4408910299368829,-1.492036057438295
-3.9785,0.6649647019482183,-1.290699927740113
-3.978,0.707645401378949,-0.6654982618352349
-3.9775,0.6116138276598051,-0.1356663415768632
-3.977,0.4622313796522482,0.2034260873884947
-3.9765,0.3341892813600565,0.3305857482505039
-3.976,0.2488278824985954,0.3199891098453364
-3.9755,0.3661998059331045,0.4153588554918433
-3.975,0.4302208550792003,0.3941655786815084
-3.9745,0.3768699807907871,0.2564092794143318
-3.974,0.2808384070716433,0.1080563417419877
-3.9735,0.2061471830678648,-0.008506680714854012
-3.973,0.1207857842064037,-0.07208651114585861
-3.9725,-0.2526703358124887,-0.2840192792492073
-3.972,-0.839529952985034,-0.7290780922662394
-3.9715,-1.362368521011484,-1.227120097309109
-3.971,-1.842526389607202,-1.650985633515806
-3.9705,-1.554431668449771,-1.311893204550448
-3.97,-0.9248913518464952,-0.6019184314042303
-3.9695,-0.4020527838200457,-0.008506680714854012
-3.969,-0.06060718837420119,0.4047622170866759
-3.9685,0.1314559590640864,0.6378882620003594
-3.968,0.2061471830678648,0.7332580076468663
-3.9675,0.2061471830678648,0.7650479228623686
-3.967,0.1954770082101822,0.7438546460520338
-3.9665,0.1741366584948169,0.7120647308365314
-3.966,0.1527963087794516,0.6590815388106942
-3.9655,0.142126133921769,0.5955017083796896
-3.965,0.142126133921769,0.5213252395435176
-3.9645,0.1848068333524996,0.2776025562246667
-3.964,0.2488278824985954,-0.3581957480853793
-3.9635,-0.09261771294724913,-1.004590690800593
-3.963,-0.5941159312583333,-1.439052865412457
-3.9625,-0.4874141826815069,-1.0999604364471
-3.962,-0.07127736323188383,-0.570128516188728
-3.9615,0.2488278824985954,-0.1992461720078678
-3.961,0.4302208550792003,-0.008506680714854012
-3.9605,0.4515612047945656,0.06566978812131802
-3.96,0.3768699807907871,0.08686306493165288
-3.9595,0.291508581929326,0.08686306493165288
-3.959,0.3235191065023739,0.1928294489833272
-3.9585,0.4195506802215176,0.3623756634660061
-3.958,0.3875401556484697,0.3623756634660061
-3.9575,0.3021787567870086,0.3199891098453364
-3.957,0.2274875327832301,0.2881991946298341
-3.9565,0.1527963087794516,0.2987958330350016
-3.956,-0.1779791118087102,0.4471487707073456
-3.9555,-0.8181896032696687,0.1610395337678249
-3.955,-1.447729919872945,-0.4853554089473885
-3.9545,-1.938557963326346,-1.089363798041932
-3.954,-1.83185621474952,-1.205926820498774
-3.9535,-1.127624674142465,-0.6760949002404023
-3.953,-0.5407650569699201,-0.07208651114585861
-3.9525,-0.124628237520297,0.4047622170866759
-3.952,0.09944543449103843,0.701468092431364
-3.9515,0.1954770082101822,0.849821030103708
-3.951,0.2168173579255475,0.8922075837243778
-3.9505,0.2061471830678648,0.8816109453192104
-3.95,0.1848068333524996,0.8392243916985406
-3.9495,0.1634664836371343,0.775644561267536
-3.949,0.1527963087794516,0.6908714540261965
-3.9485,0.142126133921769,0.6060983467848571
-3.948,0.1741366584948169,0.4471487707073456
-3.9475,0.4195506802215176,-0.09327978795619347
-3.947,0.3982103305061524,-0.792657922697244
-3.9465,-0.1673089369510276,-1.375473034981453
-3.946,-0.3060212101009019,-1.121153713257435
-3.9455,0.04609456020262521,-0.5277419625680583
-3.945,0.3555296310754218,-0.3052125560595421
-3.9445,0.4942419042252961,-0.1144730647665284
-3.944,0.4942419042252961,-0.1144730647665284
-3.9435,0.4195506802215176,-0.1568596183871981
-3.943,0.3235191065023739,-0.1568596183871981
-3.9425,0.291508581929326,-0.07208651114585861
-3.942,0.4195506802215176,0.1504428953626575
-3.9415,0.408880505363835,0.2140227257936621
-3.941,0.3235191065023739,0.2140227257936621
-3.9405,0.2488278824985954,0.2034260873884947
-3.94,0.1848068333524996,0.2246193641988295
-3.9395,0.07810508477567314,0.2564092794143318
-3.939,-0.2953510352432193,0.04447651131098315
-3.9385,-0.8288597781273515,-0.4959520473525559
-3.938,-1.255666772434657,-1.046977244421262
-3.9375,-1.51175096901904,-1.290699927740113
-3.937,-1.148965023857831,-0.8244478379127463
-3.9365,-0.6367966306890638,-0.1886495336027004
-3.936,-0.2313299860971235,0.3411823866556712
-3.9355,0.02475421048725994,0.6908714540261965
-3.935,0.1527963087794516,0.8710143069140429
-3.9345,0.1954770082101822,0.9345941373450475
-3.934,0.2061471830678648,0.92399749893988
-3.9335,0.1848068333524996,0.8816109453192104
-3.933,0.1634664836371343,0.8180311148882058
-3.9325,0.1527963087794516,0.7332580076468663
-3.932,0.142126133921769,0.6484849004055269
-3.9315,0.1634664836371343,0.5213252395435176
-3.931,0.3661998059331045,0.1080563417419877
-3.9305,0.5582629533713921,-0.5913217929990628
-3.93,0.1741366584948169,-1.216523458903942
-3.9295,-0.2313299860971235,-1.725162102351978
-3.929,-0.007256314085787988,-1.905304955239825
-3.9285,0.3128489316446912,-1.34368311976595
-3.928,0.4729015545099309,-0.7078848154559045
-3.9275,0.4835717293676135,-0.2204394488182027
-3.927,0.408880505363835,0.05507314971615059
-3.9265,0.3235191065023739,0.1610395337678249
-3.926,0.2488278824985954,0.13984625695749
-3.9255,0.3448594562177392,0.2034260873884947
-3.925,0.3982103305061524,0.2140227257936621
-3.9245,0.3341892813600565,0.1610395337678249
-3.924,0.2594980573562781,0.09745970333682032
-3.9235,0.1954770082101822,0.06566978812131802
-3.923,0.1314559590640864,0.07626642652648545
-3.9225,-0.2526703358124887,-0.04029659593035631
-3.922,-0.9248913518464952,-0.5277419625680583
-3.9215,-1.490410619303675,-1.078767159636765
-3.921,-1.87453691418025,-1.47084278062796
-3.9205,-1.447729919872945,-1.089363798041932
-3.92,-0.8288597781273515,-0.4217755785163839
-3.9195,-0.3273615598162672,0.1504428953626575
-3.919,-0.007256314085787988,0.5425185163538525
-3.9185,0.1527963087794516,0.7650479228623686
-3.918,0.2061471830678648,0.8604176685088755
-3.9175,0.2061471830678648,0.8816109453192104
-3.917,0.1954770082101822,0.8604176685088755
-3.9165,0.1634664836371343,0.8074344764830383
-3.916,0.1527963087794516,0.7438546460520338
-3.9155,0.142126133921769,0.6590815388106942
-3.915,0.1527963087794516,0.5743084315693548
-3.9145,0.1527963087794516,0.4153588554918433
-3.914,0.3768699807907871,-0.1462629799820306
-3.9135,0.707645401378949,-0.8244478379127463
-3.913,0.6116138276598051,-1.195330182093607
-3.9125,0.707645401378949,-0.7290780922662394
-3.912,0.79300680024041,-0.2840192792492073
-3.9115,0.7823366253827275,-0.07208651114585861
-3.911,0.6756348768059011,-0.008506680714854012
-3.9105,0.4942419042252961,-0.01910331912002144
-3.91,0.3448594562177392,-0.04029659593035631
-3.9095,0.2381577076409128,-0.06148987274069118
-3.909,0.2061471830678648,-0.02969995752518888
-3.9085,0.1954770082101822,0.02328323450064829
-3.908,0.1741366584948169,0.06566978812131802
-3.9075,0.1527963087794516,0.1186529801471552
-3.907,0.142126133921769,0.1822328105781598
-3.9065,0.1314559590640864,0.2670059178194992
-3.906,-0.1352984123779797,0.3729723018711736
-3.9055,-0.7434983792658902,0.13984625695749
-3.905,-1.330357996438436,-0.4217755785163839
-3.9045,-1.799845690176472,-0.9410108603695881
-3.904,-1.799845690176472,-1.05757388282643
-3.9035,-1.159635198715513,-0.570128516188728
-3.903,-0.572775581542968,0.03387987290581572
-3.9025,-0.156638762093345,0.5001319627331828
-3.902,0.07810508477567314,0.7862411996727035
-3.9015,0.1848068333524996,0.9134008605347127
-3.901,0.2168173579255475,0.9451907757502149
-3.9005,0.2061471830678648,0.9134008605347127
-3.9,0.1848068333524996,0.8392243916985406
-3.8995,0.1527963087794516,0.7438546460520338
-3.899,0.142126133921769,0.6378882620003594
-3.8985,0.142126133921769,0.5319218779486851
-3.898,0.1527963087794516,0.3941655786815084
-3.8975,0.1207857842064037,-0.06148987274069118
-3.897,0.04609456020262521,-0.7078848154559045
-3.8965,-0.2313299860971235,-1.216523458903942
-3.896,-0.2420001609548061,-1.01518732920576
-3.8955,0.08877525963335578,-0.5807251545938954
-3.895,0.3982103305061524,-0.3475991096802118
-3.8945,0.5369226036560266,-0.2098428104130352
-3.894,0.5049120790829789,-0.1250697031716958
-3.8935,0.3875401556484697,-0.09327978795619347
-3.893,0.2808384070716433,-0.06148987274069118
-3.8925,0.2381577076409128,-0.008506680714854012
-3.892,0.3555296310754218,0.2034260873884947
-3.8915,0.3555296310754218,0.2670059178194992
-3.891,0.3021787567870086,0.2352160026039969
-3.8905,0.2274875327832301,0.2034260873884947
-3.89,0.1741366584948169,0.2034260873884947
-3.8895,0.09944543449103843,0.2458126410091644
-3.889,-0.3380317346739499,0.06566978812131802
-3.8885,-0.8928808272734472,-0.4641621321370536
-3.888,-1.383708870726849,-1.01518732920576
-3.8875,-1.661133417026597,-1.258910012524611
-3.887,-1.234326422719292,-0.8032545611024114
