Class_5_Move_Left_hand_Horiszontal/Class_5_Move_leftt_hand_horizontal_Basim_7.csv

#Digilent WaveForms Oscilloscope Acquisition
#Device Name: EExplorer
#Serial Number: SN:210151A2B84A
#Date Time: 2020-12-15 13:57:13.948
#Sample rate: 2000Hz
#Samples: 16384
#Trigger: Source: Channel 1 Type: Edge Condition: Rising Level: 0 V Hyst.: Auto HoldOff: 0 s
#Channel 1: Range: 1 V/div Offset: 0 V Attenuation: 1 X
#Channel 2: Range: 1 V/div Offset: 0 V Attenuation: 1 X
#Power Supplies: ON
#Fixed Supply: ON
#Voltage: 3.3 V Readback: 3.325 V
#Positive Supply: ON
#Voltage: 3.7 V Readback: 3.711 V
#Current: 40 mA Readback: 18 mA
#Negative Supply: ON
#Voltage: -3.7 V Readback: -3.351 V
#Current: -40 mA Readback: -7 mA
#Reference 1: ON
#Voltage: 0 V
#Reference 2: ON
#Voltage: 0 V

Time (s),Channel 1 (V),Channel 2 (V)
-4.096,0.3448594562177392,0.7226613692416989
-4.0955,0.3341892813600663,0.6696781772159098
-4.095,-0.07127736323252433,0.1716361721722888
-4.0945,-0.7755089038389382,-0.6019184314042303
-4.094,-1.394379045583968,-1.248313374118855
-4.0935,-1.266336947291767,-1.258910012524139
-4.093,-0.6367966306890638,-0.7396747306714069
-4.0925,-0.08194753809007105,-0.2204394488186749
-4.092,0.270168232214116,0.1398462569576442
-4.0915,0.4408910299368829,0.309392471440169
-4.091,0.4835717293676135,0.3305857482505039
-4.0905,0.4622313796522288,0.2776025562245799
-4.09,0.4408910299368829,0.1822328105781598
-4.0895,0.4515612047945656,0.06566978812131802
-4.089,0.4515612047945656,-0.04029659593025993
-4.0885,0.4195506802215176,-0.1356663415768632
-4.088,0.3875401556484697,-0.2098428104130352
-4.0875,0.3661998059331239,-0.2628260024388242
-4.087,0.2488278824980713,-0.1780528951970896
-4.0865,-0.3273615598162672,0.309392471440169
-4.086,-1.010252750707335,0.2140227257937488
-4.0855,-1.479740444446109,-0.3581957480852829
-4.085,-1.607782542738184,-0.252229364033705
-4.0845,-1.106284324427556,-0.08268314955118025
-4.084,-0.5087545323964354,0.002089957690380884
-4.0835,-0.02859666380115328,0.07626642652648545
-4.083,0.2594980573562781,0.1504428953626575
-4.0825,0.3875401556485085,0.235216002604074
-4.082,0.4302208550792003,0.3199891098453364
-4.0815,0.4195506802215176,0.4047622170866759
-4.081,0.3982103305061718,0.5001319627330961
-4.0805,0.3768699807907871,0.5743084315693548
-4.08,0.3661998059331045,0.6378882620003594
-4.0795,0.3555296310754315,0.6908714540261484
-4.079,0.3555296310751792,0.7226613692415158
-4.0785,0.08877525963335578,0.5213252395435176
-4.078,-0.6367966306884039,-0.1250697031711079
-4.0775,-1.319687821580869,-0.8456411147233511
-4.077,-1.447729919872945,-1.142346990067769
-4.0765,-0.8395299529855871,-0.8138511995078777
-4.076,-0.1886492866660047,-0.3264058328695108
-4.0755,0.2381577076409128,0.07626642652648545
-4.075,0.4515612047945656,0.3199891098453364
-4.0745,0.5155822539406419,0.4153588554918337
-4.074,0.4942419042252961,0.4047622170866759
-4.0735,0.4622313796522482,0.309392471440169
-4.073,0.4835717293675941,0.1080563417421709
-4.0725,0.5049120790829789,-0.07208651114585861
-4.072,0.4729015545099309,-0.1780528951975329
-4.0715,0.4302208550792391,-0.2416327256284797
-4.071,0.3875401556484115,-0.2840192792491784
-4.0705,0.3235191065023739,-0.252229364033705
-4.07,-0.1032878878045436,0.2458126410087114
-4.0695,-0.8715404775587515,0.8710143069138212
-4.069,-1.607782542738184,0.627291623595192
-4.0685,-2.141291285622316,-0.1674562567923655
-4.068,-1.735824641029658,-0.6231117082144976
-4.0675,-0.9462317015618604,-0.5489352393783931
-4.067,-0.2953510352432193,-0.2840192792492073
-4.0665,0.1314559590642901,0.002089957690535086
-4.066,0.3555296310754218,0.2458126410091644
-4.0655,0.4408910299368829,0.4047622170866759
-4.065,0.4515612047945559,0.5213252395434116
-4.0645,0.4195506802215176,0.5955017083796896
-4.064,0.3982103305061524,0.6484849004055269
-4.0635,0.3768699807908065,0.6802748156210002
-4.063,0.3555296310754218,0.6908714540261965
-4.0625,0.3555296310754218,0.6908714540261965
-4.062,0.2381577076410195,0.5955017083797763
-4.0615,-0.3807124341053986,0.05507314971542777
-4.061,-1.170305373573196,-0.7396747306714069
-4.0605,-1.67180359188428,-1.311893204550448
-4.06,-1.212986073003276,-1.195330182093134
-4.0595,-0.4980843575391895,-0.6760949002404023
-4.059,0.04609456020262521,-0.1780528951975329
-4.0585,0.3555296310751404,0.1398462569572009
-4.058,0.4835717293676135,0.2564092794143318
-4.0575,0.5155822539406614,0.2564092794143318
-4.057,0.4729015545099697,0.1822328105782272
-4.0565,0.4835717293676135,0.03387987290581572
-4.056,0.5582629533713921,-0.1780528951975329
-4.0555,0.536922603656046,-0.2628260024387953
-4.055,0.4729015545098824,-0.2840192792492073
-4.0545,0.4195506802215176,-0.2840192792492073
-4.054,0.3768699807908259,-0.2628260024388916
-4.0535,0.1101156093480612,-0.02969995752503467
-4.053,-0.6154562809736985,0.13984625695749
-4.0525,-1.362368521011484,-0.4111789401112165
-4.052,-1.981238662757018,-1.078767159636996
-4.0515,-1.917217613610981,-1.333086481360783
-4.051,-1.159635198715513,-0.9622041371799229
-4.0505,-0.4660738329667724,-0.4323722169220331
-4.05,0.02475421048725994,0.02328323450064829
-4.0495,0.3021787567870086,0.3199891098453364
-4.049,0.4302208550790839,0.4895353243278611
-4.0485,0.4515612047945559,0.5637117931642067
-4.048,0.4408910299368829,0.5849050699745222
-4.0475,0.4088805053638641,0.5849050699745222
-4.047,0.3875401556484503,0.5637117931641585
-4.0465,0.3661998059331045,0.5319218779486851
-4.046,0.3661998059331045,0.5001319627332117
-4.0455,0.3982103305061621,0.4153588554913903
-4.045,0.408880505363835,-0.08268314955102604
-4.0445,-0.2099896363817582,-0.8668343915334161
-4.044,-0.9569018764196208,-1.545019249464199
-4.0435,-1.042263275281004,-1.619195718300304
-4.043,-0.572775581542968,-1.089363798041932
-4.0425,-0.08194753809001287,-0.5171453241634113
-4.042,0.2381577076409128,-0.1038764263613609
-4.0415,0.408880505363835,0.09745970333682032
-4.041,0.4729015545098726,0.1504428953626093
-4.0405,0.4729015545099212,0.1292496185522551
-4.04,0.4622313796522482,0.05507314971615059
-4.0395,0.6542945270903611,-0.2628260024385833
-4.039,0.7076454013788714,-0.3899856633008334
-4.0385,0.6222840025174878,-0.3370024712750445
-4.038,0.5155822539407584,-0.2310360872234665
-4.0375,0.4302208550790451,-0.1356663415766704
-4.037,0.2594980573562781,0.07626642652648545
-4.0365,-0.3700422592469978,0.6802748156210291
-4.036,-1.159635198716096,0.6802748156204604
-4.0355,-1.799845690176472,0.05507314971615059
-4.035,-1.917217613610981,0.04447651131098315
-4.0345,-1.234326422719913,0.08686306493161433
-4.034,-0.5514352318276028,0.09745970333682032
-4.0335,-0.02859666380115328,0.1186529801471552
-4.033,0.270168232213689,0.1822328105781019
-4.0325,0.4088805053638738,0.2564092794144089
-4.032,0.4515612047945656,0.3411823866556712
-4.0315,0.4408910299368927,0.4259554938969336
-4.031,0.4088805053638156,0.5107286011384177
-4.0305,0.3875401556484697,0.5849050699745222
-4.03,0.3768699807907968,0.648484900405469
-4.0295,0.3661998059330948,0.7014680924313736
-4.029,0.3555296310754218,0.7120647308365314
-4.0285,0.05676473506030786,0.4259554938970107
-4.028,-0.6901475049781564,-0.2734226408446663
-4.0275,-1.437059745015262,-0.9622041371799229
-4.027,-1.693143941599645,-1.216523458903942
-4.0265,-1.074273799854615,-0.7926579226976296
-4.026,-0.3593720843893152,-0.2734226408440398
-4.0255,0.142126133921769,0.1186529801471552
-4.025,0.4088805053635924,0.3199891098451533
-4.0245,0.5049120790829789,0.3623756634659676
-4.024,0.5049120790829789,0.3199891098453364
-4.0235,0.47290155450996,0.2246193641989162
-4.023,0.4835717293676232,0.06566978812114455
-4.0225,0.4942419042252961,-0.1250697031716958
-4.022,0.4622313796522773,-0.2416327256284315
-4.0215,0.4195506802214886,-0.305212556059571
-4.021,0.3875401556484697,-0.3370024712750445
-4.0205,0.3448594562177392,-0.326405832869877
-4.02,-0.07127736323260196,-0.02969995752522743
-4.0195,-0.8608703027003992,-0.07208651114585861
-4.019,-1.586442193022819,-0.6443049850249
-4.0185,-2.013249187329737,-0.6125150698094265
-4.018,-1.490410619303675,-0.2840192792492073
-4.0175,-0.7648387289812555,-0.06148987274069118
-4.017,-0.177979111809244,0.07626642652636018
-4.0165,0.2061471830680298,0.1716361721730695
-4.016,0.3875401556484697,0.2564092794143318
-4.0155,0.4515612047945073,0.3305857482504364
-4.015,0.4515612047945461,0.4047622170867337
-4.0145,0.4302208550792003,0.4683420475176805
-4.014,0.3982103305061815,0.5319218779486272
-4.0135,0.3768699807907774,0.5955017083797282
-4.013,0.3661998059331045,0.6378882620003594
-4.0125,0.3661998059331045,0.6590815388106942
-4.012,0.2061471830672923,0.5531151547584803
-4.0115,-0.423393133535411,-0.04029659593035631
-4.011,-0.9995825758502737,-0.7820612842920766
-4.0105,-1.341028171295808,-1.248313374119019
-4.01,-0.9355615267041777,-1.004590690800593
-4.0095,-0.3273615598162672,-0.4853554089473885
-4.009,0.1314559590636691,-0.02969995752560328
-4.0085,0.3875401556485668,0.235216002604103
-4.008,0.4942419042252961,0.3517790250608387
-4.0075,0.4942419042252961,0.3411823866556809
-4.007,0.4729015545099406,0.2670059178193643
-4.0065,0.4835717293676135,0.1186529801471552
-4.006,0.5582629533713921,-0.1144730647665284
-4.0055,0.5369226036559781,-0.2310360872234087
-4.005,0.4835717293676135,-0.2734226408440398
-4.0045,0.4302208550792003,-0.2946159176543747
-4.004,0.3768699807905445,-0.2840192792489664
-4.0035,0.1101156093487211,-0.01910331912002144
-4.003,-0.6047861061160158,0.6166949851900245
-4.0025,-1.330357996437776,0.4577454091126576
-4.002,-1.885207089037933,-0.2734226408440398
-4.0015,-1.778505340461106,-0.7502713690765743
-4.001,-1.06360362499702,-0.6443049850249963
-4.0005,-0.4127229586773014,-0.3158091944644108
-4,0.05676473506030786,0.01268659609548085
-3.9995,0.3235191065023739,0.2776025562246667
-3.999,0.4302208550792003,0.4471487707073456
-3.9985,0.4622313796522482,0.5425185163538525
-3.998,0.4408910299368829,0.5955017083796896
-3.9975,0.4195506802215176,0.627291623595192
-3.997,0.3875401556484697,0.6378882620003594
-3.9965,0.3768699807907871,0.627291623595192
-3.996,0.3661998059331045,0.6166949851900245
-3.9955,0.3768699807907871,0.5319218779486851
-3.995,0.2594980573562781,0.05507314971615059
-3.9945,-0.3593720843893152,-0.7290780922662394
-3.994,-1.1062843244271,-1.396666311791788
-3.9935,-1.1062843244271,-1.301296566145281
-3.993,-0.5621054066852853,-0.792657922697244
-3.9925,-0.02859666380115328,-0.2840192792492073
-3.992,0.3021787567870086,0.03387987290581572
-3.9915,0.4515612047945656,0.1504428953626575
-3.991,0.4942419042252961,0.1610395337678249
-3.9905,0.4729015545099309,0.1292496185523226
-3.99,0.4515612047945656,0.06566978812131802
-3.9895,0.5262524287983441,0.07626642652648545
-3.989,0.5262524287983441,0.02328323450064829
-3.9885,0.4835717293676135,-0.06148987274069118
-3.988,0.4302208550792003,-0.1356663415768632
-3.9875,0.3875401556484697,-0.1674562567923655
-3.987,0.2168173579255475,-0.05089323433552374
-3.9865,-0.4447334832507763,0.4047622170866759
-3.986,-1.234326422719292,0.1928294489833272
-3.9855,-1.906547438753298,-0.5171453241628908
-3.985,-2.066600061618538,-1.046977244421262
-3.9845,-1.341028171296118,-0.8986243067489184
-3.984,-0.6047861061160158,-0.4641621321370536
-3.9835,-0.04993701351651855,-0.02969995752518888
-3.983,0.2701682322139607,0.2987958330350016
-3.9825,0.4195506802215176,0.5001319627331828
-3.982,0.4622313796522482,0.6060983467848571
-3.9815,0.4515612047945656,0.6484849004055269
-3.981,0.4302208550792003,0.6590815388106942
-3.9805,0.3982103305061524,0.6484849004055269
-3.98,0.3768699807907871,0.627291623595192
-3.9795,0.3768699807907871,0.5955017083796896
-3.979,0.3875401556484697,0.5319218779486851
-3.9785,0.6436243522328531,0.1610395337678249
-3.978,0.4942419042252961,-0.6231117082145651
-3.9775,-0.3166913849585846,-1.38606967338662
-3.977,-0.807519428411986,-1.778145294377815
-3.9765,-0.5514352318276028,-1.417859588602123
-3.976,-0.1139580626626144,-0.8774310299385835
-3.9755,0.2061471830678648,-0.400582301706049
-3.975,0.3875401556484697,-0.07208651114585861
-3.9745,0.4515612047945656,0.09745970333682032
-3.974,0.4622313796522482,0.13984625695749
-3.9735,0.4408910299368829,0.09745970333682032
-3.973,0.4942419042252961,-0.1144730647665284
-3.9725,0.5369226036560266,-0.2946159176543747
-3.972,0.5049120790829789,-0.326405832869877
-3.9715,0.4515612047945656,-0.2946159176543747
-3.971,0.408880505363835,-0.2416327256285375
-3.9705,0.3235191065023739,-0.1568596183871981
-3.97,-0.1673089369510276,0.1822328105781598
-3.9695,-0.9248913518464952,0.01268659609548085
-3.969,-1.543761493592088,-0.6654982618352349
-3.9685,-1.927887788468663,-1.142346990067769
-3.968,-1.522421143876723,-1.078767159636765
-3.9675,-0.8181896032696687,-0.6231117082145651
-3.967,-0.2206598112394408,-0.1356663415768632
-3.9665,0.1741366584948169,0.2246193641988295
-3.966,0.3768699807907871,0.4471487707073456
-3.9655,0.4515612047945656,0.5637117931641874
-3.965,0.4515612047945656,0.6060983467848571
-3.9645,0.4302208550792003,0.6060983467848571
-3.964,0.408880505363835,0.5849050699745222
-3.9635,0.3875401556484697,0.55311515475902
-3.963,0.3768699807907871,0.5213252395435176
-3.9625,0.3661998059331045,0.4789386859228479
-3.962,0.2274875327832301,0.2776025562246667
-3.9615,-0.4127229586777283,-0.400582301706049
-3.961,-1.180975548430879,-1.184733543688439
-3.9605,-1.586442193022819,-1.703968825541643
-3.96,-1.138294849000148,-1.47084278062796
-3.9595,-0.4660738329661415,-0.8774310299385835
-3.959,0.05676473506030786,-0.3475991096802118
-3.9585,0.3555296310754218,-0.01910331912002144
-3.958,0.4729015545099309,0.1292496185523226
-3.9575,0.4942419042252961,0.1610395337678249
-3.957,0.4622313796522482,0.1292496185523226
-3.9565,0.4729015545099309,0.02328323450064829
-3.956,0.5155822539406614,-0.1674562567923655
-3.9555,0.4835717293676135,-0.2310360872233701
-3.955,0.4515612047945656,-0.2310360872233701
-3.9545,0.408880505363835,-0.1992461720078678
-3.954,0.3768699807907871,-0.1462629799820306
-3.9535,0.0674349099179905,0.13984625695749
-3.953,-0.658136980404429,0.5425185163538525
-3.9525,-1.394379045584531,0.07626642652648545
-3.952,-1.959898313041711,-0.3158091944647096
-3.9515,-1.799845690176472,-0.08268314955102604
-3.951,-1.052933450138687,0.06566978812131802
-3.9505,-0.391382608962363,0.1504428953626575
-3.95,0.07810508477567314,0.2140227257936621
-3.9495,0.3341892813600565,0.2776025562246667
-3.949,0.4408910299368829,0.3517790250608387
-3.9485,0.4622313796522482,0.4259554938970107
-3.948,0.4408910299368829,0.5107286011383502
-3.9475,0.4195506802215176,0.5743084315693548
-3.947,0.3982103305061524,0.6378882620003594
-3.9465,0.3768699807907871,0.6802748156210291
-3.946,0.3768699807907871,0.7120647308365314
-3.9455,0.3448594562177392,0.6802748156210291
-3.945,-0.07127736323188383,0.2564092794143318
-3.9445,-0.7861790786966207,-0.474758770542221
-3.944,-1.437059745015262,-1.0999604364471
-3.9435,-1.244996597576974,-1.121153713257435
-3.943,-0.5834457564006506,-0.7078848154559045
-3.9425,-0.007256314085787988,-0.2204394488182027
-3.942,0.3341892813600565,0.1186529801471552
-3.9415,0.4835717293676135,0.2881991946298341
-3.941,0.5262524287983441,0.309392471440169
-3.9405,0.5049120790829789,0.2246193641988295
-3.94,0.4729015545099309,0.1080563417419877
-3.9395,0.5475927785137094,-0.1356663415768632
-3.939,0.5582629533713921,-0.2628260024388724
-3.9385,0.5049120790829789,-0.3052125560595421
-3.938,0.4515612047945656,-0.3052125560595421
-3.9375,0.3982103305061524,-0.2946159176543747
-3.937,0.2274875327832301,-0.1886495336027004
-3.9365,-0.4447334832507763,0.02328323450064829
-3.936,-1.191645723288561,-0.400582301706049
-3.9355,-1.714484291315011,-0.8880276683437509
-3.935,-1.87453691418025,-0.5171453241628908
-3.9345,-1.255666772434657,-0.1356663415768632
-3.934,-0.572775581542968,0.05507314971615059
-3.9335,-0.03926683865883591,0.1610395337678249
-3.933,0.2808384070716433,0.2352160026039969
-3.9325,0.4195506802215176,0.2776025562246667
-3.932,0.4622313796522482,0.3411823866556712
-3.9315,0.4515612047945656,0.4047622170866759
-3.931,0.4302208550792003,0.457745409112513
-3.9305,0.408880505363835,0.5213252395435176
-3.93,0.3875401556484697,0.5743084315693548
-3.9295,0.3768699807907871,0.6060983467848571
-3.929,0.3768699807907871,0.6166949851900245
-3.9285,0.142126133921769,0.309392471440169
-3.928,-0.4767440078238243,-0.3899856633008816
-3.9275,-1.020922925565639,-1.078767159636765
-3.927,-1.084943974711735,-1.34368311976595
-3.9265,-0.5621054066852853,-1.004590690800593
-3.926,-0.01792648894347063,-0.4641621321370536
-3.9255,0.3341892813600565,-0.04029659593035631
-3.925,0.4942419042252961,0.2140227257936621
-3.9245,0.5369226036560266,0.3305857482505039
-3.924,0.5155822539406614,0.3305857482505039
-3.9235,0.4835717293676135,0.2670059178194992
-3.923,0.5689331282290746,0.04447651131098315
-3.9225,0.6542945270905358,-0.1780528951975329
-3.922,0.6009436528021226,-0.2416327256285375
-3.9215,0.5155822539406614,-0.2416327256285375
-3.921,0.4515612047945656,-0.2204394488182027
-3.9205,0.3555296310754218,-0.1674562567923655
-3.92,-0.1352984123779797,0.3305857482505039
-3.9195,-0.9142211769888124,0.8074344764830383
-3.919,-1.586442193022819,0.3623756634660061
-3.9185,-1.938557963326346,0.1716361721729923
-3.918,-1.426389570157579,0.1928294489833272
-3.9175,-0.722158029550525,0.13984625695749
-3.917,-0.1459685872356623,0.09745970333682032
-3.9165,0.2168173579255475,0.1080563417419877
-3.916,0.3982103305061524,0.1610395337678249
-3.9155,0.4622313796522482,0.2246193641988295
-3.915,0.4622313796522482,0.3199891098453364
-3.9145,0.4408910299368829,0.4047622170866759
-3.914,0.408880505363835,0.4895353243280153
-3.9135,0.3982103305061524,0.5637117931641874
-3.913,0.3768699807907871,0.627291623595192
-3.9125,0.3768699807907871,0.6696781772158616
-3.912,0.2274875327832301,0.55311515475902
-3.9115,-0.4127229586777283,-0.008506680714854012
-3.911,-1.170305373573196,-0.718481453861072
-3.9105,-1.597112367880501,-1.0999604364471
-3.91,-1.084943974711735,-0.7608680074817418
-3.9095,-0.391382608962363,-0.3158091944647096
-3.909,0.1314559590640864,0.03387987290581572
-3.9085,0.4195506802215176,0.2564092794143318
-3.908,0.5262524287983441,0.3411823866556712
-3.9075,0.5262524287983441,0.3199891098453364
-3.907,0.4942419042252961,0.2564092794143318
-3.9065,0.4942419042252961,0.1186529801471552
-3.906,0.5369226036560266,-0.06148987274069118
-3.9055,0.5155822539406614,-0.1462629799820306
-3.905,0.4622313796522482,-0.1886495336027004
-3.9045,0.4195506802215176,-0.1992461720078678
-3.904,0.3875401556484697,-0.1886495336027004
-3.9035,0.04609456020262521,0.04447651131098315
-3.903,-0.690147504977477,0.07626642652648545
-3.9025,-1.426389570157579,-0.5489352393783931
-3.902,-2.002579012472442,-0.8244478379127463
-3.9015,-1.799845690176472,-0.4323722169215513
-3.901,-1.031593100423322,-0.1356663415768632
-3.9005,-0.3593720843893152,0.03387987290581572
-3.9,0.09944543449103843,0.13984625695749
-3.8995,0.3555296310754218,0.2034260873884947
-3.899,0.4515612047945656,0.2564092794143318
-3.8985,0.4729015545099309,0.309392471440169
-3.898,0.4515612047945656,0.3623756634660061
-3.8975,0.4302208550792003,0.4153588554918433
-3.897,0.3982103305061524,0.457745409112513
-3.8965,0.3875401556484697,0.5001319627331828
-3.896,0.3875401556484697,0.5319218779486851
-3.8955,0.3661998059331045,0.5107286011383502
-3.895,0.00341386077189465,0.07626642652648545
-3.8945,-0.754168554123573,-0.6654982618352349
-3.894,-1.437059745015262,-1.248313374119443
-3.8935,-1.180975548430879,-1.05757388282643
-3.893,-0.4660738329661415,-0.5489352393783931
-3.8925,0.08877525963335578,-0.1144730647665284
-3.892,0.408880505363835,0.13984625695749
-3.8915,0.5262524287983441,0.2564092794143318
-3.891,0.5369226036560266,0.2776025562246667
-3.8905,0.5049120790829789,0.2458126410091644
-3.89,0.4729015545099309,0.1928294489833272
-3.8895,0.5369226036560266,0.1928294489833272
-3.889,0.5369226036560266,0.1610395337678249
-3.8885,0.4942419042252961,0.08686306493165288
-3.888,0.4408910299368829,0.02328323450064829
-3.8875,0.408880505363835,-0.01910331912002144
-3.887,0.2488278824985954,0.1186529801471552
