Class_5_Move_Left_hand_Horiszontal/Class_5_Move_Left_hand_Horiszontal_AM_8.csv

#Digilent WaveForms Oscilloscope Acquisition
#Device Name: EExplorer
#Serial Number: SN:210151A2B84A
#Date Time: 2020-12-06 10:56:45.559
#Sample rate: 2000Hz
#Samples: 16384
#Trigger: Source: Channel 1 Type: Edge Condition: Rising Level: 0 V Hyst.: Auto HoldOff: 0 s
#Channel 1: Range: 1 V/div Offset: 0 V Attenuation: 1 X
#Channel 2: Range: 1 V/div Offset: 0 V Attenuation: 1 X
#Power Supplies: ON
#Fixed Supply: ON
#Voltage: 3.3 V Readback: 3.331 V
#Positive Supply: ON
#Voltage: 3.7 V Readback: 3.688 V
#Current: 40 mA Readback: 23 mA
#Negative Supply: ON
#Voltage: -3.7 V Readback: -3.974 V
#Current: -40 mA Readback: 0 A
#Reference 1: ON
#Voltage: 0 V
#Reference 2: ON
#Voltage: 0 V

Time (s),Channel 1 (V),Channel 2 (V)
-4.096,0.3341892813600565,0.8074344764830383
-4.0955,0.248827882498673,0.5637117931644091
-4.095,-0.3380317346744739,-0.06148987274127907
-4.0945,-0.9142211769888124,-0.7078848154559045
-4.094,-1.074273799853906,-1.142346990067374
-4.0935,-0.8395299529847331,-1.534422611059523
-4.093,-0.5087545323968721,-2.149027638558676
-4.0925,-0.177979111809011,-2.530506621144356
-4.092,0.3555296310756159,-2.212607468989102
-4.0915,0.5689331282290746,-1.576809164679634
-4.091,0.6969752265212663,-0.8032545611024114
-4.0905,0.7609962756673138,-0.1568596183868511
-4.09,0.707645401378949,0.2246193641988295
-4.0895,0.7503261008096795,0.5955017083796896
-4.089,0.686305051663642,0.6590815388106364
-4.0885,0.5902734779444399,0.5743084315693548
-4.088,0.5049120790829789,0.4471487707073456
-4.0875,0.4302208550792683,0.372972301871241
-4.087,0.07810508477490649,0.6590815388112821
-4.0865,-0.7648387289812555,1.305476481525908
-4.086,-1.565101843306726,1.135930267043383
-4.0855,-2.077270236476599,0.3517790250609736
-4.085,-2.493407055925843,0.5001319627331828
-4.0845,-2.151961460480309,0.8498210301033899
-4.084,-1.277007122149314,0.7756445612673625
-4.0835,-0.4980843575391895,0.5849050699745222
-4.083,0.03542438534494258,0.457745409112513
-4.0825,0.3235191065024806,0.4259554938970685
-4.082,0.4408910299368829,0.4895353243280153
-4.0815,0.4622313796522482,0.6166949851900245
-4.081,0.4408910299369024,0.7544512844570759
-4.0805,0.3982103305061524,0.8604176685088755
-4.08,0.3555296310754218,0.9134008605347127
-4.0795,0.334189281360076,0.9557874141553439
-4.079,0.2594980573558123,0.8074344764825372
-4.0785,-0.2526703358124887,0.2564092794143318
-4.078,-0.7541685541231169,-0.16745625679198
-4.0775,-1.629122892453365,-1.089363798042173
-4.077,-1.426389570157579,-1.354279758171118
-4.0765,-0.5941159312590902,-1.545019249463959
-4.076,0.163466483637668,-1.703968825541499
-4.0755,0.7503261008096795,-1.545019249464132
-4.075,0.9850699476786977,-0.8880276683437509
-4.0745,0.9210488985324756,-0.1144730647660658
-4.074,0.7823366253827275,0.3941655786815084
-4.0735,0.6329541773751706,0.6590815388106942
-4.073,0.5796033030868059,0.8286277532932189
-4.0725,0.5262524287983441,0.7862411996727035
-4.072,0.4729015545099309,0.6166949851900245
-4.0715,0.4408910299369121,0.4047622170868687
-4.071,0.4088805053636798,0.2458126410092222
-4.0705,0.2381577076409128,0.309392471440169
-4.07,-0.466073832965501,0.9028042221290056
-4.0695,-1.309017646723526,1.347863035146076
-4.069,-1.810515865034154,0.7968378380778709
-4.0685,-1.906547438753298,0.1504428953626575
-4.068,-1.383708870726208,0.03387987290581572
-4.0675,-0.6794773301197943,0.03387987290581572
-4.067,-0.124628237520297,0.08686306493165288
-4.0665,0.2168173579257028,0.1716361721730791
-4.066,0.3875401556484697,0.2670059178194992
-4.0655,0.4408910299368829,0.3517790250608387
-4.065,0.4408910299368829,0.436552132302101
-4.0645,0.408880505363835,0.5213252395435176
-4.064,0.3875401556484697,0.5955017083796896
-4.0635,0.3555296310754509,0.6060983467848474
-4.063,0.3235191065023448,0.5531151547589043
-4.0625,0.291508581929326,0.4259554938970107
-4.062,0.06743490991819429,0.02328323450101449
-4.0615,-0.3807124341051462,-0.5701285161891521
-4.061,-0.8928808272734472,-1.036380606016095
-4.0605,-1.138294849000148,-1.417859588602123
-4.06,-1.12762467414167,-2.180817553774226
-4.0595,-0.2526703358124887,-2.233800745800015
-4.059,0.3768699807907871,-2.127834361748341
-4.0585,0.6649647019479563,-1.55561588786982
-4.058,0.8356874996711408,-0.718481453861072
-4.0575,0.857027849386506,0.002089957690313421
-4.057,0.7396559259521036,0.4047622170863097
-4.0565,0.6863050516635838,0.7120647308365314
-4.056,0.6436243522328531,0.8816109453192104
-4.0555,0.5475927785137967,0.8392243916985791
-4.055,0.4729015545098824,0.7120647308364062
-4.0545,0.4195506802215176,0.5743084315693548
-4.054,0.3448594562178071,0.510728601138408
-4.0535,-0.263340510671006,0.9134008605352139
-4.053,-1.180975548430879,1.464426057603419
-4.0525,-1.693143941599645,1.104140351827727
-4.052,-1.927887788468508,-0.05089323433615982
-4.0515,-1.757164990745741,-0.7502713690765743
-4.051,-1.1062843244271,-0.7078848154559045
-4.0505,-0.434063308393705,-0.3899856633011707
-4.05,0.03542438534494258,-0.07208651114585861
-4.0495,0.3021787567870086,0.1716361721729923
-4.049,0.4195506802214109,0.3199891098452015
-4.0485,0.4515612047945461,0.4047622170867144
-4.048,0.4302208550792003,0.4471487707073456
-4.0475,0.3982103305061815,0.4577454091125034
-4.047,0.366199805933085,0.4365521323021492
-4.0465,0.3448594562177392,0.4047622170866759
-4.046,0.3235191065023933,0.3517790250608869
-4.0455,0.1741366584942152,0.1610395337672563
-4.045,-0.4874141826815069,-0.4641621321370536
-4.0445,-1.170305373573196,-1.078767159636765
-4.044,-1.522421143876849,-1.502632695844031
-4.0435,-1.661133417026597,-2.127834361748341
-4.043,-1.06360362499637,-2.445733513903364
-4.0425,-0.135298412378824,-2.286783937825996
-4.042,0.4515612047945656,-1.88411167842949
-4.0415,0.7716664505250448,-1.036380606016095
-4.041,0.8463576745287553,-0.1992461720086292
-4.0405,0.7503261008096214,0.3093924714404966
-4.04,0.6863050516635838,0.6696781772158616
-4.0395,0.8143471499556588,0.9981739677757533
-4.039,0.7716664505249283,0.9769806909655534
-4.0385,0.6436243522328531,0.7968378380778709
-4.038,0.5262524287984509,0.6060983467850305
-4.0375,0.4408910299365627,0.4789386859230888
-4.037,0.08877525963335578,0.7438546460520338
-4.0365,-0.7434983792658902,1.37965295036208
-4.036,-1.501080794161756,1.411442865576927
-4.0355,-1.938557963326346,0.6908714540261965
-4.035,-2.301343908487556,0.775644561267536
-4.0345,-1.895877263895984,0.9239974989397451
-4.034,-1.084943974711735,0.7120647308365314
-4.0335,-0.3807124341046804,0.4365521323021782
-4.033,0.09944543449060173,0.2564092794144956
-4.0325,0.3555296310755091,0.1928294489833658
-4.032,0.4515612047945656,0.2352160026039969
-4.0315,0.4622313796522385,0.3517790250607327
-4.031,0.4302208550791712,0.4895353243281214
-4.0305,0.3982103305061524,0.6060983467848571
-4.03,0.3661998059331336,0.7120647308364351
-4.0295,0.3448594562177295,0.7332580076468181
-4.029,0.3341892813600565,0.6802748156210291
-4.0285,-0.1779791118087102,-0.1462629799820306
-4.028,-1.116954499285287,-1.163540266878557
-4.0275,-1.67180359188428,-1.661582271920973
-4.027,-1.575772018165136,-2.064254531317336
-4.0265,-0.5300948821131883,-2.191414192179229
-4.026,0.5155822539406614,-2.053657892912168
-4.0255,1.123782220828572,-1.809935209593318
-4.025,1.251824319120647,-1.290699927740586
-4.0245,1.13445239568608,-0.4747587705415464
-4.024,0.942389248247967,0.2670059178194992
-4.0235,0.7503261008098543,0.7226613692412844
-4.023,0.7823366253827179,1.082947075017411
-4.0225,0.7716664505250448,1.104140351827727
-4.022,0.6542945270906426,0.8816109453194128
-4.0215,0.5369226036559392,0.5955017083794776
-4.021,0.4408910299368829,0.3623756634660061
-4.0205,0.1848068333524996,0.383568940276341
-4.02,-0.5941159312590417,0.9134008605351464
-4.0195,-1.373038695869166,1.390249588767247
-4.019,-1.863866739322568,0.849821030103708
-4.0185,-2.16263163533741,-0.3052125560584916
-4.018,-1.799845690176472,-0.9728007755850904
-4.0175,-1.042263275281004,-0.8456411147230812
-4.017,-0.3593720843899362,-0.4217755785167694
-4.0165,0.1101156093489443,-0.01910331911975159
-4.016,0.3555296310754218,0.2776025562246667
-4.0155,0.4515612047944783,0.468342047517507
-4.015,0.4622313796522288,0.5637117931642356
-4.0145,0.4408910299368829,0.6166949851900245
-4.014,0.3982103305061912,0.6166949851900245
-4.0135,0.3555296310753927,0.5319218779486176
-4.013,0.3235191065023739,0.457745409112513
-4.0125,0.3021787567870086,0.2458126410091644
-4.012,0.02475421048671649,-0.1462629799825896
-4.0115,-0.572775581542968,-0.7608680074817418
-4.011,-0.9995825758502737,-1.280103289334946
-4.0105,-1.63979306731065,-2.159624276963043
-4.01,-1.298347471865388,-2.551699897955038
-4.0095,-0.423393133535411,-2.488120067524033
-4.009,0.2274875327826381,-2.254994022610561
-4.0085,0.6436243522330471,-1.555615887868461
-4.008,0.857027849386506,-0.6337083466197325
-4.0075,0.8143471499558141,-0.0191033191205805
-4.007,0.6649647019482378,0.4047622170870132
-4.0065,0.6863050516635838,0.775644561267536
-4.006,0.7716664505250448,1.00877060618122
-4.0055,0.6969752265211595,0.9134008605345392
-4.005,0.5796033030867573,0.7226613692416989
-4.0045,0.4942419042252961,0.55311515475902
-4.004,0.3768699807902146,0.5001319627335876
-4.0035,-0.2526703358124887,0.9451907757502149
-4.003,-1.255666772434657,1.612778995275763
-4.0025,-2.0666000616178,2.121417638723337
-4.002,-2.429386006779747,2.365140322042651
-4.0015,-2.525417580498891,2.407526875663321
-4.001,-1.767835165604113,1.877694955405431
-4.0005,-0.8928808272728164,1.104140351827177
-4,-0.1993194615240755,0.5001319627331828
-3.9995,0.2168173579255475,0.1822328105781598
-3.999,0.4195506802215176,0.1080563417419877
-3.9985,0.4835717293676135,0.1822328105781598
-3.998,0.4729015545099309,0.3411823866556712
-3.9975,0.4408910299368829,0.5213252395435176
-3.997,0.3982103305061524,0.627291623595192
-3.9965,0.3555296310754218,0.6802748156210291
-3.996,0.3341892813600565,0.6696781772158616
-3.9955,0.2488278824985954,0.6378882620003594
-3.995,-0.2633405106701714,0.2140227257936621
-3.9945,-0.839529952985034,-0.3158091944647096
-3.994,-1.116954499284783,-0.6654982618352349
-3.9935,-0.9889124009925911,-1.025783967610927
-3.993,-0.9142211769888124,-1.767548655972648
-3.9925,-0.156638762093345,-1.693372187136476
-3.992,0.3448594562177392,-1.375473034981453
-3.9915,0.5902734779444399,-0.7290780922662394
-3.991,0.7823366253827275,0.02328323450064829
-3.9905,0.79300680024041,0.5849050699745222
-3.99,0.707645401378949,0.92399749893988
-3.9895,0.79300680024041,1.199510097474233
-3.989,0.7289857510943143,1.082947075017392
-3.9885,0.6116138276598051,0.7650479228623686
-3.988,0.5049120790829789,0.4365521323021782
-3.9875,0.4302208550792003,0.1822328105781598
-3.987,0.2168173579255475,0.2458126410091644
-3.9865,-0.4020527838200457,0.7862411996727035
-3.986,-1.1062843244271,0.8710143069140429
-3.9855,-1.522421143876723,0.1822328105781598
-3.985,-1.778505340461106,0.2564092794143318
-3.9845,-1.362368521011484,0.3623756634660061
-3.984,-0.7008176798351597,0.2458126410091644
-3.9835,-0.1459685872356623,0.1080563417419877
-3.983,0.2061471830678648,0.03387987290581572
-3.9825,0.3875401556484697,0.03387987290581572
-3.982,0.4515612047945656,0.09745970333682032
-3.9815,0.4515612047945656,0.2034260873884947
-3.981,0.4302208550792003,0.3411823866556712
-3.9805,0.3982103305061524,0.457745409112513
-3.98,0.3768699807907871,0.5637117931641874
-3.9795,0.3555296310754218,0.6166949851900245
-3.979,0.3341892813600565,0.6060983467848571
-3.9785,-0.01792648894347063,0.2987958330350016
-3.978,-0.6047861061160158,-0.252229364033705
-3.9775,-0.9889124009925911,-0.6866915386455698
-3.977,-1.084943974711735,-0.9092209451540858
-3.9765,-0.8715404775580819,-1.449649503817625
-3.976,-0.4447334832507763,-1.894708316834657
-3.9755,0.2701682322139607,-1.735758740757146
-3.975,0.6116138276598051,-1.258910012524611
-3.9745,0.7716664505250448,-0.4217755785163839
-3.974,0.8676980242441885,0.3411823866556712
-3.9735,0.7716664505250448,0.7862411996727035
-3.973,0.7823366253827275,1.157123543853563
-3.9725,0.7183155762366316,1.210106735879401
-3.972,0.6116138276598051,1.00877060618122
-3.9715,0.5049120790829789,0.7438546460520338
-3.971,0.4302208550792003,0.4895353243280153
-3.9705,0.3555296310754218,0.4259554938970107
-3.97,-0.274010685527854,0.8922075837243778
-3.9695,-1.010252750707956,0.8922075837243778
-3.969,-1.405049220442214,-0.06148987274069118
-3.9685,-1.607782542738184,-1.089363798041932
-3.968,-1.234326422719292,-1.333086481360783
-3.9675,-0.6367966306890638,-0.9410108603695881
-3.967,-0.124628237520297,-0.4535654937318862
-3.9665,0.2168173579255475,-0.07208651114585861
-3.966,0.3875401556484697,0.1504428953626575
-3.9655,0.4408910299368829,0.2670059178194992
-3.965,0.4408910299368829,0.2987958330350016
-3.9645,0.4302208550792003,0.309392471440169
-3.964,0.3982103305061524,0.2881991946298341
-3.9635,0.3661998059331045,0.2352160026039969
-3.963,0.3448594562177392,0.1822328105781598
-3.9625,0.3235191065023739,0.09745970333682032
-3.962,0.01408403562957729,-0.2840192792492073
-3.9615,-0.6154562809736985,-0.9304142219644207
-3.961,-1.127624674142465,-1.460246142222792
-3.9605,-1.586442193022819,-2.000674700886331
-3.96,-1.735824641030376,-2.678859558817047
-3.9595,-0.7755089038389382,-2.594086451575707
-3.959,0.00341386077189465,-2.318573853041354
-3.9585,0.4729015545099309,-1.566212526274467
-3.958,0.7609962756673623,-0.4111789401112165
-3.9575,0.8356874996711408,0.4365521323021782
-3.957,0.7503261008096795,0.8074344764830383
-3.9565,0.7503261008096795,1.061753798207057
-3.956,0.7716664505250448,1.231300012689736
-3.9555,0.6863050516635838,1.146526905448396
-3.955,0.5689331282290746,0.9663840525605498
-3.9545,0.4835717293676135,0.7968378380778709
-3.954,0.3875401556484697,0.6802748156210291
-3.9535,-0.2420001609548061,1.019367244586387
-3.953,-1.159635198715513,1.549199164844759
-3.9525,-1.639793067311232,1.188913459069066
-3.952,-1.895877263895616,-0.01910331912002144
-3.9515,-1.661133417026597,-0.8880276683437509
-3.951,-0.9995825758502737,-0.8668343915334161
-3.9505,-0.3487019095316325,-0.4959520473525559
-3.95,0.09944543449103843,-0.1038764263613609
-3.9495,0.3448594562177392,0.1822328105781598
-3.949,0.4515612047945656,0.3517790250608387
-3.9485,0.4622313796522482,0.4365521323021782
-3.948,0.4515612047945656,0.4683420475176805
-3.9475,0.4195506802215176,0.4683420475176805
-3.947,0.3875401556484697,0.4259554938970107
-3.9465,0.3555296310754218,0.383568940276341
-3.946,0.3448594562177392,0.2987958330350016
-3.9455,0.2061471830678648,0.02328323450064829
-3.945,-0.3593720843893152,-0.6231117082145651
-3.9445,-0.8715404775580819,-1.216523458903942
-3.944,-1.020922925565639,-1.587405803084801
-3.9435,-0.5621054066852853,-1.990078062481164
-3.943,-0.2526703358124887,-2.604683089980875
-3.9425,0.4515612047945656,-2.519909982739535
-3.942,0.7823366253827275,-2.21260746898968
-3.9415,0.8783681991018712,-1.354279758171118
-3.941,0.9317190733902845,-0.3793890248957141
-3.9405,0.8356874996711408,0.2670059178194992
-3.94,0.7289857510943143,0.7226613692416989
-3.9395,0.7609962756673623,1.029963882991555
-3.939,0.6863050516635838,0.9981739677760521
-3.9385,0.5689331282290746,0.8286277532933731
-3.938,0.4835717293676135,0.6378882620003594
-3.9375,0.4195506802215176,0.5107286011383502
-3.937,0.08877525963335578,0.7438546460520338
-3.9365,-0.6474668055467465,1.273686566310405
-3.936,-1.383708870726849,1.00877060618122
-3.9355,-1.725154466172693,-0.06148987274069118
-3.935,-1.885207089037933,-1.0999604364471
-3.9345,-1.426389570157579,-1.301296566145281
-3.934,-0.7328282044082075,-0.8456411147230812
-3.9335,-0.156638762093345,-0.2840192792492073
-3.933,0.2168173579255475,0.1716361721729923
-3.9325,0.3982103305061524,0.4471487707073456
-3.932,0.4622313796522482,0.5955017083796896
-3.9315,0.4622313796522482,0.6590815388106942
-3.931,0.4302208550792003,0.6696781772158616
-3.9305,0.3982103305061524,0.6378882620003594
-3.93,0.3661998059331045,0.5849050699745222
-3.9295,0.3555296310754218,0.4895353243280153
-3.929,0.3235191065023739,0.2987958330350016
-3.9285,-0.03926683865883591,-0.1462629799820306
-3.928,-0.572775581542968,-0.7078848154559045
-3.9275,-1.180975548430879,-1.449649503817625
-3.927,-1.46907026958831,-2.424540237093029
-3.9265,-0.5407650569699201,-2.689456197222214
-3.926,0.2381577076409128,-2.890792326920395
-3.9255,0.7609962756673623,-2.774229304463554
-3.925,1.049090996824793,-2.032464616101834
-3.9245,1.027750647109428,-1.121153713257435
-3.924,0.8356874996711408,-0.3899856633008816
-3.9235,0.6756348768059011,0.1186529801471552
-3.923,0.857027849386506,0.7438546460520338
-3.9225,1.017080472251745,1.199510097474233
-3.922,0.9103787236749192,1.157123543853563
-3.9215,0.7289857510943143,0.9345941373450475
-3.921,0.5796033030867573,0.7226613692416989
-3.9205,0.3128489316446912,0.7650479228623686
-3.92,-0.4767440078238243,1.284283204715573
-3.9195,-1.30901764672307,1.6657621873016
-3.919,-1.735824641030376,0.8922075837243778
-3.9185,-2.066600061618538,-0.3793890248957141
-3.918,-1.799845690176472,-1.046977244421262
-3.9175,-1.06360362499637,-0.8138511995075789
-3.917,-0.3807124341046804,-0.2840192792492073
-3.9165,0.08877525963335578,0.2140227257936621
-3.916,0.3448594562177392,0.5849050699745222
-3.9155,0.4515612047945656,0.7968378380778709
-3.915,0.4729015545099309,0.9134008605347127
-3.9145,0.4515612047945656,0.9557874141553824
-3.914,0.4195506802215176,0.92399749893988
-3.9135,0.3768699807907871,0.8286277532933731
-3.913,0.3555296310754218,0.7332580076468663
-3.9125,0.3341892813600565,0.5425185163538525
-3.912,0.09944543449103843,0.13984625695749
-3.9115,-0.5621054066852853,-0.6019184314042303
-3.911,-1.138294849000148,-1.258910012524611
-3.9105,-1.415719395299897,-1.947691508860494
-3.91,-1.255666772434657,-2.753036027653219
-3.9095,-0.274010685527854,-2.880195688515228
-3.909,0.408880505363835,-2.869599050110061
-3.9085,0.7503261008096795,-2.339767129851689
-3.908,0.9210488985326017,-1.449649503817625
-3.9075,0.8890383739595538,-0.8244478379127463
-3.907,0.7396559259519968,-0.4217755785163839
-3.9065,0.7823366253827275,0.002089957690313421
-3.906,0.8783681991018712,0.3411823866556712
-3.9055,0.7823366253827275,0.3729723018711736
-3.905,0.6436243522328531,0.309392471440169
-3.9045,0.5262524287983441,0.2670059178194992
-3.904,0.408880505363835,0.3411823866556712
-3.9035,-0.1673089369510276,0.8604176685088755
-3.903,-0.9675720512772257,1.358459673551745
-3.9025,-1.554431668449771,0.7120647308365314
-3.902,-2.119950935906951,-0.4429688553267188
-3.9015,-2.568098279929622,-1.38606967338662
-3.901,-1.991908837614759,-1.42845622700729
-3.9005,-1.095614149569417,-0.7290780922662394
-3.9,-0.3487019095316325,0.06566978812131802
-3.8995,0.142126133921769,0.6908714540261965
-3.899,0.3982103305061524,1.093543713422559
-3.8985,0.4835717293676135,1.305476481525908
-3.898,0.4942419042252961,1.390249588767247
-3.8975,0.4622313796522482,1.37965295036208
-3.897,0.3982103305061524,1.231300012689736
-3.8965,0.3555296310754218,1.00877060618122
-3.896,0.3341892813600565,0.7544512844572011
-3.8955,0.1954770082101822,0.3941655786815084
-3.895,-0.4020527838200457,-0.3052125560595421
-3.8945,-0.8502001278427167,-0.8880276683437509
-3.894,-1.810515865034154,-2.000674700886331
-3.8935,-1.383708870726849,-2.466926790713698
-3.893,-0.4340633083930936,-2.806019219679056
-3.8925,0.3341892813600565,-3.102725095023744
-3.892,0.8676980242441885,-2.880195688515228
-3.8915,1.049090996824793,-2.021867977696666
-3.891,0.9637295979633325,-1.248313374119443
-3.8905,0.8036769750980928,-0.7290780922662394
-3.89,0.6969752265212663,-0.3581957480853793
-3.8895,0.7289857510943143,0.03387987290581572
-3.889,0.79300680024041,0.2776025562246667
-3.8885,0.7823366253827275,0.3411823866556712
-3.888,0.6863050516635838,0.2776025562246667
-3.8875,0.5689331282290746,0.2458126410091644
-3.887,0.2381577076409128,0.5849050699745222
-3.8865,-0.6047861061160158,1.29487984312074
-3.886,-1.287677297007705,1.432636142387917
-3.8855,-1.746494815888059,0.55311515475902
-3.885,-1.821186039891837,0.2987958330350016
