Class_5_Move_Left_hand_Horiszontal/Class_5_Move_Left_hand_Horiszontal_AM_7.csv

#Digilent WaveForms Oscilloscope Acquisition
#Device Name: EExplorer
#Serial Number: SN:210151A2B84A
#Date Time: 2020-12-03 14:49:59.745
#Sample rate: 2000Hz
#Samples: 16384
#Trigger: Source: Channel 1 Type: Edge Condition: Rising Level: 0 V Hyst.: Auto HoldOff: 0 s
#Channel 1: Range: 1 V/div Offset: 0 V Attenuation: 1 X
#Channel 2: Range: 1 V/div Offset: 0 V Attenuation: 1 X
#Power Supplies: ON
#Fixed Supply: ON
#Voltage: 3.3 V Readback: 3.324 V
#Positive Supply: ON
#Voltage: 3.7 V Readback: 3.678 V
#Current: 40 mA Readback: 21 mA
#Negative Supply: ON
#Voltage: -3.7 V Readback: -3.826 V
#Current: -40 mA Readback: -3 mA
#Reference 1: ON
#Voltage: 0 V
#Reference 2: ON
#Voltage: 0 V

Time (s),Channel 1 (V),Channel 2 (V)
-4.096,1.049090996824793,-0.8880276683437509
-4.0955,0.9530594231057371,-0.6337083466199638
-4.095,0.7289857510939843,-0.4959520473525945
-4.0945,0.3661998059331045,-0.5383386009732256
-4.094,-0.5407650569690952,-1.174136905282694
-4.0935,-0.5834457564007379,-0.993994052395088
-4.093,-0.6794773301197943,-0.6231117082145651
-4.0925,-1.266336947291806,0.1080563417413227
-4.092,-1.319687821580763,0.9134008605351945
-4.0915,-1.330357996438436,1.443232780793084
-4.091,-1.330357996438436,1.42203950398275
-4.0905,-0.9462317015614625,0.796837838077283
-4.09,-0.5087545323968721,0.1504428953626575
-4.0895,-0.1779791118087102,-0.2840192792492073
-4.089,0.02475421048707555,-0.4747587705420476
-4.0885,0.1207857842064037,-0.4853554089473885
-4.088,0.1527963087794516,-0.3793890248957141
-4.0875,0.1527963087794516,-0.231036087223505
-4.087,0.131455959064067,-0.09327978795608746
-4.0865,0.1101156093487211,0.02328323450064829
-4.086,0.08877525963337518,0.139846256957384
-4.0855,0.08877525963335578,0.2246193641989066
-4.085,0.08877525963335578,0.309392471440169
-4.0845,-0.1779791118084676,0.5531151547587982
-4.084,-0.7541685541238933,0.945190775750533
-4.0835,-1.1062843244271,1.29487984312074
-4.083,-1.148965023857831,1.528005888034424
-4.0825,-0.3166913849577403,1.496215972818372
-4.082,0.6116138276598051,0.8922075837243778
-4.0815,1.219813794547716,0.13984625695749
-4.081,1.475897991131866,-0.4217755785158732
-4.0805,1.475897991132099,-0.7078848154559045
-4.08,1.35852606769759,-0.792657922697244
-4.0795,1.155792745401804,-0.7714646458869285
-4.079,1.113112045970831,-0.6760949002404312
-4.0785,1.049090996824793,-0.7078848154559045
-4.078,0.7823366253829702,-0.6549016234301156
-4.0775,0.4942419042251021,-0.5595318777834448
-4.077,0.2808384070716433,-0.4323722169215513
-4.0765,0.09944543449120341,-0.2522293640338689
-4.076,-0.6047861061173259,0.09745970333673358
-4.0755,-2.045259711903173,0.002089957690313421
-4.075,-2.632119329075718,0.6060983467848571
-4.0745,-3.005575449094406,1.1253336286381
-4.074,-2.781501777083275,1.167720182258731
-4.0735,-1.83185621474952,0.6696781772158616
-4.073,-0.914221176989647,0.06566978812186741
-4.0725,-0.3273615598162672,-0.4111789401112165
-4.072,0.00341386077189465,-0.6125150698093976
-4.0715,0.1421261339216428,-0.60191843140424
-4.071,0.1848068333524898,-0.4747587705420476
-4.0705,0.1741366584948169,-0.2840192792492073
-4.07,0.152796308779471,-0.07208651114605139
-4.0695,0.1314559590640766,0.1186529801473094
-4.069,0.1207857842064037,0.2881991946298341
-4.0685,0.1101156093487211,0.4153588554918433
-4.068,-0.1139580626632258,0.6166949851903426
-4.0675,-0.7861790786966207,0.9663840525605498
-4.067,-1.031593100423322,1.273686566310405
-4.0665,-0.9462317015613655,1.422039503982788
-4.066,-0.4020527838200457,1.464426057603419
-4.0655,0.3982103305061524,1.284283204715573
-4.065,1.027750647108856,0.8392243916989454
-4.0645,1.369196242555273,0.3199891098453364
-4.064,1.454557641416734,-0.1038764263613609
-4.0635,1.390536592270696,-0.4641621321367259
-4.063,1.209143619689936,-0.6654982618354373
-4.0625,1.102441871113207,-0.8880276683437509
-4.062,1.123782220828553,-1.195330182093327
-4.0615,0.8570278493862343,-1.068170521231318
-4.061,0.5582629533713921,-0.7608680074817418
-4.0605,0.3235191065023739,-0.4429688553267188
-4.06,0.1741366584945549,-0.1886495336024787
-4.0595,-0.1139580626626144,0.05507314971615059
-4.059,-0.3060212101009019,0.5107286011383502
-4.0585,-0.6367966306887629,0.934594137344662
-4.058,-1.06360362499637,1.241896651094903
-4.0575,-1.116954499284783,1.029963882991555
-4.057,-1.031593100423399,0.1504428953634575
-4.0565,-1.319687821580753,-1.089363798041932
-4.056,-0.8608703027003992,-1.301296566145281
-4.0555,-0.5407650569702112,-1.290699927740123
-4.055,-0.2953510352429767,-1.131750351662294
-4.0545,-0.02859666380115328,-0.792657922697244
-4.054,0.1101156093485949,-0.5171453241631414
-4.0535,0.1101156093487017,-0.358195748085254
-4.053,0.08877525963335578,-0.2204394488182027
-4.0525,0.07810508477567314,-0.09327978795619347
-4.052,0.07810508477561491,0.02328323450077358
-4.0515,0.01408403562957729,0.1610395337678249
-4.051,-0.5087545323968721,0.55311515475902
-4.0505,-0.9142211769884436,1.008770606180805
-4.05,-0.9462317015618604,1.29487984312074
-4.0495,-0.4874141826815069,0.7862411996727035
-4.049,0.3021787567862905,-0.0932797879553936
-4.0485,0.9530594231060088,-0.6866915386458685
-4.048,1.347855892839907,-1.01518732920576
-4.0475,1.475897991131983,-1.068170521231549
-4.047,1.42254711684354,-1.057573882826333
-4.0465,1.262494493978446,-0.9516074987747555
-4.046,1.05976117168266,-0.7926579226973886
-4.0455,0.9743997728208111,-0.8986243067488605
-4.045,0.7503261008096795,-0.8350444763179138
-4.0445,0.5262524287983441,-0.6125150698093976
-4.044,0.3235191065022574,-0.3687923864903636
-4.0435,0.1954770082101822,-0.1674562567923655
-4.043,-0.03926683865883591,0.1186529801471552
-4.0425,-0.4767440078234264,0.6166949851895716
-4.042,-0.9995825758502737,1.082947075017392
-4.0415,-1.255666772434657,1.358459673551745
-4.041,-1.095614149569563,1.0935437134228
-4.0405,-0.6901475049771374,0.4153588554912843
-4.04,-0.3166913849585846,-0.1992461720078678
-4.0395,-0.07127736323210704,-0.5807251545935485
-4.039,0.06743490991803902,-0.7290780922662201
-4.0385,0.1207857842064037,-0.7078848154559045
-4.038,0.05676473506036608,-0.6760949002404312
-4.0375,-0.6688071552621312,-1.248313374119318
-4.037,-0.690147504977477,-1.110557074852267
-4.0365,-0.5300948821122373,-0.7820612842920766
-4.036,-0.3807124341044766,-0.4959520473522283
-4.0355,-0.156638762093345,-0.1356663415768632
-4.035,0.03542438534494258,0.1610395337678249
-4.0345,-0.199319461523862,0.4577454091122432
-4.034,-0.7328282044082075,0.9028042221295453
-4.0335,-0.8181896032696687,1.231300012689736
-4.033,-0.7755089038389771,1.443232780792892
-4.0325,-0.09261771294655041,1.411442865577071
-4.032,0.6756348768059011,0.849821030103708
-4.0315,1.198473444831875,0.3517790250612917
-4.031,1.433217291701388,-0.20984281041344
-4.0305,1.454557641416734,-0.6549016234300674
-4.03,1.347855892840004,-0.8668343915332234
-4.0295,1.134452395686177,-0.9092209451542785
-4.029,1.049090996824793,-1.121153713257435
-4.0285,0.8676980242441885,-1.121153713257435
-4.028,0.590273477944236,-0.877431029938304
-4.0275,0.3661998059331045,-0.570128516188728
-4.027,0.2168173579255475,-0.3158091944647096
-4.0265,0.06743490991812637,-0.06148987274092249
-4.026,-0.6154562809736985,0.4153588554918433
-4.0255,-1.373038695869166,0.9134008605347127
-4.025,-1.842526389606775,1.273686566310078
-4.0245,-2.109280761048987,1.453829419197944
-4.024,-1.799845690176472,1.114736990232894
-4.0235,-1.13829484900075,0.4047622170873215
-4.023,-0.5407650569695512,-0.1886495336030184
-4.0225,-0.1352984123779797,-0.5383386009732256
-4.022,0.06743490991780612,-0.6549016234299614
-4.0215,0.152796308779471,-0.6019184314041051
-4.021,0.1741366584948169,-0.4641621321370536
-4.0205,0.1527963087794516,-0.2946159176543747
-4.02,0.1207857842063843,-0.1250697031715319
-4.0195,0.09944543449103843,0.05507314971615059
-4.019,0.07810508477567314,0.1928294489833272
-4.0185,-0.3487019095312443,-0.1250697031714066
-4.018,-0.9889124009925911,-0.3899856633008816
-4.0175,-1.394379045584531,0.2987958330350016
-4.017,-1.554431668449625,0.8922075837238381
-4.0165,-1.469070269587669,1.379652950362032
-4.016,-0.7648387289812555,1.326669758336243
-4.0155,0.1421261339209441,0.7544512844577216
-4.015,0.8463576745291921,0.150442895362272
-4.0145,1.251824319120764,-0.2734226408440398
-4.014,1.390536592270512,-0.5595318777833003
-4.0135,1.347855892839752,-0.7714646458869767
-4.013,1.177133095116985,-0.8456411147230812
-4.0125,1.006410297394063,-0.7714646458869092
-4.012,0.8356874996709273,-0.6337083466196362
-4.0115,0.6009436528021226,-0.5277419625680583
-4.011,0.408880505363835,-0.4111789401112165
-4.0105,0.248827882498741,-0.2840192792493229
-4.01,0.1527963087794516,-0.1462629799820306
-4.0095,-0.2420001609548061,0.2246193641988295
-4.009,-1.031593100422604,0.7650479228618772
-4.0085,-1.533091318734678,1.199510097474339
-4.008,-1.83185621474952,1.316073119931075
-4.0075,-1.703814116457445,1.008770606181499
-4.007,-1.138294848999634,0.3729723018706821
-4.0065,-0.572775581542968,-0.1674562567923655
-4.006,-0.1673089369510276,-0.4853554089473885
-4.0055,0.0567647350603952,-0.5913217929990243
-4.005,0.1527963087794516,-0.5489352393783931
-4.0045,0.1741366584948169,-0.4217755785163839
-4.004,0.1527963087794322,-0.2734226408439049
-4.0035,0.1314559590640864,-0.1250697031716958
-4.003,0.1101156093487211,0.002089957690313421
-4.0025,0.08877525963337518,0.1186529801470492
-4.002,0.07810508477567314,0.2140227257936621
-4.0015,0.03542438534494258,0.3517790250608387
-4.001,-0.4020527838196478,0.7120647308362038
-4.0005,-0.8181896032697561,1.082947075017556
-4,-0.9142211769888124,1.263089927905238
-3.9995,-0.5087545323968721,0.4683420475176805
-3.999,-0.3166913849585846,-0.4217755785163839
-3.9985,0.4835717293676135,-0.1886495336027004
-3.998,0.942389248247967,-0.02969995752518888
-3.9975,1.166462920259302,-0.06148987274069118
-3.997,1.337185717982225,-0.1356663415768632
-3.9965,1.273164668836129,-0.3687923864905467
-3.996,1.049090996824793,-0.6019184314042303
-3.9955,0.825017324813458,-0.6760949002404023
-3.995,0.5582629533713921,-0.6654982618352349
-3.9945,0.3341892813600565,-0.5913217929990628
-3.994,0.1954770082101822,-0.4641621321370536
-3.9935,0.1314559590640864,-0.3370024712750445
-3.993,0.03542438534494258,-0.1144730647665284
-3.9925,-0.3060212101009019,0.383568940276341
-3.992,-1.052933450138687,0.92399749893988
-3.9915,-1.597112367880501,1.305476481525908
-3.991,-1.650463242168915,1.284283204715573
-3.9905,-1.170305373573196,0.7120647308365314
-3.99,-0.6261264558313813,0.07626642652648545
-3.9895,-0.2206598112394408,-0.3687923864905467
-3.989,0.02475421048725994,-0.570128516188728
-3.9885,0.1314559590640864,-0.5807251545938954
-3.988,0.1634664836371343,-0.474758770542221
-3.9875,0.1634664836371343,-0.3158091944647096
-3.987,0.142126133921769,-0.1568596183871981
-3.9865,0.1207857842064037,0.01268659609548085
-3.986,0.09944543449103843,0.1504428953626575
-3.9855,0.08877525963335578,0.2776025562246667
-3.985,0.07810508477567314,0.3729723018711736
-3.9845,-0.1993194615240755,0.6590815388106942
-3.984,-0.5407650569699201,1.029963882991555
-3.9835,-0.5834457564006506,1.316073119931075
-3.983,-0.5194247072545548,1.485619334413754
-3.9825,0.1207857842064037,1.093543713422559
-3.982,0.7823366253827275,0.2140227257936621
-3.9815,1.230483969405398,-0.5913217929990628
-3.981,1.411876941986003,-1.046977244421262
-3.9805,0.857027849386506,-1.767548655972648
-3.98,0.4515612047945656,-1.979481424075996
-3.9795,0.4408910299368829,-1.629792356705471
-3.979,0.4515612047945656,-1.301296566145281
-3.9785,0.4302208550792003,-0.9410108603695881
-3.978,0.3982103305061524,-0.570128516188728
-3.9775,0.2701682322139607,-0.3581957480853793
-3.977,0.1741366584948169,-0.2310360872233701
-3.9765,0.00341386077189465,-0.09327978795619347
-3.976,-0.8502001278427167,0.2987958330350016
-3.9755,-1.906547438753298,0.8180311148882058
-3.975,-2.354694782775969,1.135930267043229
-3.9745,-2.589438629644987,0.7968378380778709
-3.974,-2.589438629644987,0.4471487707073456
-3.9735,-1.87453691418025,-0.01910331912002144
-3.973,-1.042263275281004,-0.3687923864905467
-3.9725,-0.4020527838200457,-0.5383386009732256
-3.972,-0.02859666380115328,-0.5595318777835605
-3.9715,0.1527963087794516,-0.474758770542221
-3.971,0.2061471830678648,-0.3475991096802118
-3.9705,0.2061471830678648,-0.2098428104130352
-3.97,0.1634664836371343,-0.08268314955102604
-3.9695,0.1314559590640864,0.03387987290581572
-3.969,0.1101156093487211,0.1504428953626575
-3.9685,0.09944543449103843,0.2352160026039969
-3.968,-0.08194753808956648,0.3941655786815084
-3.9675,-0.5300948821122373,0.775644561267536
-3.967,-0.6474668055467465,1.125333628638062
-3.9665,-0.6367966306890638,1.135930267043229
-3.966,-0.1032878878049318,0.627291623595192
-3.9655,0.6009436528021226,0.2246193641988295
-3.965,1.123782220828572,-0.2310360872233701
-3.9645,1.401206767128321,-0.6654982618352349
-3.964,1.454557641416734,-0.9410108603695881
-3.9635,1.35852606769759,-1.004590690800593
-3.963,1.166462920259302,-0.9516074987747555
-3.9625,0.9210488985326017,-1.121153713257435
-3.962,0.1314559590640864,-1.778145294377815
-3.9615,-0.04993701351651855,-1.51322933424863
-3.961,-0.1459685872356623,-1.121153713257435
-3.9605,-0.1673089369510276,-0.7608680074817418
-3.96,-0.04993701351651855,-0.3475991096802118
-3.9595,-0.1139580626626144,0.1822328105781598
-3.959,-0.4020527838200457,0.775644561267536
-3.9585,-0.9675720512772257,1.25249328950007
-3.958,-1.554431668449771,1.517409249629256
-3.9575,-1.67180359188428,1.305476481525908
-3.957,-1.202315898146244,0.6060983467848571
-3.9565,-0.6474668055467465,-0.06148987274069118
-3.956,-0.2206598112394408,-0.474758770542221
-3.9555,0.03542438534494258,-0.6443049850249
-3.955,0.142126133921769,-0.6337083466197325
-3.9545,0.1741366584948169,-0.5171453241628908
-3.954,0.1634664836371343,-0.3475991096802118
-3.9535,0.142126133921769,-0.1780528951975329
-3.953,0.1207857842064037,0.002089957690313421
-3.9525,0.1101156093487211,0.1504428953626575
-3.952,0.09944543449103843,0.2670059178194992
-3.9515,0.0674349099179905,0.3941655786815084
-3.951,-0.3380317346739499,0.7120647308365314
-3.9505,-0.7008176798351597,1.072350436612224
-3.95,-0.7648387289812555,1.316073119931075
-3.9495,-0.4767440078238243,1.305476481525908
-3.949,0.2594980573562781,0.7226613692416989
-3.9485,0.9103787236749192,0.01268659609548085
-3.948,1.294505018551494,-0.5595318777835605
-3.9475,1.422547116843686,-0.9092209451540858
-3.947,1.379866417412955,-0.9939940523954253
-3.9465,1.230483969405398,-0.9516074987747555
-3.946,1.006410297394063,-0.8138511995075789
-3.9455,0.7609962756673623,-0.6337083466197325
-3.945,0.4942419042252961,-0.5065486857577234
-3.9445,0.291508581929326,-0.400582301706049
-3.944,-0.2846808603855366,-0.7502713690765743
-3.9435,-0.7755089038389382,-1.05757388282643
-3.943,-0.9142211769888124,-0.8350444763179138
-3.9425,-1.565101843307454,-0.3052125560595421
-3.942,-1.842526389607202,0.5319218779486851
-3.9415,-1.927887788468663,1.178316820663898
-3.941,-2.215982509626095,1.347863035146577
-3.9405,-1.842526389607202,0.9663840525605498
-3.94,-1.148965023857831,0.309392471440169
-3.9395,-0.5300948821122373,-0.2204394488182027
-3.939,-0.1139580626626144,-0.5171453241628908
-3.9385,0.09944543449103843,-0.5913217929990628
-3.938,0.1954770082101822,-0.5171453241628908
-3.9375,0.2061471830678648,-0.3899856633008816
-3.937,0.1848068333524996,-0.2416327256285375
-3.9365,0.1527963087794516,-0.09327978795619347
-3.936,0.1314559590640864,0.03387987290581572
-3.9355,0.1101156093487211,0.1610395337678249
-3.935,0.08877525963335578,0.2670059178194992
-3.9345,-0.3487019095316325,0.5637117931641874
-3.934,-0.9995825758502737,0.9769806909657173
-3.9335,-1.298347471865388,1.33726639674141
-3.933,-1.031593100423322,1.559795803249926
-3.9325,-0.07127736323188383,1.496215972818921
-3.932,0.8143471499557753,0.8816109453192104
-3.9315,1.326515543124542,0.1928294489833272
-3.931,1.507908515705147,-0.3687923864905467
-3.9305,1.475897991132099,-0.6972881770507372
-3.93,1.326515543124542,-0.8032545611024114
-3.9295,1.113112045970889,-0.792657922697244
-3.929,1.038420821967111,-0.7502713690765743
-3.9285,0.8783681991018712,-0.8456411147230812
-3.928,0.6009436528021226,-0.7502713690765743
-3.9275,0.3768699807907871,-0.5489352393783931
-3.927,0.2168173579255475,-0.3370024712750445
-3.9265,0.1101156093487211,-0.1250697031716958
-3.926,-0.1779791118087102,0.2987958330350016
-3.9255,-0.5407650569699201,0.8180311148882058
-3.925,-1.543761493592088,0.6166949851900245
-3.9245,-2.312014083345239,0.7438546460520338
-3.924,-2.536087755356574,0.9875773293708847
-3.9235,-2.045259711903173,0.5213252395435176
-3.923,-1.212986073003927,-0.01910331912002144
-3.9225,-0.4767440078238243,-0.3581957480853793
-3.922,-0.08194753808956648,-0.5807251545938954
-3.9215,0.1101156093487211,-0.6231117082145651
-3.921,0.1741366584948169,-0.5277419625680583
-3.9205,0.1741366584948169,-0.3687923864905467
-3.92,0.1634664836371343,-0.1780528951975329
-3.9195,0.142126133921769,0.01268659609548085
-3.919,0.1314559590640864,0.2034260873884947
-3.9185,0.1314559590640864,0.3517790250608387
-3.918,0.03542438534494258,0.5743084315693548
-3.9175,-0.4767440078238243,0.9451907757502149
-3.917,-0.8502001278427167,1.284283204715573
-3.9165,-0.9035510021311299,1.188913459069066
-3.916,-0.2633405106701714,0.6908714540261965
-3.9155,0.5262524287983441,0.1822328105781598
-3.915,1.113112045970889,-0.252229364033705
-3.9145,1.411876941986003,-0.4959520473525559
-3.914,1.475897991132099,-0.6866915386455698
-3.9135,1.379866417412955,-0.6972881770507372
-3.913,1.187803269974668,-0.6866915386455698
-3.9125,1.038420821967111,-0.792657922697244
-3.912,0.8463576745288233,-0.8350444763179138
-3.9115,0.5796033030867573,-0.6972881770507372
-3.911,0.3448594562177392,-0.5807251545938954
-3.9105,0.1954770082101822,-0.4323722169215513
-3.91,0.1101156093487211,-0.252229364033705
-3.9095,-0.3273615598162672,0.08686306493165288
-3.909,-0.8822106524157645,0.5955017083796896
-3.9085,-1.30901764672307,1.061753798207057
-3.908,-1.479740444445993,1.263089927905238
-3.9075,-1.148965023857831,0.8286277532933731
-3.907,-0.658136980404429,0.1822328105781598
-3.9065,-0.2633405106701714,-0.326405832869877
-3.906,-0.3380317346739499,-0.9410108603695881
-3.9055,-0.807519428411986,-1.619195718300304
-3.905,-0.5514352318276028,-1.375473034981453
-3.9045,-0.4020527838200457,-1.110557074852267
-3.904,-0.2420001609548061,-0.792657922697244
-3.9035,-0.01792648894347063,-0.400582301706049
-3.903,0.08877525963335578,-0.1462629799820306
-3.9025,0.08877525963335578,-0.01910331912002144
-3.902,0.08877525963335578,0.07626642652648545
-3.9015,0.03542438534494258,0.1716361721729923
-3.901,-0.3166913849585846,0.4895353243280153
-3.9005,-0.423393133535411,0.9028042221295453
-3.9,-0.4554036581084589,1.273686566310405
-3.8995,-0.1673089369510276,1.506812611224089
-3.899,0.5475927785137094,1.220703374284568
-3.8985,1.134452395686255,0.5319218779486851
-3.898,1.443887466559051,-0.06148987274069118
-3.8975,1.507908515705147,-0.474758770542221
-3.897,1.422547116843686,-0.7290780922662394
-3.8965,1.241154144263081,-0.8244478379127463
-3.896,1.017080472251745,-0.8138511995075789
-3.8955,0.8463576745288233,-0.8138511995075789
-3.895,0.6009436528021226,-0.6866915386455698
-3.8945,0.3875401556484697,-0.4959520473525559
-3.894,0.2488278824985954,-0.3052125560595421
-3.8935,0.1634664836371343,-0.1356663415768632
-3.893,-0.1032878878049318,0.06566978812131802
-3.8925,-0.7648387289812555,0.5213252395435176
-3.892,-1.170305373573196,1.00877060618122
-3.8915,-1.51175096901904,1.347863035146577
-3.891,-1.703814116457328,1.369056311956912
-3.8905,-1.30901764672307,0.7862411996727035
-3.89,-0.754168554123573,0.07626642652648545
-3.8895,-0.3060212101009019,-0.4429688553267188
-3.889,-0.01792648894347063,-0.6866915386455698
-3.8885,0.1207857842064037,-0.7290780922662394
-3.888,0.1741366584948169,-0.6443049850249
-3.8875,0.1741366584948169,-0.4959520473525559
-3.887,0.1527963087794516,-0.326405832869877
-3.8865,0.1314559590640864,-0.1674562567923655
