Class_5_Move_Left_hand_Horiszontal/Class_5_Move_Left_hand_Horiszontal_SH_12.csv

#Digilent WaveForms Oscilloscope Acquisition
#Device Name: EExplorer
#Serial Number: SN:210151A2B84A
#Date Time: 2021-01-28 12:47:30.077
#Sample rate: 2000Hz
#Samples: 16384
#Trigger: Source: Channel 1 Type: Edge Condition: Rising Level: 0 V Hyst.: Auto HoldOff: 0 s
#Channel 1: Range: 1 V/div Offset: 0 V Attenuation: 1 X
#Channel 2: Range: 1 V/div Offset: 0 V Attenuation: 1 X
#Power Supplies: ON
#Fixed Supply: ON
#Voltage: 3.3 V Readback: 3.327 V
#Positive Supply: ON
#Voltage: 3.7 V Readback: 3.713 V
#Current: 40 mA Readback: 18 mA
#Negative Supply: ON
#Voltage: -3.7 V Readback: -3.705 V
#Current: -40 mA Readback: -8 mA
#Reference 1: ON
#Voltage: 0 V
#Reference 2: ON
#Voltage: 0 V

Time (s),Channel 1 (V),Channel 2 (V)
-4.096,-0.5621054066852853,-0.3581957480853793
-4.0955,-0.06060718837465728,0.3941655786808242
-4.095,0.270168232214116,0.8710143069142646
-4.0945,0.4408910299368829,1.114736990232894
-4.094,0.5049120790829207,1.188913459068998
-4.0935,0.5049120790829594,1.167720182258663
-4.093,0.4835717293676135,1.093543713422559
-4.0925,0.4195506802215759,0.9769806909658233
-4.092,0.3448594562177101,0.849821030103602
-4.0915,0.3128489316446912,0.7332580076468663
-4.091,0.08877525963335578,0.4153588554918433
-4.0905,-0.6261264558320121,-0.3581957480861118
-4.09,-1.319687821580753,-1.163540266878104
-4.0895,-1.639793067311232,-1.725162102351978
-4.089,-1.26633694729268,-1.417859588602402
-4.0885,-0.5621054066852853,-0.6760949002404023
-4.088,0.0674349099179905,-0.02969995752518888
-4.0875,0.4515612047942162,0.3623756634656495
-4.087,0.6436243522329113,0.4471487707073167
-4.0865,0.707645401378949,0.4153588554918433
-4.086,0.696975226521276,0.3729723018712121
-4.0855,0.6649647019482087,0.2987958330349148
-4.085,0.6542945270905358,0.2034260873884947
-4.0845,0.6009436528021711,0.182232810578179
-4.084,0.5475927785136705,0.2246193641988873
-4.0835,0.5049120790829789,0.2881991946298341
-4.083,0.4835717293676135,0.3623756634660061
-4.0825,0.4622313796516562,0.09745970333615532
-4.082,-0.1886492866663929,-0.6337083466197325
-4.0815,-0.8822106524157645,-1.311893204550448
-4.081,-1.095614149569223,-1.756952017567076
-4.0805,-1.244996597576974,-1.88411167842949
-4.08,-0.9569018764195432,-1.248313374119443
-4.0795,-0.4447334832512422,-0.347599109681031
-4.079,0.003413860772156671,0.4153588554922866
-4.0785,0.291508581929326,0.9028042221295453
-4.078,0.4408910299367471,1.146526905448174
-4.0775,0.4942419042253058,1.220703374284549
-4.077,0.5049120790829789,1.199510097474233
-4.0765,0.4835717293676329,1.125333628638129
-4.076,0.4408910299368441,1.019367244586271
-4.0755,0.3982103305061524,0.8922075837243778
-4.075,0.3555296310754218,0.775644561267536
-4.0745,0.2381577076404275,0.563711793163561
-4.074,-0.2953510352432193,-0.1250697031716958
-4.0735,-0.9462317015618604,-0.9622041371799229
-4.073,-1.607782542737583,-1.619195718299706
-4.0725,-1.799845690176472,-2.011271339291499
-4.072,-1.30901764672307,-1.502632695843462
-4.0715,-0.5727755815436376,-0.676094900241154
-4.071,0.03542438534530164,-0.04029659593010573
-4.0705,0.4302208550792003,0.2352160026039969
-4.07,0.654294527090332,0.2776025562246281
-4.0695,0.7289857510942949,0.2140227257936524
-4.069,0.707645401378949,0.2034260873884947
-4.0685,0.8676980242441885,0.457745409112513
-4.068,0.9103787236748222,0.574308431569297
-4.0675,0.8036769750980928,0.5107286011383502
-4.067,0.6649647019482183,0.4047622170866759
-4.0665,0.5689331282289776,0.330585748250446
-4.066,0.4622313796522482,0.2670059178194992
-4.0655,0.2594980573562781,-0.2628260024388724
-4.065,-0.07127736323158301,-1.004590690799918
-4.0645,-0.8502001278427167,-1.619195718300304
-4.064,-1.597112367880501,-2.000674700886331
-4.0635,-2.013249187329746,-2.011271339291489
-4.063,-1.533091318733727,-1.216523458903084
-4.0625,-0.7861790786966207,-0.2734226408440398
-4.062,-0.1566387620939175,0.4683420475170059
-4.0615,0.2488278824987798,0.9239974989400824
-4.061,0.4515612047945656,1.146526905448396
-4.0605,0.5262524287983441,1.210106735879401
-4.06,0.526252428798315,1.178316820663821
-4.0595,0.4942419042252961,1.093543713422559
-4.059,0.4515612047945656,0.9875773293708847
-4.0585,0.376869980790855,0.8498210301038334
-4.058,0.3128489316446912,0.7226613692416989
-4.0575,-0.03926683865883591,0.2776025562246667
-4.057,-0.5300948821117909,-0.5701285161879569
-4.0565,-1.06360362499637,-1.333086481360783
-4.056,-1.437059745015262,-1.873515040024322
-4.0555,-1.383708870726897,-1.756952017567586
-4.055,-0.7861790786960676,-0.8774310299378992
-4.0545,-0.1779791118087102,-0.1250697031716958
-4.054,0.291508581928899,0.2881991946294582
-4.0535,0.5582629533714891,0.3941655786814892
-4.053,0.6649647019482183,0.3729723018711736
-4.0525,0.6863050516635838,0.309392471440169
-4.052,0.8250173248136619,0.1610395337676707
-4.0515,1.049090996824793,-0.008506680714854012
-4.051,0.974399772821015,-0.01910331912002144
-4.0505,0.793006800240575,0.04447651131092532
-4.05,0.6329541773751706,0.13984625695749
-4.0495,0.5475927785137094,0.1928294489833272
-4.049,0.6436243522327657,-0.1992461720075112
-4.0485,1.102441871113362,-0.909220945154664
-4.048,1.273164668836129,-1.545019249464132
-4.0475,0.8250173248138656,-1.968884785670443
-4.047,0.2381577076407381,-1.725162102351169
-4.0465,0.04609456020262521,-0.8350444763179138
-4.046,0.08877525963331696,0.03387987290502548
-4.0455,0.2061471830679619,0.6590815388110218
-4.045,0.3128489316446912,1.019367244586387
-4.0445,0.3875401556484697,1.178316820663898
-4.044,0.43022085507921,1.210106735879372
-4.0435,0.4408910299368829,1.178316820663898
-4.043,0.4408910299368829,1.104140351827727
-4.0425,0.4195506802215371,1.019367244586464
-4.042,0.3875401556484697,0.9134008605347127
-4.0415,0.3555296310754218,0.8074344764830383
-4.041,0.2061471830680007,0.5849050699747246
-4.0405,-0.199319461524454,-0.1462629799828016
-4.04,-0.6154562809736985,-0.9939940523954253
-4.0395,-1.244996597576402,-1.608599079894577
-4.039,-1.074273799853402,-1.20592682049808
-4.0385,-0.3593720843893152,-0.4429688553267188
-4.038,0.1848068333520046,0.002089957689908661
-4.0375,0.5049120790831244,0.224619364198868
-4.037,0.6649647019482183,0.2670059178194992
-4.0365,0.707645401378949,0.1292496185523226
-4.036,0.6969752265212275,-0.008506680714844374
-4.0355,0.6542945270905358,0.002089957690313421
-4.035,0.6756348768059011,0.2034260873884947
-4.0345,0.6756348768059011,0.3623756634658616
-4.034,0.6116138276598051,0.4259554938970107
-4.0335,0.5369226036560266,0.4683420475176805
-4.033,0.5049120790830079,0.5213252395434694
-4.0325,0.3341892813595908,0.3729723018705471
-4.032,-0.1779791118087102,-0.3158091944647096
-4.0315,-0.8395299529844324,-1.057573882825755
-4.031,-1.458400094731083,-1.555615887869511
-4.0305,-1.959898313041711,-1.788741932782983
-4.03,-2.034589537045422,-1.576809164679827
-4.0295,-1.351698346153122,-0.739674730670607
-4.029,-0.6047861061160158,0.13984625695749
-4.0285,-0.02859666380115328,0.7862411996727035
-4.028,0.3128489316448368,1.146526905448531
-4.0275,0.4729015545099309,1.29487984312074
-4.027,0.5155822539406614,1.29487984312074
-4.0265,0.5049120790829885,1.210106735879478
-4.026,0.4729015545099309,1.093543713422559
-4.0255,0.4302208550792003,0.9557874141553824
-4.025,0.3768699807908356,0.8074344764831732
-4.0245,0.2808384070711484,0.6166949851894655
-4.024,-0.2633405106701714,0.002089957690313421
-4.0235,-1.031593100422623,-0.8456411147223102
-4.023,-1.490410619303927,-1.545019249464498
-4.0225,-1.767835165603424,-1.947691508860494
-4.022,-1.330357996438833,-1.492036057438709
-4.0215,-0.5727755815423664,-0.7184814538604841
-4.021,0.08877525963335578,-0.07208651114585861
-4.0205,0.5049120790829789,0.2987958330350016
-4.02,0.6863050516636032,0.415358855491853
-4.0195,0.707645401378949,0.4259554938970107
-4.019,0.6649647019482183,0.3623756634660061
-4.0185,0.8250173248133125,0.5849050699743198
-4.018,0.9210488985326017,0.7438546460520338
-4.0175,0.825017324813458,0.6378882620003594
-4.017,0.6969752265213828,0.4895353243281503
-4.0165,0.590273477944401,0.394165578681441
-4.016,0.5475927785137094,0.3199891098453364
-4.0155,0.921048898532262,0.06566978812154933
-4.015,1.6359506139973,-0.4535654937324934
-4.0145,1.593269914566608,-1.121153713257435
-4.014,0.5796033030876793,-1.555615887868904
-4.0135,-0.4980843575394321,-1.703968825541094
-4.013,-0.7648387289812555,-1.0999604364471
-4.0125,-0.5194247072545548,-0.2416327256285375
-4.012,-0.1566387620930732,0.4683420475181142
-4.0115,0.142126133921769,0.9451907757502149
-4.011,0.3341892813600565,1.188913459069066
-4.0105,0.430220855079113,1.273686566310328
-4.01,0.4622313796522482,1.273686566310405
-4.0095,0.4408910299368829,1.210106735879401
-4.009,0.3982103305061912,1.114736990232981
-4.0085,0.366199805933056,0.9981739677759364
-4.008,0.3128489316446912,0.8710143069140429
-4.0075,-0.01792648894316984,0.4471487707077311
-4.007,-0.7541685541242814,-0.4217755785171357
-4.0065,-1.533091318734406,-1.248313374119443
-4.006,-2.07727023647622,-1.831128486403653
-4.0055,-1.650463242168109,-1.629792356704864
-4.005,-0.7648387289812555,-0.9622041371799229
-4.0045,-0.01792648894347063,-0.2734226408440398
-4.004,0.4515612047947694,0.1186529801472805
-4.0035,0.6756348768059011,0.2564092794143318
-4.003,0.7396559259519968,0.309392471440169
-4.0025,0.6969752265213052,0.2987958330350112
-4.002,0.6863050516635838,0.2352160026039969
-4.0015,0.7396559259519968,0.2458126410091644
-4.001,0.6969752265213052,0.26700591781948
-4.0005,0.6116138276597372,0.2776025562246859
-4,0.5369226036560266,0.2987958330350016
-3.9995,0.4942419042252961,0.3411823866556712
-3.999,0.2594980573562781,0.09745970333682032
-3.9985,0.408880505363835,-0.6125150698093976
-3.998,0.857027849386506,-1.322489842955616
-3.9975,0.408880505363835,-1.778145294377815
-3.997,-0.4874141826815069,-1.937094870455327
-3.9965,-0.8181896032696687,-1.396666311791788
-3.996,-0.5941159312583333,-0.4853554089473885
-3.9955,-0.2099896363817582,0.309392471440169
-3.995,0.1101156093487211,0.8286277532933731
-3.9945,0.3128489316446912,1.104140351827727
-3.994,0.4195506802215176,1.199510097474233
-3.9935,0.4515612047945656,1.188913459069066
-3.993,0.4515612047945656,1.114736990232894
-3.9925,0.4195506802215176,1.019367244586387
-3.992,0.3768699807907871,0.9028042221295453
-3.9915,0.3341892813600565,0.775644561267536
-3.991,0.1527963087794516,0.5107286011383502
-3.9905,-0.5514352318276028,-0.2310360872233701
-3.99,-1.373038695869166,-1.05757388282643
-3.9895,-2.087940411333903,-1.703968825541643
-3.989,-2.151961460479999,-1.88411167842949
-3.9885,-1.373038695869166,-1.258910012524611
-3.988,-0.5300948821122373,-0.5065486857577234
-3.9875,0.1207857842064037,0.03387987290581572
-3.987,0.5262524287983441,0.3623756634660061
-3.9865,0.707645401378949,0.457745409112513
-3.986,0.7396559259519968,0.383568940276341
-3.9855,0.7183155762366316,0.309392471440169
-3.985,0.8036769750980928,0.3305857482505039
-3.9845,0.7716664505250448,0.2987958330350016
-3.984,0.6542945270905358,0.2670059178194992
-3.9835,0.5475927785137094,0.2564092794143318
-3.983,0.4835717293676135,0.2881991946298341
-3.9825,0.4729015545099309,0.2140227257936621
-3.982,0.8356874996711408,-0.3793890248957141
-3.9815,0.9530594231056497,-1.110557074852267
-3.981,0.2808384070716433,-1.672178910326141
-3.9805,-0.391382608962363,-1.767548655972648
-3.98,-0.4660738329661415,-1.046977244421262
-3.9795,-0.2420001609548061,-0.1568596183871981
-3.979,0.03542438534494258,0.55311515475902
-3.9785,0.2381577076409128,1.00877060618122
-3.978,0.3661998059331045,1.241896651094903
-3.9775,0.4302208550792003,1.326669758336243
-3.977,0.4408910299368829,1.316073119931075
-3.9765,0.4408910299368829,1.263089927905238
-3.976,0.408880505363835,1.167720182258731
-3.9755,0.3768699807907871,1.061753798207057
-3.975,0.3341892813600565,0.9451907757502149
-3.9745,0.2701682322139607,0.7968378380778709
-3.974,-0.156638762093345,0.2458126410091644
-3.9735,-0.690147504977477,-0.6337083466197325
-3.973,-1.180975548430879,-1.364876396576285
-3.9725,-1.735824641030376,-1.894708316834657
-3.972,-1.767835165603424,-1.75695201756748
-3.9715,-1.1062843244271,-1.004590690800593
-3.971,-0.3593720843893152,-0.4217755785163839
-3.9705,0.1741366584948169,0.002089957690313421
-3.97,0.4835717293676135,0.2564092794143318
-3.9695,0.6222840025174878,0.2881991946298341
-3.969,0.6436243522328531,0.2670059178194992
-3.9685,0.7289857510943143,0.2881991946298341
-3.968,0.7609962756673623,0.2670059178194992
-3.9675,0.6756348768059011,0.2140227257936621
-3.967,0.5796033030867573,0.1610395337678249
-3.9665,0.4942419042252961,0.1504428953626575
-3.966,0.4408910299368829,0.1610395337678249
-3.9655,0.3661998059331045,-0.1780528951975329
-3.965,0.8143471499557753,-0.7820612842920766
-3.9645,0.6329541773751706,-1.417859588602123
-3.964,-0.274010685527854,-1.88411167842949
-3.9635,-1.223656247861609,-2.096044446532838
-3.963,-1.426389570157579,-1.555615887869299
-3.9625,-0.9675720512772257,-0.5913217929990628
-3.962,-0.4020527838200457,0.2564092794143318
-3.9615,0.03542438534494258,0.8286277532933731
-3.961,0.3128489316446912,1.135930267043229
-3.9605,0.4408910299368829,1.25249328950007
-3.96,0.4729015545099309,1.263089927905238
-3.9595,0.4622313796522482,1.210106735879401
-3.959,0.4195506802215176,1.114736990232894
-3.9585,0.3661998059331045,0.9875773293708847
-3.958,0.3128489316446912,0.8604176685088755
-3.9575,-0.04993701351651855,0.4471487707073456
-3.957,-0.8502001278427167,-0.4217755785163839
-3.9565,-1.533091318734406,-1.248313374119443
-3.956,-1.991908837614759,-1.852321763213987
-3.9555,-1.778505340461106,-1.809935209593318
-3.955,-1.031593100423322,-1.046977244421262
-3.9545,-0.2953510352432193,-0.326405832869877
-3.954,0.2594980573562781,0.01268659609548085
-3.9535,0.5689331282290746,0.1186529801471552
-3.953,0.6863050516635838,0.1822328105781598
-3.9525,0.7183155762366316,0.13984625695749
-3.952,0.7503261008096795,0.2140227257936621
-3.9515,0.8676980242441885,0.4895353243280153
-3.951,0.8143471499557753,0.5319218779486851
-3.9505,0.6756348768059011,0.4471487707073456
-3.95,0.5582629533713921,0.3729723018711736
-3.9495,0.4729015545099309,0.3517790250608387
-3.949,0.3982103305061524,0.2776025562246667
-3.9485,0.7503261008096795,0.1504428953626575
-3.948,1.049090996824793,-0.07208651114585861
-3.9475,0.3021787567870086,-0.6972881770507372
-3.947,-0.7648387289812555,-1.301296566145281
-3.9465,-1.277007122150022,-1.364876396576285
-3.946,-0.9995825758502737,-0.7078848154559045
-3.9455,-0.4874141826815069,0.05507314971615059
-3.945,-0.03926683865883591,0.6590815388106942
-3.9445,0.2488278824985954,1.019367244586387
-3.944,0.408880505363835,1.199510097474233
-3.9435,0.4622313796522482,1.25249328950007
-3.943,0.4622313796522482,1.241896651094903
-3.9425,0.4302208550792003,1.167720182258731
-3.942,0.3875401556484697,1.072350436612224
-3.9415,0.3235191065023739,0.9557874141553824
-3.941,0.1527963087794516,0.7120647308365314
-3.9405,-0.4980843575391895,-0.04029659593035631
-3.94,-1.330357996438436,-0.9410108603695881
-3.9395,-1.991908837614759,-1.650985633515806
-3.939,-2.002579012472442,-1.714565463946811
-3.9385,-1.223656247861609,-1.078767159636765
-3.938,-0.3807124341046804,-0.4429688553267188
-3.9375,0.2168173579255475,-0.02969995752518888
-3.937,0.5475927785137094,0.1716361721729923
-3.9365,0.6756348768059011,0.2458126410091644
-3.936,0.6756348768059011,0.2034260873884947
-3.9355,0.6436243522328531,0.1822328105781598
-3.935,0.9103787236749192,0.5001319627331828
-3.9345,1.027750647109428,0.6590815388106942
-3.934,0.8997085488172365,0.5743084315693548
-3.9335,0.7289857510943143,0.457745409112513
-3.933,0.5902734779444399,0.383568940276341
-3.9325,0.5689331282290746,0.383568940276341
-3.932,1.006410297394063,0.4365521323021782
-3.9315,1.283834843693812,0.07626642652648545
-3.931,0.5902734779444399,-0.6760949002404023
-3.9305,-0.4340633083930936,-1.322489842955616
-3.93,-1.052933450138687,-1.481439419033127
-3.9295,-0.8928808272734472,-0.8456411147230812
-3.929,-0.4660738329661415,-0.04029659593035631
-3.9285,-0.04993701351651855,0.6166949851900245
-3.928,0.2274875327832301,1.029963882991555
-3.9275,0.3768699807907871,1.231300012689736
-3.927,0.4408910299368829,1.29487984312074
-3.9265,0.4515612047945656,1.284283204715573
-3.926,0.4302208550792003,1.210106735879401
-3.9255,0.3875401556484697,1.114736990232894
-3.925,0.3661998059331045,1.00877060618122
-3.9245,0.3235191065023739,0.8922075837243778
-3.924,0.05676473506030786,0.4789386859228479
-3.9235,-0.7008176798351597,-0.400582301706049
-3.923,-1.490410619303675,-1.237716735714276
-3.9225,-1.938557963326346,-1.862918401619155
-3.922,-1.810515865034154,-1.831128486403653
-3.9215,-1.052933450138687,-1.089363798041932
-3.921,-0.3060212101009019,-0.4959520473525559
-3.9205,0.2381577076409128,-0.1462629799820306
-3.92,0.5475927785137094,0.01268659609548085
-3.9195,0.6863050516635838,0.06566978812131802
-3.919,0.6969752265212663,0.13984625695749
-3.9185,0.6649647019482183,0.1716361721729923
-3.918,0.6116138276598051,0.1716361721729923
-3.9175,0.5582629533713921,0.1610395337678249
-3.917,0.5049120790829789,0.1504428953626575
-3.9165,0.4729015545099309,0.1716361721729923
-3.916,0.4729015545099309,0.1822328105781598
-3.9155,0.6542945270905358,-0.1462629799820306
-3.915,1.134452395686255,-0.8350444763179138
-3.9145,0.79300680024041,-1.481439419033127
-3.914,-0.1886492866663929,-1.915901593644992
-3.9135,-1.138294849000148,-2.043061254507001
-3.913,-1.26633694729234,-1.364876396576285
-3.9125,-0.8288597781273515,-0.400582301706049
-3.912,-0.3166913849585846,0.4153588554918433
-3.9115,0.08877525963335578,0.9451907757502149
-3.911,0.3235191065023739,1.210106735879401
-3.9105,0.4302208550792003,1.305476481525908
-3.91,0.4622313796522482,1.305476481525908
-3.9095,0.4408910299368829,1.231300012689736
-3.909,0.3768699807907871,1.093543713422559
-3.9085,0.3235191065023739,0.9663840525605498
-3.908,0.2594980573562781,0.8286277532933731
-3.9075,0.03542438534494258,0.4789386859228479
-3.907,-0.6474668055467465,-0.326405832869877
-3.9065,-1.405049220442214,-1.152943628472937
-3.906,-1.949228138184029,-1.735758740757146
-3.9055,-1.650463242168915,-1.51322933424863
-3.905,-0.9142211769888124,-0.8880276683437509
-3.9045,-0.1886492866663929,-0.2734226408440398
-3.904,0.3128489316446912,0.13984625695749
-3.9035,0.5796033030867573,0.3517790250608387
-3.903,0.6756348768059011,0.4153588554918433
-3.9025,0.6756348768059011,0.3199891098453364
-3.902,0.6436243522328531,0.1716361721729923
-3.9015,0.6329541773751706,0.03387987290581572
-3.901,0.5796033030867573,0.04447651131098315
-3.9005,0.5155822539406614,0.13984625695749
-3.9,0.4622313796522482,0.2564092794143318
-3.8995,0.4408910299368829,0.3729723018711736
-3.899,0.3341892813600565,0.2352160026039969
-3.8985,-0.2526703358124887,-0.4111789401112165
-3.898,-0.839529952985034,-1.089363798041932
-3.8975,-1.180975548430879,-1.555615887869299
-3.897,-1.575772018165136,-1.788741932782983
-3.8965,-1.490410619303675,-1.407262950196955
-3.896,-0.9142211769888124,-0.5277419625680583
-3.8955,-0.3273615598162672,0.2881991946298341
-3.895,0.09944543449103843,0.8604176685088755
-3.8945,0.3448594562177392,1.178316820663898
-3.894,0.4515612047945656,1.29487984312074
-3.8935,0.4729015545099309,1.284283204715573
-3.893,0.4622313796522482,1.220703374284568
-3.8925,0.4195506802215176,1.114736990232894
-3.892,0.3661998059331045,0.9769806909657173
-3.8915,0.3235191065023739,0.8392243916985406
-3.891,0.2061471830678648,0.6166949851900245
-3.8905,-0.274010685527854,-0.09327978795619347
-3.89,-0.658136980404429,-0.9516074987747555
-3.8895,-1.202315898146244,-1.629792356705471
-3.889,-1.447729919872945,-1.79933857118815
-3.8885,-1.020922925565639,-1.227120097309109
-3.888,-0.4020527838200457,-0.570128516188728
-3.8875,0.1101156093487211,-0.1674562567923655
-3.887,0.4302208550792003,0.04447651131098315
-3.8865,0.5689331282290746,0.1080563417419877
-3.886,0.6222840025174878,0.09745970333682032
-3.8855,0.6222840025174878,0.1080563417419877
-3.885,0.7503261008096795,0.1716361721729923
