Class_5_Move_Left_hand_Horiszontal/Class_5_Move_leftt_hand_horizontal_Basim_6.csv

#Digilent WaveForms Oscilloscope Acquisition
#Device Name: EExplorer
#Serial Number: SN:210151A2B84A
#Date Time: 2020-12-13 12:23:44.498
#Sample rate: 2000Hz
#Samples: 16384
#Trigger: Source: Channel 1 Type: Edge Condition: Rising Level: 0 V Hyst.: Auto HoldOff: 0 s
#Channel 1: Range: 1 V/div Offset: 0 V Attenuation: 1 X
#Channel 2: Range: 1 V/div Offset: 0 V Attenuation: 1 X
#Power Supplies: ON
#Fixed Supply: ON
#Voltage: 3.3 V Readback: 3.322 V
#Positive Supply: ON
#Voltage: 3.7 V Readback: 3.715 V
#Current: 40 mA Readback: 19 mA
#Negative Supply: ON
#Voltage: -3.7 V Readback: -3.35 V
#Current: -40 mA Readback: -7 mA
#Reference 1: ON
#Voltage: 0 V
#Reference 2: ON
#Voltage: 0 V

Time (s),Channel 1 (V),Channel 2 (V)
-4.096,0.974399772821015,-1.460246142222792
-4.0955,0.5689331282294434,-0.8668343915339558
-4.095,0.2915085819291513,-0.2522293640333195
-4.0945,0.09944543449103843,0.1716361721729923
-4.094,0.01408403562965493,0.3093924714400437
-4.0935,0.014084035629587,0.3199891098452979
-4.093,0.02475421048725994,0.2776025562246667
-4.0925,-0.1459685872355071,0.5107286011381381
-4.092,-0.2313299860970555,0.6060983467847607
-4.0915,-0.156638762093345,0.5001319627331828
-4.091,-0.04993701351651855,0.4047622170866759
-4.0905,0.03542438534493287,0.3411823866556038
-4.09,0.02475421048725994,0.2670059178194992
-4.0895,-0.4020527838200457,-0.1992461720078678
-4.089,-0.9889124009920573,-0.8668343915328089
-4.0885,-1.394379045584531,-1.439052865412457
-4.088,-1.83185621474952,-1.820531847998485
-4.0875,-1.895877263895557,-1.629792356705644
-4.087,-1.287677297007132,-0.7926579226965019
-4.0865,-0.658136980404429,0.02328323450064829
-4.086,-0.1779791118091469,0.6272916235946426
-4.0855,0.09944543449115488,0.9875773293710293
-4.085,0.2274875327832301,1.146526905448396
-4.0845,0.259498057356249,1.178316820663869
-4.084,0.2488278824985857,1.135930267043132
-4.0835,0.2381577076409128,1.029963882991555
-4.083,0.2274875327832301,0.8922075837243778
-4.0825,0.2915085819294618,0.6696781772155918
-4.082,0.4408910299368829,0.3729723018711736
-4.0815,0.9317190733902845,-0.2098428104130352
-4.081,1.582599739708334,-0.9198175835586075
-4.0805,1.625280439139656,-1.523825972653797
-4.08,0.9957401225363802,-1.947691508860494
-4.0795,0.5262524287987711,-1.778145294377969
-4.079,0.2808384070715269,-1.17413690528278
-4.0785,0.1527963087794516,-0.6337083466197325
-4.078,0.07810508477574107,-0.2628260024392097
-4.0775,0.02475421048725023,-0.05089323433539845
-4.077,0.01408403562957729,0.08686306493165288
-4.0765,0.01408403562957729,0.1610395337677575
-4.076,-0.1139580626627794,0.3729723018713663
-4.0755,-0.2953510352432193,0.5849050699745222
-4.075,-0.2420001609548061,0.5213252395435176
-4.0745,-0.1246282375202194,0.3941655786814602
-4.074,-0.03926683865883591,0.3411823866556712
-4.0735,-0.03926683865883591,0.4047622170866759
-4.073,-0.3487019095313511,0.2987958330350979
-4.0725,-0.9675720512772257,-0.3475991096802118
-4.072,-1.351698346153801,-1.036380606016095
-4.0715,-1.543761493591914,-1.523825972653354
-4.071,-1.714484291314642,-1.703968825541084
-4.0705,-1.30901764672307,-1.089363798041932
-4.07,-0.7328282044087315,-0.273422640844782
-4.0695,-0.2633405106698899,0.4047622170870807
-4.069,0.04609456020262521,0.849821030103708
-4.0685,0.1954770082101822,1.082947075017392
-4.068,0.2488278824985954,1.167720182258721
-4.0675,0.2488278824985954,1.157123543853563
-4.067,0.2274875327832301,1.082947075017392
-4.0665,0.2274875327832301,0.9663840525604341
-4.066,0.2274875327832301,0.8392243916985406
-4.0655,0.2168173579255475,0.7438546460520338
-4.065,0.3555296310752957,0.5001319627334044
-4.0645,0.9317190733902845,-0.1992461720078678
-4.064,1.070431346540159,-0.9304142219644207
-4.0635,0.8143471499560082,-1.523825972653257
-4.063,0.6649647019481213,-1.89470831683431
-4.0625,0.5582629533713921,-1.51322933424863
-4.062,0.4302208550793168,-0.8138511995082149
-4.0615,0.302178756786931,-0.2840192792488699
-4.061,0.2168173579255475,0.08686306493165288
-4.0605,0.1527963087794516,0.2352160026039969
-4.06,0.0994454344909705,0.2776025562247149
-4.0595,0.02475421048725994,0.3305857482505039
-4.059,-0.1673089369510276,0.5319218779486851
-4.0585,-0.1779791118087005,0.5001319627332117
-4.058,-0.09261771294724913,0.3941655786815084
-4.0575,0.00341386077189465,0.3305857482505039
-4.057,0.05676473506025934,0.3199891098453461
-4.0565,-0.1886492866663929,0.383568940276341
-4.056,-0.8822106524157645,-0.07208651114585861
-4.0555,-1.490410619303122,-0.7608680074811154
-4.055,-1.618452717595935,-1.280103289335216
-4.0545,-1.693143941599645,-1.576809164679634
-4.054,-1.319687821581093,-1.131750351663007
-4.0535,-0.7434983792654536,-0.3581957480847529
-4.053,-0.2633405106701714,0.3305857482505039
-4.0525,0.03542438534494258,0.7968378380778709
-4.052,0.1954770082102307,1.061753798207153
-4.0515,0.2488278824985954,1.167720182258731
-4.051,0.2488278824985954,1.178316820663898
-4.0505,0.2274875327832495,1.135930267043267
-4.05,0.2168173579255475,1.029963882991555
-4.0495,0.2381577076409128,0.8710143069140429
-4.049,0.2808384070716045,0.6908714540263604
-4.0485,0.5155822539411952,0.3093924714395618
-4.048,1.102441871113207,-0.3581957480853793
-4.0475,1.6572909637122,-1.068170521230952
-4.047,1.614610264281634,-1.64038899511087
-4.0465,1.241154144263081,-1.894708316834657
-4.046,0.889038373959874,-1.35427975817161
-4.0455,0.6009436528018994,-0.7184814538607539
-4.045,0.3555296310754218,-0.3687923864905467
-4.0445,0.1848068333524996,-0.07208651114585861
-4.044,0.06743490991795169,0.1504428953627538
-4.0435,0.02475421048725994,0.2564092794143318
-4.043,0.00341386077189465,0.2987958330350016
-4.0425,-0.1779791118085453,0.531921877948473
-4.042,-0.2526703358124887,0.5955017083796896
-4.0415,-0.1673089369510276,0.4789386859228479
-4.041,-0.06060718837429824,0.3517790250609544
-4.0405,0.01408403562949966,0.3093924714403521
-4.04,-0.07127736323188383,0.5107286011383502
-4.0395,-0.5300948821118201,0.1928294489836163
-4.039,-1.04226327528115,-0.5383386009738038
-4.0385,-1.202315898146244,-1.174136905283272
-4.038,-1.40504922044203,-1.619195718299899
-4.0375,-1.607782542737844,-1.682775548730663
-4.037,-1.234326422719292,-0.9728007755850904
-4.0365,-0.690147504977477,-0.1674562567923655
-4.036,-0.2420001609545441,0.4789386859232141
-4.0355,0.04609456020262521,0.8816109453192104
-4.035,0.1954770082101822,1.082947075017392
-4.0345,0.238157707640874,1.146526905448338
-4.034,0.2381577076409128,1.114736990232894
-4.0335,0.2274875327832301,1.040560521396722
-4.033,0.2274875327832301,0.9239974989399861
-4.0325,0.2168173579255669,0.8286277532932286
-4.032,0.2381577076409128,0.6696781772158616
-4.0315,0.4622313796520444,0.3305857482508123
-4.031,0.9743997728210635,-0.4005823017066947
-4.0305,1.027750647109428,-1.110557074852267
-4.03,0.718315576236913,-1.661582271920472
-4.0295,0.6436243522328627,-2.011271339291287
-4.029,0.6542945270905358,-1.778145294377815
-4.0285,0.5475927785137094,-1.05757388282643
-4.028,0.4088805053636992,-0.527741962567721
-4.0275,0.2594980573562781,-0.1568596183871981
-4.027,0.1634664836371343,0.08686306493165288
-4.0265,0.1101156093487696,0.2246193641987042
-4.026,-0.01792648894347063,0.4259554938970107
-4.0255,-0.2099896363817582,0.6484849004055269
-4.025,-0.1993194615240853,0.6060983467848956
-4.0245,-0.1032878878048541,0.4577454091123974
-4.024,-0.01792648894347063,0.3305857482505039
-4.0235,0.003413860771875242,0.3093924714401882
-4.023,-0.3700422592475607,0.07626642652589756
-4.0225,-0.9889124009925911,-0.570128516188728
-4.022,-1.394379045584162,-1.195330182093038
-4.0215,-1.778505340461019,-1.693372187136351
-4.021,-1.682473766741963,-1.555615887869299
-4.0205,-1.095614149569417,-0.7820612842920766
-4.02,-0.5194247072541763,-0.04029659592985516
-4.0195,-0.1032878878049318,0.5107286011383502
-4.019,0.1314559590640864,0.8286277532933731
-4.0185,0.2274875327831428,0.9769806909655824
-4.018,0.2488278824985954,1.019367244586387
-4.0175,0.2381577076409128,1.00877060618122
-4.017,0.2168173579255669,0.9451907757502728
-4.0165,0.2381577076409613,0.8180311148880323
-4.016,0.291508581929326,0.627291623595192
-4.0155,0.3661998059330365,0.4577454091126673
-4.015,0.9210488985333393,-0.08268314955170067
-4.0145,1.731982187716482,-0.8244478379127463
-4.014,1.924045335154595,-1.460246142222214
-4.0135,1.15579274540096,-1.9582881472657
-4.013,0.4302208550792003,-2.000674700886331
-4.0125,0.1207857842064037,-1.311893204550448
-4.012,0.01408403562956759,-0.6337083466192699
-4.0115,0.00341386077189465,-0.1250697031716958
-4.011,0.02475421048725994,0.1822328105781598
-4.0105,0.04609456020260581,0.3305857482503689
-4.01,0.0674349099179905,0.3199891098453364
-4.0095,0.03542438534494258,0.3305857482505039
-4.009,-0.2099896363815349,0.6484849004052378
-4.0085,-0.2526703358124111,0.6908714540261098
-4.008,-0.1673089369510276,0.5955017083796896
-4.0075,-0.0499370135166253,0.4683420475177962
-4.007,0.01408403562943173,0.4471487707073745
-4.0065,-0.1459685872356623,0.4789386859228479
-4.006,-0.6794773301197943,-0.04029659593035631
-4.0055,-1.095614149569767,-0.7714646458874489
-4.005,-1.479740444445993,-1.364876396576285
-4.0045,-1.938557963326346,-1.735758740757146
-4.004,-1.746494815887467,-1.407262950196213
-4.0035,-1.095614149569417,-0.5913217929990628
-4.003,-0.4980843575391895,0.1610395337678249
-4.0025,-0.08194753808994498,0.6802748156205569
-4.002,0.142126133921769,0.9769806909657173
-4.0015,0.2381577076409128,1.104140351827727
-4.001,0.2594980573562586,1.114736990232885
-4.0005,0.238157707640903,1.072350436612128
-4,0.2274875327832301,0.9663840525605498
-3.9995,0.2381577076409128,0.8180311148882058
-3.999,0.2488278824985954,0.6802748156210291
-3.9985,0.3448594562177392,0.4365521323021782
-3.998,0.825017324813458,-0.1144730647665284
-3.9975,1.230483969405398,-0.8032545611024114
-3.997,0.8997085488172365,-1.38606967338662
-3.9965,0.4942419042252961,-1.809935209593318
-3.996,0.4729015545099309,-1.650985633515806
-3.9955,0.4195506802215176,-0.9833974139902578
-3.995,0.3021787567870086,-0.5277419625680583
-3.9945,0.2274875327832301,-0.1038764263613609
-3.994,0.2061471830678648,0.1504428953626575
-3.9935,0.1848068333524996,0.2246193641988295
-3.993,0.1527963087794516,0.2246193641988295
-3.9925,-0.04993701351651855,0.457745409112513
-3.992,-0.1673089369510276,0.5425185163538525
-3.9915,-0.124628237520297,0.4471487707073456
-3.991,-0.03926683865883591,0.3623756634660061
-3.9905,-0.007256314085787988,0.383568940276341
-3.99,-0.09261771294724913,0.5319218779486851
-3.9895,-0.572775581542968,0.5319218779486851
-3.989,-1.052933450138687,-0.1144730647665284
-3.9885,-1.362368521011484,-0.8562377531282487
-3.988,-1.67180359188428,-1.407262950196955
-3.9875,-1.682473766741963,-1.492036057438295
-3.987,-1.159635198715513,-0.8138511995075789
-3.9865,-0.5941159312583333,-0.01910331912002144
-3.986,-0.156638762093345,0.6060983467848571
-3.9855,0.09944543449103843,1.00877060618122
-3.985,0.2168173579255475,1.210106735879401
-3.9845,0.2488278824985954,1.284283204715573
-3.984,0.2488278824985954,1.273686566310405
-3.9835,0.2274875327832301,1.178316820663898
-3.983,0.2488278824985954,1.00877060618122
-3.9825,0.2808384070716433,0.8074344764830383
-3.982,0.5155822539406614,0.4365521323021782
-3.9815,0.8997085488172365,-0.07208651114585861
-3.981,1.529248865420512,-0.7714646458869092
-3.9805,1.838683936293309,-1.396666311791788
-3.98,1.422547116843686,-1.88411167842949
-3.9795,0.8463576745288233,-1.79933857118815
-3.979,0.4729015545099309,-1.0999604364471
-3.9785,0.2701682322139607,-0.5171453241628908
-3.978,0.1741366584948169,-0.08268314955102604
-3.9775,0.1314559590640864,0.06566978812131802
-3.977,0.1207857842064037,0.08686306493165288
-3.9765,0.08877525963335578,0.08686306493165288
-3.976,0.08877525963335578,0.1080563417419877
-3.9755,0.08877525963335578,0.1716361721729923
-3.975,0.07810508477567314,0.1822328105781598
-3.9745,0.07810508477567314,0.1822328105781598
-3.974,0.05676473506030786,0.2246193641988295
-3.9735,-0.007256314085787988,0.3623756634660061
-3.973,-0.3593720843893152,0.383568940276341
-3.9725,-0.9569018764195432,-0.1780528951975329
-3.972,-1.479740444445993,-0.8880276683437509
-3.9715,-1.906547438753298,-1.460246142222792
-3.971,-1.522421143876723,-1.735758740757146
-3.9705,-0.7434983792658902,-1.195330182093607
-3.97,-0.1993194615240755,-0.3475991096802118
-3.9695,0.1101156093487211,0.383568940276341
-3.969,0.2381577076409128,0.8816109453192104
-3.9685,0.2701682322139607,1.167720182258731
-3.968,0.2488278824985954,1.273686566310405
-3.9675,0.2274875327832301,1.284283204715573
-3.967,0.2061471830678648,1.231300012689736
-3.9665,0.1848068333524996,1.146526905448396
-3.966,0.1848068333524996,1.051157159801889
-3.9655,0.1954770082101822,0.9345941373450475
-3.965,0.3341892813600565,0.6166949851900245
-3.9645,0.857027849386506,-0.09327978795619347
-3.964,1.347855892839907,-0.8880276683437509
-3.9635,1.326515543124542,-1.545019249464132
-3.963,1.230483969405398,-2.011271339291499
-3.9625,1.145122570543937,-1.862918401619155
-3.962,0.8783681991018712,-1.174136905283272
-3.9615,0.5796033030867573,-0.6337083466197325
-3.961,0.3235191065023739,-0.2734226408440398
-3.9605,0.1527963087794516,-0.05089323433552374
-3.96,0.0674349099179905,0.08686306493165288
-3.9595,0.01408403562957729,0.1716361721729923
-3.959,-0.2633405106701714,0.5319218779486851
-3.9585,-0.3487019095316325,0.6166949851900245
-3.958,-0.2420001609548061,0.4789386859228479
-3.9575,-0.09261771294724913,0.3305857482505039
-3.957,0.00341386077189465,0.2458126410091644
-3.9565,-0.1352984123779797,0.2987958330350016
-3.956,-0.7434983792658902,-0.09327978795619347
-3.9555,-1.30901764672307,-0.7714646458869092
-3.955,-1.799845690176472,-1.354279758171118
-3.9545,-2.247993034199143,-1.725162102351978
-3.954,-1.885207089037933,-1.396666311791788
-3.9535,-1.127624674142465,-0.570128516188728
-3.953,-0.4874141826815069,0.2034260873884947
-3.9525,-0.06060718837420119,0.7438546460520338
-3.952,0.1634664836371343,1.051157159801889
-3.9515,0.2488278824985954,1.178316820663898
-3.951,0.2594980573562781,1.199510097474233
-3.9505,0.2381577076409128,1.157123543853563
-3.95,0.2274875327832301,1.040560521396722
-3.9495,0.2488278824985954,0.8604176685088755
-3.949,0.3341892813600565,0.6060983467848571
-3.9485,0.5796033030867573,0.1716361721729923
-3.948,1.049090996824793,-0.3687923864905467
-3.9475,1.465227816274416,-0.9939940523954253
-3.947,1.059761171682476,-1.534422611058964
-3.9465,0.3768699807907871,-1.894708316834657
-3.946,0.07810508477567314,-1.502632695843462
-3.9455,0.01408403562957729,-0.7820612842920766
-3.945,0.05676473506030786,-0.4217755785163839
-3.9445,0.0674349099179905,-0.1462629799820306
-3.944,0.05676473506030786,0.09745970333682032
-3.9435,0.05676473506030786,0.2034260873884947
-3.943,0.05676473506030786,0.2246193641988295
-3.9425,-0.1139580626626144,0.4471487707073456
-3.942,-0.2099896363817582,0.5637117931641874
-3.9415,-0.1673089369510276,0.5213252395435176
-3.941,-0.07127736323188383,0.4365521323021782
-3.9405,0.01408403562957729,0.383568940276341
-3.94,-0.02859666380115328,0.457745409112513
-3.9395,-0.5621054066852853,0.3411823866556712
-3.939,-1.202315898146244,-0.326405832869877
-3.9385,-1.479740444445993,-1.004590690800593
-3.938,-1.703814116457328,-1.523825972653797
-3.9375,-1.746494815888059,-1.608599079895136
-3.937,-1.223656247861609,-0.9198175835592532
-3.9365,-0.6367966306890638,-0.1356663415768632
-3.936,-0.1886492866663929,0.4895353243280153
-3.9355,0.08877525963335578,0.8816109453192104
-3.935,0.2168173579255475,1.072350436612224
-3.9345,0.2488278824985954,1.135930267043229
-3.934,0.2488278824985954,1.114736990232894
-3.9335,0.2274875327832301,1.029963882991555
-3.933,0.2168173579255475,0.92399749893988
-3.9325,0.2061471830678648,0.8392243916985406
-3.932,0.2488278824985954,0.6590815388106942
-3.9315,0.6436243522328531,0.1292496185523226
-3.931,1.305175193409177,-0.6443049850249
-3.9305,1.326515543124542,-1.322489842955616
-3.93,0.6969752265212663,-1.831128486403653
-3.9295,0.3448594562177392,-1.820531847998485
-3.929,0.1741366584948169,-1.174136905283272
-3.9285,0.142126133921769,-0.6337083466197325
-3.928,0.1207857842064037,-0.2628260024388724
-3.9275,0.1207857842064037,0.002089957690313421
-3.927,0.08877525963335578,0.1504428953626575
-3.9265,0.0674349099179905,0.2246193641988295
-3.926,-0.007256314085787988,0.3729723018711736
-3.9255,-0.3060212101009019,0.7438546460520338
-3.925,-0.3273615598162672,0.7438546460520338
-3.9245,-0.2099896363817582,0.5849050699745222
-3.924,-0.07127736323188383,0.4259554938970107
-3.9235,0.01408403562957729,0.3623756634660061
-3.923,-0.274010685527854,0.2670059178194992
-3.9225,-0.7968492535543035,-0.3052125560595421
-3.922,-1.159635198715513,-0.9728007755850904
-3.9215,-1.447729919872945,-1.523825972653797
-3.921,-1.714484291315011,-1.820531847998485
-3.9205,-1.383708870726849,-1.269506650929778
-3.92,-0.8181896032696687,-0.4429688553267188
-3.9195,-0.3166913849585846,0.2670059178194992
-3.919,0.01408403562957729,0.7332580076468663
-3.9185,0.1848068333524996,0.9875773293708847
-3.918,0.2488278824985954,1.093543713422559
-3.9175,0.2488278824985954,1.104140351827727
-3.917,0.2381577076409128,1.040560521396722
-3.9165,0.2168173579255475,0.9663840525605498
-3.916,0.2168173579255475,0.8710143069140429
-3.9155,0.291508581929326,0.627291623595192
-3.915,0.4835717293676135,0.309392471440169
-3.9145,1.123782220828572,-0.3475991096802118
-3.914,1.401206767128321,-1.01518732920576
-3.9135,0.857027849386506,-1.576809164679634
-3.913,0.2488278824985954,-1.915901593644992
-3.9125,0.02475421048725994,-1.460246142222792
-3.912,0.00341386077189465,-0.8032545611024114
-3.9115,0.03542438534494258,-0.3475991096802118
-3.911,0.05676473506030786,0.05507314971615059
-3.9105,0.05676473506030786,0.2352160026039969
-3.91,0.0674349099179905,0.2140227257936621
-3.9095,0.05676473506030786,0.2246193641988295
-3.909,-0.156638762093345,0.5001319627331828
-3.9085,-0.2099896363817582,0.5849050699745222
-3.908,-0.1352984123779797,0.5213252395435176
-3.9075,-0.04993701351651855,0.4471487707073456
-3.907,-0.03926683865883591,0.5001319627331828
-3.9065,-0.2099896363817582,0.6908714540261965
-3.906,-0.6367966306890638,0.3199891098453364
-3.9055,-1.148965023857831,-0.4641621321370536
-3.905,-1.586442193022819,-1.163540266878104
-3.9045,-2.023919362187807,-1.629792356705471
-3.904,-1.778505340461106,-1.407262950196955
-3.9035,-1.095614149569417,-0.6125150698093976
-3.903,-0.4874141826815069,0.1504428953626575
-3.9025,-0.07127736323188383,0.7120647308365314
-3.902,0.1527963087794516,1.029963882991555
-3.9015,0.2488278824985954,1.178316820663898
-3.901,0.2701682322139607,1.210106735879401
-3.9005,0.2488278824985954,1.167720182258731
-3.9,0.2381577076409128,1.061753798207057
-3.8995,0.2488278824985954,0.9028042221295453
-3.899,0.2808384070716433,0.7226613692416989
-3.8985,0.3555296310754218,0.5001319627331828
-3.898,0.79300680024041,-0.06148987274069118
-3.8975,1.19847344483235,-0.8032545611024114
-3.897,0.8036769750980928,-1.439052865412457
-3.8965,-0.01792648894347063,-1.915901593644992
-3.896,-0.4554036581084589,-1.746355379162313
-3.8955,-0.4447334832507763,-1.025783967610927
-3.895,-0.2313299860971235,-0.3475991096802118
-3.8945,-0.02859666380115328,0.07626642652648545
-3.894,0.1207857842064037,0.2458126410091644
-3.8935,0.1848068333524996,0.2564092794143318
-3.893,0.1848068333524996,0.2140227257936621
-3.8925,0.04609456020262521,0.3411823866556712
-3.892,-0.09261771294724913,0.4683420475176805
-3.8915,-0.08194753808956648,0.4153588554918433
-3.891,-0.01792648894347063,0.3517790250608387
-3.8905,0.01408403562957729,0.3729723018711736
-3.89,-0.01792648894347063,0.457745409112513
-3.8895,-0.3593720843893152,0.13984625695749
-3.889,-0.8502001278427167,-0.5595318777835605
-3.8885,-1.170305373573196,-1.174136905283272
-3.888,-1.405049220442214,-1.566212526274467
-3.8875,-1.255666772434657,-1.237716735714276
-3.887,-0.7861790786966207,-0.474758770542221
-3.8865,-0.3273615598162672,0.2246193641988295
