Class_5_Move_Left_hand_Horiszontal/Class_5_Move_Left_hand_Horiszontal_Suko_5.csv

#Digilent WaveForms Oscilloscope Acquisition
#Device Name: EExplorer
#Serial Number: SN:210151A2B84A
#Date Time: 2020-12-21 15:34:43.397
#Sample rate: 2000Hz
#Samples: 16384
#Trigger: Source: Channel 1 Type: Edge Condition: Rising Level: 0 V Hyst.: Auto HoldOff: 0 s
#Channel 1: Range: 1 V/div Offset: 0 V
#Channel 2: Range: 1 V/div Offset: 0 V

Time (s),Channel 1 (V),Channel 2 (V)
-4.0960000000000001,0.80367697509809277,-0.24163272562853755
-4.0955000000000004,0.69697522652136334,-0.20984281041306416
-4.0949999999999998,0.57960330308666996,-0.1992461720078389
-4.0945,0.4835717293676135,-0.1674562567923655
-4.0940000000000003,0.4835717293676135,-0.061489872740787557
-4.0934999999999997,0.65429452709021552,0.3199891098457508
-4.093,0.30217875678700862,0.775644561267536
-4.0925000000000002,-0.55143523182682652,1.0829470750171122
-4.0919999999999996,-1.31968782158117,1.231300012689668
-4.0914999999999999,-1.7785053404611064,1.1571235438535634
-4.0910000000000002,-1.4263895701575793,0.55311515475901996
-4.0904999999999996,-0.77550890383842386,-0.22043944881870381
-4.0899999999999999,-0.20998963638175816,-0.77146464588690922
-4.0895000000000001,0.16346648363713429,-1.0469772444212624
-4.0890000000000004,0.36619980593292012,-1.0893637980418935
-4.0884999999999998,0.44089102993688295,-0.98339741399025782
-4.0880000000000001,0.43022085507920033,-0.792657922697244
-4.0875000000000004,0.37686998079083561,-0.55953187778377256
-4.0869999999999997,0.29150858192925805,-0.31580919446449751
-4.0865,0.21681735792554749,-0.082683149551026042
-4.0860000000000003,0.15279630877950987,0.17163617217276103
-4.0854999999999997,0.014084035629208526,0.44714877070766362
-4.085,-0.39138260896236304,0.7968378380778709
-4.0845000000000002,-0.77550890383858884,1.1253336286377627
-4.0839999999999996,-1.1169544992847535,1.1783168206633201
-4.0834999999999999,-1.0849439747117349,0.54251851635385251
-4.0830000000000002,-0.64746680554674652,-0.27342264084403983
-4.0824999999999996,-0.17797911180837059,-0.82444783791289089
-4.0819999999999999,0.19547700821018218,-0.98339741399025782
-4.0815000000000001,0.43022085507920033,-0.98339741399025782
-4.0810000000000004,0.56893312822894848,-0.94101086036962667
-4.0804999999999998,0.60094365280212259,-0.792657922697244
-4.0800000000000001,0.72898575109431429,-0.62311170821456507
-4.0795000000000003,0.84635767452871646,-0.5171453241629872
-4.0789999999999997,0.76099627566723616,-0.50654868575778123
-4.0785,0.62228400251748783,-0.57012851618872795
-4.0780000000000003,0.51558225394075841,-0.5277419625680968
-4.0774999999999997,0.53692260365629829,-0.35819574808499377
-4.077,0.83568749967114075,0.065669788121318018
-4.0765000000000002,1.5185786905622085,0.60609834678436569
-4.0759999999999996,1.5185786905619949,0.9981739677761966
-4.0754999999999999,0.60094365280212259,1.1571235438535634
-4.0750000000000002,-0.61545628097369853,1.1677201822587309
-4.0744999999999996,-1.2343264227190978,0.83922439169783702
-4.0739999999999998,-1.0209229255656389,0.065669788121318018
-4.0735000000000001,-0.54076505696992005,-0.64430498502489997
-4.0730000000000004,-0.10328788780532966,-1.0787671596363695
-4.0724999999999998,0.18480683335249956,-1.2377167357142764
-4.0720000000000001,0.34485945621773917,-1.1847335436884392
-4.0715000000000003,0.40888050536377679,-1.0151873292059141
-4.0709999999999997,0.39821033050608445,-0.78206128429181632
-4.0705,0.32351910650237387,-0.49595204735255594
-4.0700000000000003,0.27016823221400921,-0.23103608722361102
-4.0694999999999997,0.20614718306769014,0.044476511311291558
-4.069,0.014084035629577295,0.38356894027634103
-4.0685000000000002,-0.65813698040442903,0.78624119967270345
-4.0679999999999996,-1.3837088707272271,1.1253336286382736
-4.0674999999999999,-1.7998456901764717,1.3584596735517449
-4.0670000000000002,-2.0132491873301248,1.4220395039827496
-4.0664999999999996,-1.7998456901759088,0.90280422212886102
-4.0659999999999998,-1.1809755484308786,0.15044289536265748
-4.0655000000000001,-0.4980843575391895,-0.42177557851638392
-4.0650000000000004,0.088775259632822012,-0.72907809226595988
-4.0644999999999998,0.4835717293676135,-0.81385119950757889
-4.0640000000000001,0.67563487680590106,-0.70788481545590454
-4.0635000000000003,0.78233662538263049,-0.49595204735274867
-4.0629999999999997,1.0064102973940143,-0.1674562567922884
-4.0625,0.95305942310564973,-0.082683149551026042
-4.0620000000000003,0.77166645052520977,-0.11447306476649943
-4.0614999999999997,0.60094365280201578,-0.15685961838720772
-4.0609999999999999,0.4835717293676135,-0.1674562567923655
-4.0605000000000002,0.67563487680590106,0.012686596095480854
-4.0599999999999996,1.155792745401125,0.46834204751807562
-4.0594999999999999,0.6116138276598051,0.90280422212954525
-4.0590000000000002,-0.40205278382004572,1.1571235438535634
-4.0585000000000004,-1.3837088707259559,1.2418966510948259
-4.0579999999999998,-1.8425263896072024,1.0723504366122243
-4.0575000000000001,-1.4157193952998968,0.37297230187117358
-4.0570000000000004,-0.74349837926650164,-0.36879238648987211
-4.0564999999999998,-0.17797911180871023,-0.85623775312824868
-4.056,0.18480683335249956,-1.0575738828264298
-4.0555000000000003,0.3768699807906124,-1.0469772444212719
-4.0549999999999997,0.44089102993687324,-0.90922094515390273
-4.0545,0.43022085507920033,-0.70788481545590454
-4.0540000000000003,0.3661998059331627,-0.44296885532695968
-4.0534999999999997,0.280838407071556,-0.18864953360247871
-4.0529999999999999,0.18480683335249956,0.055073149716150585
-4.0525000000000002,0.067434909917990504,0.30939247144016896
-4.0519999999999996,-0.44473348325121298,0.45774540911278289
-4.0514999999999999,-0.92489135184649518,0.75445128445720111
-4.0510000000000002,-1.1276246741424654,1.0617537982070568
-4.0505000000000004,-1.4263895701573075,1.1783168206637924
-4.0499999999999998,-1.4584000947306273,0.81803111488820579
-4.0495000000000001,-1.0742737998540521,0.12924961855232261
-4.0490000000000004,-0.46607383296669469,-0.44296885532619823
-4.0484999999999998,0.024754210487560775,-0.75027136907669956
-4.048,0.35552963107542179,-0.88802766834375091
-4.0475000000000003,0.56893312822888054,-0.88802766834375091
-4.0469999999999997,0.67563487680613399,-0.79265792269735968
-4.0465,0.93171907339028448,-0.91981758355925325
-4.0460000000000003,0.97439977282097612,-0.89862430674893767
-4.0454999999999997,0.83568749967100486,-0.66549826183501315
-4.0449999999999999,0.6863050516635838,-0.42177557851638392
-4.0445000000000002,0.57960330308675734,-0.2310360872233701
-4.0439999999999996,0.60094365280254958,-0.082683149550669452
-4.0434999999999999,1.0704313465401587,0.30939247144016896
-4.0430000000000001,1.1878032699746677,0.775644561267536
-4.0425000000000004,0.36619980593385171,1.0935437134222701
-4.0419999999999998,-0.79684925355430347,1.2207033742845681
-4.0415000000000001,-1.5651018433074537,1.1571235438535634
-4.0410000000000004,-1.4263895701577054,0.53192187794925372
-4.0404999999999998,-0.86087030269988485,-0.28401927924976628
-4.04,-0.29535103524321932,-0.89862430674891836
-4.0395000000000003,0.099445434490679385,-1.2271200973088101
-4.0389999999999997,0.32351910650245153,-1.3012965661452132
-4.0385,0.40888050536383502,-1.227120097309109
-4.0380000000000003,0.4302208550791809,-1.0469772444214263
-4.0374999999999996,0.37686998079069978,-0.80325456110218019
-4.0369999999999999,0.28083840707164331,-0.54893523937839306
-4.0365000000000002,0.19547700821018218,-0.28401927924920728
-4.0359999999999996,0.13145595906383403,0.012686596095818169
-4.0354999999999999,-0.14596858723566233,0.38356894027634103
-4.0350000000000001,-0.77550890383893822,0.80743447648303834
-4.0345000000000004,-1.2983474718649122,1.1571235438532455
-4.0339999999999998,-1.6077825427381842,1.2313000126897355
-4.0335000000000001,-1.3303579964384356,0.69087145402619654
-4.0330000000000004,-0.85020012784315346,0.01268659609609768
-4.0324999999999998,-0.29535103524279233,-0.49595204735278725
-4.032,0.17413665849481691,-0.75027136907657432
-4.0315000000000003,0.47290155450965915,-0.81385119950752105
-4.0309999999999997,0.63295417737520943,-0.76086800748160688
-4.0305,0.67563487680590106,-0.61251506980939763
-4.0300000000000002,0.7503261008096116,-0.60191843140423995
-4.0294999999999996,0.85702784938644783,-0.66549826183511918
-4.0289999999999999,0.79300680024041004,-0.53833860097322561
-4.0285000000000002,0.65429452709053582,-0.34759910968021185
-4.0279999999999996,0.53692260365596844,-0.17805289519741727
-4.0274999999999999,0.47290155450993088,-0.050893234335523743
-4.0270000000000001,0.84635767452882327,0.27760255622466667
-4.0265000000000004,1.6039400894236018,0.72266136924129409
-4.0259999999999998,1.9987365591585484,1.0617537982070568
-4.0255000000000001,1.1557927454016199,1.2101067358794007
-4.0250000000000004,-0.081947538088440686,1.1995100974742428
-4.0244999999999997,-0.59411593125825568,0.68027481562027736
-4.024,-0.50875453239687207,-0.14626297998203064
-4.0235000000000003,-0.23132998609737576,-0.8350444763172874
-4.0229999999999997,0.046094560202790194,-1.2271200973092342
-4.0225,0.22748753278323011,-1.3648763965762853
-4.0220000000000002,0.33418928135995951,-1.3224898429556542
-4.0214999999999996,0.37686998079075801,-1.1741369052830501
-4.0209999999999999,0.34485945621773917,-0.9304142219644207
-4.0205000000000002,0.27016823221396069,-0.65490162343006741
-4.0199999999999996,0.19547700821014335,-0.40058230170581771
-4.0194999999999999,0.15279630877945163,-0.14626297998203064
-4.0190000000000001,0.024754210487259936,0.18223281057815977
-4.0185000000000004,-0.45540365810802219,0.64848490040510276
-4.0179999999999998,-1.0315931004233216,1.0617537982070568
-4.0175000000000001,-1.4263895701575793,1.33726639674141
-4.0170000000000003,-1.7464948158877676,1.4750226960084611
-4.0164999999999997,-1.7678351656030067,1.1359302670425635
-4.016,-1.3090176467230703,0.40476221708667587
-4.0155000000000003,-0.66880715526269408,-0.2628260024382652
-4.0149999999999997,-0.060607188373822715,-0.65490162343015412
-4.0145,0.35552963107542179,-0.75027136907657432
-4.0140000000000002,0.55826295337120768,-0.6866915386456276
-4.0134999999999996,0.69697522652145072,-0.49595204735227644
-4.0129999999999999,0.8997085488172365,-0.18864953360270037
-4.0125000000000002,0.8997085488172365,-0.061489872740691176
-4.0119999999999996,0.7716664505249089,-0.019103319120002168
-4.0114999999999998,0.62228400251748783,0.0020899576903134209
-4.0110000000000001,0.50491207908297886,0.033879872905815719
-4.0105000000000004,0.62228400251738103,-0.06148987274060444
-4.0099999999999998,0.88903837395955376,-0.22043944881820265
-4.0095000000000001,0.20614718306786484,0.15044289536265748
-4.0090000000000003,-0.70081767983433485,0.64848490040507389
-4.0084999999999997,-1.5224211438771693,0.99817396777614842
-4.008,-2.0132491873301248,1.1041403518277266
-4.0075000000000003,-1.5971123678808801,0.5637117931646789
-4.0069999999999997,-0.88221065241519192,-0.18864953360324008
-4.0065,-0.25267033581248871,-0.78206128429207655
-4.0060000000000002,0.15279630877945163,-1.1105570748522671
-4.0054999999999996,0.35552963107548974,-1.2165234589038934
-4.0049999999999999,0.43022085507920033,-1.1635402668781043
-4.0045000000000002,0.41955068022151765,-1.01518732920576
-4.0039999999999996,0.30217875678695039,-0.83504447631774026
-4.0034999999999998,0.23815770764091276,-0.64430498502489997
-4.0030000000000001,0.22748753278323011,-0.42177557851638392
-4.0025000000000004,0.024754210487444306,-0.050893234335861071
-4.0019999999999998,-0.42339313353541097,0.47893868592284788
-4.0015000000000001,-0.71148785469284226,0.90280422212954525
-4.0010000000000003,-1.0102527507076846,1.1995100974739634
-4.0004999999999997,-1.4370597450154659,1.3902495887670063
-4,-1.6611334170265974,1.1253336286380615
-3.9994999999999998,-1.3196878215807528,0.31998910984533641
-3.9990000000000001,-0.66880715526211176,-0.31580919446470956
-3.9984999999999999,-0.11395806266261441,-0.64430498502489997
-3.9980000000000002,0.29150858192932599,-0.73967473067140688
-3.9975000000000001,0.54759277851370936,-0.59132179299906285
-3.9969999999999999,0.66496470194821833,-0.41117894011121647
-3.9965000000000002,0.8997085488172365,-0.50654868575772338
-3.996,0.93171907339028448,-0.42177557851638392
-3.9954999999999998,0.81434714995577528,-0.18864953360270037
-3.9950000000000001,0.66496470194821833,0.055073149716150585
-3.9944999999999999,0.53692260365602662,0.20342608738849466
-3.9940000000000002,0.54759277851370936,0.34118238665567124
-3.9935,1.0490909968247935,0.6590815388106942
-3.9929999999999999,0.96372959796333246,0.99817396777605205
-3.9925000000000002,0.11011560934872107,1.1995100974742332
-3.992,-0.8502001278427167,1.2630899279052379
-3.9914999999999998,-1.6291228924535495,1.1783168206638983
-3.9910000000000001,-1.5330913187344057,0.58490506997452218
-3.9904999999999999,-0.93556152670417769,-0.27342264084403983
-3.9900000000000002,-0.34870190953163249,-0.95160749877475548
-3.9895,0.078105084775673142,-1.333086481360783
-3.9889999999999999,0.31284893164469124,-1.4708427806279598
-3.9885000000000002,0.40888050536383502,-1.42845622700729
-3.988,0.43022085507920033,-1.2695066509297783
-3.9874999999999998,0.3768699807907871,-1.0575738828264298
-3.9870000000000001,0.31284893164469124,-0.82444783791274634
-3.9864999999999999,0.24882788249859539,-0.57012851618872795
-3.9860000000000002,0.046094560202625215,-0.18864953360270037
-3.9855,-0.34870190953163249,0.31998910984533641
-3.9849999999999999,-0.94623170156186043,0.82862775329337313
-3.9845000000000002,-1.3410281712961183,1.1995100974742332
-3.984,-1.6397930673112322,1.4220395039827496
-3.9834999999999998,-1.8531965644648849,1.3690563119569124
-3.9830000000000001,-1.586442193022819,0.71206473083653143
-3.9824999999999999,-0.98891240099259115,0.033879872905815719
-3.9820000000000002,-0.35937208438931517,-0.41117894011121647
-3.9815,0.15279630877945163,-0.60191843140423029
-3.9809999999999999,0.44089102993688295,-0.53833860097322561
-3.9805000000000001,0.57960330308675734,-0.29461591765437467
-3.98,0.6863050516635838,-0.15685961838719809
-3.9794999999999998,0.76099627566736228,0.0020899576903134209
-3.9790000000000001,0.76099627566736228,0.19282944898332721
-3.9784999999999999,0.65429452709053582,0.33058574825050385
-3.9780000000000002,0.54759277851370936,0.42595549389701071
-3.9775,0.52625242879834411,0.48953532432801533
-3.9769999999999999,0.97439977282101498,0.70146809243136399
-3.9765000000000001,0.94238924824796699,0.99817396777605205
-3.976,0.20614718306786484,1.2101067358794007
-3.9754999999999998,-0.73282820440820751,1.2948798431207402
-3.9750000000000001,-1.6291228924535495,1.2842832047155728
-3.9744999999999999,-1.8745369141802501,0.95578741415538238
-3.9740000000000002,-1.3196878215807528,0.13984625695749003
-3.9735,-0.62612645583138127,-0.64430498502489997
-3.9729999999999999,-0.092617712947249131,-1.1741369052832717
-3.9725000000000001,0.23815770764091276,-1.42845622700729
-3.972,0.3982103305061524,-1.4602461422227924
-3.9714999999999998,0.44089102993688295,-1.3542797581711179
-3.9710000000000001,0.41955068022151765,-1.1635402668781043
-3.9704999999999999,0.35552963107542179,-0.94101086036958814
-3.9700000000000002,0.27016823221396069,-0.67609490024040231
-3.9695,0.19547700821018218,-0.40058230170604903
-3.9689999999999999,0.024754210487259936,-0.0085066807148540119
-3.9685000000000001,-0.34870190953163249,0.54251851635385251
-3.968,-0.63679663068906378,1.0087706061812196
-3.9674999999999998,-1.0209229255656389,1.2842832047155728
-3.9670000000000001,-1.2129860730039266,1.0935437134225592
-3.9664999999999999,-0.86087030270039921,0.36237566346600614
-3.9660000000000002,-0.33803173467394987,-0.24163272562853755
-3.9655,0.12078578420640371,-0.51714532416289083
-3.9649999999999999,0.44089102993688295,-0.57012851618872795
-3.9645000000000001,0.60094365280212259,-0.51714532416289083
-3.964,0.64362435223285308,-0.33700247127504446
-3.9634999999999998,0.67563487680590106,-0.17805289519753292
-3.9630000000000001,0.71831557623663156,-0.1674562567923655
-3.9624999999999999,0.65429452709053582,-0.10387642636136091
-3.9620000000000002,0.60094365280212259,0.033879872905815719
-3.9615,0.53692260365602662,0.17163617217299235
-3.9609999999999999,0.49424190422529612,0.24581264100916439
-3.9605000000000001,0.71831557623663156,0.43655213230217815
-3.96,0.92104889853260175,0.7968378380778709
-3.9594999999999998,0.27016823221396069,1.0829470750173917
-3.9590000000000001,-0.43406330839309365,1.1359302670432285
-3.9584999999999999,-1.2236562478616091,1.1253336286380615
-3.9580000000000002,-1.7144842913150107,0.96638405256054982
-3.9575,-1.373038695869166,0.26700591781949923
-3.9569999999999999,-0.74349837926589024,-0.54893523937839306
-3.9565000000000001,-0.18864928666639288,-1.1423469900677694
-3.956,0.17413665849481691,-1.4496495038176249
-3.9554999999999998,0.36619980593310447,-1.5344226110589645
-3.9550000000000001,0.43022085507920033,-1.4602461422227924
-3.9544999999999999,0.41955068022151765,-1.2801032893349458
-3.9540000000000002,0.3768699807907871,-1.0681705212315973
-3.9535,0.32351910650237387,-0.83504447631791379
-3.9529999999999998,0.25949805735627807,-0.55953187778356051
-3.9525000000000001,0.13145595906408636,-0.2310360872233701
-3.952,-0.3700422592469978,0.24581264100916439
-3.9514999999999998,-1.0102527507079564,0.76504792286236856
-3.9510000000000001,-1.6077825427381842,1.1571235438535634
-3.9504999999999999,-1.9065474387532981,1.3160731199310751
-3.9500000000000002,-1.7144842913150107,0.89220758372437781
-3.9495,-1.0956141495694174,0.23521600260399694
-3.9489999999999998,-0.41272295867772835,-0.29461591765437467
-3.9485000000000001,0.12078578420640371,-0.59132179299906285
-3.948,0.47290155450993088,-0.66549826183523486
-3.9474999999999998,0.64362435223285308,-0.55953187778356051
-3.9470000000000001,0.71831557623663156,-0.30521255605954212
-3.9464999999999999,0.93171907339028448,0.033879872905815719
-3.9460000000000002,0.92104889853260175,0.17163617217299235
-3.9455,0.78233662538272752,0.19282944898332721
-3.9449999999999998,0.62228400251748783,0.17163617217299235
-3.9445000000000001,0.50491207908297886,0.15044289536265748
-3.944,0.60094365280212259,0.21402272579366208
-3.9434999999999998,1.1557927454016199,0.55311515475901996
-3.9430000000000001,1.0704313465401587,0.9134008605347127
-3.9424999999999999,0.19547700821018218,1.1571235438535634
-3.9420000000000002,-0.93556152670417769,1.2736865663104053
-3.9415,-1.7785053404611064,1.241896651094903
-3.9409999999999998,-1.6931439415996454,0.72266136924169888
-3.9405000000000001,-1.0529334501386869,-0.093279787956193475
-3.9399999999999999,-0.41272295867772835,-0.75027136907657432
-3.9394999999999998,0.046094560202625215,-1.131750351662602
-3.9390000000000001,0.31284893164469124,-1.2483133741194434
-3.9384999999999999,0.43022085507920033,-1.1953301820936066
-3.9380000000000002,0.44089102993688295,-1.0363806060160949
-3.9375,0.3768699807907871,-0.792657922697244
-3.9369999999999998,0.28083840707164331,-0.52774196256805828
-3.9365000000000001,0.19547700821018218,-0.29461591765437467
-3.9359999999999999,0.11011560934872107,-0.0085066807148540119
-3.9355000000000002,-0.32736155981626724,0.40476221708667587
-3.9350000000000001,-1.0636036249963696,0.86041766850887547
-3.9344999999999999,-1.5971123678805015,1.2101067358794007
-3.9340000000000002,-1.9492281381840288,1.3902495887672472
-3.9335,-1.9065474387532981,1.0087706061812196
-3.9329999999999998,-1.4157193952998968,0.23521600260399694
-3.9325000000000001,-0.71148785469284226,-0.40058230170604903
-3.9319999999999999,-0.071277363231883828,-0.73967473067140688
-3.9315000000000002,0.36619980593310447,-0.81385119950757889
-3.931,0.60094365280212259,-0.6972881770507372
-3.9304999999999999,0.6863050516635838,-0.51714532416289083
-3.9300000000000002,0.857027849386506,-0.19924617200786782
-3.9295,0.93171907339028448,0.0020899576903134209
-3.9289999999999998,0.82501732481345802,0.023283234500648287
-3.9285000000000001,0.67563487680590106,0.0020899576903134209
