Class_5_Move_Left_hand_Horiszontal/Class_5_Move_Left_hand_Horiszontal_SH_3.csv

#Digilent WaveForms Oscilloscope Acquisition
#Device Name: EExplorer
#Serial Number: SN:210151A2B84A
#Date Time: 2020-12-03 11:49:04.894
#Sample rate: 2000Hz
#Samples: 16384
#Trigger: Source: Channel 1 Type: Edge Condition: Rising Level: 0 V Hyst.: Auto HoldOff: 0 s
#Channel 1: Range: 1 V/div Offset: 0 V Attenuation: 1 X
#Channel 2: Range: 1 V/div Offset: 0 V Attenuation: 1 X
#Power Supplies: ON
#Fixed Supply: ON
#Voltage: 3.3 V Readback: 3.317 V
#Positive Supply: ON
#Voltage: 3.7 V Readback: 3.688 V
#Current: 40 mA Readback: 18 mA
#Negative Supply: ON
#Voltage: -3.7 V Readback: -3.377 V
#Current: -40 mA Readback: 0 A
#Reference 1: ON
#Voltage: 0 V
#Reference 2: ON
#Voltage: 0 V

Time (s),Channel 1 (V),Channel 2 (V)
-4.096,0.3875401556484697,1.051157159801889
-4.0955,0.3341892813601051,1.029963882991574
-4.095,-0.1139580626633617,0.5531151547580851
-4.0945,-0.9355615267041777,-0.474758770542221
-4.094,-1.469070269587825,-1.396666311790949
-4.0935,-1.682473766741594,-1.735758740756644
-4.093,-1.277007122150022,-1.184733543688439
-4.0925,-0.6047861061166272,-0.5065486857583402
-4.092,-0.01792648894310185,-0.02969995752499613
-4.0915,0.3875401556484697,0.1822328105781598
-4.091,0.5689331282290746,0.2352160026039969
-4.0905,0.6329541773751706,0.1504428953625707
-4.09,0.6329541773751706,0.05507314971615059
-4.0895,0.825017324813458,-0.1462629799820306
-4.089,0.9210488985325144,-0.2098428104129774
-4.0885,0.8143471499557753,-0.07208651114585861
-4.088,0.6756348768059011,0.1186529801471552
-4.0875,0.5689331282291716,0.2881991946296799
-4.087,0.5475927785137288,0.3623756634655724
-4.0865,0.5689331282290746,-0.1144730647665284
-4.086,0.4088805053639806,-0.5807251545934713
-4.0855,-0.4660738329671023,-1.269506650930376
-4.085,-1.522421143876723,-1.926498232050159
-4.0845,-1.970568487898986,-2.064254531317211
-4.084,-1.469070269587679,-1.301296566144452
-4.0835,-0.7755089038389382,-0.3899856633008816
-4.083,-0.1993194615240755,0.3305857482505039
-4.0825,0.1954770082103666,0.818031114888437
-4.082,0.3982103305061524,1.072350436612224
-4.0815,0.4835717293676135,1.167720182258731
-4.081,0.5049120790829594,1.178316820663889
-4.0805,0.4942419042252961,1.157123543853563
-4.08,0.4622313796522482,1.114736990232894
-4.0795,0.4088805053638835,1.072350436612263
-4.079,0.3555296310752277,1.040560521396481
-4.0785,0.142126133921769,0.775644561267536
-4.078,-0.6154562809730095,-0.1462629799811922
-4.0775,-1.426389570157987,-1.163540266878702
-4.077,-1.87453691418025,-1.820531847998485
-4.0765,-1.426389570157987,-1.598002441490171
-4.076,-0.6367966306884622,-0.8244478379122163
-4.0755,0.02475421048725994,-0.2416327256285375
-4.075,0.4408910299368829,0.1292496185523226
-4.0745,0.6329541773752094,0.2458126410091451
-4.074,0.6756348768059011,0.2246193641988295
-4.0735,0.6542945270905358,0.1610395337678249
-4.073,0.7076454013789005,0.04447651131108916
-4.0725,0.8356874996711408,-0.08268314955102604
-4.072,0.7823366253827275,-0.008506680714854012
-4.0715,0.6649647019483251,0.1292496185521974
-4.071,0.5689331282290261,0.267005917819586
-4.0705,0.5155822539406614,0.3623756634660061
-4.07,0.8143471499555035,0.1186529801473769
-4.0695,0.9423892482475206,-0.601918431404876
-4.069,0.4515612047945656,-1.311893204550448
-4.0685,-0.5407650569699201,-1.820531847998485
-4.068,-1.543761493592118,-2.149027638558261
-4.0675,-1.575772018165136,-1.693372187136476
-4.067,-0.9782422261349084,-0.7078848154559045
-4.0665,-0.4020527838196478,0.09745970333732147
-4.066,0.03542438534494258,0.6484849004055269
-4.0655,0.3021787567870086,0.9557874141553824
-4.065,0.4408910299367568,1.082947075017276
-4.0645,0.4835717293676135,1.104140351827727
-4.064,0.4835717293676135,1.061753798207057
-4.0635,0.4622313796522676,1.019367244586426
-4.063,0.4302208550791615,0.9875773293708654
-4.0625,0.3875401556484697,0.9663840525605498
-4.062,0.1954770082103569,0.8604176685089718
-4.0615,-0.5621054066859743,0.3411823866551026
-4.061,-1.319687821580753,-0.2840192792492073
-4.0605,-1.703814116457328,-1.078767159636765
-4.06,-1.501080794160814,-1.301296566144885
-4.0595,-0.9035510021311299,-0.8668343915334161
-4.059,-0.3166913849585846,-0.3475991096802118
-4.0585,0.1634664836366976,-0.008506680715162418
-4.058,0.4729015545099309,0.13984625695749
-4.0575,0.6222840025174878,0.2352160026039969
-4.057,0.6756348768058525,0.1928294489833658
-4.0565,0.707645401378949,0.1186529801471552
-4.056,0.8997085488172365,-0.09327978795619347
-4.0555,0.8890383739595634,-0.07208651114587789
-4.055,0.7609962756672555,0.07626642652661074
-4.0545,0.6436243522328531,0.2140227257936621
-4.054,0.5582629533714697,0.31998910984524
-4.0535,0.6436243522333771,0.2352160026038138
-4.053,1.219813794547716,0.03387987290581572
-4.0525,0.6649647019482183,-0.8138511995075789
-4.052,-0.4127229586786018,-1.545019249464517
-4.0515,-1.373038695869166,-1.968884785670829
-4.051,-1.618452717595867,-1.852321763213987
-4.0505,-1.063603624996874,-0.9728007755858903
-4.05,-0.4020527838200457,-0.06148987274069118
-4.0495,0.02475421048725994,0.5107286011383502
-4.049,0.2915085819290834,0.8392243916982418
-4.0485,0.4195506802215564,1.008770606181258
-4.048,0.4622313796522482,1.051157159801889
-4.0475,0.4622313796522482,1.040560521396731
-4.047,0.4515612047945461,1.019367244586378
-4.0465,0.4302208550792003,1.00877060618122
-4.046,0.3982103305061815,0.9981739677760617
-4.0455,0.3341892813596004,0.9769806909652546
-4.045,-0.1673089369510276,0.4683420475176805
-4.0445,-1.042263275281004,-0.4641621321370536
-4.044,-1.693143941600004,-1.375473034981963
-4.0435,-2.087940411333903,-1.937094870455327
-4.043,-2.013249187330125,-1.852321763213987
-4.0425,-1.277007122150692,-1.131750351663257
-4.042,-0.4874141826815069,-0.3899856633008816
-4.0415,0.08877525963335578,0.1292496185523226
-4.041,0.4302208550788897,0.3623756634657941
-4.0405,0.5796033030868059,0.3941655786814699
-4.04,0.6329541773751706,0.3517790250608387
-4.0395,0.8356874996709563,0.235216002604103
-4.039,0.9103787236748222,0.1292496185523226
-4.0385,0.8036769750980928,0.1292496185523226
-4.038,0.6649647019483444,0.1928294489832694
-4.0375,0.5582629533713824,0.256409279414351
-4.037,0.5475927785137094,0.2776025562246667
-4.0365,1.017080472251745,0.3199891098453364
-4.036,1.486568165988899,0.4365521323013782
-4.0355,0.5155822539406614,-0.4429688553267188
-4.035,-1.1062843244271,-1.682775548731308
-4.0345,-1.927887788467916,-2.138431000153094
-4.034,-1.799845690176472,-1.714565463946811
-4.0335,-1.095614149569417,-0.7608680074817418
-4.033,-0.327361559816966,0.182232810577302
-4.0325,0.1314559590642901,0.754451284457471
-4.032,0.3555296310754218,1.051157159801889
-4.0315,0.4515612047944783,1.178316820663783
-4.031,0.4729015545099212,1.210106735879391
-4.0305,0.4622313796522482,1.199510097474233
-4.03,0.4302208550792295,1.178316820663918
-4.0295,0.3982103305061136,1.16772018225874
-4.029,0.3555296310754218,1.178316820663898
-4.0285,0.1527963087794516,0.9028042221295453
-4.028,-0.6367966306897237,-0.08268314955199944
-4.0275,-1.362368521011484,-1.152943628472937
-4.027,-1.83185621474952,-1.926498232050159
-4.0265,-1.789175515318828,-2.02186797769658
-4.026,-1.159635198715513,-1.322489842955616
-4.0255,-0.423393133535411,-0.6443049850249
-4.025,0.1527963087789276,-0.0720865111463791
-4.0245,0.4942419042254126,0.2564092794143896
-4.024,0.6222840025174878,0.3199891098453364
-4.0235,0.6436243522328337,0.2458126410092318
-4.023,0.7289857510944696,0.05507314971593856
-4.0225,0.8997085488172365,-0.1780528951975329
-4.022,0.8463576745288718,-0.1568596183872173
-4.0215,0.707645401378852,-0.01910331911988652
-4.021,0.6009436528021226,0.1292496185523226
-4.0205,0.5475927785137094,0.2140227257936621
-4.02,0.7930068002407691,-0.08268314955136336
-4.0195,1.187803269974668,-0.4535654937318862
-4.019,0.6009436528021226,-0.9622041371799229
-4.0185,-0.7968492535530323,-1.84172512480802
-4.018,-1.757164990745741,-2.21260746898968
-4.0175,-1.639793067311232,-1.682775548731308
-4.017,-1.031593100423875,-0.7608680074825802
-4.0165,-0.3273615598158305,0.161039533768355
-4.016,0.1527963087794516,0.7438546460520338
-4.0155,0.3661998059329103,0.9875773293706631
-4.015,0.451561204794585,1.082947075017382
-4.0145,0.4729015545099309,1.072350436612224
-4.014,0.4622313796522579,1.029963882991593
-4.0135,0.4302208550791712,0.9875773293708558
-4.013,0.3982103305061524,0.9557874141553824
-4.0125,0.3768699807907871,0.9663840525605498
-4.012,0.2168173579248779,0.8286277532926503
-4.0115,-0.5194247072545548,0.03387987290581572
-4.011,-1.330357996438436,-0.9728007755850904
-4.0105,-1.821186039891391,-1.735758740756452
-4.01,-1.618452717595867,-1.725162102351978
-4.0095,-0.9248913518464952,-1.046977244421262
-4.009,-0.2526703358131001,-0.3581957480860056
-4.0085,0.2488278824988574,0.0868630649317878
-4.008,0.5369226036560266,0.2352160026039969
-4.0075,0.643624352232756,0.2670059178194703
-4.007,0.6542945270905455,0.2670059178194221
-4.0065,0.6649647019482183,0.1822328105781598
-4.006,0.8676980242441885,-0.05089323433552374
-4.0055,0.857027849386409,-0.1038764263612838
-4.005,0.7503261008096795,-0.01910331912002144
-4.0045,0.6222840025174878,0.09745970333682032
-4.004,0.536922603656114,0.2246193641990704
-4.0035,0.6329541773751706,0.4895353243280153
-4.003,1.102441871113207,0.92399749893988
-4.0025,0.6436243522332703,0.1292496185530455
-4.002,-0.3166913849585846,-0.7502713690765743
-4.0015,-1.426389570157579,-1.534422611058964
-4.001,-1.874536914179842,-1.820531847998225
-4.0005,-1.330357996437785,-1.099960436446309
-4,-0.6154562809736985,-0.2310360872233701
-3.9995,-0.1032878878049318,0.4153588554918433
-3.999,0.2274875327832301,0.8392243916985406
-3.9985,0.408880505363835,1.082947075017392
-3.998,0.4729015545099309,1.188913459069066
-3.9975,0.4835717293676135,1.210106735879401
-3.997,0.4729015545099309,1.220703374284568
-3.9965,0.4408910299368829,1.210106735879401
-3.996,0.3982103305061524,1.210106735879401
-3.9955,0.3235191065023739,1.210106735879401
-3.995,-0.1139580626626144,0.701468092431364
-3.9945,-0.9142211769888124,-0.3370024712750445
-3.994,-1.522421143876723,-1.333086481360783
-3.9935,-1.799845690176472,-1.714565463946811
-3.993,-1.383708870726849,-1.142346990067769
-3.9925,-0.658136980404429,-0.4853554089473885
-3.992,-0.007256314085787988,-0.09327978795619347
-3.9915,0.3982103305061524,0.06566978812131802
-3.991,0.6116138276598051,0.1080563417419877
-3.9905,0.6969752265212663,0.07626642652648545
-3.99,0.6863050516635838,0.04447651131098315
-3.9895,0.825017324813458,-0.06148987274069118
-3.989,0.8676980242441885,-0.08268314955102604
-3.9885,0.7609962756673623,0.01268659609548085
-3.988,0.6329541773751706,0.1292496185523226
-3.9875,0.5369226036560266,0.2352160026039969
-3.987,0.5369226036560266,0.3729723018711736
-3.9865,1.017080472251745,0.849821030103708
-3.986,1.294505018551494,0.9345941373450475
-3.9855,0.4408910299368829,0.05507314971615059
-3.985,-1.042263275281004,-1.248313374119443
-3.9845,-1.554431668449771,-1.640388995110639
-3.984,-1.26633694729234,-1.174136905283272
-3.9835,-0.6688071552621118,-0.3899856633008816
-3.983,-0.07127736323188383,0.3729723018711736
-3.9825,0.2594980573562781,0.8180311148882058
-3.982,0.3982103305061524,1.040560521396722
-3.9815,0.4515612047945656,1.135930267043229
-3.981,0.4622313796522482,1.167720182258731
-3.9805,0.4408910299368829,1.157123543853563
-3.98,0.408880505363835,1.167720182258731
-3.9795,0.3875401556484697,1.178316820663898
-3.979,0.3555296310754218,1.199510097474233
-3.9785,-0.08194753808956648,0.9345941373450475
-3.978,-1.031593100423322,-0.01910331912002144
-3.9775,-1.853196564464885,-1.05757388282643
-3.977,-2.19464215991073,-1.703968825541643
-3.9765,-1.757164990745741,-1.407262950196955
-3.976,-0.9355615267041777,-0.7502713690765743
-3.9755,-0.1993194615240755,-0.1886495336027004
-3.975,0.291508581929326,0.1716361721729923
-3.9745,0.5369226036560266,0.3199891098453364
-3.974,0.6329541773751706,0.3305857482505039
-3.9735,0.6436243522328531,0.2776025562246667
-3.973,0.7609962756673623,0.1928294489833272
-3.9725,0.942389248247967,0.07626642652648545
-3.972,0.8676980242441885,0.09745970333682032
-3.9715,0.7289857510943143,0.1928294489833272
-3.971,0.5902734779444399,0.2776025562246667
-3.9705,0.5155822539406614,0.3517790250608387
-3.97,0.8143471499557753,0.3729723018711736
-3.9695,1.35852606769759,0.5743084315693548
-3.969,0.3128489316446912,-0.474758770542221
-3.9685,-0.8288597781273515,-1.248313374119443
-3.968,-1.746494815888059,-1.820531847998485
-3.9675,-1.703814116457328,-1.608599079895136
-3.967,-0.9995825758502737,-0.7290780922662394
-3.9665,-0.3166913849585846,0.08686306493165288
-3.966,0.09944543449103843,0.5955017083796896
-3.9655,0.3341892813600565,0.9028042221295453
-3.965,0.4408910299368829,1.051157159801889
-3.9645,0.4729015545099309,1.104140351827727
-3.964,0.4729015545099309,1.104140351827727
-3.9635,0.4515612047945656,1.114736990232894
-3.963,0.4195506802215176,1.104140351827727
-3.9625,0.3875401556484697,1.114736990232894
-3.962,0.2381577076409128,0.9981739677760521
-3.9615,-0.5087545323968721,0.1610395337678249
-3.961,-1.298347471865388,-0.8986243067489184
-3.9605,-1.778505340461106,-1.75695201756748
-3.96,-2.098610586191586,-2.297380576231019
-3.9595,-1.767835165603424,-1.79933857118815
-3.959,-0.9995825758502737,-0.9092209451540858
-3.9585,-0.2526703358124887,-0.2416327256285375
-3.958,0.2488278824985954,0.1080563417419877
-3.9575,0.5369226036560266,0.1928294489833272
-3.957,0.6756348768059011,0.07626642652648545
-3.9565,0.7503261008096795,-0.05089323433552374
-3.956,0.974399772821015,-0.3052125560595421
-3.9555,0.9530594231056497,-0.252229364033705
-3.955,0.79300680024041,-0.07208651114585861
-3.9545,0.6436243522328531,0.1080563417419877
-3.954,0.5369226036560266,0.2564092794143318
-3.9535,0.6542945270905358,0.4047622170866759
-3.953,1.273164668836129,0.701468092431364
-3.9525,1.123782220828572,0.4047622170866759
-3.952,-0.1993194615240755,-0.7078848154559045
-3.9515,-1.405049220442214,-1.682775548731308
-3.951,-1.725154466172693,-1.852321763213987
-3.9505,-1.330357996438436,-1.258910012524611
-3.95,-0.6474668055467465,-0.3899856633008816
-3.9495,-0.03926683865883591,0.3729723018711736
-3.949,0.2808384070716433,0.7650479228623686
-3.9485,0.4195506802215176,0.9557874141553824
-3.948,0.4622313796522482,1.029963882991555
-3.9475,0.4622313796522482,1.040560521396722
-3.947,0.4408910299368829,1.029963882991555
-3.9465,0.4195506802215176,1.019367244586387
-3.946,0.3875401556484697,1.029963882991555
-3.9455,0.3128489316446912,1.019367244586387
-3.945,-0.274010685527854,0.4471487707073456
-3.9445,-1.127624674142465,-0.5383386009732256
-3.944,-1.629122892453549,-1.47084278062796
-3.9435,-1.757164990745741,-1.788741932782983
-3.943,-1.255666772434657,-1.258910012524611
-3.9425,-0.5621054066852853,-0.5807251545938954
-3.942,0.03542438534494258,-0.09327978795619347
-3.9415,0.4302208550792003,0.1928294489833272
-3.941,0.6222840025174878,0.2352160026039969
-3.9405,0.6863050516635838,0.1716361721729923
-3.94,0.6863050516635838,0.09745970333682032
-3.9395,0.857027849386506,-0.1144730647665284
-3.939,0.9103787236749192,-0.1462629799820306
-3.9385,0.79300680024041,0.01268659609548085
-3.938,0.6542945270905358,0.2034260873884947
-3.9375,0.5475927785137094,0.3623756634660061
-3.937,0.5582629533713921,0.4259554938970107
-3.9365,1.081101521397841,0.6590815388106942
-3.936,1.51857869056283,0.7968378380778709
-3.9355,0.8143471499557753,0.13984625695749
-3.935,-0.1886492866663929,-0.6125150698093976
-3.9345,-1.116954499284783,-1.311893204550448
-3.934,-0.9675720512772257,-0.8986243067489184
-3.9335,-0.5834457564006506,-0.2840192792492073
-3.933,-0.1886492866663929,0.2564092794143318
-3.9325,0.2061471830678648,0.7438546460520338
-3.932,0.408880505363835,0.9981739677760521
-3.9315,0.4408910299368829,1.061753798207057
-3.931,0.4408910299368829,1.072350436612224
-3.9305,0.4195506802215176,1.061753798207057
-3.93,0.3982103305061524,1.051157159801889
-3.9295,0.3875401556484697,1.061753798207057
-3.929,0.3661998059331045,1.072350436612224
-3.9285,-0.04993701351651855,0.7544512844572011
-3.928,-0.9995825758502737,-0.2734226408440398
-3.9275,-1.725154466172693,-1.333086481360783
-3.927,-2.141291285622316,-2.117237723343173
-3.9265,-2.045259711903173,-2.191414192179345
-3.926,-1.277007122150022,-1.364876396576285
-3.9255,-0.4554036581084589,-0.570128516188728
-3.925,0.142126133921769,-0.02969995752518888
-3.9245,0.5049120790829789,0.2034260873884947
-3.924,0.6649647019482183,0.2352160026039969
-3.9235,0.6863050516635838,0.2034260873884947
-3.923,0.825017324813458,0.01268659609548085
-3.9225,1.006410297394063,-0.1674562567923655
-3.922,0.9210488985326017,-0.08268314955102604
-3.9215,0.7503261008096795,0.07626642652648545
-3.921,0.6116138276598051,0.2246193641988295
-3.9205,0.5369226036560266,0.309392471440169
-3.92,0.6009436528021226,0.04447651131098315
-3.9195,0.942389248247967,0.2140227257936621
-3.919,1.166462920259302,0.3411823866556712
-3.9185,0.6009436528021226,-0.1144730647665284
-3.918,-0.08194753808956648,-0.570128516188728
-3.9175,-0.6688071552621118,-0.8774310299385835
-3.917,-0.839529952985034,-0.7502713690765743
-3.9165,-0.4980843575391895,-0.1992461720078678
-3.916,-0.1886492866663929,0.2458126410091644
-3.9155,0.1314559590640864,0.6484849004055269
-3.915,0.3875401556484697,0.9345941373450475
-3.9145,0.4302208550792003,1.00877060618122
-3.914,0.4195506802215176,1.00877060618122
-3.9135,0.3982103305061524,1.00877060618122
-3.913,0.3875401556484697,1.00877060618122
-3.9125,0.3661998059331045,1.029963882991555
-3.912,0.2488278824985954,0.9981739677760521
-3.9115,-0.4447334832507763,0.2670059178194992
-3.911,-1.212986073003927,-0.8244478379127463
-3.9105,-1.607782542738184,-1.672178910326141
-3.91,-1.533091318734406,-1.555615887869299
-3.9095,-0.9462317015618604,-0.8138511995075789
-3.909,-0.2953510352432193,-0.1250697031716958
-3.9085,0.2061471830678648,0.2670059178194992
-3.908,0.5369226036560266,0.3623756634660061
-3.9075,0.6756348768059011,0.2987958330350016
-3.907,0.707645401378949,0.2352160026039969
-3.9065,0.7396559259519968,0.1822328105781598
-3.906,0.942389248247967,0.01268659609548085
-3.9055,0.8997085488172365,0.01268659609548085
-3.905,0.7609962756673623,0.1186529801471552
-3.9045,0.6116138276598051,0.2564092794143318
-3.904,0.5155822539406614,0.3729723018711736
-3.9035,0.6436243522328531,0.4259554938970107
-3.903,1.273164668836129,0.701468092431364
-3.9025,1.15579274540162,0.3729723018711736
-3.902,0.291508581929326,-0.3581957480853793
-3.9015,-0.5514352318276028,-0.9198175835592532
-3.901,-0.7861790786966207,-0.9198175835592532
-3.9005,-0.5300948821122373,-0.4111789401112165
-3.9,-0.6154562809736985,-0.2946159176543747
-3.8995,-0.6474668055467465,-0.1780528951975329
-3.899,-0.3060212101009019,0.2352160026039969
-3.8985,-0.07127736323188383,0.5107286011383502
-3.898,0.1848068333524996,0.7862411996727035
-3.8975,0.3875401556484697,0.9981739677760521
-3.897,0.408880505363835,1.029963882991555
-3.8965,0.3768699807907871,1.019367244586387
-3.896,0.3555296310754218,0.9981739677760521
-3.8955,0.2701682322139607,0.9663840525605498
-3.895,-0.391382608962363,0.4153588554918433
-3.8945,-1.330357996438436,-0.4641621321370536
-3.894,-1.917217613610981,-1.439052865412457
-3.8935,-1.853196564464885,-1.915901593644992
-3.893,-1.074273799854052,-1.534422611058964
-3.8925,-0.3487019095316325,-0.7820612842920766
-3.892,0.1848068333524996,-0.1992461720078678
-3.8915,0.4942419042252961,0.1186529801471552
-3.891,0.6542945270905358,0.1822328105781598
-3.8905,0.6969752265212663,0.1928294489833272
-3.89,0.6756348768059011,0.1504428953626575
-3.8895,0.825017324813458,-0.07208651114585861
-3.889,0.8463576745288233,-0.1038764263613609
-3.8885,0.7396559259519968,0.01268659609548085
-3.888,0.6222840025174878,0.1292496185523226
-3.8875,0.5262524287983441,0.2140227257936621
-3.887,0.5582629533713921,0.2987958330350016
-3.8865,1.102441871113207,0.5743084315693548
-3.886,1.35852606769759,0.6060983467848571
-3.8855,0.6222840025174878,-0.1038764263613609
