Class_5_Move_Left_hand_Horiszontal/Class_5_Move_Left_hand_Horiszontal_AM_4.csv

#Digilent WaveForms Oscilloscope Acquisition
#Device Name: EExplorer
#Serial Number: SN:210151A2B84A
#Date Time: 2020-11-17 16:06:59.876
#Sample rate: 2000Hz
#Samples: 16384
#Trigger: Source: Channel 1 Type: Edge Condition: Rising Level: 0 V Hyst.: Auto HoldOff: 0 s
#Channel 1: Range: 1 V/div Offset: 0 V Attenuation: 1 X
#Channel 2: Range: 1 V/div Offset: 0 V Attenuation: 1 X
#Power Supplies: ON
#Fixed Supply: ON
#Voltage: 3.3 V Readback: 3.331 V
#Positive Supply: ON
#Voltage: 3.7 V Readback: 3.717 V
#Current: 500 mA Readback: 16 mA
#Negative Supply: ON
#Voltage: -3.7 V Readback: -3.697 V
#Current: -500 mA Readback: -24 mA
#Reference 1: ON
#Voltage: 0 V
#Reference 2: ON
#Voltage: 0 V

Time (s),Channel 1 (V),Channel 2 (V)
-4.096,0.5902734779444399,0.2776025562246667
-4.0955,0.7823366253825528,-0.08268314955069839
-4.095,0.857027849386409,-0.2628260024388145
-4.0945,0.7503261008096795,-0.1992461720078678
-4.094,0.6009436528022585,-0.07208651114597428
-4.0935,0.5155822539403703,0.08686306493190346
-4.093,0.1954770082101822,0.3623756634660061
-4.0925,-0.5407650569692505,0.03387987290611449
-4.092,-0.9889124009929793,-0.7608680074823682
-4.0915,-1.415719395299897,-1.449649503817625
-4.091,-1.917217613610981,-1.152943628472937
-4.0905,-1.789175515318187,-0.2204394488177208
-4.09,-1.127624674142465,0.309392471440169
-4.0895,-0.4660738329661415,0.5107286011383502
-4.089,0.01408403562914057,0.5531151547589814
-4.0885,0.2808384070716433,0.5637117931641874
-4.088,0.3982103305061524,0.55311515475902
-4.0875,0.4195506802214982,0.5743084315693355
-4.087,0.3982103305061233,0.6060983467848956
-4.0865,0.3661998059331045,0.6484849004055269
-4.086,0.3235191065024127,0.7014680924313158
-4.0855,0.291508581929064,0.7332580076467411
-4.085,0.00341386077189465,0.5955017083796896
-4.0845,-0.6794773301191732,-0.1144730647658827
-4.084,-1.148965023857879,-0.9516074987752084
-4.0835,-1.202315898146244,-1.449649503817625
-4.083,-0.5300948821122373,-1.258910012524611
-4.0825,0.2915085819298209,-0.6654982618346855
-4.082,0.8356874996711408,-0.06148987274069118
-4.0815,1.017080472251745,0.3623756634660061
-4.081,0.963729597963381,0.5531151547588464
-4.0805,0.8143471499557753,0.5955017083796896
-4.08,0.6649647019482183,0.55311515475902
-4.0795,0.5582629533714891,0.4365521323022842
-4.079,0.6649647019483542,0.3305857482504267
-4.0785,0.8143471499557753,0.2458126410091644
-4.078,0.7396559259520648,0.1716361721730598
-4.0775,0.6009436528020256,0.1080563417419685
-4.077,0.4942419042252961,0.08686306493165288
-4.0765,0.7503261008094466,0.4153588554915445
-4.076,1.027750647108894,1.029963882991439
-4.0755,0.4408910299368829,0.9028042221295453
-4.075,-0.4767440078238243,-0.04029659593035631
-4.0745,-1.437059745015621,-0.5065486857572029
-4.074,-1.83185621474952,0.06566978812131802
-4.0735,-1.383708870726849,0.55311515475902
-4.073,-0.7221580295511266,0.7120647308363869
-4.0725,-0.1673089369510276,0.7120647308365314
-4.072,0.1741366584948169,0.6802748156210291
-4.0715,0.3448594562175839,0.6802748156210291
-4.071,0.4088805053638253,0.7332580076469242
-4.0705,0.3982103305061524,0.7968378380778709
-4.07,0.3555296310754606,0.8816109453191332
-4.0695,0.3128489316446622,0.9663840525606077
-4.069,0.2808384070716433,1.029963882991555
-4.0685,0.2808384070716433,1.072350436612224
-4.068,0.09944543449059202,0.8498210301030141
-4.0675,-0.391382608962363,0.08686306493165288
-4.067,-1.020922925565639,-0.7078848154559045
-4.0665,-1.180975548430277,-0.9939940523951362
-4.066,-0.5194247072545548,-0.6760949002404023
-4.0655,0.2381577076409128,-0.1462629799820306
-4.065,0.7183155762361948,0.2776025562242811
-4.0645,0.8676980242441885,0.4789386859228479
-4.064,0.8143471499557753,0.5001319627331828
-4.0635,0.6969752265213731,0.4153588554919204
-4.063,0.5796033030867573,0.2776025562245125
-4.0625,0.5796033030867573,0.1080563417419877
-4.062,0.7503261008095243,-0.114473064766326
-4.0615,0.7289857510942075,-0.2098428104130449
-4.061,0.6116138276598051,-0.2204394488182027
-4.0605,0.4942419042252961,-0.2098428104130352
-4.06,0.5689331282293463,-0.08268314955075619
-4.0595,0.8676980242441885,0.2140227257936621
-4.059,0.3235191065023739,-0.1780528951975329
-4.0585,-0.4554036581077505,-0.8244478379121585
-4.058,-1.298347471865388,-0.718481453861072
-4.0575,-1.970568487899394,0.2034260873884947
-4.057,-1.789175515318954,0.8604176685082779
-4.0565,-1.095614149569417,0.9345941373450475
-4.056,-0.4340633083930936,0.7968378380778709
-4.0555,0.03542438534451559,0.6484849004056618
-4.055,0.291508581929423,0.5849050699745318
-4.0545,0.3982103305061524,0.5955017083796896
-4.054,0.4088805053638253,0.6484849004054787
-4.0535,0.3768699807907386,0.7332580076469434
-4.053,0.3235191065023739,0.8180311148882058
-4.0525,0.291508581929326,0.9028042221295453
-4.052,0.2488278824983819,0.9557874141552763
-4.0515,0.01408403562957729,0.8392243916985406
-4.051,-0.4767440078238243,0.1822328105781598
-4.0505,-0.8288597781270313,-0.6443049850241482
-4.05,-0.9782422261349084,-1.237716735714276
-4.0495,-0.658136980404429,-1.195330182093607
-4.049,0.06743490991733059,-0.60191843140477
-4.0485,0.6222840025177013,-0.008506680714507059
-4.048,0.857027849386506,0.3729723018711736
-4.0475,0.8676980242441789,0.5319218779485405
-4.047,0.771666450524938,0.5319218779485694
-4.0465,0.6542945270905358,0.4047622170866759
-4.046,0.5796033030868253,0.2352160026041512
-4.0455,0.7823366253827955,0.26700591781948
-4.045,0.857027849386506,0.2458126410091644
-4.0445,0.7609962756673623,0.1080563417419877
-4.044,0.6009436528020256,-0.02969995752527562
-4.0435,0.4942419042252961,-0.1250697031716958
-4.043,0.7716664505250448,-0.1144730647665284
-4.0425,0.7076454013790072,-0.5171453241625246
-4.042,0.03542438534494258,-1.184733543688439
-4.0415,-0.8715404775580819,-1.492036057438295
-4.041,-1.671803591883552,-0.6866915386463022
-4.0405,-1.682473766741429,0.2246193641991668
-4.04,-1.095614149569417,0.5955017083796896
-4.0395,-0.4767440078243872,0.6590815388106364
-4.039,-0.00725631408555508,0.6272916235951727
-4.0385,0.2488278824985954,0.6060983467848571
-4.038,0.3661998059329977,0.6166949851900149
-4.0375,0.398210330506133,0.6696781772159195
-4.037,0.3768699807907871,0.7332580076468663
-4.0365,0.3448594562177392,0.8074344764830383
-4.036,0.3128489316446622,0.8710143069140911
-4.0355,0.2808384070716433,0.92399749893988
-4.035,0.1741366584948169,0.9134008605347127
-4.0345,-0.3807124341041758,0.5425185163541899
-4.034,-0.8502001278427167,-0.2628260024388724
-4.0335,-1.159635198715513,-1.036380606016095
-4.033,-1.212986073003878,-1.333086481360513
-4.0325,-0.5194247072538755,-0.8880276683432016
-4.032,0.2274875327832301,-0.2840192792492073
-4.0315,0.6863050516631666,0.171636172172578
-4.031,0.8463576745287942,0.4259554938970396
-4.0305,0.8143471499557753,0.457745409112513
-4.03,0.7076454013790461,0.3517790250609351
-4.0295,0.6116138276598633,0.1822328105779381
-4.029,0.6756348768059011,-0.06148987274069118
-4.0285,0.7609962756673623,-0.252229364033705
-4.028,0.707645401378852,-0.2734226408440013
-4.0275,0.6009436528021226,-0.2310360872233701
-4.027,0.5262524287983441,-0.1780528951975329
-4.0265,0.6329541773750735,-0.008506680715008208
-4.026,0.7289857510943143,-0.1462629799820306
-4.0255,0.1741366584948169,-0.8032545611024114
-4.025,-0.7114878546920369,-1.460246142222195
-4.0245,-1.607782542738533,-1.248313374118499
-4.024,-1.991908837614759,-0.2098428104130352
-4.0235,-1.490410619304131,0.4365521323015903
-4.023,-0.7861790786960967,0.6484849004055365
-4.0225,-0.2099896363817582,0.6590815388106942
-4.022,0.1527963087791216,0.6272916235952208
-4.0215,0.3341892813601148,0.6272916235952113
-4.021,0.3982103305061524,0.6484849004055269
-4.0205,0.3982103305061524,0.701468092431364
-4.02,0.355529631075383,0.754451284457259
-4.0195,0.3128489316446912,0.8180311148882058
-4.019,0.2808384070716433,0.8604176685088755
-4.0185,0.1954770082102598,0.8392243916985599
-4.018,-0.3593720843893152,0.2776025562246667
-4.0175,-0.8822106524157645,-0.5807251545938954
-4.017,-1.095614149569223,-1.269506650929152
-4.0165,-0.956901876418893,-1.576809164679249
-4.016,-0.2420001609548061,-1.152943628472937
-4.0155,0.4302208550785889,-0.46416213213768
-4.015,0.8143471499558432,0.06566978812161678
-4.0145,0.8890383739595538,0.3941655786815084
-4.014,0.8036769750981704,0.4895353243279286
-4.0135,0.6863050516634964,0.4153588554917084
-4.013,0.5902734779444399,0.2670059178194992
-4.0125,0.5689331282290746,0.1080563417419877
-4.012,0.6436243522328434,0.06566978812126019
-4.0115,0.6329541773751706,0.002089957690313421
-4.011,0.5582629533713921,-0.05089323433552374
-4.0105,0.4835717293676814,-0.08268314955099712
-4.01,0.3555296310754218,0.002089957690313421
-4.0095,0.4302208550792003,0.002089957690313421
-4.009,0.1207857842066851,-0.601918431403681
-4.0085,-0.476744007824523,-1.33308648136112
-4.008,-1.244996597576974,-1.703968825541643
-4.0075,-1.714484291314584,-0.9622041371805976
-4.007,-1.394379045583968,-0.1674562567919607
-4.0065,-0.7755089038389382,0.2776025562246667
-4.006,-0.2313299860971235,0.4895353243280153
-4.0055,0.1207857842065784,0.5743084315693934
-4.005,0.3128489316446912,0.6166949851900245
-4.0045,0.3768699807907871,0.6484849004055269
-4.004,0.3875401556484406,0.6696781772159002
-4.0035,0.3555296310754218,0.7120647308365314
-4.003,0.3128489316446912,0.7438546460520338
-4.0025,0.2915085819293454,0.7650479228623492
-4.002,0.2488278824985954,0.7650479228623686
-4.0015,-0.04993701351651855,0.3623756634660061
-4.001,-0.6794773301192217,-0.4853554089466174
-4.0005,-1.127624674142786,-1.258910012525083
-4,-1.479740444445993,-1.778145294377815
-3.9995,-1.031593100423322,-1.534422611058964
-3.999,-0.156638762093345,-0.7820612842920766
-3.9985,0.5155822539406614,-0.1250697031716958
-3.998,0.825017324813458,0.2776025562246667
-3.9975,0.8356874996711408,0.4365521323021782
-3.997,0.7289857510943143,0.4259554938970107
-3.9965,0.6222840025174878,0.2987958330350016
-3.996,0.5582629533713921,0.1610395337678249
-3.9955,0.707645401378949,-0.008506680714854012
-3.995,0.7289857510943143,-0.1250697031716958
-3.9945,0.6329541773751706,-0.1568596183871981
-3.994,0.5369226036560266,-0.1568596183871981
-3.9935,0.3982103305061524,-0.04029659593035631
-3.993,0.3128489316446912,0.3411823866556712
-3.9925,0.408880505363835,0.2034260873884947
-3.992,-0.1886492866663929,-0.570128516188728
-3.9915,-1.020922925565639,-1.237716735714276
-3.991,-1.789175515318789,-0.8138511995075789
-3.9905,-1.83185621474952,0.04447651131098315
-3.99,-1.212986073003927,0.4683420475176805
-3.9895,-0.5514352318276028,0.6060983467848571
-3.989,-0.04993701351651855,0.627291623595192
-3.9885,0.2381577076409128,0.6378882620003594
-3.988,0.3661998059331045,0.6696781772158616
-3.9875,0.3982103305061524,0.7226613692416989
-3.987,0.3768699807907871,0.7862411996727035
-3.9865,0.3341892813600565,0.849821030103708
-3.986,0.291508581929326,0.9028042221295453
-3.9855,0.2381577076409128,0.9451907757502149
-3.985,0.00341386077189465,0.8074344764830383
-3.9845,-0.4554036581084589,0.09745970333682032
-3.984,-0.5834457564006506,-0.7396747306714069
-3.9835,-0.572775581542968,-1.237716735714276
-3.983,-0.2206598112394408,-0.9410108603695881
-3.9825,0.3341892813600565,-0.3687923864905467
-3.982,0.7396559259519968,0.07626642652648545
-3.9815,0.8783681991018712,0.3411823866556712
-3.981,0.8356874996711408,0.4365521323021782
-3.9805,0.707645401378949,0.4153588554918433
-3.98,0.6009436528021226,0.3199891098453364
-3.9795,0.5262524287983441,0.2034260873884947
-3.979,0.6969752265212663,-0.1250697031716958
-3.9785,0.9103787236749192,-0.3475991096802118
-3.978,0.8356874996711408,-0.3158091944647096
-3.9775,0.6756348768059011,-0.1992461720078678
-3.977,0.5369226036560266,-0.09327978795619347
-3.9765,0.7503261008096795,0.2564092794143318
-3.976,0.8463576745288233,0.7544512844572011
-3.9755,0.142126133921769,0.3729723018711736
-3.975,-0.7755089038389382,-0.5489352393783931
-3.9745,-1.67180359188428,-0.9516074987747555
-3.974,-2.098610586191586,-0.2416327256285375
-3.9735,-1.597112367880501,0.4047622170866759
-3.973,-0.8608703027003992,0.6590815388106942
-3.9725,-0.2526703358124887,0.6802748156210291
-3.972,0.1314559590640864,0.627291623595192
-3.9715,0.3235191065023739,0.6060983467848571
-3.971,0.3875401556484697,0.6166949851900245
-3.9705,0.3875401556484697,0.6696781772158616
-3.97,0.3555296310754218,0.7332580076468663
-3.9695,0.3021787567870086,0.7968378380778709
-3.969,0.2594980573562781,0.849821030103708
-3.9685,0.1954770082101822,0.8392243916985406
-3.968,-0.2526703358124887,0.309392471440169
-3.9675,-0.722158029550525,-0.5489352393783931
-3.967,-0.8288597781273515,-1.258910012524611
-3.9665,-0.9995825758502737,-1.640388995110639
-3.966,-0.5941159312583333,-1.216523458903942
-3.9655,0.08877525963335578,-0.4641621321370536
-3.965,0.5796033030867573,0.09745970333682032
-3.9645,0.7503261008096795,0.4153588554918433
-3.964,0.7289857510943143,0.5213252395435176
-3.9635,0.6436243522328531,0.4683420475176805
-3.963,0.5689331282290746,0.3517790250608387
-3.9625,0.6009436528021226,0.1610395337678249
-3.962,0.7823366253827275,-0.1250697031716958
-3.9615,0.7396559259519968,-0.252229364033705
-3.961,0.6222840025174878,-0.2840192792492073
-3.9605,0.5155822539406614,-0.2734226408440398
-3.96,0.3448594562177392,0.02328323450064829
-3.9595,0.3768699807907871,0.5319218779486851
-3.959,-0.007256314085787988,0.2352160026039969
-3.9585,-0.754168554123573,-0.6125150698093976
-3.958,-1.565101843307454,-1.280103289334946
-3.9575,-1.917217613610981,-0.8138511995075789
-3.957,-1.46907026958831,-0.01910331912002144
-3.9565,-0.7861790786966207,0.4789386859228479
-3.956,-0.2206598112394408,0.6802748156210291
-3.9555,0.142126133921769,0.7438546460520338
-3.955,0.3235191065023739,0.7650479228623686
-3.9545,0.3875401556484697,0.7862411996727035
-3.954,0.3768699807907871,0.8286277532933731
-3.9535,0.3448594562177392,0.8710143069140429
-3.953,0.291508581929326,0.9134008605347127
-3.9525,0.2488278824985954,0.9451907757502149
-3.952,0.2168173579255475,0.9557874141553824
-3.9515,-0.2420001609548061,0.5743084315693548
-3.951,-0.839529952985034,-0.2840192792492073
-3.9505,-1.223656247861609,-1.0999604364471
-3.95,-1.138294849000148,-1.290699927740113
-3.9495,-0.4554036581084589,-0.7820612842920766
-3.949,0.2381577076409128,-0.2098428104130352
-3.9485,0.6756348768059011,0.2140227257936621
-3.948,0.8143471499557753,0.4259554938970107
-3.9475,0.7716664505250448,0.4259554938970107
-3.947,0.6542945270905358,0.2881991946298341
-3.9465,0.5689331282290746,0.1186529801471552
-3.946,0.5262524287983441,-0.04029659593035631
-3.9455,0.7289857510943143,-0.2840192792492073
-3.945,0.7609962756673623,-0.4217755785163839
-3.9445,0.6542945270905358,-0.4429688553267188
-3.944,0.5262524287983441,-0.3899856633008816
-3.9435,0.5049120790829789,-0.2204394488182027
-3.943,0.8356874996711408,0.3623756634660061
-3.9425,0.4195506802215176,0.9663840525605498
-3.942,-0.4020527838200457,0.5955017083796896
-3.9415,-1.212986073003927,-0.2204394488182027
-3.941,-1.917217613610981,-0.01910331912002144
-3.9405,-1.87453691418025,0.5213252395435176
-3.94,-1.212986073003927,0.701468092431364
-3.9395,-0.5407650569699201,0.701468092431364
-3.939,-0.03926683865883591,0.6908714540261965
-3.9385,0.2381577076409128,0.7226613692416989
-3.938,0.3661998059331045,0.8074344764830383
-3.9375,0.3875401556484697,0.92399749893988
-3.937,0.3661998059331045,1.051157159801889
-3.9365,0.3235191065023739,1.157123543853563
-3.936,0.291508581929326,1.241896651094903
-3.9355,0.2488278824985954,1.305476481525908
-3.935,-0.1032878878049318,1.093543713422559
-3.9345,-0.7968492535543035,0.309392471440169
-3.934,-1.212986073003927,-0.5383386009732256
-3.9335,-1.543761493592088,-1.121153713257435
-3.933,-1.244996597576974,-1.078767159636765
-3.9325,-0.3807124341046804,-0.4853554089473885
-3.932,0.3661998059331045,0.09745970333682032
-3.9315,0.7609962756673623,0.4365521323021782
-3.931,0.8463576745288233,0.5425185163538525
-3.9305,0.7716664505250448,0.457745409112513
-3.93,0.6542945270905358,0.2670059178194992
-3.9295,0.5582629533713921,0.04447651131098315
-3.929,0.6649647019482183,-0.2628260024388724
-3.9285,0.7609962756673623,-0.5383386009732256
-3.928,0.6756348768059011,-0.6019184314042303
-3.9275,0.5475927785137094,-0.570128516188728
-3.927,0.4515612047945656,-0.5065486857577234
-3.9265,0.7609962756673623,-0.09327978795619347
-3.926,0.7289857510943143,0.1610395337678249
-3.9255,-0.08194753808956648,-0.4111789401112165
-3.925,-1.010252750707956,-0.7078848154559045
-3.9245,-1.83185621474952,0.03387987290581572
-3.924,-2.269333383914508,0.9451907757502149
-3.9235,-1.714484291315011,1.188913459069066
-3.923,-0.9248913518464952,0.9981739677760521
-3.9225,-0.2846808603855366,0.7438546460520338
-3.922,0.1207857842064037,0.5955017083796896
-3.9215,0.3235191065023739,0.5637117931641874
-3.921,0.3982103305061524,0.6166949851900245
-3.9205,0.3875401556484697,0.7226613692416989
-3.92,0.3448594562177392,0.8604176685088755
-3.9195,0.291508581929326,0.9769806909657173
-3.919,0.2594980573562781,1.072350436612224
-3.9185,0.1848068333524996,1.029963882991555
-3.918,-0.1993194615240755,0.3941655786815084
-3.9175,-0.572775581542968,-0.4323722169215513
-3.917,-0.8715404775580819,-1.068170521231597
-3.9165,-0.7861790786966207,-1.269506650929778
-3.916,-0.09261771294724913,-0.7290780922662394
-3.9155,0.5689331282290746,-0.08268314955102604
-3.915,0.9103787236749192,0.3517790250608387
-3.9145,0.974399772821015,0.5637117931641874
-3.914,0.8676980242441885,0.5637117931641874
-3.9135,0.7183155762366316,0.3729723018711736
-3.913,0.5902734779444399,0.1822328105781598
-3.9125,0.6222840025174878,0.09745970333682032
-3.912,0.8143471499557753,0.1504428953626575
-3.9115,0.7823366253827275,0.002089957690313421
-3.911,0.6436243522328531,-0.1992461720078678
-3.9105,0.5155822539406614,-0.3687923864905467
-3.91,0.3661998059331045,-0.1780528951975329
-3.9095,-0.3380317346739499,0.3623756634660061
-3.909,-1.074273799854052,0.1186529801471552
-3.9085,-1.650463242168915,-0.6972881770507372
-3.908,-2.226652684483777,-1.216523458903942
-3.9075,-2.536087755356574,-0.570128516188728
-3.907,-1.821186039891837,0.13984625695749
-3.9065,-0.9569018764195432,0.4789386859228479
-3.906,-0.2846808603855366,0.6060983467848571
-3.9055,0.142126133921769,0.6590815388106942
-3.905,0.3448594562177392,0.7120647308365314
-3.9045,0.408880505363835,0.775644561267536
-3.904,0.3982103305061524,0.849821030103708
-3.9035,0.3555296310754218,0.9345941373450475
-3.903,0.3021787567870086,0.9981739677760521
-3.9025,0.2594980573562781,1.051157159801889
-3.902,0.2061471830678648,1.040560521396722
-3.9015,-0.1673089369510276,0.5743084315693548
-3.901,-0.6261264558313813,-0.2840192792492073
-3.9005,-0.754168554123573,-1.036380606016095
-3.9,-0.4660738329661415,-1.184733543688439
-3.8995,0.1741366584948169,-0.8032545611024114
-3.899,0.6969752265212663,-0.2310360872233701
-3.8985,0.9637295979633325,0.2458126410091644
-3.898,0.9530594231056497,0.4895353243280153
-3.8975,0.8143471499557753,0.5319218779486851
-3.897,0.6542945270905358,0.3941655786815084
-3.8965,0.5475927785137094,0.2352160026039969
-3.896,0.5262524287983441,0.1080563417419877
-3.8955,0.6969752265212663,0.1610395337678249
-3.895,0.707645401378949,0.05507314971615059
-3.8945,0.6116138276598051,-0.1462629799820306
-3.894,0.4942419042252961,-0.3370024712750445
-3.8935,0.5049120790829789,-0.3793890248957141
-3.893,0.9103787236749192,0.09745970333682032
-3.8925,0.5689331282290746,0.6166949851900245
-3.892,-0.3273615598162672,0.2458126410091644
-3.8915,-1.244996597576974,0.2776025562246667
-3.891,-2.013249187330125,0.9345941373450475
-3.8905,-2.013249187330125,1.358459673551745
-3.89,-1.319687821580753,1.199510097474233
-3.8895,-0.5941159312583333,0.8922075837243778
-3.889,-0.07127736323188383,0.6802748156210291
-3.8885,0.2274875327832301,0.6166949851900245
-3.888,0.3661998059331045,0.6802748156210291
-3.8875,0.3982103305061524,0.8074344764830383
-3.887,0.3661998059331045,0.9557874141553824
-3.8865,0.3128489316446912,1.114736990232894
